/* XPM */
static char * merry_13_xpm[] = {
"100 100 1023 2",
"  	c None",
". 	c #0B0900",
"+ 	c #131101",
"@ 	c #171402",
"# 	c #2D2704",
"$ 	c #332C04",
"% 	c #332D05",
"& 	c #322C04",
"* 	c #332C05",
"= 	c #2B2604",
"- 	c #231E02",
"; 	c #1E1802",
"> 	c #151301",
", 	c #000001",
"' 	c #1C1112",
") 	c #302222",
"! 	c #241717",
"~ 	c #1B1111",
"{ 	c #0D0808",
"] 	c #0B0606",
"^ 	c #100909",
"/ 	c #0A0505",
"( 	c #060303",
"_ 	c #0A0606",
": 	c #1E1414",
"< 	c #231717",
"[ 	c #281B1B",
"} 	c #271A1A",
"| 	c #0F0909",
"1 	c #000000",
"2 	c #130C0C",
"3 	c #201515",
"4 	c #1F1515",
"5 	c #010100",
"6 	c #141001",
"7 	c #282304",
"8 	c #352F05",
"9 	c #3A3306",
"0 	c #3F3708",
"a 	c #423B08",
"b 	c #433B08",
"c 	c #423A08",
"d 	c #3F3807",
"e 	c #393307",
"f 	c #262104",
"g 	c #392928",
"h 	c #543D3E",
"i 	c #5D4343",
"j 	c #5D4242",
"k 	c #573F3F",
"l 	c #553D3D",
"m 	c #553E3E",
"n 	c #563F3F",
"o 	c #322222",
"p 	c #2C1F1F",
"q 	c #402D2D",
"r 	c #513A3A",
"s 	c #594040",
"t 	c #5E4545",
"u 	c #604646",
"v 	c #634848",
"w 	c #5B4242",
"x 	c #503939",
"y 	c #463232",
"z 	c #3F2E2E",
"A 	c #5F4545",
"B 	c #543D3D",
"C 	c #3B2929",
"D 	c #261A19",
"E 	c #453131",
"F 	c #533B3B",
"G 	c #473333",
"H 	c #1B120D",
"I 	c #292403",
"J 	c #3D3407",
"K 	c #413907",
"L 	c #433B07",
"M 	c #383204",
"N 	c #2D260E",
"O 	c #372825",
"P 	c #614647",
"Q 	c #6E5051",
"R 	c #6E5050",
"S 	c #6F5151",
"T 	c #4F3939",
"U 	c #070303",
"V 	c #412E2E",
"W 	c #6D5050",
"X 	c #6E5151",
"Y 	c #6B4F4F",
"Z 	c #644949",
"` 	c #543C3C",
" .	c #443131",
"..	c #4C3636",
"+.	c #594141",
"@.	c #674C4C",
"#.	c #382A23",
"$.	c #373104",
"%.	c #3C3505",
"&.	c #32261B",
"*.	c #4F3839",
"=.	c #4A3535",
"-.	c #4D3B37",
";.	c #160E0E",
">.	c #160D0D",
",.	c #1D1212",
"'.	c #291B1B",
").	c #2A1D1D",
"!.	c #302121",
"~.	c #342424",
"{.	c #4D3838",
"].	c #4E3838",
"^.	c #493434",
"/.	c #3F2C2C",
"(.	c #3F2D2D",
"_.	c #3C2A2A",
":.	c #463131",
"<.	c #483333",
"[.	c #443030",
"}.	c #4F3A3A",
"|.	c #624747",
"1.	c #6C4F4F",
"2.	c #573E3E",
"3.	c #2D2414",
"4.	c #3C3504",
"5.	c #433A09",
"6.	c #403807",
"7.	c #403806",
"8.	c #2D2708",
"9.	c #644849",
"0.	c #503A3A",
"a.	c #110A0A",
"b.	c #1A1010",
"c.	c #342525",
"d.	c #584040",
"e.	c #664A4A",
"f.	c #6B4D4D",
"g.	c #6A4E4E",
"h.	c #654A4A",
"i.	c #4B3535",
"j.	c #432F2F",
"k.	c #5A4242",
"l.	c #694C4C",
"m.	c #6A4D4D",
"n.	c #6B4E4E",
"o.	c #684C4C",
"p.	c #453232",
"q.	c #2B230B",
"r.	c #403906",
"s.	c #413908",
"t.	c #3A3207",
"u.	c #302A04",
"v.	c #2A2504",
"w.	c #2C2704",
"x.	c #2A2403",
"y.	c #2B2504",
"z.	c #352E05",
"A.	c #302518",
"B.	c #66494A",
"C.	c #251919",
"D.	c #261A1A",
"E.	c #563E3E",
"F.	c #674B4B",
"G.	c #422F2F",
"H.	c #473232",
"I.	c #5E4444",
"J.	c #664B4B",
"K.	c #6D4F4F",
"L.	c #282305",
"M.	c #403907",
"N.	c #403808",
"O.	c #262204",
"P.	c #2E2704",
"Q.	c #383106",
"R.	c #3D3607",
"S.	c #423A07",
"T.	c #3B3407",
"U.	c #2E2805",
"V.	c #282203",
"W.	c #342F03",
"X.	c #3F2E2D",
"Y.	c #332323",
"Z.	c #1C1111",
"`.	c #3E2D2D",
" +	c #694D4D",
".+	c #3D2C2C",
"++	c #402E2C",
"@+	c #3D3705",
"#+	c #292304",
"$+	c #352F06",
"%+	c #322B05",
"&+	c #352F02",
"*+	c #31241F",
"=+	c #4D3737",
"-+	c #372525",
";+	c #4E3939",
">+	c #5D4444",
",+	c #31251A",
"'+	c #262203",
")+	c #3E3607",
"!+	c #3E3707",
"~+	c #413A08",
"{+	c #433B09",
"]+	c #312B09",
"^+	c #090404",
"/+	c #191010",
"(+	c #483434",
"_+	c #654949",
":+	c #604545",
"<+	c #5A4141",
"[+	c #4D3637",
"}+	c #2F280A",
"|+	c #393206",
"1+	c #302804",
"2+	c #3D3507",
"3+	c #332D08",
"4+	c #3E2C2C",
"5+	c #140C0C",
"6+	c #2B1D1D",
"7+	c #4C3737",
"8+	c #291C1C",
"9+	c #5B4343",
"0+	c #5C4343",
"a+	c #5C4444",
"b+	c #503A3B",
"c+	c #362D0E",
"d+	c #322B04",
"e+	c #373006",
"f+	c #312B04",
"g+	c #332D0A",
"h+	c #604746",
"i+	c #1F1212",
"j+	c #2E1F1F",
"k+	c #41302F",
"l+	c #352525",
"m+	c #533C3C",
"n+	c #5F4646",
"o+	c #6E5150",
"p+	c #6F5252",
"q+	c #30290E",
"r+	c #3D3606",
"s+	c #252002",
"t+	c #3C3506",
"u+	c #373107",
"v+	c #282204",
"w+	c #312B0A",
"x+	c #5F4546",
"y+	c #251818",
"z+	c #180E0F",
"A+	c #493333",
"B+	c #433030",
"C+	c #3D2D2C",
"D+	c #614747",
"E+	c #6C4E4F",
"F+	c #634648",
"G+	c #553A3D",
"H+	c #5D4744",
"I+	c #594341",
"J+	c #493734",
"K+	c #5A4A43",
"L+	c #5F4D46",
"M+	c #5B4943",
"N+	c #573C3D",
"O+	c #5E4143",
"P+	c #66484A",
"Q+	c #694A4C",
"R+	c #6A4C4D",
"S+	c #34281E",
"T+	c #342E05",
"U+	c #262005",
"V+	c #433A08",
"W+	c #312A05",
"X+	c #292404",
"Y+	c #30290F",
"Z+	c #624748",
"`+	c #1F1414",
" @	c #180F0F",
".@	c #402E2E",
"+@	c #5F4645",
"@@	c #523B3B",
"#@	c #634749",
"$@	c #4D3136",
"%@	c #655C4D",
"&@	c #908F72",
"*@	c #BCBD97",
"=@	c #D6D6AE",
"-@	c #D6D7AE",
";@	c #D9DAB0",
">@	c #E3E4B8",
",@	c #E3E3B7",
"'@	c #DCDCB2",
")@	c #C8C8A0",
"!@	c #A5A582",
"~@	c #8E8C70",
"{@	c #736C5A",
"]@	c #5F5148",
"^@	c #261719",
"/@	c #322C03",
"(@	c #252003",
"_@	c #2E2804",
":@	c #262103",
"<@	c #2D2604",
"[@	c #65494A",
"}@	c #201414",
"|@	c #644648",
"1@	c #4F413A",
"2@	c #969678",
"3@	c #C5C59D",
"4@	c #EAEABB",
"5@	c #FAFACB",
"6@	c #FFFFCD",
"7@	c #FFFFCC",
"8@	c #FEFECC",
"9@	c #FAFACA",
"0@	c #F4F5C4",
"a@	c #E6E7B8",
"b@	c #C3C39C",
"c@	c #6E6E58",
"d@	c #2C270F",
"e@	c #3D3405",
"f@	c #2E2904",
"g@	c #362425",
"h@	c #100808",
"i@	c #3A2929",
"j@	c #67494B",
"k@	c #513B3B",
"l@	c #726F59",
"m@	c #D2D2A9",
"n@	c #FFFFCB",
"o@	c #F1F1C3",
"p@	c #B9B995",
"q@	c #3F3E2F",
"r@	c #312A02",
"s@	c #403706",
"t@	c #362F06",
"u@	c #393304",
"v@	c #3C2B28",
"w@	c #694C4D",
"x@	c #231515",
"y@	c #4A3434",
"z@	c #3C2B2B",
"A@	c #6C5050",
"B@	c #5D4243",
"C@	c #62614D",
"D@	c #C3C49D",
"E@	c #F3F3C4",
"F@	c #FEFECD",
"G@	c #F8F8CB",
"H@	c #F8F8C9",
"I@	c #F8F8CA",
"J@	c #FBFBCD",
"K@	c #E0E0B3",
"L@	c #919173",
"M@	c #484736",
"N@	c #241F03",
"O@	c #2A2405",
"P@	c #30251A",
"Q@	c #5E4343",
"R@	c #523C3C",
"S@	c #3C292A",
"T@	c #433C33",
"U@	c #969679",
"V@	c #E7E8BC",
"W@	c #FBFBCB",
"X@	c #F8F8C7",
"Y@	c #FEFECB",
"Z@	c #D6D6AC",
"`@	c #949480",
" #	c #9B9B8B",
".#	c #9A9A89",
"+#	c #9B9B89",
"@#	c #A8A88A",
"##	c #E4E4B7",
"$#	c #D8D8AD",
"%#	c #61614D",
"&#	c #2F2702",
"*#	c #2E270A",
"=#	c #231616",
"-#	c #332222",
";#	c #412D2D",
">#	c #5C5346",
",#	c #C7C7A0",
"'#	c #EAEABD",
")#	c #A6A684",
"!#	c #ADAD8A",
"~#	c #F8F8C6",
"{#	c #F4F4C3",
"]#	c #909082",
"^#	c #7A7A7C",
"/#	c #707071",
"(#	c #6F6F71",
"_#	c #8A8A8A",
":#	c #B8B8B9",
"<#	c #A9A8A7",
"[#	c #A4A488",
"}#	c #E5E5BA",
"|#	c #E7E7BC",
"1#	c #87876C",
"2#	c #2E2600",
"3#	c #423B07",
"4#	c #2F2906",
"5#	c #4B3636",
"6#	c #211515",
"7#	c #120909",
"8#	c #644748",
"9#	c #615C4B",
"0#	c #D9D9AD",
"a#	c #FDFDCE",
"b#	c #EDEDC0",
"c#	c #9B9B7C",
"d#	c #DADAAF",
"e#	c #E3E3B6",
"f#	c #8A8A88",
"g#	c #3C3C3B",
"h#	c #010000",
"i#	c #0C0C0C",
"j#	c #474747",
"k#	c #A1A1A1",
"l#	c #C1C1C1",
"m#	c #7F7F75",
"n#	c #EDEEC2",
"o#	c #74745B",
"p#	c #393103",
"q#	c #2E2809",
"r#	c #211616",
"s#	c #493535",
"t#	c #614646",
"u#	c #674A4B",
"v#	c #6A6552",
"w#	c #DFDFB3",
"x#	c #FDFDCD",
"y#	c #B0B08D",
"z#	c #CBCBA2",
"A#	c #D5D5AB",
"B#	c #ABABAB",
"C#	c #3B3B3A",
"D#	c #747474",
"E#	c #D5D5D5",
"F#	c #878777",
"G#	c #F6F6CA",
"H#	c #DBDBAF",
"I#	c #4D4D3C",
"J#	c #3A3205",
"K#	c #3B3304",
"L#	c #2B2314",
"M#	c #543C3D",
"N#	c #241616",
"O#	c #302020",
"P#	c #453030",
"Q#	c #2D1E1E",
"R#	c #6B4D4E",
"S#	c #524C3F",
"T#	c #D1D1A8",
"U#	c #FEFECE",
"V#	c #ECECBE",
"W#	c #9D9D7D",
"X#	c #D7D7AB",
"Y#	c #9C9C9C",
"Z#	c #252525",
"`#	c #1B1B1B",
" $	c #C0C0C1",
".$	c #B2B2AD",
"+$	c #EEEEBF",
"@$	c #FFFFCE",
"#$	c #D6D6AB",
"$$	c #5B5B47",
"%$	c #3C3404",
"&$	c #292208",
"*$	c #3A2927",
"=$	c #573E3F",
"-$	c #1E1313",
";$	c #1D1312",
">$	c #4E3E39",
",$	c #C4C49E",
"'$	c #D3D3A9",
")$	c #F1F1C1",
"!$	c #94947D",
"~$	c #C5C5C6",
"{$	c #C3C3C3",
"]$	c #5A5A5A",
"^$	c #090909",
"/$	c #020202",
"($	c #363636",
"_$	c #CDCDCD",
":$	c #ACACA9",
"<$	c #E8E8B9",
"[$	c #CACAA2",
"}$	c #292311",
"|$	c #312C04",
"1$	c #372824",
"2$	c #473233",
"3$	c #29231E",
"4$	c #9E9D7D",
"5$	c #FBFBCA",
"6$	c #C7C79F",
"7$	c #E2E2B5",
"8$	c #F0F0C2",
"9$	c #A2A287",
"0$	c #CACACA",
"a$	c #E6E6E7",
"b$	c #C9C9C8",
"c$	c #BEBEBF",
"d$	c #BEBEBE",
"e$	c #D2D2D2",
"f$	c #DCDCDE",
"g$	c #A6A68D",
"h$	c #F6F6C6",
"i$	c #79795F",
"j$	c #383104",
"k$	c #3D3605",
"l$	c #302812",
"m$	c #684D4D",
"n$	c #5F4144",
"o$	c #78755F",
"p$	c #EDEDBF",
"q$	c #E4E4B6",
"r$	c #F4F4C4",
"s$	c #BFBF98",
"t$	c #9E9E93",
"u$	c #AFAFAE",
"v$	c #B9B9B9",
"w$	c #B7B7B7",
"x$	c #989884",
"y$	c #D4D4AB",
"z$	c #3B3927",
"A$	c #433A07",
"B$	c #32261E",
"C$	c #5B4243",
"D$	c #1E1212",
"E$	c #583F3F",
"F$	c #412D2E",
"G$	c #4A4839",
"H$	c #DEDEB4",
"I$	c #DFDFB2",
"J$	c #DEDEB2",
"K$	c #E5E5B6",
"L$	c #F7F7C6",
"M$	c #F7F7C7",
"N$	c #8A8A6D",
"O$	c #362D03",
"P$	c #2F2904",
"Q$	c #3E2D2C",
"R$	c #170E0E",
"S$	c #2D1F1F",
"T$	c #5C4242",
"U$	c #6D5151",
"V$	c #563E3F",
"W$	c #B4B48F",
"X$	c #FDFDCC",
"Y$	c #D2D2A8",
"Z$	c #C7C79E",
"`$	c #D7D7AD",
" %	c #34301F",
".%	c #3B3308",
"+%	c #2F2518",
"@%	c #523A3B",
"#%	c #EEEEBE",
"$%	c #F1F1C2",
"%%	c #9A9A7A",
"&%	c #F4F4C6",
"*%	c #F6F6C7",
"=%	c #76765D",
"-%	c #231715",
";%	c #3D2A2B",
">%	c #4F3737",
",%	c #392929",
"'%	c #0E0707",
")%	c #4E3737",
"!%	c #654749",
"~%	c #87856A",
"{%	c #BEBE98",
"]%	c #AEAD8B",
"^%	c #4F3236",
"/%	c #634747",
"(%	c #352626",
"_%	c #583B3F",
":%	c #BCBC97",
"<%	c #F5F5C7",
"[%	c #99997A",
"}%	c #F3F3C3",
"|%	c #D7D7AF",
"1%	c #4A3C36",
"2%	c #3B2A2A",
"3%	c #0C0606",
"4%	c #634949",
"5%	c #4E3738",
"6%	c #3E2F2D",
"7%	c #CFCFA8",
"8%	c #C3C39B",
"9%	c #F7F7C9",
"0%	c #77735E",
"a%	c #372727",
"b%	c #281C1C",
"c%	c #533D3D",
"d%	c #53413C",
"e%	c #DBDCB1",
"f%	c #F5F5C6",
"g%	c #A0A07F",
"h%	c #E9E9BB",
"i%	c #FDFDCB",
"j%	c #9E9D7E",
"k%	c #5A4040",
"l%	c #412F2F",
"m%	c #3C2B2A",
"n%	c #5D4443",
"o%	c #5D5145",
"p%	c #B3B390",
"q%	c #F2F2C3",
"r%	c #A7A786",
"s%	c #F9F9CA",
"t%	c #5B3C40",
"u%	c #593F3F",
"v%	c #624848",
"w%	c #221717",
"x%	c #2F2020",
"y%	c #392727",
"z%	c #6C504F",
"A%	c #6B6754",
"B%	c #F4F4C8",
"C%	c #F7F7C8",
"D%	c #939375",
"E%	c #F1F1C4",
"F%	c #C9C9A2",
"G%	c #2E2220",
"H%	c #584141",
"I%	c #654649",
"J%	c #8C8C70",
"K%	c #FCFCCD",
"L%	c #DDDDB4",
"M%	c #FFFFCF",
"N%	c #A9A985",
"O%	c #C6C69F",
"P%	c #574A42",
"Q%	c #0D0707",
"R%	c #362525",
"S%	c #473132",
"T%	c #A5A584",
"U%	c #C7C7A3",
"V%	c #9D9D81",
"W%	c #C0C09F",
"X%	c #C2C2A0",
"Y%	c #C1C19E",
"Z%	c #C4C4A3",
"`%	c #C5C5A1",
" &	c #A5A585",
".&	c #B1B18F",
"+&	c #FCFCCB",
"@&	c #EFEFBF",
"#&	c #5C4E46",
"$&	c #110909",
"%&	c #392828",
"&&	c #5B4141",
"*&	c #574040",
"=&	c #3E2B2B",
"-&	c #503739",
";&	c #A3A382",
">&	c #C4C4A0",
",&	c #99997D",
"'&	c #C5C5A3",
")&	c #C5C5A2",
"!&	c #C2C29F",
"~&	c #C6C6A2",
"{&	c #C4C4A2",
"]&	c #C2C2A1",
"^&	c #A8A886",
"/&	c #ACAC8A",
"(&	c #5A4C44",
"_&	c #493334",
":&	c #634546",
"<&	c #A7A686",
"[&	c #B9B994",
"}&	c #DFDFB4",
"|&	c #605449",
"1&	c #2A1C1C",
"2&	c #634447",
"3&	c #A6A685",
"4&	c #F0F0C3",
"5&	c #F6F6C5",
"6&	c #C8C8A1",
"7&	c #EFEFBE",
"8&	c #565342",
"9&	c #1C1212",
"0&	c #A3A383",
"a&	c #D6D6AD",
"b&	c #4E3C39",
"c&	c #2D2020",
"d&	c #513C3B",
"e&	c #463333",
"f&	c #9A9B7C",
"g&	c #FBFBCC",
"h&	c #9B9B7B",
"i&	c #EAEABC",
"j&	c #563A3E",
"k&	c #221616",
"l&	c #5E4445",
"m&	c #666450",
"n&	c #CCCCA2",
"o&	c #C6C69D",
"p&	c #604244",
"q&	c #5E5147",
"r&	c #EBEBBE",
"s&	c #F8F8C8",
"t&	c #959577",
"u&	c #F3F3C5",
"v&	c #7E7C64",
"w&	c #020000",
"x&	c #CCCDA5",
"y&	c #C1C19B",
"z&	c #C2C29D",
"A&	c #DCDCB0",
"B&	c #433C32",
"C&	c #614245",
"D&	c #EFEFC1",
"E&	c #F2F2C4",
"F&	c #A4A483",
"G&	c #150B0B",
"H&	c #644848",
"I&	c #664B4A",
"J&	c #674C4B",
"K&	c #271B1B",
"L&	c #6C4E4E",
"M&	c #6A4D4E",
"N&	c #5E5448",
"O&	c #D9D9AE",
"P&	c #C4C49D",
"Q&	c #DEDEB1",
"R&	c #3F3F31",
"S&	c #393205",
"T&	c #4F3838",
"U&	c #6A4C4C",
"V&	c #392628",
"W&	c #7E7E64",
"X&	c #F9F9C8",
"Y&	c #E2E2B4",
"Z&	c #989879",
"`&	c #362E07",
" *	c #413A07",
".*	c #2F2905",
"+*	c #1D1414",
"@*	c #6C4F50",
"#*	c #4E3536",
"$*	c #C4C59E",
"%*	c #E5E5B7",
"&*	c #9C9C91",
"**	c #B1B1AF",
"=*	c #BBBBBB",
"-*	c #9E9E89",
";*	c #ECECBD",
">*	c #332E19",
",*	c #413806",
"'*	c #31251C",
")*	c #5A4243",
"!*	c #211D17",
"~*	c #664849",
"{*	c #6D6955",
"]*	c #C6C69E",
"^*	c #E0E0B4",
"/*	c #A1A186",
"(*	c #C7C7C8",
"_*	c #CCCCCA",
":*	c #BCBCBB",
"<*	c #BABABA",
"[*	c #D4D4D4",
"}*	c #DADADB",
"|*	c #A2A288",
"1*	c #373422",
"2*	c #413807",
"3*	c #2E2711",
"4*	c #4B3536",
"5*	c #93937C",
"6*	c #C4C4C4",
"7*	c #C4C4C3",
"8*	c #5B5B5B",
"9*	c #151515",
"0*	c #010101",
"a*	c #333333",
"b*	c #CFCFCE",
"c*	c #B4B4AF",
"d*	c #EBEBBC",
"e*	c #707058",
"f*	c #3B3204",
"g*	c #322C06",
"h*	c #362822",
"i*	c #392829",
"j*	c #42302F",
"k*	c #433130",
"l*	c #412E2F",
"m*	c #1F1313",
"n*	c #55423E",
"o*	c #AAA987",
"p*	c #F0F0C1",
"q*	c #A1A180",
"r*	c #D3D3A7",
"s*	c #B5B5AF",
"t*	c #9C9C9A",
"u*	c #242426",
"v*	c #222222",
"w*	c #C2C2C2",
"x*	c #B0B0AB",
"y*	c #EFEFC2",
"z*	c #8E8F72",
"A*	c #2C2403",
"B*	c #3D3505",
"C*	c #2E250D",
"D*	c #453231",
"E*	c #372626",
"F*	c #624647",
"G*	c #291C1B",
"H*	c #513E3A",
"I*	c #B1B28F",
"J*	c #FAFAC9",
"K*	c #FCFCCC",
"L*	c #AFAF8B",
"M*	c #D0D0A7",
"N*	c #ABABA8",
"O*	c #373835",
"P*	c #050404",
"Q*	c #707070",
"R*	c #D1D1D2",
"S*	c #8B8B7B",
"T*	c #F2F2C5",
"U*	c #A0A17F",
"V*	c #2B2303",
"W*	c #282013",
"X*	c #4F3E39",
"Y*	c #B4B390",
"Z*	c #F5F6C5",
"`*	c #EEEEC1",
" =	c #8E8E71",
".=	c #8E8E8B",
"+=	c #373738",
"@=	c #4B4B4A",
"#=	c #989899",
"$=	c #C2C2C4",
"%=	c #8E8E83",
"&=	c #D0D0A5",
"*=	c #2A2402",
"==	c #413906",
"-=	c #30290A",
";=	c #493435",
">=	c #604747",
",=	c #674A4A",
"'=	c #412F2D",
")=	c #9A9A7B",
"!=	c #EBEBBD",
"~=	c #A7A785",
"{=	c #F5F5C4",
"]=	c #8E8E80",
"^=	c #78787A",
"/=	c #717171",
"(=	c #888888",
"_=	c #BDBDBE",
":=	c #A0A09E",
"<=	c #A9A98D",
"[=	c #D6D7AB",
"}=	c #29240B",
"|=	c #423907",
"1=	c #312A07",
"2=	c #3D2B2B",
"3=	c #4D3636",
"4=	c #412E2D",
"5=	c #79765F",
"6=	c #DBDBB0",
"7=	c #FCFCCA",
"8=	c #D4D4AA",
"9=	c #949483",
"0=	c #9A9A8A",
"a=	c #9B9B8A",
"b=	c #999987",
"c=	c #AEAE8F",
"d=	c #E1E1B5",
"e=	c #E9E9BC",
"f=	c #3F3705",
"g=	c #3F3707",
"h=	c #2D260B",
"i=	c #654849",
"j=	c #564B41",
"k=	c #AAAA87",
"l=	c #EBEBBF",
"m=	c #F7F7CA",
"n=	c #F9F9CC",
"o=	c #F6F6C9",
"p=	c #D8D8AF",
"q=	c #75755C",
"r=	c #221E08",
"s=	c #2A2404",
"t=	c #2F2519",
"u=	c #6D4F50",
"v=	c #56393E",
"w=	c #696452",
"x=	c #CECEA5",
"y=	c #F8F9C8",
"z=	c #E3E3B8",
"A=	c #3E3D2B",
"B=	c #362F04",
"C=	c #3C3507",
"D=	c #362F05",
"E=	c #393204",
"F=	c #4F3D3A",
"G=	c #8E8D71",
"H=	c #E4E5B6",
"I=	c #FCFDCC",
"J=	c #F2F2C1",
"K=	c #DDDDB1",
"L=	c #979778",
"M=	c #404031",
"N=	c #2D2504",
"O=	c #3C3406",
"P=	c #2C2604",
"Q=	c #2E2020",
"R=	c #090505",
"S=	c #362626",
"T=	c #634647",
"U=	c #533A3B",
"V=	c #55463F",
"W=	c #61584B",
"X=	c #7B7760",
"Y=	c #9E9E7D",
"Z=	c #D7D7AE",
"`=	c #D5D6AD",
" -	c #B9B993",
".-	c #7D7A62",
"+-	c #696050",
"@-	c #594A43",
"#-	c #311F22",
"$-	c #332C03",
"%-	c #272203",
"&-	c #2F2804",
"*-	c #2F2A04",
"=-	c #33271D",
"--	c #1B1212",
";-	c #342825",
">-	c #6D504F",
",-	c #5C3E42",
"'-	c #583D40",
")-	c #5A4442",
"!-	c #5A4342",
"~-	c #5B4442",
"{-	c #563A3D",
"]-	c #604245",
"^-	c #644649",
"/-	c #67494A",
"(-	c #322C05",
"_-	c #31290F",
":-	c #1B1010",
"<-	c #4C3736",
"[-	c #322A10",
"}-	c #231F03",
"|-	c #3B3506",
"1-	c #363006",
"2-	c #423908",
"3-	c #322C0A",
"4-	c #694D4C",
"5-	c #312121",
"6-	c #473334",
"7-	c #302904",
"8-	c #342D0A",
"9-	c #604546",
"0-	c #563D3E",
"a-	c #30290D",
"b-	c #383206",
"c-	c #3C3407",
"d-	c #3D3506",
"e-	c #402C2D",
"f-	c #322424",
"g-	c #443C08",
"h-	c #322B0A",
"i-	c #090506",
"j-	c #352424",
"k-	c #342D05",
"l-	c #342F04",
"m-	c #33261F",
"n-	c #553E3F",
"o-	c #403908",
"p-	c #363005",
"q-	c #2F2222",
"r-	c #332424",
"s-	c #382727",
"t-	c #422F2E",
"u-	c #2C250B",
"v-	c #393306",
"w-	c #2F2A05",
"x-	c #292303",
"y-	c #373005",
"z-	c #2E2417",
"A-	c #664A4B",
"B-	c #241919",
"C-	c #513939",
"D-	c #59403F",
"E-	c #2B2312",
"F-	c #2D2706",
"G-	c #3B2B2A",
"H-	c #0E0808",
"I-	c #705252",
"J-	c #6F5050",
"K-	c #362821",
"L-	c #373004",
"M-	c #3B3504",
"N-	c #30241A",
"O-	c #513A3B",
"P-	c #150D0D",
"Q-	c #362424",
"R-	c #1A1111",
"S-	c #3A2828",
"T-	c #483232",
"U-	c #3C2929",
"V-	c #110C04",
"W-	c #2D2610",
"X-	c #3C2C29",
"Y-	c #040202",
"Z-	c #020101",
"`-	c #110D01",
" ;	c #393207",
".;	c #252103",
"+;	c #0C0A01",
"@;	c #100D01",
"#;	c #1F1B02",
"$;	c #1C1802",
"%;	c #120F02",
"&;	c #020100",
"*;	c #170D0E",
"=;	c #291B1A",
"-;	c #030202",
"                                                                                                                                                                                                        ",
"                                                                                                                                                                                                        ",
"                                                                                                                                                                                                        ",
"                                                                                                                                                                                                        ",
"                                                                                                                                                                                                        ",
"                                                                                                                                                                                                        ",
"                                                                                                                                                                                                        ",
"                                                                                                                                                                                                        ",
"                                                                                                                                                                                                        ",
"                                                                                                                                                                                                        ",
"                                                                                                                                                                                                        ",
"                                                                                                                                                                                                        ",
"                                                                                                                                                                                                        ",
"                                                                                                                                                                                                        ",
"                                                                                                                        . + @ # $ % & % * = - ; > , ' ) ! ~ { ] ^ / (                                   ",
"                                                                        _ : < [ } | 1 1 1 2 3 3 4     1 1 5 1 1     6 7 8 9 0 a b b b b c a c d e f g h i j k l m n o                                   ",
"                                                                  p q r s t u v v w x y z n A B C D E l B F k G H I J K c c c c c c c c c c c c c L M N O P Q R S S T                                   ",
"                                                            U [ V v R W S R X W W X X Y Z `  ...+.@.W X X S u #.$.a a c c c c c c c c c c c c c c c b b %.&.*.=.-.F r ;.                                ",
"                                                        >.,.'.[ ).!.~.C {.].=.^././.(.!.} } _.:.<.[.}.|.1.2.3.4.5.c c c c a c c K 6.c c c c c c c c c c c 7.8.^.9.w 0.a.                                ",
"                                                    b.c.d.e.1.f.1.g.g.h.d.i.j.V <.k.l.g.g.m.n.l.g.o.+.p._.q.r.c c c c b s.t.u.v.w.x.y.z.s.c c c c c c c c c K A.B.R X C.                                ",
"                                                  D.E.m.W 1.W 1.F.i.G.H.0.I.J.n.K.W 1.1.1.1.1.1.1.1.X k L.M.c c c c c N.O.P.Q.R.S.c T.U.V.s.c c c c c c c c b W.X.Z 1.Y.                                ",
"                                              Z.`.h.W K.K. +A =..+k m.1.W 1.1.1.1.W 1.1.1.1.1.1.1.1.W ++@+c c c c c b #+$+c b c c c c b %+% c c c c c c c c c b &+*+@.=+1                               ",
"                                            -+s n.W R |...G.;+>+n.W W W R R R W R R W R W W R W R W n.,+K c c c c c R.'+b c c c c )+Q.a !+I ~+c c c c c c c c c {+]+l T ^+                              ",
"                                        /+G.F.W K.h.(+q t n.o._+h.:+w <+n ` 2.m m E.n m m E.l d.B l [+}+b c c c c b |+& b c c c c T.1+b 2+= c c c c c c c c c c c 3+ .4+U                               ",
"                                    5+6+m Y R o.7+8+<.2.0.<.[.=+..x B m k.k.w w 9+k.0+w 9+a+k.9+0+0+b+c+b c c c c c Q.d+b c c c b e+f+b f+$ c c c c c c c c c c b g+h+0+i+                              ",
"                                  j+F  +|.^.k+l+p.m+<++.n+e.W X W W W R W R R o+p+X R S X S X W W R |.q+b c c c c c r+s+6.c c c c v.t+u+v+s.c c c c c c c c c c b w+x+I.y+                              ",
"                                z+T A+B+B+l C+D+W W W W W 1.W 1.1.1.1.K.W E+F+G+H+I+J+K+L+M+N+O+P+Q+R+S+r.c c c c c b T+U+!+V+6.u.y.W+X+)+c c c c c c c c c c c b Y+Z+i `+                              ",
"                               @.@T +@g.@@(.u X 1.1.1.1.1.1.1.1.1.W E+#@$@%@&@*@=@-@;@>@,@'@)@!@~@{@]@^@/@{+c c c c c c e+(@_@:@f+_@<@s.c c c c c c c c c c c c M.&.[@+.}@                              ",
"                            3 k.1.X h.V 0.l.W 1.1.1.1.W 1.1.1.W W |@1@2@3@4@5@6@6@6@6@7@6@6@6@8@9@0@a@b@c@d@e@b c c c c c s.0 2+w.f@c c c c c c c c c c c c c b % g@..4+h@                              ",
"                          i@D+W W D+q I.W W 1.1.1.1.1.1.1.1.W j@k@l@m@9@7@7@n@n@n@n@n@n@n@n@n@n@n@n@n@6@o@p@q@r@s@K c c s.2+%+:@t@c c c c c c c c c c c c c c u@v@w@W j x@                              ",
"                        y@g.W K.u z@|.W 1.A@X W W 1.K.1.K.E+B@C@D@E@6@n@n@n@n@n@n@n@n@n@n@n@n@n@F@G@H@I@G@J@K@L@M@N@O@X+#+v.& 6.b c c c c c c c c c c c c c M.P@v W W i }@                              ",
"                      H.g.W W u `.Z R W F.Q@R@q [..@B+B+S@T@U@V@W@X@Y@n@n@n@n@n@n@n@n@n@n@n@n@8@Z@`@ #.#+#@###9@$#%#&#6.6.c c c c c c c c c c c c c c c c S.*#@@W 1.W 0+=#                              ",
"                    -#v W K.Z 4+v Z s 7+;#T s J.K.Y A@P >#,#5@'#)#!#~#n@n@n@n@n@n@n@n@n@n@n@n@{#]#^#/#(#_#:#<#[#}#|#1#2#c c c c c c c c c c c c c c c c 3#4#5#W 1.1.W i 6#                              ",
"                  7#m W 1.K.j.=+<.<.B |.m.W X 1.1.W 8#9#0#a#b#c#d#H@8@n@n@n@n@n@n@n@n@n@n@n@7@e#f#g#h#1 i#j#k#l#m#d#n#o#p#b c c c c c c c c c c c c V+7.q#^.n.1.1.1.A@0+r#                              ",
"                  j.1.W 1.<+D.s#t#1.K.A@1.1.1.1.W u#v#w#8@x#y#z#6@n@n@n@n@n@n@n@n@n@n@n@n@n@7@A#B#C#5 h#h#h#1 D#E#F#G#H#I#J#b c c c c c c c c c b K K#L#M#Y 1.1.1.1.W i N#                              ",
"                O#e.Y i P#Q#>+X W 1.1.1.1.1.1.1.R#S#T#U#7@V#W#9@7@n@n@n@n@n@n@n@n@n@n@n@n@n@7@X#:#Y#Z#h#h#h#h#`# $.$+$@$#$$$%$b c c c c c c c b %.&$*$=$o.o.J.Y W R W i -$                              ",
"              ;$w |.q ^.0.y@X 1.1.1.1.1.1.1.1.W >$,$x#n@6@'$)@6@n@n@n@n@n@n@n@n@n@n@n@n@n@n@n@)$!$~${$]$^$h#/$($_$:$<$7@6@[$}$S.c c c c c c ~+|$1$2$H...<.y@<.4+j.i 1.0+<                               ",
"              3$(.A+u S (+u A@1.1.1.1.1.1.1.W G+4$5$n@n@7@6$7$7@n@n@n@n@n@n@n@n@n@n@n@n@n@n@n@6@8$9$0$a$b$c$d$e$f$g$H@n@7@h$i$j$c c c c b k$l$[+o.X K.W W K.W 1.Z G E (+}@                              ",
"            6+i l.R R |.4+1.R R W n. +g.m.m$n$o$p$7@n@n@6@)@q$7@n@n@n@n@n@n@n@n@n@n@n@n@n@n@n@n@7@r$s$t$u$v$d$w$x$V#7@n@n@6@y$z$b c c A$M B$C$K.W 1.1.1.1.1.1.1.K.W J.k D$                              ",
"            ].R 1.1.X 7+d.u E$E.(+4+B+E <.F$G$H$7@n@n@n@6@6$K@7@n@n@n@n@n@n@n@n@n@n@n@n@n@n@n@n@n@n@8@{#q$I$J$K$L$7@n@n@n@n@M$N$O$b r.P$Q$Z 1.1.1.1.1.1.1.1.1.1.1.1.W <+R$                              ",
"          j+h.W n. +E$S$B+7+k T$u 1.A@A@U$V$W$X$n@n@n@n@7@Y$Z$8@n@n@n@n@n@n@n@n@n@n@n@n@n@n@n@n@n@n@n@7@7@7@7@7@n@n@n@n@n@n@6@`$ %.%+%@%K.X W W W W K.W K.W W W W W R H.                                ",
"          .@R +.4+<.G. .Y W R R W 1.1.1.n.>##%7@n@n@n@n@7@$%%%&%n@n@n@n@n@n@n@n@n@n@n@n@n@n@n@n@n@n@n@n@n@n@n@n@n@n@n@n@n@n@n@*%=%-%;%x >%].<+i t I.I.I.I.>+I.t i t u ,%                                ",
"        '%5#)% .J.W m k W 1.1.1.1.1.1.1.!%~%M$n@n@n@n@n@n@6@3@{%@$n@n@n@n@n@n@n@n@n@n@n@n@n@n@n@n@n@n@n@n@n@n@n@n@n@n@n@n@n@n@U#]%^%v v /%<+n B m+F B @@m+` k@E.@@` =+`+                                ",
"        ] (%d.n.W W 0.D+W 1.1.W W W R X _%:%@$n@n@n@n@n@n@7@<%[%}%7@n@n@n@n@n@n@n@n@n@n@n@n@n@n@n@n@n@n@n@n@n@n@n@n@n@n@n@n@n@7@|%1%W W W R W R R W X W W X R W R S W 2%                                ",
"      3%x  +K.1.K.W ^.F.W 1.m.4%>+s B 5%6%7%6@n@n@n@n@n@n@n@6@6$8%8@n@n@n@n@n@n@n@n@n@n@n@n@n@n@n@n@n@n@n@n@n@n@n@n@n@n@n@n@n@n@9%0%R#1.1.1.1.1.1.W W K.W 1.W W K.W W a%                                ",
"      b%_+R n. +v 0+i@5#5#:.(.^.c%m w |.d%e%7@n@n@n@n@n@n@n@n@f%g%h%7@n@n@n@n@n@n@n@n@n@n@7@5$n@n@n@n@n@n@n@n@n@n@n@n@n@n@n@n@n@i%j%n$W W R W F.u k%T x {.}.].].k@7+0.:                                 ",
"      (+_+` l%<.=.l m%n%e. +n.R R W A@W o%p$7@n@n@n@n@n@n@n@n@6@Z@p%U#n@n@n@n@n@n@n@n@n@7@q%r%s%n@n@n@n@n@n@n@n@n@n@n@n@n@n@n@n@6@s$t%v m ].y p.{.u%I.v v%Z Z |.Z Z s w%                                ",
"      x%y%` F.n.1.z%y g.K.1.1.W 1.1.1.K.A%B%n@n@n@n@n@n@n@n@n@n@C%D%E%n@n@n@n@n@n@n@n@7@L$)#F%8@n@n@n@n@n@n@n@n@n@n@n@n@n@n@n@n@7@z#G% .H%:+e.Y K.W W W 1.K.W W W U$I.a.                                ",
"      i@ +S X W R W ^.K.U$W X W R R W I%J%K%n@n@n@n@n@n@n@n@n@n@@$:%L%M%@$@$6@@$@$6@@$J@N%O%8@n@n@n@n@n@n@n@n@n@n@n@n@n@n@n@n@n@7@7$P%X W W 1.1.1.1.1.1.1.1.1.1.1.R k.Q%                                ",
"      S$0.T x x T T R%5#R@T T k@].x 0.S%T%F@n@n@n@n@n@n@n@n@n@n@6@U%V%U%W%X%U%Y%Z%X%`% &.&+&7@n@n@n@n@n@n@n@n@n@n@n@n@n@n@n@n@n@7@@&#&1.1.1.1.1.W 1.1.1.1.1.1.1.1.W w $&                                ",
"      %&&&+.k.w +.*&=&+.k.<++.w <+k%+.-&;&8@n@n@n@n@n@n@n@n@n@n@@$>&,&'&)&!&)&!&~&{&]&^&/&F@n@n@n@n@n@n@n@n@n@n@n@n@n@n@n@n@n@n@n@#%(&z%1.1.1.1.1.W 1.1.W 1.1.1.1.R T$|                                 ",
"      C D+S R W W 1._&n.W R W W R W W :&<&8@n@n@n@n@n@n@n@n@n@n@@$[&}&M%@$6@@$@$6@6@@$9@/&O%@$n@n@n@n@n@n@n@n@n@n@n@n@n@n@n@n@n@n@#%|&R#R W W 1.1.1.1.1.1.1.1.1.1.W &&^+                                ",
"      1&(.<.v%l.1.1.<.m.W 1.1.1.1.1.1.2&3&F@n@n@n@n@n@n@n@n@n@n@9%2@4&7@n@n@n@n@n@n@n@n@5&T%6&6@n@n@n@n@n@n@n@n@n@n@n@n@n@n@n@n@7@7&8&_...l I.l.1.W W W W W W W W R t 9&                                ",
"      .+l.I.y@[.<.i.~.2.u v%F.1.K.X W 2&0&8@n@n@n@n@n@n@n@n@n@6@a&y#6@n@n@n@n@n@n@n@n@n@7@4&r%9%n@n@n@n@n@n@n@n@n@n@n@n@n@n@n@n@7@H#b&n.n+w 5#E y x E.0+i >+>+>+>+t m R$                                ",
"      c&v W W Y o.v G.r d&{.e&B+E 7+r ].f&g&n@n@n@n@n@n@n@n@n@r$h&i&7@n@n@n@n@n@n@n@n@n@n@7@~#Y@n@n@n@n@n@n@n@n@n@n@n@n@n@n@n@n@6@[$j&W K.W R 1.e./%d.E.d.2.E.k m k m k&                                ",
"        p.Z R 1.1.W =+_+W W 1.m.@.v l&V$m&h$n@n@n@n@n@n@n@n@7@n&o&8@n@n@n@n@n@n@n@n@n@n@n@n@n@n@n@n@n@n@n@n@n@n@n@n@n@n@n@n@n@n@X$T%p&W 1.1.1.1.1.W W W W W W K.W W 1.,%                                ",
"        ( !.=+l.W W T t#W 1.1.1.1.W W R q&r&7@n@n@n@n@n@n@7@s&t&u&7@n@n@n@n@n@n@n@n@n@n@n@n@n@n@n@n@n@n@n@n@n@n@n@n@n@n@n@n@n@n@s%v&j@R R W R W X W W W W W R W W W U$2%                                ",
"        w&].d.C |.n.k m+W 1.1.1.1.1.1.W E.x&@$n@n@n@n@n@n@@$y&z&6@n@n@n@n@n@n@n@n@n@n@n@n@n@n@n@n@n@n@n@n@n@n@n@n@n@n@n@n@n@n@7@A&B&<+d.k.].=+<.G ^.(+<.<.=.H.=.G G [.r#                                ",
"          _.K.u E l%(.`.o.W W W W 1.1.1.C&[%9@n@n@n@n@n@n@D&g%E&7@n@n@n@n@n@n@n@n@n@n@n@n@n@n@n@n@n@n@n@n@n@n@n@n@n@n@n@n@n@n@X$F&G&5%s <+<+H&J.o.I&@.F.J.o.J&J&F.J&o./.                                ",
"          K&v R 1.A@D+Y.[.G.].@@k @.L&1.M&N&O&7@n@n@n@n@6@m@P&6@n@n@n@n@n@n@n@n@n@n@n@n@n@n@n@n@n@n@n@n@7@7@7@7@n@n@n@n@n@n@7@Q&R&S&&.@@W W W 1.A@W 1.1.1.W 1.1.W 1.W =.                                ",
"            :.W W 1.R T&m+U&v%:+m+V .@[.G.V&W&X&7@n@n@n@7@6$7$7@n@n@n@n@n@n@n@n@n@n@n@n@n@n@n@n@n@7@Y@q%e#I$I$Y&X@7@n@n@n@7@M$Z&`&V+ *.*m%h.W 1.1.1.1.1.W 1.1.1.1.A@R w +*                              ",
"            ' m h.g.X F./.Y A@W W K.1.K.A@@*#*$*U#n@n@n@7@)@%*7@n@n@n@n@n@n@n@n@n@n@n@n@n@n@n@n@7@M$[&&***=*=*w$-*;*7@n@n@W@0&>*,*c c c j$'*)*W W 1.1.1.1.1.1.1.R n.u R@r#                              ",
"              !*B+G.k W =.0+W 1.1.1.1.1.1.1.~*{*b#7@n@n@7@]*^*7@n@n@n@n@n@n@n@n@n@n@n@n@n@n@n@7@E@/*(*a$_*:*<*[*}*|*X&n@F@,#1*2*c c c c c @+3*4* +1.1.L&n.Y n.F.T$(...5#w%                              ",
"              3 *&F.=+.+T p.1.1.1.1.1.1.1.1.W =$T%X&7@n@7@'$6$6@n@n@n@n@n@n@n@n@n@n@n@n@n@n@n@E@5*6*7*8*9*0*h#a*b*c*d*6@D&e*f*c c c c c c V+K g*h*i*j.[.j*k*l*.@T&|.S i m*                              ",
"                8+|.W _+].Q#l 1.W 1.1.1.1.1.1.g.n*o*I@7@7@p*q*s%n@n@n@n@n@n@n@n@n@n@n@n@n@n@7@r*s*t*u*1 h#h#h#v*w*x*d*y*z*A*b c c c c c c c c c B*C*D*i R Y 1.W W K.W i `+                              ",
"                  E*n.W W F*G*/.m n.W W 1.1.1.1.L&H*I*J*7@K*L*M*6@n@n@n@n@n@n@n@n@n@n@n@n@n@7@Z@N*O*h#h#h#h#P*Q*R*S*T*U*V*b c c c c c c c c c c c S.u@W*@%Y 1.1.1.1.W i k&                              ",
"                  | T W 1.W s#T&F G.5#T$Z R K.W A@R#X*Y*Z*6@`* =A&H@7@n@n@n@n@n@n@n@n@n@n@n@7@e#.=+=h#1 1 @=#=$=%=&=q**=S.c c c c c c c c c c c c c c ==-=;=n.K.1.1.W T$:                               ",
"                    C.>=W W ,=.@A m.v%k@y E ..:+J.@.[@'=)=D&@$!=~=L*5&n@n@n@n@n@n@n@n@n@n@n@n@{=]=^=/=(#(=_=:=<=[=q*}=|=c c c c c c c c c c c c c c c c S.1=..1.K.1.W 0+4                               ",
"                      2=l.W K.h.4+t X 1.1.J.i 3=y@G ^.A+4=5=6=X$7=X@Y@n@n@n@n@n@n@n@n@n@n@n@n@8@8=9=0=a=b=c=d=e=W&y.f=)+g=c c c c c c c c c c c c c c c c S.h=@@1.1.W i =#                              ",
"                        4+h.R W _+4++.R 1.1.W W W W W W K.i=j=k=l=8@7@n@n@n@n@n@n@n@n@n@n@n@n@n@6@s%G@m=n=o=p=q=r=x.s=#+s=v.% 6.b c c c c c c c c c c c c c M.t=Z W A@i }@                              ",
"                          c.k W 1.F.:.B 1.W 1.1.1.W 1.1.1.W u=v=w=x=y=6@7@n@n@n@n@n@n@n@n@n@n@n@n@n@6@X$z=2@A=B=M. *~+a ~+C=* - D=b c c c c c c c c c c c c b E=v@o.1.<+=#                              ",
"                             @k@l.A@ +5#G 4%W 1.1.1.1.1.1.1.1.W |@F=G=$*H=#%L$I=6@7@6@6@6@6@7@i%L$J=K=L=M=N=6.c c c c c V+s.!+O=P=P.s.c c c c c c c c c c c c b T+Q=y 2%^+                              ",
"                              R=S=p.l _+k p.+.W 1.1.1.1.1.1.1.1.W W T=U=V=W=X=Y={%z#=@Z=`=)@ -h&.-+-@-#-$-b c c c c c c 8 %-# V.&-_@*-s.c c c c c c c c c c c c r.=-m$I.-$                              ",
"                                --i.k 5#V 7+;-k 1.K.W K.W W 1.1.1.1.>-W W E+P+9.,-'-)-!-~-{-]-^-/-R#n.=-7.c c c c c b T+7 R.c 6.(-v.u.#+g=c c c c c c c c c c c b _-Z+i 6#                              ",
"                                  :-y@_+F.l <-z@_.(+@@@@E.u  +W K.K.W W X W R W R X S X S R W R W R Z+[-b c c c c c R.}-N.b c c a = |-1-V.2-c c c c c c c c c c b 3-A i =#                              ",
"                                      k&^.4-X n.<+5- .9+<+=+j.G G G.5#T&..m+0.@@@@x @@r r r R@0.@@@@6-]+{+c c c c V+|+f+b c c c b e+d+V+7-T+c c c c c c c c c c {+8-9-<+-$                              ",
"                                          S=t R A@n.F (.F @.n.m.n.l.Z h.u >=t#:+n+:+:+u t#:+u A :+D+0-a-b c c c c c b-(-b c c c c c-7-V+d-P=c c c c c c c c c c b & e-!.h#                              ",
"                                            f-].o.W X o.E.j.G B e.W 1.1.1.W W W W W W W W K.W W W W m.P@S.c c c c c R.(@c c c c c !+b-b )+v.a c c c c c c c c c g-h-k.B i-                              ",
"                                                j-i W W W n.J.B 2==+4%g.1.R W 1.1.1.1.1.1.1.1.1.1.1.W Q$r+b c c c c b v.T+c V+c c c c c u.k-c c c c c c c c c c l-m-@.(+1                               ",
"                                                  r#=.h.W X 1.W W 2.G q =.E.n+F.g.R W W W W W W K.W S n-f 6.c c c c V+)+7 _@Q.2+K c 2+.*s=o-c c c c c c c c b p-_.h.W )                                 ",
"                                                      q-].>+J.|.D+/%|.A d.<.2=r-s-r t D+|.|.u u t#I.x j.t-u-7.c c c c V+s.v-w-s=x-y.I y-s.c c c c c c c c c |=z-A-X n.B-                                ",
"                                                          '%9&8+[ (.G.e&d.k k E.C-].i._.S$}@/...@@x D- +1.=$E-k$b c c c c b a s.M.6.c b c c c c c c c c b 6.F-G-w r B+H-                                ",
"                                                              r#.+u n.X S S S X I-X J-W o.u =+y k@|.1.W K.R P K-L-b c c c c c c c c c c c c c c c c b b M-N-O-E.2.>+d.P-                                ",
"                                                                  k&s-G.].@@k d.d.x  .Q-!.<.B r (%R-S-H.T-H.H.U-V-x-R.a b V+c c c c c c c c c c b c S&W-X-P S X R X 5#                                  ",
"                                                                          h#Y-3%^+1     1 1 1 Z-Z-                  `-7 e+ ;g=b b c b b c c c !+9 .;D ;=k@0.T&].@@].S$                                  ",
"                                                                                                                        +;@;#;P=k-% % % * y.N@$;%;&;*;=;-;1                                             ",
"                                                                                                                                                                                                        ",
"                                                                                                                                                                                                        ",
"                                                                                                                                                                                                        ",
"                                                                                                                                                                                                        ",
"                                                                                                                                                                                                        ",
"                                                                                                                                                                                                        ",
"                                                                                                                                                                                                        ",
"                                                                                                                                                                                                        ",
"                                                                                                                                                                                                        ",
"                                                                                                                                                                                                        ",
"                                                                                                                                                                                                        ",
"                                                                                                                                                                                                        ",
"                                                                                                                                                                                                        ",
"                                                                                                                                                                                                        "};
