/* XPM */
static char * merry_8_xpm[] = {
"100 100 1151 2",
"  	c None",
". 	c #0F0909",
"+ 	c #160D0D",
"@ 	c #322323",
"# 	c #453232",
"$ 	c #422F2F",
"% 	c #030202",
"& 	c #271B1B",
"* 	c #3E2D2D",
"= 	c #493535",
"- 	c #5A4141",
"; 	c #573F3F",
"> 	c #463232",
", 	c #6C5050",
"' 	c #694D4D",
") 	c #443131",
"! 	c #392727",
"~ 	c #463131",
"{ 	c #412E2E",
"] 	c #503A3A",
"^ 	c #674C4C",
"/ 	c #6A4D4E",
"( 	c #705252",
"_ 	c #6E5050",
": 	c #4D3838",
"< 	c #5C4242",
"[ 	c #6F5151",
"} 	c #533C3C",
"| 	c #130B0B",
"1 	c #352424",
"2 	c #513A3A",
"3 	c #624747",
"4 	c #6C4E4E",
"5 	c #5E4444",
"6 	c #352623",
"7 	c #362A1F",
"8 	c #34271F",
"9 	c #523B3B",
"0 	c #674B4B",
"a 	c #5F4545",
"b 	c #4A3534",
"c 	c #6D5050",
"d 	c #443030",
"e 	c #372424",
"f 	c #432E2E",
"g 	c #4F3939",
"h 	c #473333",
"i 	c #6C4F4F",
"j 	c #5F4445",
"k 	c #44332F",
"l 	c #362C17",
"m 	c #383203",
"n 	c #413905",
"o 	c #3E3605",
"p 	c #2D2708",
"q 	c #33281A",
"r 	c #33271D",
"s 	c #2C211D",
"t 	c #5E4545",
"u 	c #493434",
"v 	c #382626",
"w 	c #4B3535",
"x 	c #6A4D4D",
"y 	c #6D4F4F",
"z 	c #4D3837",
"A 	c #352C17",
"B 	c #393302",
"C 	c #423A06",
"D 	c #423B08",
"E 	c #423A08",
"F 	c #433A08",
"G 	c #413907",
"H 	c #423906",
"I 	c #383103",
"J 	c #33271B",
"K 	c #4F393A",
"L 	c #5C4343",
"M 	c #2D1F1F",
"N 	c #2D1E1E",
"O 	c #3D2A2A",
"P 	c #553D3D",
"Q 	c #644848",
"R 	c #6E5151",
"S 	c #50393A",
"T 	c #292506",
"U 	c #3F3805",
"V 	c #433B08",
"W 	c #433A09",
"X 	c #3E3704",
"Y 	c #322D07",
"Z 	c #41302F",
"` 	c #453132",
" .	c #312323",
"..	c #382828",
"+.	c #5B4343",
"@.	c #3D2C27",
"#.	c #3C3504",
"$.	c #433A07",
"%.	c #352E09",
"&.	c #2C201C",
"*.	c #190F12",
"=.	c #1B1111",
"-.	c #644949",
";.	c #4E3838",
">.	c #583F3F",
",.	c #312B09",
"'.	c #363006",
").	c #151202",
"!.	c #291C1C",
"~.	c #261919",
"{.	c #553E3E",
"].	c #6A4E4E",
"^.	c #664A4A",
"/.	c #614747",
"(.	c #2E2516",
"_.	c #403906",
":.	c #393206",
"<.	c #191502",
"[.	c #190F0F",
"}.	c #423030",
"|.	c #483334",
"1.	c #604646",
"2.	c #563E3E",
"3.	c #363004",
"4.	c #312B05",
"5.	c #180E0E",
"6.	c #2B1E1E",
"7.	c #3D2B2B",
"8.	c #6F5252",
"9.	c #624848",
"0.	c #473433",
"a.	c #664B4B",
"b.	c #412F2F",
"c.	c #684C4C",
"d.	c #634949",
"e.	c #302618",
"f.	c #403806",
"g.	c #403907",
"h.	c #231F03",
"i.	c #191010",
"j.	c #2F2121",
"k.	c #654A4A",
"l.	c #4A3535",
"m.	c #533D3D",
"n.	c #563F3F",
"o.	c #332D06",
"p.	c #3A3306",
"q.	c #221D02",
"r.	c #261A1A",
"s.	c #3B2A2A",
"t.	c #6B4C4C",
"u.	c #503939",
"v.	c #6B4F4F",
"w.	c #483533",
"x.	c #412F2E",
"y.	c #3A3303",
"z.	c #433B09",
"A.	c #413A08",
"B.	c #292404",
"C.	c #352525",
"D.	c #4C3737",
"E.	c #634848",
"F.	c #6B4E4E",
"G.	c #453131",
"H.	c #694C4C",
"I.	c #4C3636",
"J.	c #382A23",
"K.	c #3E3805",
"L.	c #3D3607",
"M.	c #342D05",
"N.	c #373006",
"O.	c #3C3506",
"P.	c #1F1313",
"Q.	c #563D3D",
"R.	c #594141",
"S.	c #6D5151",
"T.	c #543D3D",
"U.	c #614646",
"V.	c #382A20",
"W.	c #342E05",
"X.	c #2B2504",
"Y.	c #332C05",
"Z.	c #322C05",
"`.	c #282304",
" +	c #403807",
".+	c #272103",
"++	c #2C1E1E",
"@+	c #3D2B2A",
"#+	c #4B3636",
"$+	c #493534",
"%+	c #433031",
"&+	c #2A220A",
"*+	c #423A07",
"=+	c #3A3206",
"-+	c #292303",
";+	c #3F3707",
">+	c #3F3808",
",+	c #2D2704",
"'+	c #352E05",
")+	c #342424",
"!+	c #4E3839",
"~+	c #6D5051",
"{+	c #523C3C",
"]+	c #5B4242",
"^+	c #5D4444",
"/+	c #4F3938",
"(+	c #30290A",
"_+	c #433B07",
":+	c #3B3406",
"<+	c #3D3507",
"[+	c #3E3607",
"}+	c #2D2604",
"|+	c #383106",
"1+	c #141101",
"2+	c #2F1F1F",
"3+	c #3C2B2B",
"4+	c #533B3B",
"5+	c #654949",
"6+	c #4D3636",
"7+	c #5E4544",
"8+	c #4C3736",
"9+	c #6E4F4F",
"0+	c #332D04",
"a+	c #2A2403",
"b+	c #312B04",
"c+	c #2D2603",
"d+	c #302A04",
"e+	c #362F05",
"f+	c #191601",
"g+	c #3F2A2A",
"h+	c #483333",
"i+	c #4A3636",
"j+	c #4E3939",
"k+	c #483433",
"l+	c #453230",
"m+	c #2E2904",
"n+	c #2B2704",
"o+	c #312C05",
"p+	c #322B05",
"q+	c #3C3407",
"r+	c #1F1A02",
"s+	c #281A1A",
"t+	c #372626",
"u+	c #392828",
"v+	c #5C4444",
"w+	c #543C3C",
"x+	c #403905",
"y+	c #413908",
"z+	c #2E2804",
"A+	c #3B3407",
"B+	c #2C2704",
"C+	c #241F03",
"D+	c #302020",
"E+	c #594040",
"F+	c #674B4C",
"G+	c #432F2F",
"H+	c #614748",
"I+	c #302810",
"J+	c #2B2503",
"K+	c #2D2703",
"L+	c #393106",
"M+	c #3E3707",
"N+	c #292403",
"O+	c #262104",
"P+	c #241818",
"Q+	c #584041",
"R+	c #402E2E",
"S+	c #453031",
"T+	c #694C4D",
"U+	c #523A3A",
"V+	c #604545",
"W+	c #6F5051",
"X+	c #523B3C",
"Y+	c #312C04",
"Z+	c #2F2904",
"`+	c #302905",
" @	c #383206",
".@	c #2C2604",
"+@	c #241F02",
"@@	c #0B0606",
"#@	c #483633",
"$@	c #342B1A",
"%@	c #332D08",
"&@	c #373105",
"*@	c #2F2711",
"=@	c #372922",
"-@	c #3D2D2A",
";@	c #543D3C",
">@	c #5D4343",
",@	c #483434",
"'@	c #393303",
")@	c #363005",
"!@	c #312A05",
"~@	c #403808",
"{@	c #211B02",
"]@	c #1E1313",
"^@	c #604647",
"/@	c #3A2B24",
"(@	c #302B09",
"_@	c #3A3404",
":@	c #413A05",
"<@	c #3F3804",
"[@	c #3B3504",
"}@	c #342D06",
"|@	c #2F2516",
"1@	c #44302E",
"2@	c #5F4646",
"3@	c #433030",
"4@	c #563D3E",
"5@	c #3E2C29",
"6@	c #3F3704",
"7@	c #362F06",
"8@	c #2A2404",
"9@	c #2B2604",
"0@	c #1A1503",
"a@	c #353003",
"b@	c #413906",
"c@	c #383304",
"d@	c #2D2413",
"e@	c #4C3536",
"f@	c #4D3737",
"g@	c #6E5150",
"h@	c #6C4E4F",
"i@	c #644849",
"j@	c #372326",
"k@	c #2A2011",
"l@	c #3C3404",
"m@	c #352F06",
"n@	c #443B08",
"o@	c #2A2503",
"p@	c #393204",
"q@	c #352523",
"r@	c #1C1212",
"s@	c #684B4D",
"t@	c #352822",
"u@	c #3F3705",
"v@	c #352622",
"w@	c #432F30",
"x@	c #473232",
"y@	c #493333",
"z@	c #5F4444",
"A@	c #4A3435",
"B@	c #543A3D",
"C@	c #53343B",
"D@	c #56403E",
"E@	c #5C5145",
"F@	c #706C57",
"G@	c #65644F",
"H@	c #6F6F59",
"I@	c #575744",
"J@	c #4D4B3A",
"K@	c #34301B",
"L@	c #302802",
"M@	c #3B3304",
"N@	c #403805",
"O@	c #413A07",
"P@	c #332C09",
"Q@	c #573F40",
"R@	c #281C1C",
"S@	c #4A3835",
"T@	c #302B07",
"U@	c #373007",
"V@	c #2C2117",
"W@	c #624646",
"X@	c #67494C",
"Y@	c #57383E",
"Z@	c #5D5447",
"`@	c #959474",
" #	c #B4B38F",
".#	c #D5D5AB",
"+#	c #E5E5B9",
"@#	c #F3F3C5",
"##	c #F4F4C5",
"$#	c #F3F3C4",
"%#	c #EDEDBE",
"&#	c #E6E6B9",
"*#	c #C5C59E",
"=#	c #8D8D71",
"-#	c #696751",
";#	c #52513F",
">#	c #332F18",
",#	c #332A02",
"'#	c #403705",
")#	c #443B09",
"!#	c #2D2415",
"~#	c #664A4B",
"{#	c #251818",
"]#	c #402D2F",
"^#	c #322911",
"/#	c #2E2710",
"(#	c #493433",
"_#	c #6C4F50",
":#	c #543C3D",
"<#	c #493334",
"[#	c #563C3F",
"}#	c #756D5A",
"|#	c #AEAD8A",
"1#	c #E1E1B5",
"2#	c #FAFAC9",
"3#	c #FEFECC",
"4#	c #FFFFCC",
"5#	c #FFFFCB",
"6#	c #FEFECD",
"7#	c #FAFACB",
"8#	c #F1F1C2",
"9#	c #E7E7BB",
"0#	c #C3C49C",
"a#	c #858569",
"b#	c #53513B",
"c#	c #2D250B",
"d#	c #382F04",
"e#	c #372F06",
"f#	c #332D05",
"g#	c #3B3403",
"h#	c #402F2B",
"i#	c #422E2E",
"j#	c #362626",
"k#	c #3F2C2C",
"l#	c #3A3304",
"m#	c #33271E",
"n#	c #533B3C",
"o#	c #5E3E43",
"p#	c #4D4A3C",
"q#	c #B0B08D",
"r#	c #EBECBD",
"s#	c #FDFDCB",
"t#	c #FFFFCD",
"u#	c #FEFECE",
"v#	c #F8F8CB",
"w#	c #E1E1B7",
"x#	c #ADAD8A",
"y#	c #73735A",
"z#	c #241F0A",
"A#	c #251F02",
"B#	c #2D2802",
"C#	c #3C2C27",
"D#	c #3D3603",
"E#	c #2F2B08",
"F#	c #3D2D29",
"G#	c #5F4446",
"H#	c #6F5150",
"I#	c #4D3537",
"J#	c #959376",
"K#	c #DCDBB0",
"L#	c #FAFACA",
"M#	c #FDFDCC",
"N#	c #B9B995",
"O#	c #A1A189",
"P#	c #AEAE8A",
"Q#	c #D0D0A5",
"R#	c #AFB08C",
"S#	c #6A6A54",
"T#	c #2B2714",
"U#	c #3D3404",
"V#	c #383204",
"W#	c #362824",
"X#	c #503A39",
"Y#	c #211515",
"Z#	c #453030",
"`#	c #5F4546",
" $	c #2C2511",
".$	c #393203",
"+$	c #312817",
"@$	c #412D2E",
"#$	c #654849",
"$$	c #574D41",
"%$	c #BBBB97",
"&$	c #FFFFCE",
"*$	c #D6D6A9",
"=$	c #B5B5AC",
"-$	c #D3D3D5",
";$	c #D4D4D5",
">$	c #BBBBBC",
",$	c #9C9C94",
"'$	c #CBCAA3",
")$	c #ECECBE",
"!$	c #3F3E2D",
"~$	c #342C03",
"{$	c #342E09",
"]$	c #402E2C",
"^$	c #64494A",
"/$	c #1F1414",
"($	c #312911",
"_$	c #372F0F",
":$	c #1C0E11",
"<$	c #5D5745",
"[$	c #C4C49F",
"}$	c #FCFCCD",
"|$	c #F8F8C7",
"1$	c #A7A791",
"2$	c #DCDCDD",
"3$	c #969695",
"4$	c #5D5D5D",
"5$	c #757575",
"6$	c #B5B5B6",
"7$	c #A7A7A4",
"8$	c #C3C39E",
"9$	c #F5F5C8",
"0$	c #C6C69F",
"a$	c #61614D",
"b$	c #241E01",
"c$	c #372F04",
"d$	c #352E0E",
"e$	c #2C2214",
"f$	c #2A1D1D",
"g$	c #2E2612",
"h$	c #2D2301",
"i$	c #6F6F58",
"j$	c #D7D7AD",
"k$	c #FDFDCE",
"l$	c #F0F0C0",
"m$	c #A7A79F",
"n$	c #DFDFDF",
"o$	c #454545",
"p$	c #010000",
"q$	c #000000",
"r$	c #474748",
"s$	c #ADADAE",
"t$	c #A2A29F",
"u$	c #C5C5A0",
"v$	c #FCFCD0",
"w$	c #DBDCB3",
"x$	c #6D6D57",
"y$	c #2D181E",
"z$	c #513B3B",
"A$	c #5A4142",
"B$	c #1E1315",
"C$	c #2F2907",
"D$	c #6F6F57",
"E$	c #DEDEB2",
"F$	c #F6F6C6",
"G$	c #ADAD9B",
"H$	c #E3E3E4",
"I$	c #676767",
"J$	c #373736",
"K$	c #878788",
"L$	c #9D9D8C",
"M$	c #F1F1C5",
"N$	c #DEDFB3",
"O$	c #817D65",
"P$	c #624347",
"Q$	c #6A4C4C",
"R$	c #180F0D",
"S$	c #030300",
"T$	c #302B04",
"U$	c #403708",
"V$	c #2B2605",
"W$	c #2C2503",
"X$	c #3B3207",
"Y$	c #383003",
"Z$	c #575643",
"`$	c #D1D1A8",
" %	c #CACACB",
".%	c #B5B5B4",
"+%	c #161615",
"@%	c #020101",
"#%	c #49494B",
"$%	c #8D8D8B",
"%%	c #D3D3AD",
"&%	c #FFFFCF",
"*%	c #D3D3A8",
"=%	c #615048",
"-%	c #6B4D4E",
";%	c #5B4141",
">%	c #1A0F0F",
",%	c #2F2A05",
"'%	c #3B3307",
")%	c #3D3506",
"!%	c #342F06",
"~%	c #2A2504",
"{%	c #3C3507",
"]%	c #3C3305",
"^%	c #3B3928",
"/%	c #C1C19B",
"(%	c #FDFDCD",
"_%	c #EAEABB",
":%	c #A6A69C",
"<%	c #E0E0DF",
"[%	c #7C7C7C",
"}%	c #0A0A0B",
"|%	c #202020",
"1%	c #818183",
"2%	c #A9A994",
"3%	c #F7F7C7",
"4%	c #A0A07F",
"5%	c #54373C",
"6%	c #6E5051",
"7%	c #654B4B",
"8%	c #584040",
"9%	c #362525",
"0%	c #3C2929",
"a%	c #020000",
"b%	c #282203",
"c%	c #2E2704",
"d%	c #423908",
"e%	c #2F2A04",
"f%	c #2D2804",
"g%	c #3A3520",
"h%	c #A9A886",
"i%	c #F8F8C9",
"j%	c #BFBF99",
"k%	c #B9B9B7",
"l%	c #E2E2E2",
"m%	c #959595",
"n%	c #343434",
"o%	c #2B2B2C",
"p%	c #717175",
"q%	c #98987F",
"r%	c #E6E7B9",
"s%	c #78705C",
"t%	c #67484B",
"u%	c #211616",
"v%	c #1F1B02",
"w%	c #282303",
"x%	c #262003",
"y%	c #393002",
"z%	c #797960",
"A%	c #F2F2C2",
"B%	c #BDBD98",
"C%	c #ACACA7",
"D%	c #D1D1D2",
"E%	c #B7B7B7",
"F%	c #959591",
"G%	c #88888A",
"H%	c #969688",
"I%	c #DDDDB1",
"J%	c #C0BF99",
"K%	c #553B3D",
"L%	c #100808",
"M%	c #1C1802",
"N%	c #373005",
"O%	c #3F3708",
"P%	c #322C04",
"Q%	c #27220A",
"R%	c #B9B993",
"S%	c #FBFBCB",
"T%	c #E0E0B3",
"U%	c #B1B18F",
"V%	c #94948C",
"W%	c #B2B2A3",
"X%	c #BFBFA1",
"Y%	c #E9E9BB",
"Z%	c #F1F2C5",
"`%	c #86826A",
" &	c #644649",
".&	c #705151",
"+&	c #372F05",
"@&	c #393207",
"#&	c #3B3204",
"$&	c #6A6A53",
"%&	c #E7E7BA",
"&&	c #FEFED0",
"*&	c #F6F6C5",
"=&	c #F0F0C1",
"-&	c #EBEBBD",
";&	c #E9E9B9",
">&	c #F9F9C8",
",&	c #C1C19C",
"'&	c #664949",
")&	c #2F2804",
"!&	c #423907",
"~&	c #332E06",
"{&	c #2E2A1D",
"]&	c #BFC09B",
"^&	c #F7F7CB",
"/&	c #D2D2A9",
"(&	c #A9A995",
"_&	c #A9A99E",
":&	c #ACAC94",
"<&	c #D8D8AB",
"[&	c #EBEBC0",
"}&	c #716958",
"|&	c #694B4D",
"1&	c #332323",
"2&	c #2B2505",
"3&	c #2E2905",
"4&	c #312903",
"5&	c #686751",
"6&	c #EEEEC1",
"7&	c #AFAFAE",
"8&	c #DCDCDC",
"9&	c #DBDBDE",
"0&	c #ADADA6",
"a&	c #E5E5B6",
"b&	c #FBFBCC",
"c&	c #A09F7F",
"d&	c #604045",
"e&	c #322222",
"f&	c #3C3406",
"g&	c #3F3807",
"h&	c #3A3307",
"i&	c #1E1701",
"j&	c #939376",
"k&	c #EEEEC2",
"l&	c #898978",
"m&	c #CFCFD0",
"n&	c #757574",
"o&	c #434343",
"p&	c #ACACAC",
"q&	c #D7D7D9",
"r&	c #BBBB9A",
"s&	c #FEFFCC",
"t&	c #C8C8A0",
"u&	c #5D4443",
"v&	c #4A3434",
"w&	c #1F1A01",
"x&	c #292304",
"y&	c #3D3706",
"z&	c #272102",
"A&	c #393306",
"B&	c #413807",
"C&	c #292717",
"D&	c #C6C6A0",
"E&	c #E2E2B5",
"F&	c #A8A8A6",
"G&	c #939393",
"H&	c #030303",
"I&	c #535253",
"J&	c #DEDEDF",
"K&	c #A6A69A",
"L&	c #F0F0C4",
"M&	c #E1E2B5",
"N&	c #5A4F44",
"O&	c #140C0C",
"P&	c #2E2806",
"Q&	c #282204",
"R&	c #2F2B1B",
"S&	c #D8D8AD",
"T&	c #B1B1B2",
"U&	c #161617",
"V&	c #BFBFBF",
"W&	c #BDBDBD",
"X&	c #D3D3A7",
"Y&	c #9B9B7C",
"Z&	c #726A58",
"`&	c #553C3C",
" *	c #3C3B2C",
".*	c #B8B8B7",
"+*	c #6A6A6A",
"@*	c #A1A1A1",
"#*	c #CACAA3",
"$*	c #BCBC97",
"%*	c #929073",
"&*	c #5F3F44",
"**	c #674A4A",
"=*	c #473434",
"-*	c #3D3405",
";*	c #565743",
">*	c #EAEABE",
",*	c #CECEA7",
"'*	c #99999A",
")*	c #565654",
"!*	c #020202",
"~*	c #B1B1B0",
"{*	c #CCCCCC",
"]*	c #CDCDA3",
"^*	c #CACAA4",
"/*	c #E3E3B6",
"(*	c #F9F9C9",
"_*	c #F6F6C8",
":*	c #A1A180",
"<*	c #E9E9BC",
"[*	c #BEBE97",
"}*	c #573D3E",
"|*	c #3B2929",
"1*	c #382929",
"2*	c #0A0901",
"3*	c #3A3204",
"4*	c #77785F",
"5*	c #E6E6BB",
"6*	c #989890",
"7*	c #666667",
"8*	c #010101",
"9*	c #191919",
"0*	c #C0C0C0",
"a*	c #ABABA7",
"b*	c #E4E4B6",
"c*	c #A9A987",
"d*	c #A6A683",
"e*	c #CFD0A7",
"f*	c #271A1A",
"g*	c #170D0D",
"h*	c #0A0801",
"i*	c #272303",
"j*	c #302903",
"k*	c #8D8D70",
"l*	c #FAFACC",
"m*	c #AEAE94",
"n*	c #7F7F81",
"o*	c #212121",
"p*	c #545453",
"q*	c #C2C2C4",
"r*	c #A2A28B",
"s*	c #E5E5B8",
"t*	c #7E7E65",
"u*	c #DADAB2",
"v*	c #DBDCB1",
"w*	c #574540",
"x*	c #382727",
"y*	c #372A21",
"z*	c #312B06",
"A*	c #3E3705",
"B*	c #24190F",
"C*	c #969677",
"D*	c #FBFBCA",
"E*	c #8A8A88",
"F*	c #666668",
"G*	c #656467",
"H*	c #A4A4A6",
"I*	c #AFAFAC",
"J*	c #C9C9A0",
"K*	c #FEFECF",
"L*	c #CCCCA7",
"M*	c #ABAB8C",
"N*	c #FEFECB",
"O*	c #CACBA3",
"P*	c #160F0E",
"Q*	c #584140",
"R*	c #34281D",
"S*	c #332E05",
"T*	c #413A06",
"U*	c #372F0A",
"V*	c #3C2D25",
"W*	c #55383D",
"X*	c #88856B",
"Y*	c #F7F8C6",
"Z*	c #F6F6C9",
"`*	c #B0B08F",
" =	c #919183",
".=	c #9F9F8C",
"+=	c #BFBFA3",
"@=	c #D9D9AD",
"#=	c #F9F9C7",
"$=	c #F1F1C6",
"%=	c #8E8E73",
"&=	c #ECECC2",
"*=	c #DADAAF",
"==	c #F4F4C3",
"-=	c #B1B18E",
";=	c #56373D",
">=	c #040302",
",=	c #241C0E",
"'=	c #30290B",
")=	c #2F2710",
"!=	c #34281A",
"~=	c #2A1F17",
"{=	c #6B6152",
"]=	c #EBEBBC",
"^=	c #FCFCCB",
"/=	c #F3F3C3",
"(=	c #F5F5C4",
"_=	c #B9B99A",
":=	c #C7C7A4",
"<=	c #B7B793",
"[=	c #FBFBCD",
"}=	c #9D9C7D",
"|=	c #6C504F",
"1=	c #664C4C",
"2=	c #241717",
"3=	c #5C4243",
"4=	c #4F3A3A",
"5=	c #55443E",
"6=	c #E3E3BB",
"7=	c #939377",
"8=	c #F7F7CA",
"9=	c #AEAE8B",
"0=	c #F6F6C7",
"a=	c #7B7961",
"b=	c #66484B",
"c=	c #684D4D",
"d=	c #0A0505",
"e=	c #573B3E",
"f=	c #B3B38F",
"g=	c #FCFCCF",
"h=	c #A5A585",
"i=	c #D7D7B0",
"j=	c #DFDFB4",
"k=	c #9A9A7B",
"l=	c #F7F7C8",
"m=	c #EFEFC0",
"n=	c #696151",
"o=	c #6A4C4D",
"p=	c #2F2020",
"q=	c #654A49",
"r=	c #463333",
"s=	c #574040",
"t=	c #614246",
"u=	c #9E9D7D",
"v=	c #FBFCCD",
"w=	c #D4D4AF",
"x=	c #A8A889",
"y=	c #9A9A7A",
"z=	c #E3E3B7",
"A=	c #D6D7AC",
"B=	c #503E3B",
"C=	c #2B1D1D",
"D=	c #3A2928",
"E=	c #68494C",
"F=	c #78735E",
"G=	c #F4F4C9",
"H=	c #95957B",
"I=	c #E9E9C1",
"J=	c #DFDFB3",
"K=	c #A4A482",
"L=	c #D8D8AE",
"M=	c #B5B491",
"N=	c #382426",
"O=	c #4F3838",
"P=	c #2B1C1C",
"Q=	c #5E4646",
"R=	c #604C47",
"S=	c #D0D1A8",
"T=	c #B5B594",
"U=	c #98987C",
"V=	c #A2A281",
"W=	c #A7A785",
"X=	c #BBBB94",
"Y=	c #D2D2A8",
"Z=	c #D9D9B0",
"`=	c #E2E2B7",
" -	c #BDBD96",
".-	c #BABA95",
"+-	c #E8E8BA",
"@-	c #F5F5C6",
"#-	c #7C7B61",
"$-	c #40282B",
"%-	c #412E2F",
"&-	c #231717",
"*-	c #5F4044",
"=-	c #98987A",
"--	c #F8F8CA",
";-	c #DDDDB3",
">-	c #9F9F82",
",-	c #AAAA8A",
"'-	c #DADAB3",
")-	c #E7E7BC",
"!-	c #E8E8BD",
"~-	c #E6E6BA",
"{-	c #D4D4AA",
"]-	c #D0D0A6",
"^-	c #C7C7A0",
"/-	c #B7B792",
"(-	c #ABAB89",
"_-	c #CCCCA3",
":-	c #FBFBC9",
"<-	c #DDDDB2",
"[-	c #5E5147",
"}-	c #614546",
"|-	c #140D0D",
"1-	c #2A1E1E",
"2-	c #52443C",
"3-	c #D4D4AC",
"4-	c #D0D0A9",
"5-	c #E2E2B9",
"6-	c #FDFDCF",
"7-	c #A2A282",
"8-	c #55383C",
"9-	c #6D5150",
"0-	c #654848",
"a-	c #312522",
"b-	c #553D3C",
"c-	c #6F5050",
"d-	c #5A4242",
"e-	c #6E5251",
"f-	c #5D3F43",
"g-	c #A2A181",
"h-	c #A4A483",
"i-	c #ECECBF",
"j-	c #665D4D",
"k-	c #443231",
"l-	c #090606",
"m-	c #6A4F4E",
"n-	c #6A5F51",
"o-	c #D7D8AF",
"p-	c #EAEABC",
"q-	c #E8E8BB",
"r-	c #B8B892",
"s-	c #4A3536",
"t-	c #312121",
"u-	c #5C3D42",
"v-	c #827E65",
"w-	c #E7E8BB",
"x-	c #AFAF8B",
"y-	c #DCDCB2",
"z-	c #6A6352",
"A-	c #1B1010",
"B-	c #6D4F50",
"C-	c #54363B",
"D-	c #979677",
"E-	c #EEEEC0",
"F-	c #ADAD8B",
"G-	c #CBCBA4",
"H-	c #FCFCCC",
"I-	c #838268",
"J-	c #5F4346",
"K-	c #422F2E",
"L-	c #261818",
"M-	c #0E0808",
"N-	c #2A1C1C",
"O-	c #6D4E4F",
"P-	c #4F3337",
"Q-	c #A5A584",
"R-	c #FDFDCA",
"S-	c #BABA94",
"T-	c #A2A280",
"U-	c #55393C",
"V-	c #53403E",
"W-	c #A1A281",
"X-	c #EBEBBF",
"Y-	c #B1B18D",
"Z-	c #EFEFC1",
"`-	c #F5F5C7",
" ;	c #38332A",
".;	c #634647",
"+;	c #4B3737",
"@;	c #201616",
"#;	c #573C3E",
"$;	c #76735D",
"%;	c #CBCBA3",
"&;	c #9E9E7E",
"*;	c #BDBD97",
"=;	c #DADAB0",
"-;	c #D3D5A9",
";;	c #C1C19A",
">;	c #D6D6AB",
",;	c #F7F7C6",
"';	c #CECFA6",
");	c #685F50",
"!;	c #513739",
"~;	c #694E4E",
"{;	c #644A4A",
"];	c #5C3D41",
"^;	c #696351",
"/;	c #F7F6C9",
"(;	c #BBBA96",
"_;	c #63574B",
":;	c #624346",
"<;	c #2B1F1F",
"[;	c #624447",
"};	c #53443E",
"|;	c #9C9C7E",
"1;	c #DDDDB4",
"2;	c #84846A",
"3;	c #573E3F",
"4;	c #68494B",
"5;	c #433131",
"6;	c #281B1B",
"7;	c #6B4E4F",
"8;	c #473033",
"9;	c #6E6D57",
"0;	c #BBBB95",
"a;	c #EDEDBF",
"b;	c #D7D7AE",
"c;	c #A1A181",
"d;	c #6A6353",
"e;	c #321F22",
"f;	c #312222",
"g;	c #1C1313",
"h;	c #211717",
"i;	c #5A4040",
"j;	c #3B2529",
"k;	c #6F6B56",
"l;	c #B6B692",
"m;	c #DEDFB4",
"n;	c #F3F4C6",
"o;	c #C6C79E",
"p;	c #858269",
"q;	c #584841",
"r;	c #5C3E41",
"s;	c #6C4D4F",
"t;	c #6B4E4D",
"u;	c #4D3637",
"v;	c #654649",
"w;	c #5C4042",
"x;	c #53463D",
"y;	c #7E7D64",
"z;	c #CECEA6",
"A;	c #F9F9CA",
"B;	c #CDCDA4",
"C;	c #AAA988",
"D;	c #817E67",
"E;	c #665F4F",
"F;	c #3B2F2A",
"G;	c #332223",
"H;	c #2E1F1F",
"I;	c #5B4142",
"J;	c #523A3B",
"K;	c #67494A",
"L;	c #53363B",
"M;	c #54403E",
"N;	c #5C5246",
"O;	c #88876C",
"P;	c #B0B08C",
"Q;	c #918E72",
"R;	c #5F5C49",
"S;	c #513939",
"T;	c #5B3D41",
"U;	c #654749",
"V;	c #463432",
"W;	c #6E5252",
"X;	c #5D4544",
"Y;	c #382726",
"Z;	c #5B4042",
"`;	c #3A2729",
" >	c #58393F",
".>	c #5E3E42",
"+>	c #402C2D",
"@>	c #5F4544",
"#>	c #433130",
"$>	c #070303",
"%>	c #43302F",
"&>	c #6D504F",
"*>	c #44302F",
"=>	c #3F2D2D",
"->	c #302121",
";>	c #503B3B",
">>	c #372727",
",>	c #684B4B",
"'>	c #3A2A29",
")>	c #443232",
"!>	c #3F302D",
"~>	c #2C201F",
"{>	c #1F1515",
"]>	c #40302E",
"^>	c #4B3736",
"/>	c #362526",
"(>	c #352725",
"_>	c #3B2A29",
":>	c #4E3737",
"<>	c #6B4D4D",
"[>	c #1B1212",
"}>	c #352626",
"|>	c #543E3E",
"1>	c #412D2D",
"2>	c #140C0B",
"3>	c #160D0E",
"4>	c #332424",
"5>	c #634747",
"6>	c #070404",
"7>	c #3C2A2A",
"8>	c #604747",
"9>	c #593F3F",
"0>	c #3E2B2B",
"a>	c #644948",
"b>	c #180F0F",
"c>	c #2D2620",
"d>	c #573E3E",
"e>	c #271C1C",
"f>	c #110A0A",
"g>	c #1D1111",
"h>	c #080404",
"                                                                                                                                                                                                        ",
"                                                                                                                                                                                                        ",
"                                                                                                                                                                                                        ",
"                                                                                                                                                                                                        ",
"                                                                                                                                                                                                        ",
"                                                                                                                                                                                                        ",
"                                                                                                                                                                                                        ",
"                                                                                                                                          . + @ # $                                                     ",
"                                                                                                                                  % & * = - ; > , ' )                                                   ",
"                                                                                                                              ! ~ { ] ^ / ( _ : < [ }                                                   ",
"                                                                                                                        | 1 2 3 4 5 6 7 8 9 0 a b c 0 d                                                 ",
"                                                                                                                    e f g h i j k l m n o p q r s t c u                                                 ",
"                                                                                                                v w a x y z = A B C D E F F G H I J K L M                                               ",
"                                                                                                          N O P Q y c i R S T U V E E E E E E E W X Y Z `                                               ",
"                                                                                                       ...+.x c y i i c ' @.#.V E E E E E E E E E V $.%.&.*.                                            ",
"                                                                                                  =.d -.;.>._ y i i i 4 ;.,.V E E E E E E E E E E E E D '.).                                            ",
"                                                                                              !.~.{.]._ ^.> 2 _ i i c /.(._.E E E E E E E E E E E E E E V :.<.                                          ",
"                                                                                          [.}.L |.1.R i c x u 2.R i y u 3.V E E E E E E E E E E E E E E E E 4.                                          ",
"                                                                                      5.6.7.x 8.9.0.i c i c a.b.c.c d.e.f.E E E E E E E E E E E E E E E E V g.h.                                        ",
"                                                                                  i.j.;.k.9 /.c i l.d.c i i c m.n.R {.o.V E E E E E E E E E E E E E E E E E F p.q.                                      ",
"                                                                              r.s.; t._ [ 1.u.v._ 5 9 _ i i c 0 w.i x.y.z.E E E E E E E E E E V E F E E E E E A.B.                                      ",
"                                                                      M C.@ D.E., R c i i F.;.k.y ' G.H.c c c i I.- J.K.E E E E E E E E E E E L.M.N.O.D E E E D N.                                      ",
"                                                                P.M & L F.5 Q.R i i i i i c R.; y S.T.n.c i i c U.> V.n E E E E E E E E E E W.X.Y.Z.`.W.F E E V  +.+                                    ",
"                                                          ++@+{.L -.> x c 0 = ' , i i i i c a.#+' c k.$+v.i i i i %+&+*+E E E E E E E E V =+-+;+V V >+,+'+E E E V Y.                                    ",
"                                                      )+#+; !+~+c R {+5 R y 9 ]+c i i i i i c T.^+y c /+/.c i i R L (+_+E E E E E E E E E B.:+E <+[+F L.}+ +E E V |+1+                                  ",
"                                                2+3+4+5+y k.d F.i c 3 h , c Q 6+i i i i i i c /.g i c 7+8+9+i i _ S 0+V E E E E E E E E <+a+ +b+c+:+E V d+e+E E F p.f+                                  ",
"                                            g+~ L ' , c c d.h+c i i y i+E.c i j+Q c i i i i i ' k+^ i v.u a.y i i l+y.F E E E E E E E E '.m+n+o+G E E F N.p+V E E q+r+                                  ",
"                                      s+t+u+U.i c i i i c E.h _ i i c v+2 [ , L ] c i i i i i c u.U.c R ; w+_ c ^ 8 x+E E E E E E E E y+B.Y.z+D F E E F A+B+D E E y+C+                                  ",
"                                  D+d E+F+u.k.R i i i i i c.G+F.i i y ' h c.c x w ^.y i i i i c 2.; R , H.h a._ H+I+*+E E E E E E E E [+J+K+L+V E E E V M+N+A.E E D O+                                  ",
"                              ~.P+5 ].k.Q+R+S+3 T+i c c i , w 9.c i i _ } ; _ , 2.U+y i i c i c V+g c i c Q.#+W+X+Y+V E E E E E E E E e+Z+`+L+F E E E V  @.@F E E V +@                                  ",
"                          @@t+3 2 : #@$@%@&@Y.*@=@-@;@d.F.R >@4+c i i c 0 w c y H.I./.c i i i i -.,@c i c i u 0 0.'@E E E E E E E E V 0+)@|+!@~@V E V  +`.e+F E E y+{@                                  ",
"                        ]@g 0 ^@/@(@_@:@V V V V <@[@}@|@1@^@x ,@H.c i i y I.a c i 2@i+' c i i i x 3@c.c i R ; 4@5@6@E E E E E E E E V b+7@y+z+8@p.M+p.9@o+V E E E  +0@                                  ",
"                      u+h 8.c $ a@*+E E E E E E E z.V b@c@d@l.e@R.c i i c a f@_ i y 9 g i i i i _ l.9.~+g@h@i@j@k@l@b@*+z.E E E E E E m@}@n@G |+o@N+z+p.E V E E z.p@q@)+                                ",
"                  r@j+0 ~ ].s@t@u@E E E E E E E E E E E F b@M.v@w@c i i i i x@a.c c i y@z@_ i y g@A@B@C@D@E@F@G@H@I@J@K@L@M@N@_+V E E :.Z+V E E D O@E F V E E E V P@Q@~                                 ",
"                  R@1.g@S@3 e@T@_+E E E E E E E E E E E E E $.U@V@R.i _ i R P E+R i c W@h c.c X@Y@Z@`@ #.#+#@###$#%#&#*#=#-#;#>#,#'#)#;+8@L.F E E E E E E E E E b@!#~#>@{#                              ",
"                    I._ ]+]#^#b@F E E E E E E E E E E E E E E V l@/#(#k._#R /.G.y i i _ :#<#[#}#|#1#2#3#4#4#4#5#4#4#4#6#7#8#9#0#a#b#c#d#e#f#V E E E E E E E E F g#h#4 c.i#                              ",
"                    j#k.F.k#l#z.E E E E E E E E E E E E E E E E z.g.'.m#n#' F.x@c.c c _ o#p#q#r#s#t#4#5#5#5#5#5#5#5#5#5#5#4#t#u#v#w#x#y#z#A#[+V E E E E E E E V B#> F._ U+                              ",
"                      E+i C#D#F E E E E E E E E E E E E E E E E E E D u@E#F#G#2.R.H#x I#J#K#L#4#5#5#5#5#5#5#5#5#5#5#5#5#5#4#M#1#N#O#P#Q#R#S#T#U#z.E E E E E *+V#W#u X#y ]+Y#                            ",
"                      Z#`# $V E E E E E E E E E E E E E E E E E E E E D _+.$+$@$G.#$$$%$##&$5#5#5#5#5#5#5#5#5#5#5#5#5#5#5#t#*$=$-$;$>$,$'$)$q#!$~$V V F V x+{$]$^$F.l.< ^+/$                            ",
"                      k#- ($_+E E E E E E E E E E E E E E E E E E E E E E V x+_$:$<$[$}$4#5#5#5#5#5#5#5#5#5#5#5#5#5#5#5#4#|$1$2$3$4$5$6$7$8$9$0$a$b$c$I d$e$8+F.c c ^$h t = f$                          ",
"                      f$j+g$D E E E E E E E E E E E E E E E E E E E E E E E V h$i$j$k$5#5#5#5#5#5#5#5#5#5#5#5#5#5#5#5#5#4#l$m$n$o$p$q$r$s$t$u$v$w$x$y$z$A$2.} R i i 9+D.9 f@h q$                        ",
"                        B$C$V E E E E E E *+E G V V E E E E E E E E E E E )#L@D$E$u#5#5#5#5#5#5#5#5#5#5#5#5#5#5#5#5#5#5#4#F$G$H$I$p$p$q$J$K$L$M$6#N$O$P$R Q$x@c.c i _ a R+I.a R$                        ",
"                        S$T$F E E E E E U$'+V$W$!@X$F F E E E E E E E E z.Y$Z$`$u#5#5#5#5#5#5#5#5#5#5#5#5#5#5#5#5#5#5#5#5#3#0$ %.%+%@%p$q$#%$%%%&%3#*%=%-%_ 9 ;%c i c v.{ 7.3 >%                        ",
"                          m+D E E E E E z+,%'%)%!%~%z+{%E V E E E E E z.]%^%/%(%5#5#5#5#5#5#5#5#5#5#5#5#5#5#5#5#5#5#5#5#5#4#_%:%<%[%}%p$p$|%1%2%7#5#3%4%5%6%7%#+i y i c 8%9%F.0%a%                      ",
"                          b%E E E E F N.c%d%V d%M+:+e%N+f%{%V E E E E H g%h%i%4#5#5#5#5#5#5#5#5#5#5#5#5#5#5#5#5#5#5#5#5#5#4#s#j%k%l%m%n%q$o%p%q%L#5#t#r%s%t%y u 3 _ i c H.! ^.V+u%                      ",
"                          v% +E E E D 4.7@V '%}+N+,+w%,+m@x%W.E E E V y%z%A%t#5#5#5#5#5#5#5#5#5#5#5#5#5#5#5#5#5#5#5#5#5#5#5#4#2#B%C%D%E%F%G%H%I%4#5#5#M#J%K%_ a U+c i i R f@- _ l.L%                    ",
"                          M%p.V E E E Z+N%F <+<+G V g.f#c+O%.@P%E E _+Q%R%M#5#4#5#5#5#5#5#5#5#5#5#5#5#5#5#5#5#5#5#5#5#5#5#5#5#4#S%T%U%V%W%X%Y%6#5#5#5#4#Z%`% &v.h c.c i c >.d .&k.!.                    ",
"                            b+V E E F W.+&V E E E E E d%d+A+ +X.@&V #&$&%&&&*&=&L#t#5#5#5#5#5#5#5#5#5#5#5#5#5#5#5#5#5#5#5#5#5#5#5#&$7#-&;&>&t#5#5#5#5#5#(%,&]+[ T.E+R i c 5 ~.'&y G.                    ",
"                            J+;+E E E {%)&!&V E E E E V o+~&V A+8@G {&]&^&/&(&_&:&<&s#4#5#5#5#5#5#5#5#5#5#5#5#5#5#5#5#5#5#5#5#5#5#5#5#4#5#4#5#5#5#5#5#5#t#[&}&|&^.~ x i c /.1&E+( z@5.                  ",
"                              N.V E E E 4.Z.V E E E E E 2&p.F V 3&4&5&6&B%7&;$8&9&0&a&t#5#5#5#5#5#5#5#5#5#5#5#5#5#5#5#5#5#5#5#5#5#5#5#5#5#5#5#5#5#5#5#5#5#b&c&d&_ /+1.R c c.$ ,@].].e&                  ",
"                              K+y+E E E O%X.p.F E V n@f&O+g&E E h&i&j&k&l&m&n&o&p&q&r&M#5#5#5#5#5#5#5#5#5#5#5#5#5#5#5#4#5#5#5#5#5#5#5#5#5#5#5#5#5#5#5#5#5#s&t&u&R 1.j+c c v.#+u 5 R v&                  ",
"                              w&'.E E E D A+x&}@M+y&:.z&A&V E E B&C&D&E&F&G&H&p$I&J&K&%#4#5#5#5#5#5#5#5#5#5#5#5#5#&$L&|$4#5#5#5#5#5#5#5#5#5#5#5#5#5#5#5#5#t#M&N&F.F.,@k.c c z$; i+F.; O&                ",
"                                f+|+V E E V q+P&Q&B.Z.q+E E E E _+R&j$S&T&[%p$p$U&V&W&X&&$5#5#5#5#5#5#5#5#5#5#5#4#8#Y&l$4#5#5#5#5#5#5#5#5#5#5#5#5#5#5#5#5#4#=&Z&T+R R.`&, c 4+8%#+>.U.r.                ",
"                                  b%M+E E E V V V E V F E E E E O@ *I%j$.*+*p$p$q$@*D%t&t#5#5#5#5#5#5#4#&$t#5#5#6##*$*}$5#5#5#5#5#5#5#5#5#5#5#5#5#5#5#5#5#4#>&%*&*c **=*v.c ^+;.1.i#L 1&                ",
"                                    Z+~@V E E E E E E E E E E E -*;*>*,*'*)*q$p$!*~*{*]*t#5#5#5#5#5#5#|$^*/*(*&$_*:*<*4#5#5#5#5#5#5#5#5#5#5#5#5#5#5#5#5#5#5#6#[*}*c i 6+U._ 3 h 4 |*1*f$                ",
"                                    2*,+G V E E E E E E E E E V 3*4*^&5*6*7*8*p$9*0*a*b*t#5#5#5#5#5#5#3%0$c*d*/%U%N#M#5#5#5#5#5#5#5#5#5#5#5#5#5#5#5#5#5#5#5#t#e*/+_ c < z$R < D.( E+f*g*                ",
"                                      h*i*y&F E E E E E E E E z.j*k*L#l*m*n*o*q$p*q*r*i%5#5#5#5#5#5#5#4#&$S%s*,*t*u*&%5#5#5#5#5#5#5#5#5#5#5#5#5#5#5#5#5#5#5#t#v*w*_ i ^ l._ L ;.c H.x*p$                ",
"                                        + y*z*A*V E E E E E F g#B*C*D*t#%%E*F*G*H*I*J*&$5#5#5#5#5#5#5#5#5#5#4#K*L*M*}$5#5#5#5#5#5#5#5#5#5#5#5#5#5#5#5#5#N*t#&$O*I#R i c j+a /.g c c l.8*                ",
"                                        P*Q*9 R*S*A*_+V T*U U*V*W*X*Y*4#Z*`* =.=+=@=#=4#5#5#5#5#5#5#5#5#5#5#5#4#$=%=&=4#5#5#5#5#5#5#5#5#5#5#5#5#5#5#5#N**===(%-=;=c i _ a 2 -.> i R {.                  ",
"                                        >=u .&k.u ,='=)=!=~=#+c.h@{=]=4#t#^=/=(=M#3#4#5#5#5#5#5#5#5#5#5#5#5#5#5#K*_=:=&%5#5#5#5#5#5#5#5#5#5#5#5#5#5#5#(%<=I%[=}=d&|=i c 3 l.1=,@y R z$                  ",
"                                          2=0 R d.> a /.' 3=4=[ h@5=j$&$5#5#4#4#5#5#5#5#5#5#5#5#5#5#5#5#5#5#5#5#4#6=7=8=4#5#5#5#5#5#5#5#5#5#5#5#5#5#5#L#9=b*0=a=b=i i c c=,@3 d i c v&                  ",
"                                          d=4+8./.# c c c F.> ^ [ e=f=3#5#5#5#5#5#5#5#5#5#5#5#5#5#5#5#5#5#5#5#5#4#g=h=i=t#5#5#5#5#5#5#5#5#5#5#5#5#5#&$j=k=l=m=n=o=i i i i : 8%u R y b.                  ",
"                                            p=q=a.r=c i i c s=n.[ t=u=v=4#5#5#5#5#5#5#5#5#5#5#5#5#5#5#5#5#5#5#5#5#&%w=x=g=5#5#5#5#5#5#5#5#5#5#5#4#&$)$y=z=&%A=B=_ i i i y - ) f@S.c=C=                  ",
"                                              D=k.i+a.c i c ^.3@].E=F=8#t#5#5#5#5#5#5#5#5#5#5#5#5#5#5#5#5#5#5#5#5#5#G=H=I=&%S%}$^=4#&$&$&$4#4#t#2#J=K=L=(%(%M=N=F.i i i c 0  .O=c E.)+                  ",
"                                              P=l.4+4+_ i i R g Q=[ R=S=&$5#5#5#5#5#5#5#5#5#5#5#5#5#5#5#5#5#5#5#5#5#&&T=U=/%V=W=9=X=Y=#*Z=`=&#L= -.-+-u#4#@-#-$-z@c i i i i %-R.[ L &-                  ",
"                                              )+4+w G.F.y i c 3 i+R *-=---4#5#5#5#5#5#5#5#5#5#5#5#5#5#5#5#5#5#5#4#M#;->-,-'-)-!-~-{-]-^-<=/-(-_-]=:-4#5#t#<-[-}-g y i c i R b.L _ 9 |-                  ",
"                                              1-- 9 2=L _ i i v.h ^.o=2-3-&$5#5#5#5#5#5#5#5#5#5#5#5#5#5#5#5#5#5#k$4-K=5-6-&$4#4#t#4#t#&$&$(%^=6#4#5#5#5#b&7-8-9-> 0-c i c 5+a-b-R b.                    ",
"                                                ..Q G.R+c i i c-d-2 e-f-g-l*5#5#5#5#5#5#5#5#5#5#5#5#5#5#5#5#5#t#.#h-i-&$5#5#5#5#5#5#5#5#5#5#5#5#5#5#5#4#+#j-|&_ >.P c i c {.k-,@' )+                    ",
"                                                l-r=x t+9.c c y ' > m-y n-o-6#5#5#5#5#5#5#5#5#5#5#5#5#5#5#5#t#p-d*q-&$5#5#5#5#5#5#5#5#5#5#5#5#5#5#5#5#M#r-n#g@c a 6+_ i i 0.R.s-k.t-                    ",
"                                                  p=v.; I.v.c c c z$d-[ u-v-w-t#5#5#5#5#5#5#5#5#5#5#5#5#5#4#k&x-{-&$5#5#5#5#5#5#5#5#5#5#5#5#5#5#5#5#&$y-z-#$c c E.h y c i G.L l.3 s+                    ",
"                                                  A-3 i |*2 i i c E.r=B-_ C-D-E-4#5#5#5#5#5#5#5#5#5#5#5#4#_*F-G-H-5#5#5#5#5#5#5#5#5#5#5#5#5#5#5#5#t#i-I-J-c i c F.> ' c k.K-c.# >@L-                    ",
"                                                  M-T.R 2.N->@c i [ I.9.6%O-P-Q-_*t#5#R-A%t#5#5#5#5#5#4#L#/%S-L#4#5#5#5#5#5#5#5#5#5#5#5#5#5#5#5#4#F$T-U-y i i i ' G.0 _ - 2 v.> $                       ",
"                                                    x@, ' k#u a.c _ L g R y F.V-W-X-6#m=Y-Z-u#t#t#t#s#%#t&x#`-4#5#5#5#5#5#5#5#5#5#5#5#5#5#5#5#4#H-*# ;.;c i i i c 6+7%_ x@U.R +;@;                      ",
"                                                    )+U.R P G.2 i c F.G.-.c _#o=#;$;I%b&%;&;*;{-=;-;;;R%>;,;t#5#5#5#5#5#5#5#5#5#5#5#5#5#5#5#4#H-';);!;} _ i i i c j+z@5+3@~;i h q$                      ",
"                                                      =*y {;I.: ; c R E+2 c i |=H#];^;0$/;6&#*j%<=#*b*(*3#4#5#5#5#5#5#5#5#5#5#5#5#5#5#5#5#6#0=(;_;:;].x@x y i i R 4+< 9 {._ F...                        ",
"                                                      <;U._ l.3 v&E._ ' h+-.y i i _ [;};|;)-K*&%6#t#4#5#5#5#5#5#5#5#5#5#5#5#5#5#5#5#4#t#7#1;2;3;4;9-_ u.8%c i c c f@E+5;0 c 1.6;                        ",
"                                                        > c f@2.t G+-.[ ;%w+R i i i c 7;8;9;0;a;M#&$4#5#5#5#5#5#5#5#5#5#5#5#5#4#t#6#@-b;c;d;e;F.c i c U.i+R i i _ : f;b-c c - g;                        ",
"                                                        h;8%3 j#v.i;R+9.].> 0 c i i i c 0 j;O=k;l;m;n;6#t#t#5#5#5#5#5#4#4#t#k$8=<*o;p;q;r;s;#+d.c i c E.u c i i c $ h t;, c =*                          ",
"                                                          j.T.j#t [ ^+# 0 R.u;].i i i i c D.2@v;w;x;y;-=z;9#(*M#t#s#^=A;~-B;C;D;E;F;U-9+c c >.; R i y x = c.i [ a G;Q c c ^.p=                          ",
"                                                            H;p=> [ _ I;=*H.J;n.c i i i _ /.D.R _ h@K;L;M;N;O;h-0#P;&;Q;R;S;T;U;O-L i+_ i c -.V;|=i i _ u.a W;X;3@Y;0 c x ,@                            ",
"                                                              + & 0 c c T.l.5+I.7%c i i y v.> **c i i c R / Z;`;[# >.>t=:#w+R , i ' 7.0 _ i i =*c.i i _ d-w+3 +>@>#>H.R ; r.                            ",
"                                                                $>$ F.c 4 w+%>U+E+_ c i c R R.f@, c i i i y ].h+' R &>c F.) k.c i R u.z$c i c f@1.c i _ Q *>=>U.v.}.x -.->                              ",
"                                                                  u%,@H._ y - t+! ^ c i i c ].,@8%R i i c i c {.>.c i i _ >.;>[ i c a.i#F.c c R.{., c i n.H;a c k.G+v.h+                                ",
"                                                                      R+E.c S.E.>>#+x R c i R 0 3@-.c i i i c k.G.].c i c F.> E._ i c x@L R i k.i+i ,>9 d =>i c ^.h L !.                                ",
"                                                                        )+{.]._ 0 d '>P ^.c i _ >@d ^.c i i i R X#;@i i i R t h x c c 5 )>c c y h+4+h+n.E.)>F.c F.!>~>                                  ",
"                                                                          {>> -.R 5+]>D.> 1.c c c d-^>' c i i c 0 h+V+_ i y c g R.c i c 5;{;^.2./>l.^ c [ v&9.c ' (>                                    ",
"                                                                              )+; ].2.u n.> u.a.c i ] ; i c i i _ 3 #+y y i c a.v&c._ _ v&_>:>>.;%O=, y <>=>a.c g [>                                    ",
"                                                                                ~.3@-.]+g H.T.d g -.c.l.9 c c i i i I.]+R y c R T.2 R.f@I.}>^.c c.v&F.c -.G.v.w+R@                                      ",
"                                                                                    )+U.w |>c c.P > u 8%7.j+' c i _ -.G.-.' -.;%u N z ^.c i+8%_ i h ^.S.z@> ] &-                                        ",
"                                                                                      p=;.{ 1._ c <>5 ] { >>u+1>Z#b.h t+M =>l.n.9.- 2 i c d.G.c c g V+_ ]+]@2>                                          ",
"                                                                                        5.3>4>- F.c c c y x >.7.t c.5>a.|>3@c.R c i #+L c i { 3 [ #+5 i g 6>                                            ",
"                                                                                              [>7>9.c y c y c - ) 8>c c c P {.i c c 5+y@**[ - l.R l.9>;.f$                                              ",
"                                                                                                  j.:>E.0 i _ [ a { 5 c c 0 ) l.-._ y 8%u ^.v.=>V+x*x*                                                  ",
"                                                                                                      x*t+0>D.- -.9.*>a>_ R i ]+i#>@c c Q.k#d-C.++                                                      ",
"                                                                                                              b>t-x*c>s.T.R.]+>.* f$T.d>j+j#e>                                                          ",
"                                                                                                                        f>g>Y#g;h>@%b>b>                                                                ",
"                                                                                                                                                                                                        ",
"                                                                                                                                                                                                        ",
"                                                                                                                                                                                                        ",
"                                                                                                                                                                                                        "};
