/* XPM */
static char * merry_4_xpm[] = {
"100 100 1008 2",
"  	c None",
". 	c #000000",
"+ 	c #291B1B",
"@ 	c #2D1F1F",
"# 	c #3F2D2D",
"$ 	c #433030",
"% 	c #342424",
"& 	c #1F1414",
"* 	c #0D0606",
"= 	c #1A1111",
"- 	c #3D2B2B",
"; 	c #2E2020",
"> 	c #2C1D1D",
", 	c #140C0C",
"' 	c #010101",
") 	c #090404",
"! 	c #1C1212",
"~ 	c #382727",
"{ 	c #573F3F",
"] 	c #654A4A",
"^ 	c #6C4F4F",
"/ 	c #6C4E4E",
"( 	c #5A4141",
"_ 	c #281B1B",
": 	c #392828",
"< 	c #594040",
"[ 	c #674B4B",
"} 	c #6B4E4E",
"| 	c #694D4D",
"1 	c #664A4A",
"2 	c #624747",
"3 	c #533C3C",
"4 	c #473333",
"5 	c #382828",
"6 	c #2F2121",
"7 	c #140B0B",
"8 	c #4D3737",
"9 	c #644949",
"0 	c #6F5151",
"a 	c #6E5151",
"b 	c #6D5050",
"c 	c #5B4242",
"d 	c #3A2929",
"e 	c #5D4343",
"f 	c #6D4F4F",
"g 	c #684C4C",
"h 	c #634949",
"i 	c #523B3B",
"j 	c #422E2E",
"k 	c #3D2A2A",
"l 	c #150E0E",
"m 	c #110909",
"n 	c #5B4343",
"o 	c #493434",
"p 	c #513B3B",
"q 	c #644848",
"r 	c #654949",
"s 	c #6A4D4D",
"t 	c #604646",
"u 	c #5F4646",
"v 	c #694C4C",
"w 	c #634848",
"x 	c #4E3838",
"y 	c #1A1010",
"z 	c #070303",
"A 	c #030101",
"B 	c #3B2929",
"C 	c #402E2E",
"D 	c #5D4444",
"E 	c #4A3434",
"F 	c #483434",
"G 	c #483333",
"H 	c #3E2C2C",
"I 	c #422F2F",
"J 	c #453131",
"K 	c #4B3535",
"L 	c #503A3A",
"M 	c #4C3636",
"N 	c #443131",
"O 	c #3C2A2A",
"P 	c #261919",
"Q 	c #362625",
"R 	c #3D2C2C",
"S 	c #332624",
"T 	c #453332",
"U 	c #463232",
"V 	c #563E3E",
"W 	c #594141",
"X 	c #644A4A",
"Y 	c #5C4343",
"Z 	c #332424",
"` 	c #191010",
" .	c #060303",
"..	c #463333",
"+.	c #604545",
"@.	c #3E2B2B",
"#.	c #322323",
"$.	c #3A2828",
"%.	c #6E5050",
"&.	c #674C4C",
"*.	c #543D3D",
"=.	c #614747",
"-.	c #4E3738",
";.	c #493535",
">.	c #5E4444",
",.	c #281C1C",
"'.	c #302121",
").	c #3B2A2A",
"!.	c #432F2F",
"~.	c #201515",
"{.	c #362626",
"].	c #694E4D",
"^.	c #624848",
"/.	c #4B3736",
"(.	c #412E2E",
"_.	c #463131",
":.	c #251818",
"<.	c #593F3F",
"[.	c #453232",
"}.	c #5F4545",
"|.	c #5E4545",
"1.	c #543C3C",
"2.	c #4E3939",
"3.	c #533D3D",
"4.	c #684B4B",
"5.	c #513A3A",
"6.	c #241818",
"7.	c #0D0A01",
"8.	c #0B0901",
"9.	c #060400",
"0.	c #030200",
"a.	c #392728",
"b.	c #402D2D",
"c.	c #4F3939",
"d.	c #443030",
"e.	c #503939",
"f.	c #563F3F",
"g.	c #3C2B2A",
"h.	c #252003",
"i.	c #231E03",
"j.	c #262103",
"k.	c #2B2604",
"l.	c #383106",
"m.	c #3B3407",
"n.	c #3B3406",
"o.	c #373006",
"p.	c #332D04",
"q.	c #2D240E",
"r.	c #372A25",
"s.	c #4A3535",
"t.	c #5F4445",
"u.	c #614646",
"v.	c #5C4242",
"w.	c #483433",
"x.	c #6C5050",
"y.	c #503A39",
"z.	c #312222",
"A.	c #2B1D1D",
"B.	c #493334",
"C.	c #533B3B",
"D.	c #584040",
"E.	c #362926",
"F.	c #14100D",
"G.	c #181401",
"H.	c #282203",
"I.	c #352E05",
"J.	c #403807",
"K.	c #423A08",
"L.	c #433B08",
"M.	c #413A07",
"N.	c #383204",
"O.	c #2D2606",
"P.	c #221911",
"Q.	c #473334",
"R.	c #553D3D",
"S.	c #684A4B",
"T.	c #694C4D",
"U.	c #4D3636",
"V.	c #3F2C2C",
"W.	c #412D2D",
"X.	c #6A4E4E",
"Y.	c #5A4242",
"Z.	c #553E3E",
"`.	c #594140",
" +	c #2C1E1E",
".+	c #100E00",
"++	c #2A2404",
"@+	c #3A3306",
"#+	c #413A08",
"$+	c #3F3807",
"%+	c #2C260B",
"&+	c #473232",
"*+	c #614546",
"=+	c #5C4042",
"-+	c #686350",
";+	c #7B7A61",
">+	c #8E8D71",
",+	c #726F5A",
"'+	c #5D5447",
")+	c #503D3A",
"!+	c #553D3E",
"~+	c #5B3F41",
"{+	c #654849",
"]+	c #6B4F4F",
"^+	c #4B3636",
"/+	c #221E03",
"(+	c #413907",
"_+	c #2D2414",
":+	c #6A4D4E",
"<+	c #5C4143",
"[+	c #5B4A44",
"}+	c #7B7760",
"|+	c #9D9E7D",
"1+	c #BDBD96",
"2+	c #DBDCAE",
"3+	c #F4F4C3",
"4+	c #FBFBC9",
"5+	c #FEFECC",
"6+	c #FBFBCA",
"7+	c #EDEDBF",
"8+	c #E3E3B7",
"9+	c #CDCDA4",
"0+	c #B7B792",
"a+	c #87866B",
"b+	c #585744",
"c+	c #412E2D",
"d+	c #644649",
"e+	c #6D4F50",
"f+	c #6C504F",
"g+	c #282304",
"h+	c #3E3707",
"i+	c #413908",
"j+	c #3B3507",
"k+	c #393206",
"l+	c #3D3507",
"m+	c #3C3604",
"n+	c #302220",
"o+	c #67484A",
"p+	c #5B4542",
"q+	c #77715B",
"r+	c #B7B693",
"s+	c #F7F7C6",
"t+	c #FDFDCB",
"u+	c #FFFFCC",
"v+	c #FFFFCB",
"w+	c #FCFCCB",
"x+	c #FFFFCD",
"y+	c #FDFDCC",
"z+	c #EDEEBF",
"A+	c #99997A",
"B+	c #554A40",
"C+	c #5A3E40",
"D+	c #190F0E",
"E+	c #25181A",
"F+	c #272204",
"G+	c #403808",
"H+	c #352E06",
"I+	c #272203",
"J+	c #2C2704",
"K+	c #302A04",
"L+	c #3F3707",
"M+	c #433B09",
"N+	c #322912",
"O+	c #634948",
"P+	c #6A4C4E",
"Q+	c #746F5B",
"R+	c #C9C9A2",
"S+	c #F2F2C5",
"T+	c #FFFFCE",
"U+	c #DBDBAF",
"V+	c #A3A382",
"W+	c #A9A986",
"X+	c #D9D9AE",
"Y+	c #E3E3B9",
"Z+	c #A9A886",
"`+	c #6C6854",
" @	c #563C3E",
".@	c #583F3F",
"+@	c #372626",
"@@	c #261A1A",
"#@	c #503A3C",
"$@	c #28200E",
"%@	c #332D05",
"&@	c #423908",
"*@	c #423B08",
"=@	c #3F3808",
"-@	c #383104",
";@	c #543C3D",
">@	c #634648",
",@	c #584F43",
"'@	c #B4B48F",
")@	c #F1F1C1",
"!@	c #EEEEC1",
"~@	c #E5E5B7",
"{@	c #A4A483",
"]@	c #ACAC89",
"^@	c #F5F5C6",
"/@	c #EFEFC0",
"(@	c #4D3B38",
"_@	c #6A4C4C",
":@	c #5E4445",
"<@	c #2A2213",
"[@	c #4A3436",
"}@	c #584341",
"|@	c #908D71",
"1@	c #DCDCB0",
"2@	c #FAFACC",
"3@	c #C8C8A1",
"4@	c #AFAF8B",
"5@	c #F9F9C8",
"6@	c #F9F9CA",
"7@	c #C5C69F",
"8@	c #4B4137",
"9@	c #473032",
"0@	c #423030",
"a@	c #3D2C2B",
"b@	c #3C3504",
"c@	c #433A08",
"d@	c #393306",
"e@	c #2C2604",
"f@	c #342E04",
"g@	c #2E2722",
"h@	c #B5B590",
"i@	c #F9F9C7",
"j@	c #C0C099",
"k@	c #D1D1A7",
"l@	c #FEFECD",
"m@	c #E0E0B4",
"n@	c #77775E",
"o@	c #5A4041",
"p@	c #2F2906",
"q@	c #342D05",
"r@	c #312A04",
"s@	c #241F02",
"t@	c #262314",
"u@	c #AAAA88",
"v@	c #F5F5C5",
"w@	c #AFAF8C",
"x@	c #FAFAC8",
"y@	c #F2F2C3",
"z@	c #98987A",
"A@	c #5D4243",
"B@	c #5E4544",
"C@	c #2F2020",
"D@	c #4D3838",
"E@	c #2B2119",
"F@	c #2D2604",
"G@	c #3D3607",
"H@	c #322C05",
"I@	c #2E2702",
"J@	c #949476",
"K@	c #F8F8C9",
"L@	c #F9F9CB",
"M@	c #DCDCB6",
"N@	c #DDDDB1",
"O@	c #F8F8C7",
"P@	c #C7C79F",
"Q@	c #F0F0C2",
"R@	c #85846A",
"S@	c #624547",
"T@	c #6D5151",
"U@	c #473434",
"V@	c #433131",
"W@	c #523C3C",
"X@	c #664B4B",
"Y@	c #1C1111",
"Z@	c #2F2418",
"`@	c #423A07",
" #	c #383105",
".#	c #262104",
"+#	c #3E3607",
"@#	c #3C3507",
"##	c #362F05",
"$#	c #75755C",
"%#	c #E8E8BC",
"&#	c #F2F2C6",
"*#	c #C9C9A5",
"=#	c #9E9E8A",
"-#	c #90908E",
";#	c #767677",
">#	c #B0B08F",
",#	c #FAFAC9",
"'#	c #E7E7B9",
")#	c #BABA95",
"!#	c #E5E5B9",
"~#	c #574C41",
"{#	c #4F3838",
"]#	c #120C0C",
"^#	c #0A0505",
"/#	c #2B2411",
"(#	c #292303",
"_#	c #292304",
":#	c #3A3307",
"<#	c #342E05",
"[#	c #272304",
"}#	c #262003",
"|#	c #2A2403",
"1#	c #2B2504",
"2#	c #3A3207",
"3#	c #39382A",
"4#	c #D8D8AE",
"5#	c #EAEABE",
"6#	c #8F8F7D",
"7#	c #959595",
"8#	c #7D7D7F",
"9#	c #545454",
"0#	c #454546",
"a#	c #8E8E8D",
"b#	c #D2D2AA",
"c#	c #ECECBF",
"d#	c #B0B18F",
"e#	c #3F352F",
"f#	c #1F1515",
"g#	c #3E2C2B",
"h#	c #363004",
"i#	c #282303",
"j#	c #373005",
"k#	c #3C3407",
"l#	c #403907",
"m#	c #322B05",
"n#	c #292404",
"o#	c #262001",
"p#	c #828267",
"q#	c #979782",
"r#	c #C0C0C1",
"s#	c #575757",
"t#	c #0C0C0D",
"u#	c #010000",
"v#	c #8F8F8D",
"w#	c #B2B29F",
"x#	c #F7F7C5",
"y#	c #B2B28F",
"z#	c #F6F6C7",
"A#	c #78755F",
"B#	c #694B4C",
"C#	c #4B3737",
"D#	c #2B2215",
"E#	c #2D2704",
"F#	c #221D02",
"G#	c #262102",
"H#	c #252103",
"I#	c #2B2404",
"J#	c #403806",
"K#	c #3D3A26",
"L#	c #9B9B82",
"M#	c #C5C5C6",
"N#	c #7B7B7B",
"O#	c #070708",
"P#	c #A0A09E",
"Q#	c #9F9F97",
"R#	c #E8E8BA",
"S#	c #D3D3AB",
"T#	c #C3C39D",
"U#	c #C1C29B",
"V#	c #5A3D40",
"W#	c #352720",
"X#	c #3E3705",
"Y#	c #3A3204",
"Z#	c #8E8E71",
"`#	c #C7C79D",
" $	c #ABABAB",
".$	c #909090",
"+$	c #040505",
"@$	c #4A4A4C",
"#$	c #D1D1D2",
"$$	c #8F8F7B",
"%$	c #F8F8C8",
"&$	c #D0D0A8",
"*$	c #CBCBA2",
"=$	c #EEEEC0",
"-$	c #635D4D",
";$	c #4E3737",
">$	c #352525",
",$	c #080303",
"'$	c #120B0B",
")$	c #372726",
"!$	c #342E08",
"~$	c #2B2501",
"{$	c #CACAA2",
"]$	c #909075",
"^$	c #585858",
"/$	c #242424",
"($	c #C7C7C7",
"_$	c #C6C6C5",
":$	c #CACAA0",
"<$	c #C8C89F",
"[$	c #D5D5AA",
"}$	c #A2A281",
"|$	c #362425",
"1$	c #372727",
"2$	c #392C22",
"3$	c #413906",
"4$	c #423907",
"5$	c #6C6C53",
"6$	c #F5F5C8",
"7$	c #ACAD8E",
"8$	c #E2E2E3",
"9$	c #4C4C4C",
"0$	c #4D4D4C",
"a$	c #BEBEBD",
"b$	c #E3E3E4",
"c$	c #979783",
"d$	c #B3B38E",
"e$	c #E2E2B5",
"f$	c #DFDFB3",
"g$	c #4D3F38",
"h$	c #6F5252",
"i$	c #392727",
"j$	c #271B1B",
"k$	c #030202",
"l$	c #513A3B",
"m$	c #342E06",
"n$	c #342C03",
"o$	c #9D9D7D",
"p$	c #C8C89E",
"q$	c #C9C9CA",
"r$	c #D5D5D5",
"s$	c #BEBEBE",
"t$	c #E8E8E7",
"u$	c #CFCFCF",
"v$	c #919182",
"w$	c #E9E9B9",
"x$	c #FEFECE",
"y$	c #9C9C7D",
"z$	c #F5F5C7",
"A$	c #676451",
"B$	c #5C4444",
"C$	c #201414",
"D$	c #5B4141",
"E$	c #3C2C28",
"F$	c #383305",
"G$	c #393726",
"H$	c #F6F6C6",
"I$	c #A6A688",
"J$	c #B6B6B5",
"K$	c #D8D8DB",
"L$	c #C8C8C9",
"M$	c #9B9B8F",
"N$	c #BCBC97",
"O$	c #F0F0C0",
"P$	c #9B9B7C",
"Q$	c #65494A",
"R$	c #463332",
"S$	c #100909",
"T$	c #2A1E1A",
"U$	c #2D2806",
"V$	c #52513E",
"W$	c #F1F1C2",
"X$	c #D6D6AA",
"Y$	c #C0C09B",
"Z$	c #D4D4AA",
"`$	c #F4F4C4",
" %	c #ABAB88",
".%	c #E9E9BD",
"+%	c #5F4244",
"@%	c #180F0F",
"#%	c #594041",
"$%	c #32261E",
"%%	c #373105",
"&%	c #6F6E57",
"*%	c #FFFFD0",
"=%	c #C0C09D",
"-%	c #C4C4A0",
";%	c #DCDCB2",
">%	c #423630",
",%	c #342525",
"'%	c #050303",
")%	c #644849",
"!%	c #2A2212",
"~%	c #373103",
"{%	c #403906",
"]%	c #443C08",
"^%	c #322B04",
"/%	c #A5A584",
"(%	c #FEFECB",
"_%	c #FCFCCE",
":%	c #E7E7BE",
"<%	c #AFAF90",
"[%	c #6F6F59",
"}%	c #8D8D72",
"|%	c #F9F9CC",
"1%	c #F4F4C6",
"2%	c #716D58",
"3%	c #291C1C",
"4%	c #352323",
"5%	c #493536",
"6%	c #33261E",
"7%	c #28220A",
"8%	c #312C03",
"9%	c #3C3406",
"0%	c #3E3706",
"a%	c #383424",
"b%	c #F3F3C4",
"c%	c #BEBE98",
"d%	c #EFEFC1",
"e%	c #F8F8CC",
"f%	c #D2D2AD",
"g%	c #929275",
"h%	c #CECEAB",
"i%	c #F3F3C8",
"j%	c #BEBE9A",
"k%	c #CCCCA4",
"l%	c #989779",
"m%	c #644749",
"n%	c #513B3A",
"o%	c #28221E",
"p%	c #251919",
"q%	c #3A2A27",
"r%	c #2B2019",
"s%	c #2D260C",
"t%	c #332E05",
"u%	c #3D3505",
"v%	c #4B4A37",
"w%	c #EBEBBC",
"x%	c #FBFBCC",
"y%	c #C7C7A0",
"z%	c #909072",
"A%	c #BBBB96",
"B%	c #FEFECF",
"C%	c #EAEAC0",
"D%	c #B7B797",
"E%	c #87876E",
"F%	c #A6A687",
"G%	c #E5E5BC",
"H%	c #FCFCCF",
"I%	c #F7F7C8",
"J%	c #A4A382",
"K%	c #604244",
"L%	c #50393A",
"M%	c #362726",
"N%	c #533C3D",
"O%	c #412F2E",
"P%	c #2C2019",
"Q%	c #2D260D",
"R%	c #2F2A04",
"S%	c #5A5A47",
"T%	c #CECEA5",
"U%	c #8F8F71",
"V%	c #919173",
"W%	c #88886C",
"X%	c #C2C2A0",
"Y%	c #F2F2C8",
"Z%	c #9F9F7F",
"`%	c #BFC098",
" &	c #583C3F",
".&	c #2D1E1E",
"+&	c #241919",
"@&	c #402E2D",
"#&	c #312122",
"$&	c #CFCFA9",
"%&	c #ACAC8B",
"&&	c #F9F9CD",
"*&	c #C3C39B",
"=&	c #A7A785",
"-&	c #B5B591",
";&	c #543A3D",
">&	c #684D4D",
",&	c #483232",
"'&	c #6E5150",
")&	c #523A3B",
"!&	c #696651",
"~&	c #DEDEB3",
"{&	c #EDEDBE",
"]&	c #8F8F72",
"^&	c #3F2B2C",
"/&	c #5B5546",
"(&	c #F1F1C3",
"_&	c #979778",
":&	c #F8F8C6",
"<&	c #DEDEB2",
"[&	c #F3F3C5",
"}&	c #6D6A55",
"|&	c #342323",
"1&	c #654A49",
"2&	c #4F3B39",
"3&	c #E3E3B6",
"4&	c #B3B390",
"5&	c #EBEBBD",
"6&	c #A4A482",
"7&	c #4B3536",
"8&	c #443130",
"9&	c #563B3E",
"0&	c #C9C9A1",
"a&	c #E2E2B7",
"b&	c #E4E4B8",
"c&	c #DFDFB2",
"d&	c #BEBE97",
"e&	c #C2C39C",
"f&	c #563D3E",
"g&	c #322222",
"h&	c #5F4245",
"i&	c #A0A07F",
"j&	c #AFB08C",
"k&	c #959577",
"l&	c #624446",
"m&	c #231717",
"n&	c #5A4040",
"o&	c #3C292A",
"p&	c #6B6A53",
"q&	c #D7D7AC",
"r&	c #ECECC0",
"s&	c #5A5645",
"t&	c #3E2D2D",
"u&	c #3B2A29",
"v&	c #493534",
"w&	c #553E3D",
"x&	c #CFCFA5",
"y&	c #BFBE99",
"z&	c #D1D2A8",
"A&	c #4F3738",
"B&	c #66494A",
"C&	c #8F8C71",
"D&	c #FBFCC9",
"E&	c #E0E0B5",
"F&	c #B9B994",
"G&	c #F9F9C9",
"H&	c #908F72",
"I&	c #211616",
"J&	c #4D3937",
"K&	c #D6D7AB",
"L&	c #C8C8A0",
"M&	c #BEBE99",
"N&	c #FFFFCF",
"O&	c #493C36",
"P&	c #050202",
"Q&	c #2B1E1E",
"R&	c #4C3737",
"S&	c #5D4344",
"T&	c #76765E",
"U&	c #F2F2C2",
"V&	c #FBFBCB",
"W&	c #908F73",
"X&	c #4D3537",
"Y&	c #150C0D",
"Z&	c #4C3135",
"`&	c #FAFACA",
" *	c #CACAA3",
".*	c #423B32",
"+*	c #3F2D2C",
"@*	c #150C0C",
"#*	c #1B1212",
"$*	c #5E5548",
"%*	c #C2C29B",
"&*	c #E8E8BB",
"**	c #66484A",
"=*	c #5F4444",
"-*	c #614346",
";*	c #838169",
">*	c #EFEFC2",
",*	c #C0C09A",
"'*	c #969683",
")*	c #9D9D92",
"!*	c #999989",
"~*	c #ABAB8A",
"{*	c #DADAAD",
"]*	c #F8F9C8",
"^*	c #949475",
"/*	c #593F40",
"(*	c #6B4D4D",
"_*	c #1E1515",
":*	c #664949",
"<*	c #4A3636",
"[*	c #573E3F",
"}*	c #8C8A6F",
"|*	c #F6F6C8",
"1*	c #F6F6C5",
"2*	c #B7B796",
"3*	c #A4A49F",
"4*	c #CFCFD0",
"5*	c #E8E8E8",
"6*	c #E4E4E4",
"7*	c #EAEAEA",
"8*	c #DBDBDC",
"9*	c #A6A6A6",
"0*	c #F1F1C0",
"a*	c #ADAD8A",
"b*	c #4F3A39",
"c*	c #29151A",
"d*	c #A8A886",
"e*	c #B9B995",
"f*	c #CACACB",
"g*	c #A9A9AA",
"h*	c #575758",
"i*	c #313131",
"j*	c #404040",
"k*	c #606060",
"l*	c #9F9F9F",
"m*	c #BEBEC0",
"n*	c #C7C7A2",
"o*	c #D1D1A8",
"p*	c #493A35",
"q*	c #6E5051",
"r*	c #2E1F1F",
"s*	c #624646",
"t*	c #453030",
"u*	c #3C2A2B",
"v*	c #2A220F",
"w*	c #2D2815",
"x*	c #9F9F91",
"y*	c #E9E9EA",
"z*	c #5A5A5A",
"A*	c #808081",
"B*	c #A7A78F",
"C*	c #E1E1B4",
"D*	c #62604E",
"E*	c #674B4C",
"F*	c #0F0909",
"G*	c #362724",
"H*	c #3C3506",
"I*	c #251E07",
"J*	c #939476",
"K*	c #F4F4C5",
"L*	c #D4D4D4",
"M*	c #060707",
"N*	c #595958",
"O*	c #97978A",
"P*	c #CECFA4",
"Q*	c #564F42",
"R*	c #190F0F",
"S*	c #342D06",
"T*	c #302808",
"U*	c #73735B",
"V*	c #B3B391",
"W*	c #D9D9DA",
"X*	c #B3B3B3",
"Y*	c #2F2F2F",
"Z*	c #060606",
"`*	c #1E1E1E",
" =	c #888889",
".=	c #868671",
"+=	c #BCBC96",
"@=	c #584B42",
"#=	c #412F2F",
"$=	c #2C2414",
"%=	c #413806",
"&=	c #443C09",
"*=	c #352D03",
"==	c #5D5B47",
"-=	c #ECECBE",
";=	c #848476",
">=	c #B0B0B0",
",=	c #C0C0C0",
"'=	c #BFBFBF",
")=	c #B6B6B6",
"!=	c #979798",
"~=	c #919191",
"{=	c #90908C",
"]=	c #9C9C88",
"^=	c #E0E0B7",
"/=	c #A09F7F",
"(=	c #543F3D",
"_=	c #5D4443",
":=	c #674A4A",
"<=	c #3A3305",
"[=	c #3C3404",
"}=	c #302B13",
"|=	c #585845",
"1=	c #EFF0C5",
"2=	c #C1C199",
"3=	c #A2A288",
"4=	c #999985",
"5=	c #A0A08D",
"6=	c #8D8D7D",
"7=	c #B1B192",
"8=	c #E0E0B6",
"9=	c #DADBB1",
"0=	c #8C8B6F",
"a=	c #5E5046",
"b=	c #634748",
"c=	c #040303",
"d=	c #5A4142",
"e=	c #2E270D",
"f=	c #2B2502",
"g=	c #727259",
"h=	c #B7B794",
"i=	c #DEDEB6",
"j=	c #FCFCCC",
"k=	c #EEEEBF",
"l=	c #C3C39C",
"m=	c #88866B",
"n=	c #584942",
"o=	c #593C3F",
"p=	c #6C4F50",
"q=	c #271A1A",
"r=	c #1B1111",
"s=	c #664A4B",
"t=	c #31241E",
"u=	c #3C3405",
"v=	c #302801",
"w=	c #2D2A1A",
"x=	c #6B6B54",
"y=	c #7F7F64",
"z=	c #8C8C6F",
"A=	c #CFCFA7",
"B=	c #E1E1B5",
"C=	c #D3D4A9",
"D=	c #B2B18E",
"E=	c #8D8B6F",
"F=	c #605949",
"G=	c #594841",
"H=	c #5A3F41",
"I=	c #6A4C4D",
"J=	c #574040",
"K=	c #352F04",
"L=	c #2A2405",
"M=	c #3B3305",
"N=	c #372F04",
"O=	c #2C2502",
"P=	c #282512",
"Q=	c #2B231E",
"R=	c #51383A",
"S=	c #604245",
"T=	c #6C4E4F",
"U=	c #020000",
"V=	c #442F2F",
"W=	c #2F2805",
"X=	c #302908",
"Y=	c #6D504F",
"Z=	c #201616",
"`=	c #0F0808",
" -	c #4D3736",
".-	c #64494A",
"+-	c #312815",
"@-	c #2F2710",
"#-	c #322421",
"$-	c #3D3605",
"%-	c #2E211F",
"&-	c #533B3C",
"*-	c #312B05",
"=-	c #2E2804",
"--	c #3A3206",
";-	c #241F03",
">-	c #31251B",
",-	c #342620",
"'-	c #362F06",
")-	c #2B2503",
"!-	c #2C230F",
"~-	c #1E1414",
"{-	c #2C1C1C",
"]-	c #2C2605",
"^-	c #302904",
"/-	c #2D2708",
"(-	c #3A3304",
"_-	c #413808",
":-	c #272108",
"<-	c #2A1D1D",
"[-	c #382825",
"}-	c #3F3806",
"|-	c #2E2905",
"1-	c #3B3405",
"2-	c #2C2314",
"3-	c #282204",
"4-	c #2E270B",
"5-	c #563F3E",
"6-	c #1D1313",
"7-	c #312A05",
"8-	c #19100F",
"9-	c #130B0B",
"0-	c #221515",
"a-	c #312021",
"b-	c #3F3708",
"c-	c #2E2904",
"d-	c #2E2610",
"e-	c #383205",
"f-	c #252104",
"g-	c #353005",
"h-	c #2E201E",
"i-	c #140C0B",
"j-	c #332222",
"k-	c #2F290B",
"l-	c #3B3506",
"m-	c #272104",
"n-	c #251F03",
"o-	c #3B3306",
"p-	c #181402",
"q-	c #3A2C24",
"r-	c #543D3C",
"s-	c #373108",
"t-	c #1F1A03",
"u-	c #3F2C2D",
"v-	c #2C250E",
"w-	c #403908",
"x-	c #272303",
"y-	c #221717",
"z-	c #26200B",
"A-	c #080404",
"B-	c #2E2319",
"C-	c #634747",
"D-	c #2C240D",
"E-	c #302A05",
"F-	c #3B3505",
"G-	c #3E3606",
"H-	c #3C3505",
"I-	c #3E3807",
"J-	c #241E02",
"K-	c #58403F",
"L-	c #4D3837",
"M-	c #443230",
"N-	c #211813",
"O-	c #141102",
"P-	c #1C1902",
"Q-	c #151000",
"R-	c #050400",
"S-	c #040202",
"T-	c #624A47",
"U-	c #0C0506",
"V-	c #322424",
"W-	c #291D1D",
"                                                                                                                                                                                                        ",
"                                                                                                                                                                                                        ",
"                                                                                                                                                                                                        ",
"                                                                                                                                                                                                        ",
"                                                                                                                                                                                                        ",
"                                                                                                                                                                                                        ",
"                                                                                                                                                                                                        ",
"                                                                                                                                                                                                        ",
"                                                                                                                                                                                                        ",
"                                                                                                . + @ # $ % & * = - ; > , '                                                                             ",
"                                                                                          ) ! ~ { ] ^ / ( _ : < [ } | 1 2 3 4 5 6 7                                                                     ",
"                                                                                      . & 8 9 0 a b c d $ e } b ^ ^ b b b b b f g h i 4 j k ! l                                                         ",
"                                                                                  . m $ 9 0 b ^ n o p q g r s [ [ t t u ] [ v ^ ^ s w ] ] < x ; y z                                                     ",
"                                                                            A , B C D b b r E # # F G H I J B C 4 K L M N O P Q R S T U 4 V W X r Y C Z `  .                                            ",
"                                                                          = ..D w +.c G @.#.$.U { t g s b %.^ %.b &.h c p 4 *.=.=.-.R ;.i >.&.b ^ b b ^ ] p ,.                                          ",
"                                                                      '.~ ).F o !.~.{.*.&.^ b ^ b f ^ ^ f ^ s >.U J E V =.s b f b b ].^.e /.(._.W } b ^ ^ b u ~ .                                       ",
"                                                                :.$.<.v ^ f >.N [.}.} %.b ^ ^ ^ ^ b b g |.G I 1.] a ^ b b ^ ^ ^ ^ ^ ^ ^ b b ^ =.2.B 3.4.b ^ f | 5.6.                                    ",
"                                                    7.8.9.0.. a.}.f b b w b.x r b b ^ ^ ^ ^ ^ b b ] c.d.e.9 ^ b ^ ^ ^ ^ ^ ^ ^ ^ ^ ^ ^ ^ ^ b ^ %.^ v f.g.t b b b %.=.- =                                 ",
"                                            h.i.j.k.l.m.n.o.p.q.r.s.t.w (.u.b f ^ ^ ^ ^ f b } v.w.G D x.b ^ ^ ^ ^ ^ ^ ^ ^ ^ ^ ^ f b s [ 2 V 1.y.J b.b.z.A.B.5.C.D.|.>.E.F.                              ",
"                                      G.H.I.J.K.K.K.L.K.K.K.L.K.M.N.O.P.Q.b ^ ^ ^ ^ b b [ R.!.c.1 b b ^ b ^ g S.T.b b b b ^ b ^ r U.V.W.K < W 2 [ X.[ v w G ).Y.Z.M c.`.`. +                            ",
"                                  .+++@+#+L.K.K.K.K.K.K.K.K.K.K.K.K.K.$+%+*.%.^ b / t w.&+c X.%.b T.*+=+c.-+;+>+,+'+)+!+~+{+v._.K u ]+b f b ^ ^ ^ ^ ^ ^ ^ ^ ^+8 b a b b b 1 O                           ",
"                                /+o.K.K.K.K.K.K.K.K.K.K.K.K.K.K.K.K.K.K.(+_+2 | { d.2.2 b a :+<+[+}+|+1+2+3+4+5+6+7+8+9+0+a+b+c+d+e+b ^ ^ ^ ^ ^ ^ ^ b ^ ^ ^ f+M U } b b b %.1 %                         ",
"                            8.g+h+L.K.K.K.K.K.K.i+J.j+k+l+K.K.K.K.K.K.K.L.m+n+I Z.g a b o+p+q+r+8+s+t+u+u+u+v+v+u+u+w+x+x+y+z+9+A+B+C+} b ^ b ^ ^ ^ ^ b ^ b ^ | o o e Y.G 8 t ( D+                      ",
"                        $.E+F+K.K.K.K.K.K.K.G+H+H.I+J+K+F+h.L+L.K.K.K.K.K.M+N+O+%.b P+t.Q+R+S+T+u+v+v+v+v+v+v+v+u+U+V+W+X+w+u+x+w+Y+Z+`+ @^ ^ ^ b %.} 1 w .@&+# M d - i 1 ( E (.+@@@                    ",
"                    & $ #@$@G+K.K.K.K.K.K.$+H.%@h+&@K.L.*@o.j.=@K.K.K.K.K.K.-@;@e+>@,@'@)@x+v+v+v+v+v+v+v+v+v+v+u+3+!@~@{@]@^@u+v+u+u+/@{@(@_@a | D.C $ G W [ ^ b &.j 9 b b b b ^ 1 d                   ",
"                : i 1 :@<@$+L.K.K.K.K.K.i+g+l.K.K.K.K.K.K.L.I.I.L.K.K.K.K.K.-@[@}@|@1@t+u+v+v+v+v+v+v+v+v+v+v+v+v+v+v+u+2@3@4@5@v+v+v+v+6@7@8@9@0@R.v %.b b b ^ ^ b =.;.^ ^ b b b b +.Z                 ",
"            R W | %.} a@b@c@K.K.K.K.K.K.d@e@K.i+G+K.K.K.K.K.$+I+K.K.K.K.K.L.f@g@h@i@u+v+v+v+v+v+v+v+v+v+v+v+v+v+v+v+v+v+v+y+j@k@u+v+v+v+v+l@m@n@o@a ^ ^ ^ ^ ^ ^ ^ ^ f M +.] Y e.$ H (.!                 ",
"            d.%.^ }.U p@K.K.K.K.K.K.K.K.q@I.L.m.r@K.K.K.K.K.h+s@L.K.K.K.K.K.t@u@5@u+u+u+v+v+v+v+v+v+v+v+v+v+v+v+v+v+v+v+v+v+v@w@x@v+v+v+v+v+u+y@z@A@%.^ ^ b ^ b ^ X.B@&+C@&+R.>.| g 9 <                 ",
"            C ^.!.D@E@J.K.K.K.K.K.K.K.K.k+K+K.i+F@G@L.K.K.K.%@H@K.K.K.K.K.I@J@K@T+L@M@N@O@u+v+v+v+v+v+v+v+v+v+v+v+v+v+v+v+v+u+P@N@u+v+v+v+v+v+u+Q@R@S@b T@} =.5.U@V@W@+.s.^.b b b a X@5.Y@              ",
"            ` b.9 } Z@`@K.K.K.K.K.K.K.K.i+g+ #K.k+.#+#L.K.@#h.L+K.K.K.K.##$#%#&#*#=#-#;#>#,#v+v+v+v+v+v+v+v+v+v+v+v+v+v+v+v+u+'#)#x+v+v+v+v+v+v+u+!#~#( s.(.s.|.1 ]+b b }.{#%.^ t N d V *.]#            ",
"            ^#w b 2 /#L.K.K.K.K.K.K.K.K.K.h+(#_#:#<#[#}#|#1#2#c@K.L.$+<#3#4#5#6#7#8#9#0#a#b#5+v+v+v+v+v+v+v+v+v+v+v+v+v+v+v+v+c#{@5+v+v+v+v+v+v+v+5+d#e#9 } b f ^ ^ ^ b %.G c.d 4 |.x.a x f#            ",
"            . x a g#h#K.K.K.K.K.K.K.K.K.K.K.&@m.e@i#e@j#k#l#K.i+G@m#n#o#p#7+q#r#s#t#u#. v#w#x#v+v+v+v+v+v+v+v+v+v+v+v+v+v+v+u+8+y#T+v+v+v+v+v+v+v+u+z#A#B#^ ^ ^ ^ %.b ^.C#A.W.X@a ^ b < W.d.            ",
"              d.g D#L.K.K.K.K.K.K.K.K.K.K.K.K.K.L.i+l.E#F#G#H#I+I#<#J#K#k@L#M#N#. u#u#O#P#Q#R#v+v+v+v+v+v+v+v+v+v+v+v+v+v+v+u+S#T#x+v+v+v+v+v+v+v+v+u+U#V#b b a s Y.R H D v G ^ ^ X.D.d.4.R..           ",
"              #.g W#X#K.K.K.K.K.K.K.K.K.K.K.K.K.K.K.L.L.K.(+J.i+K.K.Y#Z#`# $.$+$u#u#u#@$#$$$%$v+v+v+v+v+v+v+v+v+v+v+v+v+v+v+x+&$*$u+v+v+v+v+v+v+v+v+u+=$-$%.X@;$>$8 9 b b b x B@9 &+i | b < ,$          ",
"              '$)$&+!$L.K.K.K.K.K.K.K.K.K.K.K.K.K.K.K.K.K.K.K.K.K.K.~${$]$#$^$u#u#u#/$($_$:$x+v+v+v+v+v+v+v+v+v+v+v+v+v+v+v+x+<$[$u+v+v+v+v+v+v+v+v+v+t+}$|$- V s %.^ ^ ^ b }.1$G t b ^ | d..           ",
"                o } 2$3$K.K.K.K.K.K.K.K.K.K.K.K.K.K.K.K.K.K.K.K.K.4$5$6$7$8$9$. u#0$a$b$c$s+u+v+v+v+v+v+v+v+v+v+v+v+v+v+v+v+u+d$e$v+v+v+v+v+v+v+v+v+v+u+f$g$h$b b ^ b b } < !.i$X@b ^ ^ ;.j$k$          ",
"                O | l$m$L.K.K.K.K.K.K.K.K.K.K.K.K.K.K.K.K.K.K.K.K.n$o$T+p$q$r$7#s$t$u$v$w$u+v+v+v+v+v+v+v+v+v+v+v+v+v+v+v+v+x$y$!@v+v+v+v+v+v+v+v+v+v+v+z$A$e+^ ^ ^ b D d.R.| i B$^ b D.E i .           ",
"                C$D$| E$F$L.K.K.K.K.K.K.K.K.K.K.K.K.K.K.K.K.K.K.*@G$f$u+H$I$J$K$L$M$N$O$x+v+v+v+v+v+v+v+v+v+v+v+v+v+v+v+v+v+u+P$Q@v+v+v+v+v+v+v+v+v+v+v+l@>+Q$^ a &.8 R$] b b =.8 a g H g ( S$          ",
"                  j =.4 T$U$X#K.K.K.K.K.K.K.K.K.K.K.K.K.K.K.K.K.K.V$W$v+u+4+X$Y$Z$`$u+u+v+v+v+v+v+v+v+v+v+v+v+v+v+v+v+v+v+v+x+ %.%v+v+v+v+v+v+v+v+v+v+v+T+j@+%v c.# c ]+f ^ ^ | !.( J *.b Y @%          ",
"                  , $ 2 } #%$%%%`@K.K.K.K.K.K.K.K.K.K.K.K.K.K.K.L+&%%$v+v+v+u+u+u+v+v+v+v+v+v+v+v+v+v+v+v+v+v+v+v+v+v+v+v+u+*%=%-%x+v+v+v+v+v+v+v+v+v+v+u+;%>%W.Y.} a ^ b ^ f X.,%b.g %.b D.'%          ",
"                    x b ^ b )%U !%~%{%]%K.K.K.K.K.K.K.K.K.K.K.K.^%/%x+v+v+v+v+v+v+v+v+v+v+v+v+v+v+v+u+(%u+v+v+v+v+v+v+x+_%:%<%[%}%|%v+v+v+v+v+v+v+v+v+v+v+1%2%Q$b ^ ^ ^ ^ b ]+3 3%r b ^ ^ 8             ",
"                    4%[ ^ ^ f b q 5%6%7%8%##9%0%K.K.K.K.K.K.K.L.a%f$u+v+v+v+v+v+v+v+v+v+v+v+v+v+v+v+b%c%d%x+v+v+v+T+e%f%J@g%h%i%j%k%l@v+v+v+v+v+v+v+v+v+v+l@l%m%^ ^ ^ ^ %.2 J i C ] b ^ n%o%            ",
"                    Y@V b ^ ^ ^ ^ b s w !+o p%q%r%s%t%u%`@L.c@`@v%w%v+v+v+v+v+v+v+v+v+v+v+v+v+v+v+v+x%y%z%A%!@B%C%D%E%F%G%H%x+u+I%z@9+l@v+v+v+v+v+v+v+v+v+5+J%K%^ ^ b &.4 s.2 b H &./ &+L%M%            ",
"                      k } ^ ^ ^ f %.X.>.U G }.b | ^.N%O%P%Q%R% #S%v@v+v+v+v+v+v+v+v+v+v+v+v+v+v+v+v+v+u+,#T%U%V%W%X%Y%x$u+v+v+v+u+z$Z%c%O@v+v+v+v+v+v+v+v+u+`% &a X.Y a@Y.%.b %.# | 5.;$X..&            ",
"                      +&}.b ^ b X.1.@&p 9 b b ^ ^ f b b } Q$o@#&S%s+v+v+v+v+v+v+v+v+v+v+v+v+v+v+v+v+v+v+v+x+$&%&&&T+v+v+v+v+v+v+v+u+x@*&=&^@u+v+v+v+v+v+v+x+-&;&R.b.x >&%.^ ^ b V.i J } |.`             ",
"                        ,&^ b [ H p | '&^ ^ ^ ^ ^ ^ f b 1 i 0@)&!&%$v+v+v+v+v+v+v+v+v+v+v+v+v+v+v+v+v+v+v+x+ %~&u+v+v+v+v+v+v+v+v+v+v+x+&$z@{&x+v+v+v+v+v+x+]&^&W ]+b ^ ^ ^ ^ b : j v %.V .             ",
"                        C@1 s R }.b ^ ^ ^ ^ b ^ b b s 1.: D ^ a /&(&v+v+v+v+v+v+v+v+v+v+v+v+v+v+v+v+v+v+v+s+_&:&v+v+v+v+v+v+v+v+v+v+v+v+T+~&V%<&5+v+v+v+v+[&}&b b ^ ^ ^ ^ ^ b 2 |&[ b b 0@              ",
"                          ;.!..@%.^ ^ ^ b ^ ^ b 1&p W..@s %.^ b 2&3&v+v+v+v+v+v+v+v+v+v+v+v+v+v+v+v+v+v+u+&$4&x+v+v+v+v+v+v+v+v+v+v+v+v+v+x+5&6&/@u+v+v+u+f$7&x.^ b ^ ^ ^ ^ X@1$5 b ^ } %               ",
"                          '.^.^ b ^ ^ ^ e+} }.F 8&>.]+b ^ ^ ^ b 9&0&u+v+v+v+v+v+v+v+v+v+v+v+v+v+v+v+v+v+u+a&b&u+v+v+v+v+v+v+v+v+v+v+v+v+v+v+x+c&d&u+v+v+u+e&f&b ^ ^ ^ ^ ^ &.b.R.4 b ^ g g&              ",
"                          p%< b ^ b b | 3 @&y.1 ^ b ^ ^ ^ f b b h&i&(%v+v+v+v+v+v+v+v+v+v+v+v+v+v+v+v+v+v+u+u+v+v+v+v+v+v+v+v+v+v+v+v+v+v+v+v+x@j&`$v+v+5+k&l&^ ^ ^ ^ b }.U Y 3 V b f D$m&              ",
"                            _ 9 a t s.[.n&| b ^ ^ b f } [ w 3 J o&p&3+v+v+v+v+v+v+v+v+v+v+v+v+v+v+v+v+v+v+v+v+v+v+v+v+v+v+v+v+v+v+v+v+v+v+v+v+u+9+q&u+v+r&s&b ^ ^ ^ ^ V J 9 ^ t&g b ^ u&                ",
"                              W.J s.2 f b ^ b ^ w *.v&I _.o D.X@4.w&x&u+v+v+v+v+v+v+v+v+v+v+v+v+v+v+v+v+v+v+v+v+v+v+v+v+v+v+v+v+v+v+v+v+v+v+v+u+U+y&x+x+z&A&b ^ b } p F X.b Y ^+f b W@)                 ",
"                              y Y %.f ^ b | D$s.8 ( 1 s f b b ^ ^ B&C&D&v+v+v+v+v+v+v+v+v+v+v+v+v+v+v+v+v+v+v+v+v+v+v+v+v+v+v+v+v+v+v+v+v+v+v+u+E&F&x+G&H&{+b a ] H 1.} ^ ^ !.2 f [ I&                  ",
"                                p b ^ w 3 F Z.X@^ b ^ ^ ^ ^ ^ ^ ^ ^ J&K&u+v+v+v+v+v+v+v+v+v+v+v+v+v+v+v+v+v+v+v+v+v+v+v+v+v+v+v+v+v+v+v+v+v+v+x+L&M&N&c&O&b ] c.V.D a ^ b }.4 b ^ o P&                  ",
"                                Q&W 8 R&|.X.b ^ ^ ^ ^ ^ ^ ^ ^ ^ ^ b S&T&U&v+v+v+v+v+v+v+v+v+v+v+v+v+v+v+v+v+v+v+v+v+v+v+v+v+v+v+v+v+v+v+v+v+v+y+]@8+V&W&X&J 4 D ^ a ^ b } b.2 1 s.Y&                    ",
"                                . z.h x.f ^ ^ ^ ^ ^ ^ ^ ^ ^ ^ f ^ n @.Z&`%x+v+v+v+v+v+v+v+v+v+v+v+v+v+v+v+v+v+v+v+v+v+v+v+v+v+v+v+v+v+v+v+v+V&Z$o$`& *.*5.] a b ^ ^ ^ ^ c.W@X@+*{#@*                    ",
"                                  #*D b ^ ^ ^ ^ ^ ^ ^ ^ ^ b b r &+o g f $*E&x+v+v+v+v+v+v+v+v+v+v+u+u+6+:&5@x+u+v+v+v+v+v+v+v+v+v+v+v+v+v+v+x#%*W$&*A$**%.^ ^ ^ ^ ^ b t J i $ =*H                       ",
"                                    ).%.^ ^ ^ ^ ^ ^ ^ ^ ^ ^ |.H t b f b -*;*>*u+v+v+v+v+v+v+v+u+t+{&,*'*)*!*~*{*O@u+v+v+v+v+v+v+v+v+v+v+v+v+v+u+]*^*/*b ^ ^ b ^ ^ ^ %.o J&$ (*e.                        ",
"                                    _*9 b ^ ^ ^ ^ ^ f f :*;$<*] %.^ ^ ^ ^ [*}*|*v+v+v+v+v+v+v+1*2*3*4*5*6*7*8*9*c$0*v+v+v+v+v+v+v+v+v+v+v+v+v+w+a*L b ^ ^ ^ ^ ^ f b 2 A.b*4.V ,                         ",
"                                      ^+0 ^ ^ ^ b b X@Z.I e } ^ ^ ^ ^ %.} >.c*d*,#v+v+v+v+v+l@e*f*6*g*h*i*j*k*l*m*n*u+v+v+v+v+v+v+v+v+v+v+v+l@o*p*b ^ ^ ^ ^ b b | Z.; Y q*] r*                          ",
"                                      @@s x.b } s*x J v.s b ^ ^ a b 2 R.t*u*v*w*j&z#v+v+v+v+G&x*y*z*' u#u#u#' ' A*B*y+v+v+v+v+v+v+v+v+v+v+y+C*D*E*b ^ b b b | *.K A.e.b ^ &+                            ",
"                                      F*v.| < J 2.h ]+b ^ b b 1 e.C $ D$[ G*H*{%I*J*(&u+v+v+K*)*L*M*u#u#u#u#u#u#N*O*x#v+v+v+v+v+v+v+v+u+w+P*Q*Q$b ^ ^ ^ b t $ < C.!.f b < R*                            ",
"                                        1$F f.[ b b ^ b ^ +.J J |.X.b %.x S*K.K.L.T*U*e$l@v+y+V*W*X*Y*' Z*. `*9# =.=%$v+v+v+v+v+v+v+u+5@+=@=S.b ^ ^ b v R.#=X@}.H s ^ ] C@                              ",
"                                        {.b b ^ ^ 0 | *.H i r f b ^ ^ 2 $=%=K.K.K.&=*===<$W$x+-=;=>=,='=)=!=~={=]=;%x+v+v+v+v+v+T+L@^=/=(=B#b f %.g L J < } _=b.:=f ]+(.                                ",
"                                         +4.%.%.t o N ( | %.f ^ ^ ^ ^ +*<=L.K.K.K.K.L.[=}=|='@1=(&2=3=4=5=6=7=8=L@x+v+v+u+u+x+%$9=0=a=b=} b a &.R&C ( ^ b *.N [ b b V c=                                ",
"                                          G R.d.s.^.x.b ^ ^ ^ ^ ^ a d=e=K.K.K.K.K.K.K.K.K.`@f=g=h=i=I%V&,#j=B%x+u+u+u+V&k=a&l=m=n=o=p=h$^ t <*!.v./ b b L s.X.^ %.>.q=                                  ",
"                                          r=W g b b ^ ^ ^ ^ ^ ^ b s=t=0%K.K.K.K.K.K.K.K.K.K.K.u=v=w=x=y=z=]@A=U+B=C=D=E=F=G=H=I=a 0 >&J=I o q b b f b Z.d.} b %.=* +                                    ",
"                                          6.w f ^ ^ ^ ^ ^ b b s t 8&K=c@K.K.K.K.K.K.K.K.K.K.i+##L=E###M=N=O=i#P=Q=R=S=m%T=b b b X D@(.V >&%.b ^ b v e.!.| %.1 c.r=                                      ",
"                                          U=c b b ^ ^ b b [ R.V=g&L=K.K.K.K.K.K.K.K.K.K.L.+#e@W=G@K.K.K.K.L.L.L.X=D@Y=^ a ]+Y.U 4 |.b %.^ ^ ^ x.9 #=( ]+W ).Z=`=                                        ",
"                                             -.->.w 9 c K &+( f&+-L+K.K.K.K.K.K.K.K.K.K.L+h.o.K.K.K.K.K.K.K.K.K.K.@-t &.i #=c.[ a f ^ b b b } { d.W L z.C c.%                                           ",
"                                             +<*^+o _.p 2 b ^ #-$-c@K.K.K.K.K.K.K.K.K.K.I+k+c@i+L.K.K.K.K.K.K.K.K.+#%-J v.]+b ^ ^ ^ ^ ^ b [ $ V.$ x =.s / #=                                            ",
"                                              V %.%.%.b ^ b &-*-L.K.K.K.K.K.K.K.K.K.L.m$=---E#;-g+o.K.K.K.K.K.K.K.`@>-:+b ^ ^ ^ ^ ^ ^ %.^.6 g&.@| b %.w %                                               ",
"                                              ~ (*^ b ^ ^ s ,-J#K.K.K.K.K.K.K.K.K.K.(+j.'-I++#l#k#)-)-(+K.K.K.K.K.L.!-[ b ^ ^ ^ b %.^.N # ( s b b h U ~-                                                ",
"                                              {-}.b ^ ^ b >.]-M+K.K.K.K.K.K.K.K.K.L.o.e@j.+#c@K.K.K.^-l.L.K.K.K.K.L./-=.f b a | ( 5 I&R.^ 0 } w U m&                                                    ",
"                                                &+x.^ ^ b U (-K.K.K.K.K.K.K.K.K.K._-}#@+I+L.K.K.K.K.G@++L.K.K.K.K.K.:-W ^.=.2.W.G +@t 9 Z.@.<-q=                                                        ",
"                                                .&9 ^ ^ ]+[-}-K.K.K.K.K.K.K.K.K.K.H+|-h+n#L.K.K.K.K.J.h.L.K.K.K.K.1-#-K N 8 =.< o w Z.= .                                                               ",
"                                                  5.b ^ g 2-`@K.K.K.K.K.K.K.K.K.K.e@m._-(#(+K.K.K.K.@#3-L.K.K.K.K.4-c b b ^ 5-B e.B 6-                                                                  ",
"                                                  k s b o@K+M+K.K.K.K.K.K.K.K.K.K.j.+#K.7-m.K.K.K.K.E#'-L.K.K.c@(-g.b a ]+i 8-9-@%                                                                      ",
"                                                  0-i 5.a-K=K.K.K.K.K.K.K.K.K.K.K.*---L.i+i+K.L.b-=-c-K.K.K.K.K.d-^.4.M 6..                                                                             ",
"                                                    .&=.3 e-K.K.K.K.K.K.K.K.K.K.K.n.f-9%`@K.K.@+I+'-K.K.K.K.L.g-h-5 i-.                                                                                 ",
"                                                    j-9 t k-K.K.K.K.K.K.K.K.K.K.K.K.l-j.m-n-|#K++#K.K.K.K.K.o-p-. .                                                                                     ",
"                                                      ;$X.q-l#K.K.K.K.K.K.K.K.K.K.K.K.K.$+L+J.K.K.K.K.K.K.9%p-                                                                                          ",
"                                                      +@>&r-s-K.K.K.K.K.K.K.K.K.K.K.K.K.K.K.K.K.K.K.K.i+<#t-                                                                                            ",
"                                                        C u-v-`@L.K.K.K.K.K.K.K.K.K.K.K.K.K.K.K.K.K.w-x-                                                                                                ",
"                                                        y-[ ^+z-*-0%L.K.K.K.K.K.K.K.K.K.K.K.K.L.i+k+h.                                                                                                  ",
"                                                        A-e.f =.Z.B-(-L.K.K.K.K.K.K.K.K.L.K.$+<#j.                                                                                                      ",
"                                                          @%e a %.C-[-D-E-F-G-H-}-J.I-o-<#H.J-                                                                                                          ",
"                                                            +@] K-L-$ }.d=O%M-# N-O-P-Q-R-                                                                                                              ",
"                                                            S-{..@T-} %./ u.e.- U-                                                                                                                      ",
"                                                              .&^.q*] L V-+                                                                                                                             ",
"                                                                z.N W-                                                                                                                                  ",
"                                                                                                                                                                                                        ",
"                                                                                                                                                                                                        ",
"                                                                                                                                                                                                        ",
"                                                                                                                                                                                                        ",
"                                                                                                                                                                                                        ",
"                                                                                                                                                                                                        ",
"                                                                                                                                                                                                        ",
"                                                                                                                                                                                                        ",
"                                                                                                                                                                                                        "};
