/* XPM */
static char * merry_12_xpm[] = {
"100 100 1009 2",
"  	c None",
". 	c #291D1D",
"+ 	c #443131",
"@ 	c #312222",
"# 	c #291B1B",
"$ 	c #322424",
"% 	c #503A3A",
"& 	c #654A4A",
"* 	c #6E5051",
"= 	c #624848",
"- 	c #2D1E1E",
"; 	c #0C0506",
"> 	c #3D2B2B",
", 	c #503939",
"' 	c #614646",
") 	c #6C4E4E",
"! 	c #6E5050",
"~ 	c #6B4E4E",
"{ 	c #624A47",
"] 	c #583F3F",
"^ 	c #362626",
"/ 	c #040202",
"( 	c #050400",
"_ 	c #151000",
": 	c #1C1902",
"< 	c #141102",
"[ 	c #211813",
"} 	c #3F2D2D",
"| 	c #443230",
"1 	c #412F2E",
"2 	c #5A4142",
"3 	c #5F4545",
"4 	c #433030",
"5 	c #4D3837",
"6 	c #58403F",
"7 	c #372626",
"8 	c #241E02",
"9 	c #282203",
"0 	c #342E05",
"a 	c #3B3306",
"b 	c #3E3807",
"c 	c #403807",
"d 	c #3F3806",
"e 	c #3C3505",
"f 	c #3E3606",
"g 	c #3B3505",
"h 	c #302A05",
"i 	c #2C240D",
"j 	c #382825",
"k 	c #634747",
"l 	c #6E5151",
"m 	c #5D4343",
"n 	c #180F0F",
"o 	c #262103",
"p 	c #3F3807",
"q 	c #423A08",
"r 	c #433B08",
"s 	c #3A3304",
"t 	c #2E2319",
"u 	c #553E3E",
"v 	c #614747",
"w 	c #6D4F4F",
"x 	c #080404",
"y 	c #252003",
"z 	c #393206",
"A 	c #413908",
"B 	c #3E3706",
"C 	c #312B05",
"D 	c #26200B",
"E 	c #4B3636",
"F 	c #674B4B",
"G 	c #221717",
"H 	c #272303",
"I 	c #403908",
"J 	c #423A07",
"K 	c #2C250E",
"L 	c #3F2C2D",
"M 	c #402E2E",
"N 	c #1F1A03",
"O 	c #373108",
"P 	c #543D3C",
"Q 	c #684D4D",
"R 	c #181402",
"S 	c #3C3406",
"T 	c #3F3707",
"U 	c #403907",
"V 	c #3A2C24",
"W 	c #6A4E4E",
"X 	c #4E3737",
"Y 	c #000000",
"Z 	c #3E3607",
"` 	c #302A04",
" .	c #2A2403",
"..	c #251F03",
"+.	c #272104",
"@.	c #3B3506",
"#.	c #2F290B",
"$.	c #604646",
"%.	c #644949",
"&.	c #332222",
"*.	c #140C0B",
"=.	c #382828",
"-.	c #2E201E",
";.	c #353005",
">.	c #362F05",
",.	c #272203",
"'.	c #3A3305",
").	c #252104",
"!.	c #3B3406",
"~.	c #383205",
"{.	c #533C3C",
"].	c #241818",
"^.	c #4C3636",
"/.	c #684B4B",
"(.	c #2E2610",
"_.	c #2E2904",
":.	c #2E2804",
"<.	c #3F3708",
"[.	c #3A3206",
"}.	c #352F04",
"|.	c #312021",
"1.	c #513A3A",
"2.	c #523B3B",
"3.	c #221515",
"4.	c #130B0B",
"5.	c #19100F",
"6.	c #6B4F4F",
"7.	c #6D5050",
"8.	c #3C2B2A",
"9.	c #433A08",
"0.	c #362F06",
"a.	c #2D2704",
"b.	c #3B3407",
"c.	c #312A04",
"d.	c #433B09",
"e.	c #5A4041",
"f.	c #6A4D4D",
"g.	c #3D2A2A",
"h.	c #1D1313",
"i.	c #3B2929",
"j.	c #563F3E",
"k.	c #6C4F4F",
"l.	c #5B4242",
"m.	c #2E270B",
"n.	c #282204",
"o.	c #3C3507",
"p.	c #413907",
"q.	c #292303",
"r.	c #413808",
"s.	c #2C2604",
"t.	c #2C2314",
"u.	c #684C4C",
"v.	c #1A1111",
"w.	c #634848",
"x.	c #493434",
"y.	c #594040",
"z.	c #4D3737",
"A.	c #4B3535",
"B.	c #322421",
"C.	c #3B3405",
"D.	c #292404",
"E.	c #3E3707",
"F.	c #2E2905",
"G.	c #352E06",
"H.	c #271A1A",
"I.	c #2A1D1D",
"J.	c #3E2B2B",
"K.	c #483333",
"L.	c #412D2D",
"M.	c #4E3939",
"N.	c #594141",
"O.	c #272108",
"P.	c #2A2404",
"Q.	c #3D3607",
"R.	c #3A3306",
"S.	c #262003",
"T.	c #463232",
"U.	c #6C5050",
"V.	c #473232",
"W.	c #231717",
"X.	c #6F5151",
"Y.	c #553D3D",
"Z.	c #211616",
"`.	c #5A4141",
" +	c #694D4D",
".+	c #2D2708",
"++	c #383106",
"@+	c #302904",
"#+	c #373006",
"$+	c #2C2605",
"%+	c #5E4444",
"&+	c #2C1C1C",
"*+	c #1E1414",
"=+	c #634949",
"-+	c #2C230F",
";+	c #2B2503",
">+	c #3C3407",
",+	c #403806",
"'+	c #342620",
")+	c #6B4D4D",
"!+	c #382727",
"~+	c #342424",
"{+	c #322222",
"]+	c #2F2121",
"^+	c #6A4D4E",
"/+	c #31251B",
"(+	c #373005",
"_+	c #282304",
":+	c #241F03",
"<+	c #342E06",
"[+	c #533B3C",
"}+	c #563E3E",
"|+	c #412F2F",
"1+	c #4E3838",
"2+	c #3F2C2C",
"3+	c #5C4242",
"4+	c #453131",
"5+	c #2E211F",
"6+	c #3E3608",
"7+	c #3D3605",
"8+	c #624747",
"9+	c #513B3B",
"0+	c #463131",
"a+	c #4A3636",
"b+	c #2C1E1E",
"c+	c #4F3939",
"d+	c #443030",
"e+	c #573F3F",
"f+	c #674C4C",
"g+	c #2F2710",
"h+	c #312815",
"i+	c #563D3E",
"j+	c #64494A",
"k+	c #4D3736",
"l+	c #0F0808",
"m+	c #201616",
"n+	c #3B2A2A",
"o+	c #5E4545",
"p+	c #473333",
"q+	c #5A4242",
"r+	c #6D504F",
"s+	c #4D3838",
"t+	c #302908",
"u+	c #2F2805",
"v+	c #2A2405",
"w+	c #442F2F",
"x+	c #020000",
"y+	c #1B1111",
"z+	c #664A4A",
"A+	c #432F2F",
"B+	c #694C4C",
"C+	c #412E2E",
"D+	c #644A4A",
"E+	c #6C4E4F",
"F+	c #644749",
"G+	c #604245",
"H+	c #51383A",
"I+	c #2B231E",
"J+	c #282512",
"K+	c #282303",
"L+	c #2C2502",
"M+	c #372F04",
"N+	c #3B3305",
"O+	c #2D2705",
"P+	c #443130",
"Q+	c #5F4444",
"R+	c #644848",
"S+	c #422F2F",
"T+	c #574040",
"U+	c #6A4C4D",
"V+	c #5A3F41",
"W+	c #594841",
"X+	c #605949",
"Y+	c #8D8B6F",
"Z+	c #B2B18E",
"`+	c #D3D4A9",
" @	c #E1E1B5",
".@	c #DBDBAF",
"+@	c #CFCFA7",
"@@	c #ACAC89",
"#@	c #8C8C6F",
"$@	c #7F7F64",
"%@	c #6B6B54",
"&@	c #2D2A1A",
"*@	c #302801",
"=@	c #3C3405",
"-@	c #31241E",
";@	c #664A4B",
">@	c #4A3535",
",@	c #6F5252",
"'@	c #6C4F50",
")@	c #593C3F",
"!@	c #584942",
"~@	c #88866B",
"{@	c #C3C39C",
"]@	c #E2E2B7",
"^@	c #EEEEBF",
"/@	c #FBFBCB",
"(@	c #FFFFCC",
"_@	c #FFFFCD",
":@	c #FEFECF",
"<@	c #FCFCCC",
"[@	c #FAFAC9",
"}@	c #F7F7C8",
"|@	c #DEDEB6",
"1@	c #B7B794",
"2@	c #727259",
"3@	c #2B2502",
"4@	c #2E270D",
"5@	c #040303",
"6@	c #543D3D",
"7@	c #4C3737",
"8@	c #634748",
"9@	c #5E5046",
"0@	c #8C8B6F",
"a@	c #DADBB1",
"b@	c #F8F8C8",
"c@	c #FFFFCB",
"d@	c #F9F9CB",
"e@	c #E0E0B6",
"f@	c #B1B192",
"g@	c #8D8D7D",
"h@	c #A0A08D",
"i@	c #999985",
"j@	c #A2A288",
"k@	c #C1C199",
"l@	c #F1F1C3",
"m@	c #EFF0C5",
"n@	c #B4B48F",
"o@	c #585845",
"p@	c #302B13",
"q@	c #3C3404",
"r@	c #3F2D2C",
"s@	c #674A4A",
"t@	c #402D2D",
"u@	c #5D4443",
"v@	c #694B4C",
"w@	c #543F3D",
"x@	c #A09F7F",
"y@	c #E0E0B7",
"z@	c #FFFFCE",
"A@	c #DCDCB2",
"B@	c #9C9C88",
"C@	c #90908C",
"D@	c #919191",
"E@	c #979798",
"F@	c #B6B6B6",
"G@	c #BFBFBF",
"H@	c #C0C0C0",
"I@	c #B0B0B0",
"J@	c #848476",
"K@	c #ECECBE",
"L@	c #F1F1C2",
"M@	c #C8C89F",
"N@	c #5D5B47",
"O@	c #352D03",
"P@	c #443C09",
"Q@	c #413806",
"R@	c #2C2414",
"S@	c #654949",
"T@	c #3E2C2C",
"U@	c #2F2020",
"V@	c #664B4B",
"W@	c #684A4B",
"X@	c #584B42",
"Y@	c #BCBC96",
"Z@	c #F9F9C8",
"`@	c #868671",
" #	c #888889",
".#	c #545454",
"+#	c #1E1E1E",
"@#	c #060606",
"##	c #010101",
"$#	c #2F2F2F",
"%#	c #B3B3B3",
"&#	c #D9D9DA",
"*#	c #B3B391",
"=#	c #FDFDCC",
"-#	c #FEFECD",
";#	c #E2E2B5",
">#	c #73735B",
",#	c #302808",
"'#	c #342D06",
")#	c #604545",
"!#	c #563F3F",
"~#	c #483434",
"{#	c #372727",
"]#	c #190F0F",
"^#	c #533B3B",
"/#	c #65494A",
"(#	c #564F42",
"_#	c #CECFA4",
":#	c #FCFCCB",
"<#	c #F7F7C5",
"[#	c #97978A",
"}#	c #595958",
"|#	c #010000",
"1#	c #060707",
"2#	c #D4D4D4",
"3#	c #9D9D92",
"4#	c #F4F4C5",
"5#	c #939476",
"6#	c #251E07",
"7#	c #403906",
"8#	c #3C3506",
"9#	c #362724",
"0#	c #5B4141",
"a#	c #0F0909",
"b#	c #2B1D1D",
"c#	c #674B4C",
"d#	c #62604E",
"e#	c #E1E1B4",
"f#	c #A7A78F",
"g#	c #808081",
"h#	c #5A5A5A",
"i#	c #E9E9EA",
"j#	c #9F9F91",
"k#	c #F9F9C9",
"l#	c #F6F6C7",
"m#	c #AFB08C",
"n#	c #2D2815",
"o#	c #2A220F",
"p#	c #3C2A2B",
"q#	c #453030",
"r#	c #624646",
"s#	c #261A1A",
"t#	c #2E1F1F",
"u#	c #5C4343",
"v#	c #2E2020",
"w#	c #493A35",
"x#	c #D1D1A8",
"y#	c #C7C7A2",
"z#	c #BEBEC0",
"A#	c #9F9F9F",
"B#	c #606060",
"C#	c #404040",
"D#	c #313131",
"E#	c #575758",
"F#	c #A9A9AA",
"G#	c #E4E4E4",
"H#	c #CACACB",
"I#	c #B9B995",
"J#	c #A8A886",
"K#	c #29151A",
"L#	c #140C0C",
"M#	c #4F3A39",
"N#	c #ADAD8A",
"O#	c #F1F1C0",
"P#	c #979783",
"Q#	c #A6A6A6",
"R#	c #DBDBDC",
"S#	c #EAEAEA",
"T#	c #E8E8E8",
"U#	c #CFCFD0",
"V#	c #A4A49F",
"W#	c #B7B796",
"X#	c #F6F6C5",
"Y#	c #F6F6C8",
"Z#	c #8C8A6F",
"`#	c #573E3F",
" $	c #664949",
".$	c #1E1515",
"+$	c #4D3937",
"@$	c #593F40",
"#$	c #949475",
"$$	c #F8F9C8",
"%$	c #F8F8C7",
"&$	c #DADAAD",
"*$	c #ABAB8A",
"=$	c #999989",
"-$	c #969683",
";$	c #C0C09A",
">$	c #EDEDBE",
",$	c #FDFDCB",
"'$	c #EFEFC2",
")$	c #838169",
"!$	c #614346",
"~$	c #66484A",
"{$	c #676451",
"]$	c #E8E8BB",
"^$	c #C2C29B",
"/$	c #F8F8C6",
"($	c #FBFBCA",
"_$	c #E0E0B5",
":$	c #5E5548",
"<$	c #5D4444",
"[$	c #1B1212",
"}$	c #150C0C",
"|$	c #4F3838",
"1$	c #523C3C",
"2$	c #423B32",
"3$	c #CACAA3",
"4$	c #FAFACA",
"5$	c #9D9D7D",
"6$	c #D4D4AA",
"7$	c #BFC098",
"8$	c #4C3135",
"9$	c #5B4343",
"0$	c #150C0D",
"a$	c #4D3537",
"b$	c #908F73",
"c$	c #E3E3B7",
"d$	c #F2F2C2",
"e$	c #76765E",
"f$	c #5D4344",
"g$	c #2B1E1E",
"h$	c #050202",
"i$	c #493C36",
"j$	c #DFDFB2",
"k$	c #FFFFCF",
"l$	c #BEBE99",
"m$	c #C8C8A0",
"n$	c #D6D7AB",
"o$	c #543C3C",
"p$	c #654849",
"q$	c #908F72",
"r$	c #B9B994",
"s$	c #FBFCC9",
"t$	c #8F8C71",
"u$	c #66494A",
"v$	c #1A1010",
"w$	c #090404",
"x$	c #4F3738",
"y$	c #D1D2A8",
"z$	c #BFBE99",
"A$	c #CFCFA5",
"B$	c #553E3D",
"C$	c #584040",
"D$	c #493534",
"E$	c #3B2A29",
"F$	c #3E2D2D",
"G$	c #5A5645",
"H$	c #ECECC0",
"I$	c #D7D7AC",
"J$	c #CDCDA4",
"K$	c #F4F4C3",
"L$	c #6B6A53",
"M$	c #3C292A",
"N$	c #5A4040",
"O$	c #453232",
"P$	c #281B1B",
"Q$	c #624446",
"R$	c #959577",
"S$	c #FEFECC",
"T$	c #F4F4C4",
"U$	c #FAFAC8",
"V$	c #FEFECB",
"W$	c #A0A07F",
"X$	c #5F4245",
"Y$	c #503A39",
"Z$	c #402E2D",
"`$	c #251919",
" %	c #C2C39C",
".%	c #BEBE97",
"+%	c #E4E4B8",
"@%	c #C9C9A1",
"#%	c #563B3E",
"$%	c #6D4F50",
"%%	c #302121",
"&%	c #4B3536",
"*%	c #DFDFB3",
"=%	c #EFEFC0",
"-%	c #A4A482",
";%	c #EBEBBD",
">%	c #B3B390",
",%	c #D0D0A8",
"'%	c #E3E3B6",
")%	c #4F3B39",
"!%	c #654A49",
"~%	c #493535",
"{%	c #423030",
"]%	c #342323",
"^%	c #6D6A55",
"/%	c #F3F3C5",
"(%	c #DEDEB2",
"_%	c #919173",
":%	c #DEDEB3",
"<%	c #979778",
"[%	c #F7F7C6",
"}%	c #5B5546",
"|%	c #392828",
"1%	c #3D2C2C",
"2%	c #422E2E",
"3%	c #3F2B2C",
"4%	c #8F8F72",
"5%	c #98987A",
"6%	c #ABAB88",
"7%	c #696651",
"8%	c #523A3B",
"9%	c #6E5150",
"0%	c #483232",
"a%	c #191010",
"b%	c #543A3D",
"c%	c #B5B591",
"d%	c #F5F5C6",
"e%	c #A7A785",
"f%	c #C3C39B",
"g%	c #F9F9CD",
"h%	c #ACAC8B",
"i%	c #CFCFA9",
"j%	c #5A5A47",
"k%	c #312122",
"l%	c #241919",
"m%	c #3D2C2B",
"n%	c #583C3F",
"o%	c #BEBE98",
"p%	c #9F9F7F",
"q%	c #F5F5C7",
"r%	c #FEFECE",
"s%	c #F2F2C8",
"t%	c #C2C2A0",
"u%	c #88886C",
"v%	c #8F8F71",
"w%	c #CECEA5",
"x%	c #F5F5C5",
"y%	c #383105",
"z%	c #2F2A04",
"A%	c #2D260D",
"B%	c #2C2019",
"C%	c #533C3D",
"D%	c #362726",
"E%	c #50393A",
"F%	c #604244",
"G%	c #A4A382",
"H%	c #FCFCCF",
"I%	c #E5E5BC",
"J%	c #A6A687",
"K%	c #87876E",
"L%	c #B7B797",
"M%	c #EAEAC0",
"N%	c #EEEEC1",
"O%	c #BBBB96",
"P%	c #909072",
"Q%	c #C7C7A0",
"R%	c #FBFBCC",
"S%	c #EBEBBC",
"T%	c #4B4A37",
"U%	c #3D3505",
"V%	c #332E05",
"W%	c #2D260C",
"X%	c #2B2019",
"Y%	c #3A2A27",
"Z%	c #553D3E",
"`%	c #1C1111",
" &	c #28221E",
".&	c #513B3A",
"+&	c #989779",
"@&	c #CCCCA4",
"#&	c #BEBE9A",
"$&	c #F3F3C8",
"%&	c #CECEAB",
"&&	c #929275",
"*&	c #949476",
"=&	c #D2D2AD",
"-&	c #F8F8CC",
";&	c #EFEFC1",
">&	c #F3F3C4",
",&	c #383424",
"'&	c #312C03",
")&	c #28220A",
"!&	c #33261E",
"~&	c #493536",
"{&	c #352323",
"]&	c #291C1C",
"^&	c #716D58",
"/&	c #F4F4C6",
"(&	c #F9F9CC",
"_&	c #8D8D72",
":&	c #6F6F59",
"<&	c #AFAF90",
"[&	c #E7E7BE",
"}&	c #FCFCCE",
"|&	c #A5A584",
"1&	c #322B04",
"2&	c #443C08",
"3&	c #373103",
"4&	c #2A2212",
"5&	c #644849",
"6&	c #050303",
"7&	c #342525",
"8&	c #423630",
"9&	c #C4C4A0",
"0&	c #C0C09D",
"a&	c #FFFFD0",
"b&	c #6F6E57",
"c&	c #373104",
"d&	c #32261E",
"e&	c #594041",
"f&	c #5F4244",
"g&	c #C0C099",
"h&	c #E9E9BD",
"i&	c #C0C09B",
"j&	c #D6D6AA",
"k&	c #FBFBC9",
"l&	c #52513E",
"m&	c #3E3705",
"n&	c #2D2806",
"o&	c #2A1E1A",
"p&	c #100909",
"q&	c #463332",
"r&	c #8E8D71",
"s&	c #F0F0C2",
"t&	c #9B9B7C",
"u&	c #F0F0C0",
"v&	c #BCBC97",
"w&	c #9B9B8F",
"x&	c #C8C8C9",
"y&	c #D8D8DB",
"z&	c #B6B6B5",
"A&	c #A6A688",
"B&	c #F6F6C6",
"C&	c #393726",
"D&	c #423B08",
"E&	c #383305",
"F&	c #3C2C28",
"G&	c #201414",
"H&	c #4A3434",
"I&	c #5C4444",
"J&	c #9C9C7D",
"K&	c #E9E9B9",
"L&	c #919182",
"M&	c #CFCFCF",
"N&	c #E8E8E7",
"O&	c #BEBEBE",
"P&	c #959595",
"Q&	c #D5D5D5",
"R&	c #C9C9CA",
"S&	c #C8C89E",
"T&	c #342C03",
"U&	c #513A3B",
"V&	c #3C2A2A",
"W&	c #030202",
"X&	c #271B1B",
"Y&	c #392727",
"Z&	c #4D3F38",
"`&	c #B3B38E",
" *	c #E3E3E4",
".*	c #BEBEBD",
"+*	c #4D4D4C",
"@*	c #4C4C4C",
"#*	c #E2E2E3",
"$*	c #ACAD8E",
"%*	c #F5F5C8",
"&*	c #6C6C53",
"**	c #423907",
"=*	c #413906",
"-*	c #392C22",
";*	c #362425",
">*	c #A2A281",
",*	c #D5D5AA",
"'*	c #CACAA0",
")*	c #C6C6C5",
"!*	c #C7C7C7",
"~*	c #242424",
"{*	c #585858",
"]*	c #D1D1D2",
"^*	c #909075",
"/*	c #CACAA2",
"(*	c #2B2501",
"_*	c #342E08",
":*	c #372726",
"<*	c #120B0B",
"[*	c #080303",
"}*	c #5E4544",
"|*	c #352525",
"1*	c #635D4D",
"2*	c #EEEEC0",
"3*	c #CBCBA2",
"4*	c #8F8F7B",
"5*	c #4A4A4C",
"6*	c #040505",
"7*	c #909090",
"8*	c #ABABAB",
"9*	c #C7C79D",
"0*	c #8E8E71",
"a*	c #3A3204",
"b*	c #352720",
"c*	c #322323",
"d*	c #5A3D40",
"e*	c #C1C29B",
"f*	c #C3C39D",
"g*	c #D3D3AB",
"h*	c #E8E8BA",
"i*	c #9F9F97",
"j*	c #A0A09E",
"k*	c #070708",
"l*	c #7B7B7B",
"m*	c #C5C5C6",
"n*	c #9B9B82",
"o*	c #D1D1A7",
"p*	c #3D3A26",
"q*	c #2B2404",
"r*	c #252103",
"s*	c #262102",
"t*	c #221D02",
"u*	c #2B2215",
"v*	c #4B3737",
"w*	c #78755F",
"x*	c #B2B28F",
"y*	c #B2B29F",
"z*	c #8F8F8D",
"A*	c #0C0C0D",
"B*	c #575757",
"C*	c #C0C0C1",
"D*	c #979782",
"E*	c #EDEDBF",
"F*	c #828267",
"G*	c #262001",
"H*	c #322B05",
"I*	c #423908",
"J*	c #363005",
"K*	c #3E2C2B",
"L*	c #1F1515",
"M*	c #3A2929",
"N*	c #3F352F",
"O*	c #B0B18F",
"P*	c #A4A483",
"Q*	c #ECECBF",
"R*	c #D2D2AA",
"S*	c #8E8E8D",
"T*	c #454546",
"U*	c #7D7D7F",
"V*	c #8F8F7D",
"W*	c #EAEABE",
"X*	c #D8D8AE",
"Y*	c #39382A",
"Z*	c #3A3207",
"`*	c #2B2504",
" =	c #272304",
".=	c #3A3307",
"+=	c #292304",
"@=	c #2B2411",
"#=	c #0A0505",
"$=	c #120C0C",
"%=	c #574C41",
"&=	c #E5E5B9",
"*=	c #BABA95",
"==	c #E7E7B9",
"-=	c #B0B08F",
";=	c #767677",
">=	c #90908E",
",=	c #9E9E8A",
"'=	c #C9C9A5",
")=	c #F2F2C6",
"!=	c #E8E8BC",
"~=	c #75755C",
"{=	c #262104",
"]=	c #2F2418",
"^=	c #433131",
"/=	c #473434",
"(=	c #6D5151",
"_=	c #624547",
":=	c #85846A",
"<=	c #DDDDB1",
"[=	c #C7C79F",
"}=	c #DCDCB6",
"|=	c #F8F8C9",
"1=	c #2E2702",
"2=	c #322C05",
"3=	c #332D05",
"4=	c #2D2604",
"5=	c #2B2119",
"6=	c #5D4243",
"7=	c #F2F2C3",
"8=	c #AFAF8C",
"9=	c #AAAA88",
"0=	c #262314",
"a=	c #241F02",
"b=	c #352E05",
"c=	c #342D05",
"d=	c #2F2906",
"e=	c #1C1212",
"f=	c #77775E",
"g=	c #E0E0B4",
"h=	c #F9F9C7",
"i=	c #B5B590",
"j=	c #2E2722",
"k=	c #342E04",
"l=	c #403808",
"m=	c #393306",
"n=	c #3C3504",
"o=	c #332424",
"p=	c #473032",
"q=	c #4B4137",
"r=	c #C5C69F",
"s=	c #F9F9CA",
"t=	c #AFAF8B",
"u=	c #C8C8A1",
"v=	c #FAFACC",
"w=	c #DCDCB0",
"x=	c #908D71",
"y=	c #584341",
"z=	c #4A3436",
"A=	c #383104",
"B=	c #2A2213",
"C=	c #5E4445",
"D=	c #6A4C4C",
"E=	c #4D3B38",
"F=	c #E5E5B7",
"G=	c #F1F1C1",
"H=	c #584F43",
"I=	c #634648",
"J=	c #543C3D",
"K=	c #3F3808",
"L=	c #28200E",
"M=	c #503A3C",
"N=	c #1F1414",
"O=	c #563C3E",
"P=	c #6C6854",
"Q=	c #A9A886",
"R=	c #E3E3B9",
"S=	c #D9D9AE",
"T=	c #A9A986",
"U=	c #A3A382",
"V=	c #F2F2C5",
"W=	c #C9C9A2",
"X=	c #746F5B",
"Y=	c #5F4445",
"Z=	c #6A4C4E",
"`=	c #634948",
" -	c #322912",
".-	c #272204",
"+-	c #2C2705",
"@-	c #25181A",
"#-	c #3A2828",
"$-	c #190F0E",
"%-	c #5A3E40",
"&-	c #554A40",
"*-	c #99997A",
"=-	c #EDEEBF",
"--	c #B7B693",
";-	c #77715B",
">-	c #5B4542",
",-	c #67484A",
"'-	c #302220",
")-	c #3C3604",
"!-	c #3D3507",
"~-	c #3B3507",
"{-	c #0B0901",
"]-	c #6C504F",
"^-	c #644649",
"/-	c #412E2D",
"(-	c #585744",
"_-	c #87866B",
":-	c #B7B792",
"<-	c #DBDCAE",
"[-	c #BDBD96",
"}-	c #9D9E7D",
"|-	c #7B7760",
"1-	c #5B4A44",
"2-	c #5C4143",
"3-	c #2D2414",
"4-	c #221E03",
"5-	c #5F4646",
"6-	c #5B3F41",
"7-	c #503D3A",
"8-	c #5D5447",
"9-	c #726F5A",
"0-	c #7B7A61",
"a-	c #686350",
"b-	c #5C4042",
"c-	c #614546",
"d-	c #694C4D",
"e-	c #483433",
"f-	c #2C260B",
"g-	c #413A08",
"h-	c #100E00",
"i-	c #594140",
"j-	c #4D3636",
"k-	c #473334",
"l-	c #221911",
"m-	c #2D2606",
"n-	c #383204",
"o-	c #413A07",
"p-	c #181401",
"q-	c #14100D",
"r-	c #362926",
"s-	c #493334",
"t-	c #372A25",
"u-	c #2D240E",
"v-	c #332D04",
"w-	c #2B2604",
"x-	c #231E02",
"y-	c #392728",
"z-	c #030200",
"A-	c #060400",
"B-	c #0D0A01",
"C-	c #533D3D",
"D-	c #593F3F",
"E-	c #251818",
"F-	c #4B3736",
"G-	c #694E4D",
"H-	c #201515",
"I-	c #281C1C",
"J-	c #4E3738",
"K-	c #463333",
"L-	c #060303",
"M-	c #453332",
"N-	c #332624",
"O-	c #362625",
"P-	c #261919",
"Q-	c #030101",
"R-	c #070303",
"S-	c #110909",
"T-	c #150E0E",
"U-	c #140B0B",
"V-	c #2C1D1D",
"W-	c #0D0606",
"X-	c #2D1F1F",
"                                                                                                                                                                                                        ",
"                                                                                                                                                                                                        ",
"                                                                                                                                                                                                        ",
"                                                                                                                                                                                                        ",
"                                                                                                                                                                                                        ",
"                                                                                                                                                                                                        ",
"                                                                                                                                                                                                        ",
"                                                                                                                                                                                                        ",
"                                                                                                                                                                                                        ",
"                                                                                                                                                                                                        ",
"                                                                                                                          . + @                                                                         ",
"                                                                                                                    # $ % & * = -                                                                       ",
"                                                                                                              ; > , ' ) ! ~ { ] ^ /                                                                     ",
"                                                                                                      ( _ : < [ } | 1 2 3 4 5 6 & 7                                                                     ",
"                                                                                                  8 9 0 a b c d e f g h i j k ! l m n                                                                   ",
"                                                                                              o 0 p q r q q q q q q q q r s t u v w , x                                                                 ",
"                                                                                          y z A r q q q q q q q q q q q q r B C D E F G                                                                 ",
"                                                                                        H I q q q q q q q q q q q q q q q q q r J K L M                                                                 ",
"                                                                                    N 0 A q q q q q q q q q q q q q q q q q q q q O P Q 7                                                               ",
"                                                                                  R S q q q q q q c T p q q q q q q q q q q q q q U V W X                                                               ",
"                                                                            Y Y R a q q q q q Z `  ...+.o @.q q q q q q q q q q q q #.$.%.&.                                                            ",
"                                                                        Y *.=.-.;.r q q q q >.,.'.q q J S ).!.q q q q q q q q q q q ~.{.v -                                                             ",
"                                                                    Y ].^./.= (.q q q q q _.:.<.r q A A r [.C q q q q q q q q q q q }.|.1.2.3.                                                          ",
"                                                              n 4.5.2.6.l 7.8.s 9.q q r 0.a.q q q q b.c.q Z o q q q q q q q q q q d.` e.7.f.g.                                                          ",
"                                                          h.i., i.j.k.7.7.l.m.q q q q r n.o.q q q q p.q.r.b.s.q q q q q q q q q q J t.u.k.7.1.                                                          ",
"                                                      Y v.u w.x.y.v z.+ A.B.C.q q q q r y c q q q q r D.E.F.G.q q q q q q q q q q d j 6.k.k.%.-                                                         ",
"                                                H.I.J.u %.$.7 K.L.M.v = N.O.q q q q q r P.Q.q q q q r ,.R.S.r.q q q q q q q q q q '.T.7.k.k.U.V.                                                        ",
"                                            W.T.w.~ X.k.Y.Z.=.`. +l 7.w v .+r q q q q r ++@+q q q 9.Z o s.#+r q q q q q q q q q d.$+%+7.k.k.7.3 &+                                                      ",
"                                        *+T.=+7.7.f.`.} + = ! 7.k.k.k.7.F -+r q q q q q p.;+;+>+U Z ,.0.o p.q q q q q q q q q q ,+'+f.k.k.7.k.)+!+                                                      ",
"                                      ~+w.! 7. +] {+]+= ! k.k.k.k.k.k.7.^+/+J q q q q q q q (+_+:+a.[.:.<+r q q q q q q q q q r C [+7.k.7.! ! ! }+                                                      ",
"                                    |+) f.v 1+4 2+4 F 7.k.k.k.k.k.7.6.3+4+5+6+q q q q q q q q r A 9.z ,.q q q q q q q q q q 9.7+B.k.7.8+9+0+x.E a+b+                                                    ",
"                                  ~+c+M @ % N.d+e+~ 7.7.7.k.w l F c+|+2.f+$.g+q q q q q q q q q q #+y T q q q q q q q q q q T h+i+`.V.A.l.%.w.%+j+k+                                                    ",
"                                l+m+n+N.6.`.|+%.U.k.k.k.! 7.o+p+T.q+6.l k.r+s+t+r r r q q q q Q.u+s.Z r q q q q q q q q q q v+{+w+Y.F 7.7.k.k.7.7.l.x+                                                  ",
"                              y+c+z+!  +A+, B+7.k.7.! Q }+C+s+D+7.7.7.E+F+G+H+I+J+K+L+M+N+>.O+v+>.A q q q q q q q q q q 9.}.P+$.f.7.7.k.k.k.k.k.w w.].                                                  ",
"                            b+Q+! 7.~ d+u 7.w 7.7.R+x.S+T+Q X.l U+V+W+X+Y+Z+`+ @.@+@@@#@$@%@&@*@=@q q q q q q q q q q q B -@;@7.k.k.k.k.k.k.7.7.u.N.y+                                                  ",
"                          H.%+! k.W >@% 7.7.) 3+A+a+$.k.,@'@)@!@~@{@]@^@/@(@(@(@_@:@<@[@/@}@|@1@2@3@J q q q q q q q q q 4@2 l k.k.k.k.k.7.U.= >@d+Y.K.                                                  ",
"                        5@}+7.7.F + 6@7.k.`.M 7@f+l 7.~ 8@9@0@a@b@_@(@(@c@c@_@d@e@f@g@h@i@j@k@l@m@n@o@p@q@r q q q q r '.r@k.k.k.k.w !  +`.+ x.$.! ! /.b+                                                ",
"                        C+6.w s@t@u@~ y.4+% u.! w 7.v@w@x@y@d@z@c@c@c@c@c@_@A@B@C@D@E@F@G@H@I@J@K@_@L@M@N@O@P@q q q Q@R@8+k.k.7.w S@2.T@6@ +X.k.k.7.7.^                                                 ",
"                      U@& k.f.T@3 V@|+Y.B+7.k.k.7.W@X@Y@Z@(@c@c@c@c@c@c@c@b@`@ #.#+#Y @###$#%#&#*#=#c@-#;#>#,#r q q '#1+! 7.W o+4+4+)#k.7.k.7.7.F !#~#{#                                                ",
"                    ]#y.7.w A+^#y.4 $.7.k.k.k.7./#(#_#:#(@c@c@c@c@c@c@c@c@<#[#}#|#|#|#|#|#|#1#2#3#4#c@c@(@l@5#6#7#8#9#F 0#4 M , z+7.7.k.7.6.=+M.4+y. +3+a#                                              ",
"                    V.k.7., b#A.6@ +7.7.7.k.7.c#d#e#=#c@c@c@c@c@c@c@c@c@c@=#f#g#####|#|#|###h#i#j#k#c@c@c@c@l#m#n#o#p#q#Y.8+7.l k.k.7.f.3+4+1+r#~ 7.U.f.s#                                              ",
"                  t#& * u#v#u  +7.7.k.k.k.k.7.w#x#-#c@c@c@c@c@c@c@c@c@c@c@(@y#z#A#B#C#D#E#F#G#H#I#-#c@c@c@c@c@[@J#K#%+~ ! k.k.k.k.~ m S+u V@7.7.k.k.k.X.E                                               ",
"                L#}+/.M#b#8+7.w k.k.k.k.k.7.% N#:#c@c@c@c@c@c@c@c@c@c@c@c@c@O#P#Q#R#S#G#T#U#V#W#X#c@c@c@c@c@c@c@Y#Z#`#k.k.k.k.! & a+X  $w w k.k.k.k.k.7.%..$                                            ",
"                , )+4 +$x.! k.k.k.7.k.k.7.@$#$$$(@c@c@c@c@c@c@c@c@c@c@c@c@c@(@%$&$*$=$3#-$;$>$,$(@c@c@c@c@c@c@c@(@'$)$!$7.w 7.$.T@o+k.k.k.k.k.k.k.k.k.k.! n+                                            ",
"              T@Q+4 2.4+$.7.k.k.k.k.k.! ~${$]$L@^$<#c@c@c@c@c@c@c@c@c@c@c@c@c@c@(@_@Z@/$($(@(@c@c@c@c@c@c@c@c@c@c@_@_$:$w u.x.V.S@7.7.k.k.k.k.k.k.k.k.k.7.<$[$                                          ",
"            }$|$r@V@1$c+k.k.k.k.7.l & 1.2$3$4$5$6$/@c@c@c@c@c@c@c@c@c@c@c@c@c@c@c@c@c@c@c@c@c@c@c@c@c@c@c@c@c@c@c@c@_@7$8$J.9$k.w k.k.k.k.k.k.k.k.k.k.w U.=+@ Y                                         ",
"            0$>@z+8+t@~ 7.k.l k.<$p+4+a$b$/@c$@@=#c@c@c@c@c@c@c@c@c@c@c@c@c@c@c@c@c@c@c@c@c@c@c@c@c@c@c@c@c@c@c@c@c@c@d$e$f$7.k.k.k.k.k.k.k.k.k.k.7.W o+7@z.N.g$                                        ",
"          h$x.k.7.p+3 7.k.l <$2+c+& 7.i$j$k$l$m$_@c@c@c@c@c@c@c@c@c@c@c@c@c@c@c@c@c@c@c@c@c@c@c@c@c@c@c@c@c@c@c@c@c@c@(@n$+$k.k.k.k.k.k.k.k.7.k.V@u ~#{.w.k.7.9+                                        ",
"          Z.F w 8+A+k.k.~ o$T@& l 7.p$q$k#_@r$_$(@c@c@c@c@c@c@c@c@c@c@c@c@c@c@c@c@c@c@c@c@c@c@c@c@c@c@c@c@c@c@c@c@c@c@c@s$t$u$k.k.7.7.w f.z+`.z.>@0# +7.k.w ! u#v$                                      ",
"        w$1$7.w E u#7.W ~#9+~ 7.k.7.x$y$_@_@z$.@(@c@c@c@c@c@c@c@c@c@c@c@c@c@c@c@c@c@c@c@c@c@c@c@c@c@c@c@c@c@c@c@c@c@c@c@(@A$B$/.V@C$x.0+S+D$6@w.k.7.k.7.w 8+>@4+L.                                      ",
"        E$k.7.u.F$k.%.4+}+k.k.k.k.7.G$H$c@(@I$J$(@c@c@c@c@c@c@c@c@c@c@c@c@c@c@c@c@c@c@c@c@c@c@c@c@c@c@c@c@c@c@c@c@c@c@c@c@K$L$M$4+{.w.F ~ w 7.k.k.7. +N$O$>@$.l %.P$                                    ",
"      W.0#w 7.}+{.u#T.3 7.k.k.k.k.Q$R$S$c@c@T$m#U$c@c@c@c@c@c@c@c@c@c@c@c@c@c@c@c@(@(@c@c@c@c@c@c@c@c@c@c@c@c@c@c@c@c@c@c@V$W$X$7.7.w k.k.k.7.k.z+Y$Z${. +7.7.k.7.y.`$                                  ",
"      {+u.k.7.p+Y.t@f+k.k.k.k.k.7.i+ %(@c@c@(@.%j$_@c@c@c@c@c@c@c@c@c@c@c@c@c@c@(@+%]@(@c@c@c@c@c@c@c@c@c@c@c@c@c@c@c@c@c@(@@%#%7.k.k.k.7.6.%+P+~#3 ~ $%k.k.k.7.k.= %%                                  ",
"      ~+~ k.7.=.{#V@k.k.k.k.7.k.U.&%*%(@c@c@(@=%-%;%_@c@c@c@c@c@c@c@c@c@c@c@c@c@_@>%,%(@c@c@c@c@c@c@c@c@c@c@c@c@c@c@c@c@c@c@'%)%7.k.! f.] L.9+!%7.k.k.7.k.k.k.! ] A+~%                                  ",
"      {%7.7.F ]%8+7.k.k.k.k.k.7.7.^%/%c@c@c@c@S$(%_%:%z@c@c@c@c@c@c@c@c@c@c@c@c@/$<%[%c@c@c@c@c@c@c@c@c@c@c@c@c@c@c@c@c@c@c@l@}%l k.<$|%o$f.7.7.k.7.k.k.k.k.7.3 1%f.z+U@                                ",
"    Y }+! B+2%|%7.k.k.k.k.7.6.N.3%4%_@c@c@c@c@c@_@>$5%,%_@c@c@c@c@c@c@c@c@c@c@(@:%6%_@c@c@c@c@c@c@c@c@c@c@c@c@c@c@c@c@c@c@c@b@7%8%{%2.z+7.w k.k.k.k.k.k.9% +9+T@F 7.k.0%                                ",
"    a%o+~ 4+2.2+7.k.k.! Q 1+t@Y.b%c%_@c@c@c@c@c@c@(@d%e%f%U$(@c@c@c@c@c@c@c@z@g%h%i%_@c@c@c@c@c@c@c@c@c@c@c@c@c@c@c@c@c@c@c@[%j%k%e./#~ 7.7.w k.k.7.7.%.9+Z$o$W 7.k.7.3 l%                              ",
"    - W X 1. +} ! 7.! q+m%u#W l n%7$(@c@c@c@c@c@c@c@c@%$o%p%q%(@c@c@c@(@r%s%t%u%_%v%w%[@(@c@c@c@c@c@c@c@c@c@c@c@c@c@c@c@c@c@x%j%y%z%A%B%1 C%=  +7.3 K.T.%+W ! w k.k.k.~ g.                              ",
"    D%E%V.) f+T@7.8+>@p+f+7.k.k.F%G%S$c@c@c@c@c@c@c@c@c@-#J$5%}@(@_@H%I%J%K%L%M%:@N%O%P%Q%R%c@c@c@c@c@c@c@c@c@c@c@c@c@c@c@c@S%T%J 9.r J U%V%W%X%Y%`$x.Z%w.f.7.k.k.k.k.7.}+`%                            ",
"     &.&k.7.& M 2.4+8+! k.k.k.k.F++&-#c@c@c@c@c@c@c@c@c@c@-#@&#&$&%&&&*&=&-&z@c@c@c@_@;&o%>&c@c@c@c@c@c@c@c@c@c@c@c@c@c@c@(@*%,&r q q q q q q q B S >.'&)&!&~&R+7.w k.k.F {&                            ",
"    z.k.k.7.S@]&{.6.7.k.k.k.k.7./#^&/&c@c@c@c@c@c@c@c@c@c@c@(&_&:&<&[&}&_@c@c@c@c@c@c@(@V$(@c@c@c@c@c@c@c@c@c@c@c@c@c@c@c@_@|&1&q q q q q q q q q q q q 2&7#3&4&T.5&7.k.7.1+                            ",
"  6&C$7.! u.t@7&W w k.7.k.l ~ q+L.8&A@(@c@c@c@c@c@c@c@c@c@c@_@9&0&a&(@c@c@c@c@c@c@c@c@c@c@c@c@c@c@c@c@c@c@c@c@(@(@(@c@c@c@b@b&T q q q q q q q q q q q q q q q J c&d&e&~ 8+4 L#                          ",
"  n u#7.6@4+`.A+ +k.k.w 6.l.} c+B+f&g&z@c@c@c@c@c@c@c@c@c@c@c@h&6%_@c@c@c@c@c@c@c@c@c@c@c@c@c@c@c@c@c@c@(@(@T$6$i&j&k&(@c@L@l&q q q q q q q q q q q q q q q q q q m&n&o&p+v 2%                          ",
"  p&`.u.T@u.l z.v 7.7.& q&z.f+l k./#r&-#c@c@c@c@c@c@c@c@c@c@c@s&t&(@c@c@c@c@c@c@c@c@c@c@c@c@c@c@c@c@c@_@u&v&w&x&y&z&A&B&(@*%C&D&q q q q q q q q q q q q q q q q q q r E&F& +0#G&                        ",
"  Y 2.H&C$7.k.I&2. +Y.d+<$7.k.k.k.$%{$q%c@c@c@c@c@c@c@c@c@c@c@N%J&r%c@c@c@c@c@c@c@c@c@c@c@c@c@c@c@c@(@K&L&M&N&O&P&Q&R&S&z@5$T&q q q q q q q q q q q q q q q q q q q q r <+U& +V&                        ",
"  W&X&~%k.k.7.V@Y&A+y.~ 7.7.k.7.7.,@Z&*%(@c@c@c@c@c@c@c@c@c@c@;#`&(@c@c@c@c@c@c@c@c@c@c@c@c@c@c@c@(@[%P# *.*+*|#Y @*#*$*%*&***q q q q q q q q q q q q q q q q q q q q q =*-*~ x.                        ",
"  Y d+ +k.7.$.K.{#3 7.k.k.k.! f.}+> ;*>*,$c@c@c@c@c@c@c@c@c@(@,*M@_@c@c@c@c@c@c@c@c@c@c@c@c@c@c@c@_@'*)*!*~*|#|#|#{*]*^*/*(*q q q q q q q q q q q q q q q q q q q q q q r _*V.:*<*                      ",
"  [*y.7. +2.V.%.}*1+7.7.7.%.z.|*X V@! 1*2*(@c@c@c@c@c@c@c@c@(@3*,%_@c@c@c@c@c@c@c@c@c@c@c@c@c@c@c@b@4*]*5*|#|#|#6*7*8*9*0*a*q q A c p.q r r q q q q q q q q q q q q q q q m&b*u.c*                      ",
"  Y Y./.d+C$W k.k.K.B+<$T@1%q+f.l 7.7.d*e*(@c@c@c@c@c@c@c@c@_@f*g*(@c@c@c@c@c@c@c@c@c@c@c@c@c@c@c@h*i*j*k*|#|#Y l*m*n*o*p*,+0 q*,.r*s*t*a.++A r q q q q q q q q q q q q q r u*u.d+                      ",
"    d+L.y.7.k.l V@L.b#v*= 7.! k.k.k.k.v@w*l#(@c@c@c@c@c@c@c@z@x*c$(@c@c@c@c@c@c@c@c@c@c@c@c@c@c@c@<#y*z*Y |#A*B*C*D*E*F*G*D.H*Q.A q U >+(+s.K+s.b.I*q q q q q q q q q q q J*K*l 1+Y                     ",
"    L*1+l U.o+p+M*c+K.! 7.k.k.k.w 7.~ %.N*O*S$c@c@c@c@c@c@c@S$P*Q*c@c@c@c@c@c@c@c@c@c@c@c@c@c@c@c@S$R*S*T*.#U*P&V*W*X*Y*0 p r q 9.Z*`* .S. =0 .=+=q.E.q q q q q q q q q r @=8+7.w.#=                    ",
"    $=6@}+M*+ $.k.! |$3 7.7.6.z+o+>@C+>@`.%=&=(@c@c@c@c@c@c@_@*===(@c@c@c@c@c@c@c@c@c@c@c@c@c@c@c@c@[@-=;=>=,='=)=!=~=>.q q q q T y o.q r Z {=z q y%_+A q q q q q q q q J ]=~ %.t@a%                    ",
"      `%1.V@l 7.7.7.= >@)#1$^=/=1.v ~ (=7._=:=s&(@c@c@c@c@c@(@<=[=(@c@c@c@c@c@c@c@c@c@c@c@c@c@c@c@c@(@%$<=}=d@z@|=*&1=q q q q q 2=3=q q q r Q.4=A q ` z q q q q q q q q c 5=s+A+= M                     ",
"        y.%.u. +%+Y.V.U@V.}*W k.7.k.7.k.k.! 6=5%7=(@c@c@c@c@c@U$8=x%c@c@c@c@c@c@c@c@c@c@c@c@c@c@c@c@c@c@(@(@(@Z@9=0=q q q q q r a=E.q q q q q c.b.r b=c=q q q q q q q q d=T.3 k.! d+                    ",
"        e=C+T@4 , u#& )#^.w k.k.k.k.k.k.k.k.l e.f=g=-#c@c@c@c@(@o*g&=#c@c@c@c@c@c@c@c@c@c@c@c@c@c@c@c@c@c@(@h=i=j=k=r q q q q q ,.p q q q q q l=A q s.m=q q q q q q 9.n=m%~ !  +N.1%                    ",
"        o=)#7.7.7.7.k.k.~%v 7.k.k.7.7.7.! B+Y.{%p=q=r=s=c@c@c@c@Z@t=u=v=(@c@c@c@c@c@c@c@c@c@c@c@c@c@c@(@,$w=x=y=z=A=q q q q q r b=b=r q q q q q q ++_+A q q q q q r p B=C=z+2.|%                        ",
"          M*z+k.7.7.7.7.%.2%f+7.k.F N.K.4 M C$ +l D=E=P*=%(@(@c@(@d%@@P*F=N%K$(@c@c@c@c@c@c@c@c@c@c@_@G=n@H=I=$%J=A=q q q q q q K=o #+D&r q I*E.3=9 p q q q q q q l=L=M=4 N=                            ",
"            s#7 C+H&`.z+2.> M*^.} V.] w.z+~ ! 7.k.k.k.O=P=Q=R=:#_@(@:#S=T=U=.@(@c@c@c@c@c@c@c@(@z@V=W=X=Y=Z=7.! `= -d.q q q q q r T y .-` +-,.9 b=l=q q q q q q q .-@-#-                                ",
"              $-`.$.z.K.q+m x.x. +k.7.k.7.k.k.k.k.7.k.7.~ %-&-*-J$=-=#_@_@:#(@(@c@c@(@(@(@,$[%c$--;->-,-7.l u.u S+'-)-r q q q q q q q !-z ~-c A q q q q q q r E._+{-                                    ",
"                ~+z+! 7.7.7.~ T.^.]-k.k.k.7.k.k.k.k.k.k.k.7.$%^-/-(-_-:-J$c$E*($S$k&K$<-[-}-|-1-2-^+l 7.8+M.d+e+ +8+3-p.q q q q q q q q q q q q q q q q q q #+4-                                        ",
"                  V&z+7.7.7.l 7.z.E k.k.k.k.k.k.k.k.7.w 7.6.5-A.0+3+p$6-Z%7-8-9-r&0-a-c+b-c-d-7.! W l.V.e-$.) 7.k.! 6@f-p q q q q q q q q q q q q q r g-R.P.h-                                          ",
"                    b+i-i-c+^.u q+n+K.w.B+F W F 8+N.y.A.L.2+j-S@k.7.k.7.7.7.7.d-W@u.k.7.k.7.7.z+c+A+Y.F 7.7.k.k.k.k.7.k-l-m-n-o-q r q q q r q q q c b=9 p-                                              ",
"                      q-r-%+o+C$^#1.s-b#@ t@t@4+Y$o$}+8+F f.7.w k.k.k.k.k.k.k.k.k.k.k.7.U.<$K.e-3+~ 7.w k.k.k.k.w 7.' C+w.Y=>@t-u-v-#+!.b.++w-o x-y                                                     ",
"                        v.> v ! 7.7.7.$.8.!#B+k.! k.7.k.k.k.k.k.k.k.k.k.k.k.k.k.7.k.%., d+c+& 7.7.k.k.k.k.k.7.7.S@1+t@w.7.7.w 3 y-Y z-A-{-B-                                                            ",
"                            ].1. +w k.7./.C-i.M.v k.7.7.k.k.k.k.k.k.k.7.7.k.l & o$S+K.o+u.7.7.k.k.k.k.7.! ~ 3 O$+ %+w k.B+D-#-E-                                                                        ",
"                              Y !+5-7.k.k.7.~ N.0+C+F-m = G-7.7.w 7.f.v }+H&4+T.%+f.k.w k.k.w 7.k.7.k.f+6@^ H-A+x.~#n+!+%%                                                                              ",
"                                  I-9+& k.7.7.k.7.f+%+2.~%1%J-v v 6@p+9+l.=+f+7.! k.! 7.f.u.$.e+T.#-c*J.K.l.)#w.<$K-v.                                                                                  ",
"                                    L-a%o=M u#S@D+N.}+p+T.M-N-1%O-P-V&+ ^.% A.p+M i.4+S+T@K.~#} } H&S@7.7.<$M i.L#Q-                                                                                    ",
"                                            R-v$v#1+y.& & w.f.k.k.B+F & 5-$.$.F F f.S@u.R+9+x.9$k.7.X.%.4 S-Y                                                                                           ",
"                                                T-e=g.2%p+2.=+u.w 7.7.7.7.7.k.k.7.~ m 4 M*l.7.l X.%.z.N=Y                                                                                               ",
"                                                            U-]+=.p+{.8+z+ +~ F y.|%P$`.) k.& e+!+e=w$                                                                                                  ",
"                                                                    ##L#V-v#> v.W-N=~+4 } X-# Y                                                                                                         ",
"                                                                                                                                                                                                        ",
"                                                                                                                                                                                                        ",
"                                                                                                                                                                                                        ",
"                                                                                                                                                                                                        ",
"                                                                                                                                                                                                        ",
"                                                                                                                                                                                                        ",
"                                                                                                                                                                                                        ",
"                                                                                                                                                                                                        "};
