/* XPM */
static char * merry_6_xpm[] = {
"100 100 1074 2",
"  	c None",
". 	c #180E0E",
"+ 	c #402E2E",
"@ 	c #3D2B2B",
"# 	c #090505",
"$ 	c #493434",
"% 	c #6A4D4D",
"& 	c #694C4C",
"* 	c #543D3D",
"= 	c #483232",
"- 	c #211515",
"; 	c #201515",
"> 	c #563E3E",
", 	c #654949",
"' 	c #6C4F4F",
") 	c #6E5151",
"! 	c #614646",
"~ 	c #4A3535",
"{ 	c #3A2828",
"] 	c #2C1E1E",
"^ 	c #160E0E",
"/ 	c #523B3B",
"( 	c #513A3A",
"_ 	c #483333",
": 	c #584040",
"< 	c #5F4546",
"[ 	c #4F393A",
"} 	c #433230",
"| 	c #3C2B2B",
"1 	c #261B17",
"2 	c #120F01",
"3 	c #241F03",
"4 	c #1A1601",
"5 	c #110E01",
"6 	c #382828",
"7 	c #6E5050",
"8 	c #6F5151",
"9 	c #443131",
"0 	c #282111",
"a 	c #2F280B",
"b 	c #342F02",
"c 	c #3B3504",
"d 	c #3C3506",
"e 	c #3D3606",
"f 	c #3F3807",
"g 	c #3C3507",
"h 	c #373105",
"i 	c #2E2804",
"j 	c #292303",
"k 	c #271A1A",
"l 	c #644949",
"m 	c #694C4D",
"n 	c #5B4242",
"o 	c #453130",
"p 	c #2F2807",
"q 	c #423907",
"r 	c #433A08",
"s 	c #433B08",
"t 	c #423A08",
"u 	c #413907",
"v 	c #3A3306",
"w 	c #2D2704",
"x 	c #241F02",
"y 	c #0C0707",
"z 	c #533C3C",
"A 	c #634849",
"B 	c #34271F",
"C 	c #2C2606",
"D 	c #363004",
"E 	c #423B08",
"F 	c #3E3607",
"G 	c #332C05",
"H 	c #181301",
"I 	c #1A1111",
"J 	c #422E2F",
"K 	c #392927",
"L 	c #383204",
"M 	c #443C09",
"N 	c #383006",
"O 	c #1B1702",
"P 	c #664A4A",
"Q 	c #322718",
"R 	c #413906",
"S 	c #3B3307",
"T 	c #2A2504",
"U 	c #332323",
"V 	c #594040",
"W 	c #352F09",
"X 	c #403807",
"Y 	c #3F3707",
"Z 	c #413908",
"` 	c #2F2905",
" .	c #060400",
"..	c #4A3434",
"+.	c #6C4E4F",
"@.	c #412F2D",
"#.	c #3C3503",
"$.	c #312C04",
"%.	c #272104",
"&.	c #2B2604",
"*.	c #282303",
"=.	c #2D2604",
"-.	c #352E05",
";.	c #413808",
">.	c #2C2604",
",.	c #1C1212",
"'.	c #543C3C",
").	c #684D4C",
"!.	c #372A1F",
"~.	c #413A06",
"{.	c #2D2805",
"].	c #312B05",
"^.	c #403808",
"/.	c #302A04",
"(.	c #3D3607",
"_.	c #231D03",
":.	c #2F1F20",
"<.	c #352525",
"[.	c #4B3636",
"}.	c #271F0F",
"|.	c #423A07",
"1.	c #423908",
"2.	c #373006",
"3.	c #272304",
"4.	c #383104",
"5.	c #402F2D",
"6.	c #634848",
"7.	c #4E3737",
"8.	c #382626",
"9.	c #1C1010",
"0.	c #593F3F",
"a.	c #674B4B",
"b.	c #352621",
"c.	c #3E3805",
"d.	c #2F2904",
"e.	c #3C3406",
"f.	c #262104",
"g.	c #2E280F",
"h.	c #5D4344",
"i.	c #6D5050",
"j.	c #684B4B",
"k.	c #573F3F",
"l.	c #2D1E1E",
"m.	c #0C0605",
"n.	c #0B0606",
"o.	c #3A2727",
"p.	c #6C5050",
"q.	c #4F3939",
"r.	c #363003",
"s.	c #433B09",
"t.	c #282203",
"u.	c #342E05",
"v.	c #372F05",
"w.	c #282304",
"x.	c #3B3407",
"y.	c #3B3404",
"z.	c #3C2C29",
"A.	c #6C4E4E",
"B.	c #5F4545",
"C.	c #453232",
"D.	c #372626",
"E.	c #000000",
"F.	c #4D3737",
"G.	c #594141",
"H.	c #302B07",
"I.	c #262103",
"J.	c #2D2804",
"K.	c #3A3307",
"L.	c #383206",
"M.	c #433A07",
"N.	c #2C2509",
"O.	c #4C3636",
"P.	c #624747",
"Q.	c #614747",
"R.	c #473333",
"S.	c #5B4343",
"T.	c #5C4343",
"U.	c #281B1B",
"V.	c #020101",
"W.	c #332424",
"X.	c #6D4F4F",
"Y.	c #2D2513",
"Z.	c #352F06",
"`.	c #383203",
" +	c #332423",
".+	c #5A4141",
"++	c #4D3838",
"@+	c #412D2D",
"#+	c #523A3A",
"$+	c #3F2D2D",
"%+	c #251818",
"&+	c #191010",
"*+	c #422E2E",
"=+	c #6B4E4E",
"-+	c #3D2B2A",
";+	c #3C3504",
">+	c #342D05",
",+	c #2A2403",
"'+	c #3E3706",
")+	c #402E2D",
"!+	c #6D5151",
"~+	c #674A4A",
"{+	c #553E3E",
"]+	c #3F2C2C",
"^+	c #4E3838",
"/+	c #694D4D",
"(+	c #5E4545",
"_+	c #463232",
":+	c #1F1414",
"<+	c #040202",
"[+	c #5B4141",
"}+	c #553D3D",
"|+	c #2F2903",
"1+	c #332D06",
"2+	c #2B2503",
"3+	c #342C05",
"4+	c #231E02",
"5+	c #3A3303",
"6+	c #6B4F4F",
"7+	c #5F4646",
"8+	c #402D2D",
"9+	c #654A4A",
"0+	c #342323",
"a+	c #342424",
"b+	c #684C4C",
"c+	c #362921",
"d+	c #403805",
"e+	c #3A3206",
"f+	c #322B05",
"g+	c #3C3607",
"h+	c #543C3D",
"i+	c #6F5150",
"j+	c #634949",
"k+	c #2F2020",
"l+	c #533B3B",
"m+	c #292407",
"n+	c #383106",
"o+	c #272102",
"p+	c #2E260E",
"q+	c #3E2B2C",
"r+	c #6A4E4E",
"s+	c #493535",
"t+	c #412E2E",
"u+	c #513B3B",
"v+	c #503A3A",
"w+	c #2A1D1D",
"x+	c #322424",
"y+	c #5D4444",
"z+	c #5C4242",
"A+	c #533D3D",
"B+	c #473334",
"C+	c #5A4241",
"D+	c #443130",
"E+	c #362F08",
"F+	c #332C04",
"G+	c #292404",
"H+	c #3B3405",
"I+	c #443231",
"J+	c #473232",
"K+	c #644A4A",
"L+	c #5D4343",
"M+	c #443030",
"N+	c #4F3838",
"O+	c #3E2C2C",
"P+	c #1A1010",
"Q+	c #664B4B",
"R+	c #453030",
"S+	c #2C201A",
"T+	c #362F06",
"U+	c #373106",
"V+	c #33271E",
"W+	c #64494A",
"X+	c #5C4444",
"Y+	c #4C3535",
"Z+	c #3C2A2A",
"`+	c #2B1D1D",
" @	c #1D1313",
".@	c #463131",
"+@	c #6B4D4D",
"@@	c #4A3536",
"#@	c #2F2515",
"$@	c #3C3407",
"%@	c #2A2404",
"&@	c #3B3406",
"*@	c #3C3405",
"=@	c #372F04",
"-@	c #2E2603",
";@	c #221D01",
">@	c #161005",
",@	c #3E2A2D",
"'@	c #5C4143",
")@	c #624347",
"!@	c #684A4B",
"~@	c #6D4F50",
"{@	c #6E5051",
"]@	c #453131",
"^@	c #573E3E",
"/@	c #422F2F",
"(@	c #160D0D",
"_@	c #50393A",
":@	c #2C2605",
"<@	c #3D3504",
"[@	c #1B1701",
"}@	c #373728",
"|@	c #717158",
"1@	c #919173",
"2@	c #A2A282",
"3@	c #B9B995",
"4@	c #C2C29C",
"5@	c #C7C79F",
"6@	c #BDBD96",
"7@	c #949275",
"8@	c #6E6A56",
"9@	c #5E4D46",
"0@	c #5C3F42",
"a@	c #644547",
"b@	c #483433",
"c@	c #453231",
"d@	c #4C3737",
"e@	c #624848",
"f@	c #3D2D2A",
"g@	c #423A06",
"h@	c #362F03",
"i@	c #322D1B",
"j@	c #79795F",
"k@	c #A7A785",
"l@	c #D4D4AA",
"m@	c #F3F3C3",
"n@	c #F6F6C9",
"o@	c #F8F8CB",
"p@	c #FFFFD1",
"q@	c #FFFFCE",
"r@	c #FFFFCD",
"s@	c #FFFFCC",
"t@	c #FAFAC9",
"u@	c #F0F1C1",
"v@	c #E1E0B3",
"w@	c #BDBD97",
"x@	c #939174",
"y@	c #65594C",
"z@	c #5C4043",
"A@	c #6A4C4D",
"B@	c #604646",
"C@	c #4B3737",
"D@	c #493333",
"E@	c #392828",
"F@	c #705252",
"G@	c #4C3736",
"H@	c #5A4242",
"I@	c #5D4445",
"J@	c #2D250F",
"K@	c #342C03",
"L@	c #403D2C",
"M@	c #969677",
"N@	c #CBCBA3",
"O@	c #D2D2A6",
"P@	c #B3B391",
"Q@	c #A5A58D",
"R@	c #A0A08D",
"S@	c #A0A090",
"T@	c #9D9D87",
"U@	c #CACAA6",
"V@	c #EEEEC1",
"W@	c #FCFCCE",
"X@	c #FFFFCB",
"Y@	c #FEFECD",
"Z@	c #FAFACB",
"`@	c #E3E2B8",
" #	c #B1B08E",
".#	c #6D6553",
"+#	c #5C3E42",
"@#	c #6B4D4E",
"##	c #6E5150",
"$#	c #5E4444",
"%#	c #322323",
"&#	c #180F0F",
"*#	c #6D504F",
"=#	c #483535",
"-#	c #342E03",
";#	c #3B3204",
">#	c #403E2F",
",#	c #A1A180",
"'#	c #D5D5AB",
")#	c #F9F9CB",
"!#	c #C1C19C",
"~#	c #8C8C8B",
"{#	c #BFBFC0",
"]#	c #BCBCBE",
"^#	c #B2B2B4",
"/#	c #ABABAB",
"(#	c #8B8B8C",
"_#	c #8D8D8D",
":#	c #959589",
"<#	c #B9B99C",
"[#	c #F8F8C8",
"}#	c #FEFECE",
"|#	c #E5E6B8",
"1#	c #ACAC89",
"2#	c #594D43",
"3#	c #614446",
"4#	c #100707",
"5#	c #664A4B",
"6#	c #32261D",
"7#	c #3F3805",
"8#	c #403806",
"9#	c #271F06",
"0#	c #62624D",
"a#	c #CDCDA4",
"b#	c #FBFBCB",
"c#	c #E6E6B8",
"d#	c #AEAEA7",
"e#	c #D7D7D7",
"f#	c #787878",
"g#	c #222222",
"h#	c #101010",
"i#	c #030303",
"j#	c #111112",
"k#	c #3A3A3B",
"l#	c #717172",
"m#	c #737376",
"n#	c #CFCFA5",
"o#	c #FAFACA",
"p#	c #D3D3A9",
"q#	c #78735D",
"r#	c #54383D",
"s#	c #574040",
"t#	c #432F2F",
"u#	c #3B2A2A",
"v#	c #674C4C",
"w#	c #573E3F",
"x#	c #2F2811",
"y#	c #362E08",
"z#	c #60604C",
"A#	c #AFAF8C",
"B#	c #EAEABD",
"C#	c #C6C69E",
"D#	c #D6D6D5",
"E#	c #919191",
"F#	c #010101",
"G#	c #010000",
"H#	c #1D1D1D",
"I#	c #858586",
"J#	c #C8C8A0",
"K#	c #FFFECC",
"L#	c #EEEFBF",
"M#	c #B4B48F",
"N#	c #625A4B",
"O#	c #5E4143",
"P#	c #382727",
"Q#	c #583F3F",
"R#	c #604545",
"S#	c #43302F",
"T#	c #533B3C",
"U#	c #372726",
"V#	c #292513",
"W#	c #7D7D64",
"X#	c #E3E3B6",
"Y#	c #CBCBA1",
"Z#	c #C7C7C8",
"`#	c #B5B5B5",
" $	c #2D2D2D",
".$	c #494947",
"+$	c #949492",
"@$	c #DEDEB2",
"#$	c #FDFDCB",
"$$	c #D5D6AC",
"%$	c #736F59",
"&$	c #614346",
"*$	c #3C2929",
"=$	c #130B0B",
"-$	c #2B1E1E",
";$	c #251618",
">$	c #929274",
",$	c #EFEFC1",
"'$	c #EDEDBD",
")$	c #9D9D95",
"!$	c #E8E8E9",
"~$	c #C8C8C9",
"{$	c #878786",
"]$	c #4C4C4B",
"^$	c #383838",
"/$	c #575757",
"($	c #808081",
"_$	c #BABAB6",
":$	c #B4B4A3",
"<$	c #EFEFBF",
"[$	c #D6D6AC",
"}$	c #584D43",
"|$	c #694B4D",
"1$	c #362626",
"2$	c #433030",
"3$	c #533C3B",
"4$	c #563A3E",
"5$	c #969678",
"6$	c #F2F2C3",
"7$	c #D8D8AC",
"8$	c #A9A997",
"9$	c #B9B9B8",
"0$	c #DFDFDF",
"a$	c #E1E1E0",
"b$	c #E2E2E2",
"c$	c #E5E5E5",
"d$	c #C2C2C1",
"e$	c #91918B",
"f$	c #B5B591",
"g$	c #4D3136",
"h$	c #644848",
"i$	c #221616",
"j$	c #736E59",
"k$	c #F5F5C4",
"l$	c #D9D9AD",
"m$	c #ACAC8F",
"n$	c #9B9B8E",
"o$	c #A3A397",
"p$	c #A2A28B",
"q$	c #C1C199",
"r$	c #E7E7BA",
"s$	c #FDFDCC",
"t$	c #FEFECC",
"u$	c #F3F3C6",
"v$	c #969476",
"w$	c #5A3C40",
"x$	c #372B27",
"y$	c #3E2B2B",
"z$	c #261818",
"A$	c #3B2B2B",
"B$	c #6A4C4E",
"C$	c #5A4943",
"D$	c #D0D1A8",
"E$	c #F5F5C6",
"F$	c #F4F4C3",
"G$	c #FEFECB",
"H$	c #D7D7AC",
"I$	c #D8D8AD",
"J$	c #FCFCCB",
"K$	c #E4E4B7",
"L$	c #6D6755",
"M$	c #694B4C",
"N$	c #443132",
"O$	c #170D0D",
"P$	c #150D0D",
"Q$	c #4F3839",
"R$	c #9D9C7C",
"S$	c #F9F9C7",
"T$	c #EEEEC0",
"U$	c #A6A685",
"V$	c #DCDCAF",
"W$	c #483534",
"X$	c #342525",
"Y$	c #0F0909",
"Z$	c #483434",
"`$	c #644748",
" %	c #575243",
".%	c #E9E9B9",
"+%	c #E1E1B5",
"@%	c #9E9E7E",
"#%	c #F6F7C7",
"$%	c #88886C",
"%%	c #3C2729",
"&%	c #6A4C4C",
"*%	c #2F2121",
"=%	c #302121",
"-%	c #5E4043",
";%	c #9F9D7E",
">%	c #F9F9CA",
",%	c #959576",
"'%	c #CFCFA6",
")%	c #4C3F38",
"!%	c #3E2D2D",
"~%	c #5A4543",
"{%	c #D7D7AB",
"]%	c #FCFCCC",
"^%	c #A0A07F",
"/%	c #EDEDC0",
"(%	c #F8F8C9",
"_%	c #8E8C70",
":%	c #503939",
"<%	c #241919",
"[%	c #3F2E2E",
"}%	c #4B3535",
"|%	c #4E3939",
"1%	c #684A4C",
"2%	c #76725C",
"3%	c #F5F6C5",
"4%	c #A4A482",
"5%	c #F2F2C4",
"6%	c #C6C7A1",
"7%	c #382526",
"8%	c #9D9E7E",
"9%	c #AEAE8B",
"0%	c #ECECC0",
"a%	c #67604F",
"b%	c #5F4645",
"c%	c #563F3F",
"d%	c #070404",
"e%	c #53383A",
"f%	c #C3C39B",
"g%	c #C9C9A0",
"h%	c #ACAC88",
"i%	c #573D3F",
"j%	c #684D4D",
"k%	c #302222",
"l%	c #170E0E",
"m%	c #6C4F50",
"n%	c #55473F",
"o%	c #B6B691",
"p%	c #EDEDBE",
"q%	c #D2D2A9",
"r%	c #55403E",
"s%	c #664A49",
"t%	c #6E4F4F",
"u%	c #696351",
"v%	c #F0F0C2",
"w%	c #F9F9C9",
"x%	c #939375",
"y%	c #EBEBBE",
"z%	c #C3C39C",
"A%	c #C1C19B",
"B%	c #E1E1B6",
"C%	c #52443C",
"D%	c #251919",
"E%	c #523C3C",
"F%	c #674A4B",
"G%	c #7D7A63",
"H%	c #C3C39D",
"I%	c #CCCCA3",
"J%	c #F6F6C7",
"K%	c #B0B08D",
"L%	c #B9B994",
"M%	c #F3F3C5",
"N%	c #5C5446",
"O%	c #593F40",
"P%	c #201414",
"Q%	c #624646",
"R%	c #543D3C",
"S%	c #5F4344",
"T%	c #807D65",
"U%	c #EBEBBD",
"V%	c #9F9F7F",
"W%	c #9E9E80",
"X%	c #C6C69F",
"Y%	c #F6F6C6",
"Z%	c #686852",
"`%	c #563D3E",
" &	c #302020",
".&	c #211616",
"+&	c #684B4C",
"@&	c #594041",
"#&	c #392728",
"$&	c #231316",
"%&	c #F5F5C7",
"&&	c #8C8C70",
"*&	c #E1E1B8",
"=&	c #FCFCCF",
"-&	c #E4E4B6",
";&	c #A6A683",
">&	c #D2D2A7",
",&	c #8E8E71",
"'&	c #4B3334",
")&	c #362525",
"!&	c #5B4243",
"~&	c #392A26",
"{&	c #2D2314",
"]&	c #2F280A",
"^&	c #38310D",
"/&	c #2B2402",
"(&	c #FDFDCD",
"_&	c #E8E8BB",
":&	c #ABAB89",
"<&	c #949477",
"[&	c #8B8B6E",
"}&	c #A7A789",
"|&	c #D9D9B3",
"1&	c #FBFBCE",
"2&	c #D0D0A9",
"3&	c #A2A281",
"4&	c #A1A081",
"5&	c #442F30",
"6&	c #291B1C",
"7&	c #352822",
"8&	c #2D2414",
"9&	c #302A0A",
"0&	c #332A03",
"a&	c #A1A280",
"b&	c #E5E5BA",
"c&	c #AAAA87",
"d&	c #F9F9CC",
"e&	c #F7F7CB",
"f&	c #D3D3AD",
"g&	c #9E9E82",
"h&	c #939377",
"i&	c #C8C8A4",
"j&	c #F1F1C6",
"k&	c #FDFDCE",
"l&	c #CECEA7",
"m&	c #EEEEC2",
"n&	c #FCFCCD",
"o&	c #9C9B7C",
"p&	c #624447",
"q&	c #523B3A",
"r&	c #573F40",
"s&	c #3E2D2A",
"t&	c #2E2416",
"u&	c #2D2806",
"v&	c #383007",
"w&	c #3C3404",
"x&	c #403906",
"y&	c #362E04",
"z&	c #FBFBCA",
"A&	c #D7D7AD",
"B&	c #D5D5AC",
"C&	c #E3E3BB",
"D&	c #B9B997",
"E&	c #85856A",
"F&	c #B2B292",
"G&	c #E2E2BB",
"H&	c #E7E7BE",
"I&	c #89886D",
"J&	c #67484A",
"K&	c #392C29",
"L&	c #13120D",
"M&	c #342222",
"N&	c #392924",
"O&	c #2E2806",
"P&	c #3B3304",
"Q&	c #7F7F66",
"R&	c #FEFECF",
"S&	c #F2F2C7",
"T&	c #C9C9A8",
"U&	c #96967A",
"V&	c #686854",
"W&	c #CECEA8",
"X&	c #F0F0C1",
"Y&	c #61594A",
"Z&	c #1E1413",
"`&	c #312222",
" *	c #6B4E4F",
".*	c #2D270D",
"+*	c #3E3705",
"@*	c #F4F4C5",
"#*	c #F0F0C6",
"$*	c #949479",
"%*	c #DCDCB4",
"&*	c #3B392E",
"**	c #4F3A3A",
"=*	c #291C1C",
"-*	c #2C1D1D",
";*	c #392628",
">*	c #302617",
",*	c #353002",
"'*	c #413806",
")*	c #555441",
"!*	c #ECECBE",
"~*	c #E3E3B5",
"{*	c #E6E6BA",
"]*	c #B1B18E",
"^*	c #BCBC97",
"/*	c #3B2929",
"(*	c #563E3F",
"_*	c #2F280D",
":*	c #433B07",
"<*	c #42402F",
"[*	c #DBDBAF",
"}*	c #ACACA3",
"|*	c #C9C9CB",
"1*	c #D5D5D7",
"2*	c #B2B2AE",
"3*	c #A7A78D",
"4*	c #DEDEB5",
"5*	c #B0B08C",
"6*	c #7F7D65",
"7*	c #654649",
"8*	c #2E2020",
"9*	c #674B4C",
"0*	c #362A20",
"a*	c #3F3906",
"b*	c #322A02",
"c*	c #9C9C7C",
"d*	c #A8A899",
"e*	c #DDDDDE",
"f*	c #B1B1B1",
"g*	c #A6A6A6",
"h*	c #D5D5D6",
"i*	c #E3E3E4",
"j*	c #A6A6A5",
"k*	c #BFBF9A",
"l*	c #FBFBC9",
"m*	c #DFDFB5",
"n*	c #D4D4AB",
"o*	c #523E3B",
"p*	c #2F2120",
"q*	c #342E06",
"r*	c #585844",
"s*	c #E0E0B5",
"t*	c #B7B7B4",
"u*	c #B4B4B4",
"v*	c #0B0B0B",
"w*	c #383839",
"x*	c #888889",
"y*	c #E3E3E3",
"z*	c #B6B6B4",
"A*	c #CCCCA1",
"B*	c #A9A986",
"C*	c #FBFAC9",
"D*	c #959677",
"E*	c #624446",
"F*	c #493534",
"G*	c #190F0F",
"H*	c #221716",
"I*	c #533C3D",
"J*	c #3D2F26",
"K*	c #393521",
"L*	c #D5D6AE",
"M*	c #DCDCB2",
"N*	c #A0A09E",
"O*	c #BABABA",
"P*	c #7A7A7A",
"Q*	c #E8E8E8",
"R*	c #9A9A8A",
"S*	c #9F9F7E",
"T*	c #E3E3B7",
"U*	c #545041",
"V*	c #382527",
"W*	c #543E3E",
"X*	c #100A0A",
"Y*	c #1C1313",
"Z*	c #302B06",
"`*	c #403907",
" =	c #2F2702",
".=	c #878773",
"+=	c #B8B8B9",
"@=	c #494949",
"#=	c #0F0F10",
"$=	c #B0B0B0",
"%=	c #CECEA4",
"&=	c #F7F7C8",
"*=	c #A1A181",
"==	c #2D1F1F",
"-=	c #2A1C1C",
";=	c #4E3938",
">=	c #352F03",
",=	c #322C05",
"'=	c #272203",
")=	c #3A3205",
"!=	c #4A4936",
"~=	c #A9A9A6",
"{=	c #B3B3B4",
"]=	c #2F2F2F",
"^=	c #010100",
"/=	c #50504F",
"(=	c #C4C4C6",
"_=	c #AFAF8F",
":=	c #9A9A7B",
"<=	c #CACAA3",
"[=	c #513E3A",
"}=	c #563F3E",
"|=	c #392929",
"1=	c #2A220F",
"2=	c #292304",
"3=	c #393106",
"4=	c #3E3707",
"5=	c #2B2605",
"6=	c #1A1501",
"7=	c #939475",
"8=	c #C9C9A2",
"9=	c #B0B0AD",
"0=	c #999999",
"a=	c #2C2C2B",
"b=	c #474747",
"c=	c #B0B0AF",
"d=	c #D0D0A7",
"e=	c #EEEEBF",
"f=	c #EBECBE",
"g=	c #7D7861",
"h=	c #644649",
"i=	c #453132",
"j=	c #352D04",
"k=	c #322D06",
"l=	c #282104",
"m=	c #2B2504",
"n=	c #403908",
"o=	c #3B3306",
"p=	c #353223",
"q=	c #BABA96",
"r=	c #969691",
"s=	c #89898B",
"t=	c #686869",
"u=	c #3F3F3F",
"v=	c #7A7A7B",
"w=	c #A2A28D",
"x=	c #E4E4B8",
"y=	c #B4B490",
"z=	c #3D272A",
"A=	c #705353",
"B=	c #241818",
"C=	c #020202",
"D=	c #3A2929",
"E=	c #523A3B",
"F=	c #332D04",
"G=	c #3B3A29",
"H=	c #C7C7A0",
"I=	c #B5B597",
"J=	c #94948A",
"K=	c #818182",
"L=	c #89897E",
"M=	c #E0E0B2",
"N=	c #BABA93",
"O=	c #EBEBBC",
"P=	c #E1E2B6",
"Q=	c #6C6453",
"R=	c #553C3D",
"S=	c #503B3B",
"T=	c #6C504F",
"U=	c #634747",
"V=	c #583F40",
"W=	c #4A3534",
"X=	c #302A08",
"Y=	c #2A2503",
"Z=	c #372F06",
"`=	c #403708",
" -	c #221D04",
".-	c #6B6B54",
"+-	c #E9E9BD",
"@-	c #EAEAC0",
"#-	c #EAEABC",
"$-	c #F0F0C0",
"%-	c #B6B690",
"&-	c #ECECBD",
"*-	c #817E65",
"=-	c #5F4345",
"--	c #5F4644",
";-	c #33251F",
">-	c #413807",
",-	c #413A08",
"'-	c #302905",
")-	c #2D2703",
"!-	c #2C2602",
"~-	c #898A6F",
"{-	c #D1D0A7",
"]-	c #D2D3A9",
"^-	c #A2A380",
"/-	c #583B3F",
"(-	c #412F2F",
"_-	c #1B1111",
":-	c #31290E",
"<-	c #383105",
"[-	c #262414",
"}-	c #EAEBBB",
"|-	c #A8A887",
"1-	c #F4F4C4",
"2-	c #DDDDB3",
"3-	c #7C7D63",
"4-	c #6B4F50",
"5-	c #3F2E2D",
"6-	c #352E07",
"7-	c #3F3907",
"8-	c #312619",
"9-	c #54383C",
"0-	c #726B59",
"a-	c #C8C79F",
"b-	c #9D9D7C",
"c-	c #DFDEB4",
"d-	c #A3A382",
"e-	c #5B5145",
"f-	c #4D3436",
"g-	c #342E07",
"h-	c #36291E",
"i-	c #55423E",
"j-	c #929072",
"k-	c #E0E1B4",
"l-	c #FCFCCA",
"m-	c #E6E6B9",
"n-	c #CECEA5",
"o-	c #848468",
"p-	c #DDDDB2",
"q-	c #C6C7A0",
"r-	c #6A6753",
"s-	c #583D3F",
"t-	c #261B1B",
"u-	c #211811",
"v-	c #393206",
"w-	c #302A05",
"x-	c #2E2705",
"y-	c #241F04",
"z-	c #332D05",
"A-	c #5D4043",
"B-	c #6B6352",
"C-	c #BBBB96",
"D-	c #ECECBF",
"E-	c #BBBB95",
"F-	c #A0A080",
"G-	c #C0C099",
"H-	c #F1F1C2",
"I-	c #CBCDA3",
"J-	c #74735C",
"K-	c #4E3B39",
"L-	c #644548",
"M-	c #1E1B02",
"N-	c #2E2809",
"O-	c #706857",
"P-	c #A8A987",
"Q-	c #D1D1A9",
"R-	c #EFEFC2",
"S-	c #686551",
"T-	c #584240",
"U-	c #654749",
"V-	c #372727",
"W-	c #1C1601",
"X-	c #352E04",
"Y-	c #573B3D",
"Z-	c #807C64",
"`-	c #D4D5AB",
" ;	c #DCDCB0",
".;	c #D9D9AF",
"+;	c #BABB95",
"@;	c #9D9E7D",
"#;	c #807F66",
"$;	c #545242",
"%;	c #3A322C",
"&;	c #4F3539",
"*;	c #211C02",
"=;	c #373103",
"-;	c #3A2B26",
";;	c #533D3C",
">;	c #513F3B",
",;	c #52483E",
"';	c #523F3B",
");	c #503438",
"!;	c #56393E",
"~;	c #5A3D41",
"{;	c #262102",
"];	c #332C06",
"^;	c #2A2211",
"/;	c #2D1F1E",
"(;	c #252003",
"_;	c #292403",
":;	c #342F04",
"<;	c #302909",
"[;	c #33281D",
"};	c #3F2D2B",
"|;	c #624748",
"1;	c #4A3635",
"2;	c #2D2020",
"3;	c #473332",
"4;	c #28221D",
"5;	c #140B0C",
"6;	c #151302",
"7;	c #0F0D01",
"8;	c #0D0A01",
"9;	c #080600",
"0;	c #1B1211",
"a;	c #372625",
"b;	c #553C3C",
"c;	c #1E1313",
"d;	c #0C0606",
"e;	c #694E4E",
"f;	c #0A0505",
"g;	c #5C4344",
"h;	c #412E2F",
"i;	c #58403F",
"j;	c #261A1A",
"k;	c #3F302E",
"l;	c #3A2928",
"m;	c #050303",
"n;	c #0E0808",
"o;	c #563D3D",
"p;	c #4E3837",
"q;	c #0F0808",
"r;	c #221717",
"s;	c #6A4E4D",
"t;	c #231717",
"u;	c #060303",
"v;	c #201616",
"w;	c #271B1B",
"                                                                                                                                                                                                        ",
"                                                                                                                                                                                                        ",
"                                                                                                                                                                                                        ",
"                                                                                                                                                                                                        ",
"                                                                                                                                                                                                        ",
"                                                                                                                                                                                                        ",
"                                                                                                                                                                                                        ",
"                                                                                                                                                                                                        ",
"                                                                                                                                                                                                        ",
"                                                                  . + @                                                                                                                                 ",
"                                                                # $ % & * = -                                                                                                                           ",
"                                                                ; > , ' ) ' ! ~ { ]                                                                                                                     ",
"                                                              ^ / ( $ _ : < [ } | 1 2 3 4 5                                                                                                             ",
"                                                              6 7 8 ' 9 0 a b c d e f f g h i j                                                                                                         ",
"                                                            k l m n o p q r s r r t t t r s t u v w x                                                                                                   ",
"                                                          y z A B C D t t t t t t t t t t t t t E t F G H                                                                                               ",
"                                                          I J K L M t t t t t t t t t t t t t t t t t E N O                                                                                             ",
"                                                          z P Q R t t t t t t t t t t t t t t t t t t t t S T                                                                                           ",
"                                                        U , V W t t t t t t t t t t t t t X Y Y Z t t t t s t `  .                                                                                      ",
"                                                        ..+.@.#.t t t t t t t t t t t Z $.%.&.*.=.-.;.t t t t E >. .                                                                                    ",
"                                                      ,.'.).!.~.t t t t t t t t t t E {.].^.s u F /.&.(.s t t t X _.:.U                                                                                 ",
"                                                      <.[.9 }.|.t t t t t t t t t t F >.u t X t s 1.2.3.S r t t s 4.5.6.7.8.                                                                            ",
"                                                    9.0.7 a.b.c.t t t t t t t t t t v w s F d.1.t t t e.f.X t t t s g.h.i.j.k.l.m.n.                                                                    ",
"                                                    o.P p.) q.r.s.t t t t t t t t t F t.s u.v.t t t t E w.x.s t t t y.z.A.i.8 B.<.C.D.. E.                                                              ",
"                                                    F.p.' i.G.H.s t t t t t t t t t u I.X J.K.s t t t s w L.s t t t M.N.O.'./ P.Q.R.S.T.U.V.                                                            ",
"                                                  W.! i.' X.6.Y.s t t t t t t t t t s Z.w T v s t t t s w x.s t t t t `. +.+V $ R.++@+.+6.#+$+%+&+                                                      ",
"                                                  *+=+' i.' ' -+;+t t t t t t t t t t t >.>+d.t t t s F ,+|.t t t t t '+)+!+i.7 ~+{+]+; ^+/+7 % (+_+:+<+                                                ",
"                                                %+[+i.' ' ' i.}+|+s t t t t t t t t t t 1+i 2+3+Y F v.4+L.r t t t t t 5+$ 7 ' ' X.i.6+7+_+8+V X.8 7 9+~ 0+                                              ",
"                                                a+/+7 X.i.i.' b+c+d+t t t t t t t t t t X *.e+f+T I.` g+s t t t t t s D h+i+X.' ' ' ' i.i.j+8+k+> /+) ) 6.]+                                            ",
"                                                @ > }+l+}+P.i.) {+m+s t t t t t t t t t s n+o+Z Z u t t t t t t t t |.p+q+T.& 7 i.' ' ' i.i.r+s+U t+u+6.% ' v+w+                                        ",
"                                              x+y+: > z+A+B+C.C+P D+E+|.t t t t t t t t t s F+G+Y s t t t t t t t r H+I+P / J+( K+X.7 ' ' ' X.=+L+M+N+u+O+_ z++ P+                                      ",
"                                              6 X.i.i.i.7 i.Q+'.R+~ S+H+s t t t t t t t t t t T+T U+^.t t t t s.s y.V+W+7 i.% X+R.Y+(+=+7 i.' ' i.Q+++v+, .+Z+`+ @V.                                    ",
"                                              .@i.' ' ' ' ' i.i.+@L+@@#@u t t t t t t t t t t t $@i %@].&@*@=@-@;@>@,@'@)@!@~@{@i.l q.]@^@9+) i.i.i.r+'./@! X.Q.N+k+E.                                  ",
"                                            (@[.r+i.i.' ' ' i.' ' i.) _@:@r t t t t t t t t t t t M.<@[@}@|@1@2@3@4@5@6@7@8@9@0@a@+.!+/+> b@F.P.6+i.' i.Q.$+P 7 i.j+_                                   ",
"                                            ] O.c@d@e@' 7 i.' ' ' ' ' =+f@y.t t t t t t t t t g@h@i@j@k@l@m@n@o@p@q@r@s@t@u@v@w@x@y@z@A@7 A.B@C@D@V r+i.i..+t+9+i.) Q+E@                                ",
"                                            ++F@r+B.G@_+H@/+i.i.' ' ' i.I@J@t t t t t t E d+K@L@M@N@O@P@Q@R@S@T@U@V@W@s@X@s@s@Y@Z@`@ #.#+#@###) Q+q._ k.=+8 S._+$#i.i.! %#                              ",
"                                          &#$#X.' i.X.P z D+v+P X.7 ' X.*#=#-#t t t t t ;#>#,#'#)#!#~#{#]#^#/#(#_#:#<#[#X@X@X@X@X@r@}#|#1#2#3#i.i.i.& ( _+: /+6.C.y+i.i.'.4#                            ",
"                                          &#_+> j+' i.i.) & $#_+~ $#% 7 i.5#6#7#t s 8#9#0#a#b#q@c#d#e#f#g#h#i#j#k#l#m#n#r@X@X@X@X@X@X@r@o#p#q#r#!@i.' i.a.s#M+y+l t+P.7 =+t#                            ",
"                                          u#v#T.d@q.$#% i.' i.' 6.^+R+[.G.r+w#x#|.y#z#A#B#Y@X@r@C#D#E#F#G#G#G#G#G#H#I#J#r@X@X@X@X@X@X@X@s@K#L#M#N#O#i.' X.) 9+R.z H@+ a.i.l P#                          ",
"                                        <+( ) i.' Q.u+d@Q#a.p.X.7 i.r+R#z S#T#U#V#W#X#Y@s@X@X@r@Y#Z#`# $G#G#G#G#E..$+$@$s@X@X@X@X@X@X@X@X@X@s@#$$$%$&$i.' ' i.r+s#d@u#*$/+7 : =$                        ",
"                                        -$P i.' ' i.i.a.k._ s#% i.' p.i.) 6+y+;$>$,$r@X@X@X@X@s@'$)$!$~${$]$^$/$($_$:$<$s@X@X@X@X@X@X@X@X@X@X@X@r@[$}$|$' ' ' i.i.& n 1$d@' i.2$                        ",
"                                        M+7 ' ' ' ' ' i.i.j.3$_ e@i.' ' ' ) 4$5$6$s@X@X@X@X@X@X@r@7$8$9$0$a$b$c$d$e$C##$X@X@X@X@X@X@X@X@X@X@X@X@s@r@f$g$' ' ' ' ' ' i.j.@ J+a.h$k+                      ",
"                                      i$B.7 ' ' ' ' ' ' ' X.' B@]@k.) i.i.a@j$B#r@X@X@X@X@X@X@X@X@r@k$l$m$n$o$p$q$r$s$X@X@X@X@X@X@X@X@X@X@X@X@X@t$r@u$v$w$i.' ' i.' ' ) L+x$y$Q.T.z$                    ",
"                                      A$' ' ' ' ' ' i.' ' ' ' X.a.d@]@j+B$C$D$t$X@X@X@X@X@X@X@X@X@X@s@s@#$E$F$t@r@s@X@X@X@X@X@X@X@X@X@X@X@X@X@G$H$I$J$K$L$M$X.' ' i.' ' % N$H@8+R#> O$                  ",
"                                    P$* ' !+i.' ' ' ' ' ' i.' ' i.i.B@y$Q$R$S$X@X@X@X@X@X@X@X@X@X@X@X@X@X@X@X@X@X@X@X@X@X@X@X@X@X@X@X@X@X@X@X@s@T$U$V$}#5@W$, X.i.' ' ' i.n D+h$_+q.X$                  ",
"                                  Y$Z$v+R.z+j.7 X.' ' ' ' ' i.' ' ' 7 `$ %.%s@X@X@X@X@X@X@X@X@X@X@X@X@X@X@X@X@X@X@X@X@X@X@X@X@X@X@X@X@X@X@X@X@X@r@+%@%b##%$%%%..B.&%7 ' ' i.v+z 6+^+*%E.                ",
"                                  =%a.i.Q+z $ l+, ' i.i.' ' ' ' ' ' ' -%;%t@X@X@X@X@X@X@X@X@X@X@X@X@X@X@X@X@X@X@X@X@X@X@X@X@X@X@X@X@X@X@X@X@X@X@X@>%,%[#r@'%)%l ++J+Q#X.' i./+$+a.7 V ^                 ",
"                                  !%i.7 ' i./+y+~ F.n , =+X.i.i.X.' i.~%{%r@X@X@X@X@X@X@X@X@X@X@X@X@X@X@X@X@X@X@X@X@X@X@X@X@X@X@X@X@X@X@X@X@X@X@X@]%^%/%s@(%_%3#) b+D@^+& i.7 }+:%' i.2$                ",
"                                <%[%O.6.' ) X.p.' h$( }%_+|%u+L+Q+r+1%2%3%s@X@X@X@X@X@X@X@X@X@X@X@X@X@X@X@X@X@X@X@X@X@X@X@X@X@X@X@X@X@X@X@X@X@X@X@b#4%5%s@r@6%( i.p.+@> 2$9+i.% t+& i.B.w+              ",
"                                $ ' 7+$ Z$V r+i.i.' X.' v#Q.L+#+9 8+7%8%#$X@X@X@X@X@X@X@X@X@X@X@X@X@X@X@X@X@X@X@X@X@X@X@X@X@X@X@X@X@X@X@X@X@X@X@s@m@9%t@X@X@0%a%A@' ' ) L+M+b%X.q.c%i.7 ( d%            ",
"                              P#b+i.i.i.9+* M+u+l 7 i.' ' X.) 7 ' A.e%f%s@X@X@X@X@X@X@X@X@X@X@X@X@X@X@X@X@X@s@#$X@X@X@X@X@X@X@X@X@X@X@X@X@X@X@X@s@V$g%t$X@X@s$h%i%i.' ' i., R.'.6.2$' ' j%k%            ",
"                            l%/ m%' ' ' i.i.r+S._ ..L+' 7 i.' ' ' 7 n%r$s@X@X@X@X@X@X@X@X@X@X@X@X@X@X@X@X@X@)#J#J$X@X@X@X@X@X@X@X@X@X@X@X@X@X@s@t@o%p%s@X@X@r@q%r%i.' ' ' i.=+d@}+D+s%i.i.$             ",
"                            <.d@q.=+X.' ' ' X.i.t%6.q..@z /+) ' ' X.u%v%s@X@X@X@X@X@X@X@X@X@X@X@X@X@X@X@X@X@w%x%y%s@X@X@X@X@X@X@X@X@X@X@X@X@s@o#z%A%#$X@X@X@r@B%C%~@' ' ' i.X.& ]@D%Q.i.i.E%            ",
"                            ^+=+[.E%i.X.' ' ' ' ' i.7 b+}+$+Q#% 7 F%G%)#X@X@X@X@X@X@X@X@X@X@X@X@X@X@X@X@X@X@r@H%I%r@X@X@X@X@X@X@X@X@X@X@X@r@J%K%L%M%s@X@X@X@s@/%N%7 X.' ' ' ' i.r+E@O%) i.$#P%          ",
"                          8.Q%i.% _+F.v#i.i.' ' ' ' ' i.) Q+#+_ R%S%T%(%X@X@X@X@X@X@X@X@X@X@X@X@X@X@X@X@X@X@s@U%V%b#X@X@X@X@X@X@X@X@X@X@r@M%W%X%b#s@X@X@X@X@X@Y%Z%`%b+7 i.' i.' i.^@ &P.7 a..&          ",
"                          *+6+' 7 ' k..@/ l X.i.' ' i.i.i.' +&@&#&$&x%]%X@X@X@X@X@X@X@X@X@X@X@X@X@X@X@X@X@X@s@%&&&*&=&r@X@X@X@X@X@X@X@t$-&;&>&r@s@X@X@X@X@X@X@b#,&'&t+( Q.i.' ' 7 H@_+2$6.' )&          ",
"                        z$z+p.' ' ' i.% n [.O.$#' r+F%!&~ ~&{&]&^&/&^%(&X@X@X@X@X@X@X@X@X@X@X@X@X@X@X@X@s@t$_&:&<&[&}&|&1&Y@s@X@X@X@r@2&3&@$r@X@X@X@X@X@X@X@X@s$4&&$i.T.C.^+' i.i.s#( (+9 r+Z$          ",
"                        ]+b+i.' ' ' i.6+b+V 5&6&-+7&8&9&L 7#|.t s 0&a&s$X@X@X@X@X@X@X@X@X@X@X@X@X@X@X@r@b&c&4%>&d&e&f&g&h&i&j&k&r@r@l&V%m&r@X@X@X@X@X@X@X@X@X@n&o&p&p.7 6+^+O.< i.z+q&) z O.u+&#        ",
"                        u+i.' ' i.% r&s&t&u&2.v&w&x&t t t t t t t y&&&z&X@X@X@X@X@X@X@X@X@X@X@X@X@X@X@s@A&B&>%s@X@X@r@=&C&D&E&F&G&H&4%V@r@X@X@X@X@X@X@X@X@X@X@>%I&J&' ' ' i.Q.[.F.}+[.i.' G.K&L&        ",
"                      M&, i.i.' > N&O&;+|.s r t t t t t t t t t t P&Q&o#X@X@X@X@X@X@X@X@X@X@X@X@X@X@X@X@r@r@X@X@X@X@X@X@r@R&S&T&U&V&W&q@X@X@X@X@X@X@X@X@X@X@s@X&Y&+.i.' ' ' i.' H@{ ^+8 ' i.B.Z&        ",
"                      `&R# *, ]@.*+*s t t t t t t t t t t t t t t R 0#@*X@X@X@s@r@r@r@X@X@X@X@X@X@X@X@X@X@X@X@X@X@X@X@X@X@X@s@q@#*$*n@X@X@X@X@X@X@X@X@X@X@X@s@%*&*> /+) ' ' ' ' 7 **a+B.) ' b+=*        ",
"                    -*z ( ;*>*,*|.t t t t t t t t t t t t t t t t '*)*T$s@X@t$!*z%X%~*z&s@s@X@X@X@X@X@X@X@X@X@X@X@X@X@X@X@X@X@X@{*]*(&X@X@X@X@X@X@X@X@X@X@X@r@^*@&{+]@C+r+i.i.' i.^+* 9 q.6+=+a+        ",
"                    /*' (*_*8#s t t t t t t t t t t t t t t t t t :*<*[*s@r@n#}*|*1*2*3*l$t@s@X@X@X@X@X@X@X@X@X@X@X@X@X@X@X@X@r@4*5*q@X@X@X@X@X@X@X@X@X@X@s@@*6*7*i.b+^+]@Q.X.' X._ Q+i.[.c%+@8*        ",
"                    Q#9*0*a*t t t t t t t t t t t t t t t t t t t s b*c*s$E$d*e*f*g*h*i*j*k*l*X@X@X@X@X@X@X@X@X@X@X@X@X@X@X@X@r@m*5*q@X@X@X@X@X@X@X@X@X@X@r@n*o*7 ' p.7 P.=#**9+j.Z$6+' P 8+6.p*        ",
"                  8*a.{+q*E t t t t t t t t t t t t t t t t t t t t d+r*,$s*t*u*v*G#w*x*y*z*A*r@X@X@X@X@X@X@X@X@X@X@X@X@X@X@X@s@U%B*s$X@X@X@X@X@X@X@X@X@X@C*D*E*) i.' ' i.r+S.F*]@l+!+' i.V <.G*        ",
"                  H*I*J*+*t t t t t t t t t t t t t t t t t t t t t s K*L*M*N*O*F#G#G#E.P*Q*R*%&X@X@X@X@X@X@X@X@X@X@X@X@X@X@X@s@k$S*S$X@X@X@X@X@X@X@X@X@r@T*U*V*W*~+) i.' ' i.& /*$+.+p.p.i.u+X*        ",
"                Y*: F.Z*t t t t t t t t t t t t t t t t s r `*f f Z r  =2@M%.=+=@=F#G#G##=g*$=%=q@X@X@X@X@X@X@X@X@X@X@X@X@X@X@X@&=*=&=X@X@X@X@X@X@X@X@s@)#h&0@b+q.y$_ Q.' 7 i., ~ Q+N+s+P i.=+==        ",
"                -=P ;=>=s.t t t t t t t t t t t t r t F ,=G+I.'=w.%@d.)=!=%*A&~={=]=G#G#^=/=(=_=#$X@X@X@X@X@X@X@X@X@X@X@X@X@X@X@o#:=5%X@X@X@X@X@X@X@X@}#<=[=7 X.7 % T./@$+s#r+}=z+i.X.$#/@! & |=        ",
"                D%& X+1=|.t t t t t t t t t t s F G 2=*.].3=F 1.Z 4=n+5=6=7=[#8=9=0=a=i#G#b=c=d=s@X@X@X@X@X@X@X@X@X@X@X@X@X@X@X@s$,#e=X@X@X@X@X@X@X@s@f=g=h=i.' ' p.i.i.l |%6 )&y+7 7 i.Q.| k.<.        ",
"              E.2$F@i.i=L s t t t t t t t t Z j=f.k=x.&.l=,+m=].n=t s Z o=p=1#[#q=r=s=t=u=v=w=m@s@X@X@X@X@X@X@X@X@X@X@X@X@X@X@X@t$c&x=s@X@X@X@X@X@X@(&y=z=l =+7 i.i.' ' i.) .+2$+ /@y+=+A=T.B=          ",
"              C=D=T.7 E=>=s t t t t t t t t n+2=X t &.F=`*t Z d.,=s t t s X G=H=W@m*I=J=K=L=M=q@X@X@X@X@X@X@X@X@X@X@X@X@X@X@X@X@#$N=O=s@X@X@X@X@X@r@P=Q=R=~ 8+S=Q.a.=+!+X.T=[.P ' P.R.@ / U=.@          ",
"              B=V=W=q.v+X=s t t t t t t t u Y=F s Z=d.r t t t `= -4=t t t s j=.-+-q@n&@-B&#-Y@X@X@X@X@X@X@X@X@X@X@X@X@X@X@X@X@s@$-%-o#X@X@X@X@X@s@&-*-=-i.) & y+d@2$C.#+! B.~ i.' i.i.a.z 1$P$          ",
"              8*9+T=--[.;-w&t t t t t t t X 3.>-,-'-F t t t t s )-v s t t t s !-~-6$s@r@s@s@X@X@X@X@X@X@X@X@X@X@X@X@X@X@X@X@X@r@{-]-r@X@X@X@X@r@6$^-/-X.' ' i.i.i.' a.(+++%#/@k.B@& =+r+b+(-            ",
"              _-u+P 7 7 h.:-s t t t t t t s 2=g t Y t t t t t s d.<-t t t t t |.[-x%}-G$s@X@X@X@X@X@X@X@X@X@X@X@X@X@X@X@X@X@r@#-|-1-X@X@X@r@o#2-3-h+4-i.' ' ' ' i.' X.) l _ P.V ^+C.2$Z+U               ",
"                  k%R.B@=+5-6-t t t t t t r 2.%@Y s t t t t t 7-%@`=t t t t t |.8-9-0-a-J%r@X@X@X@X@X@X@X@X@X@X@X@X@X@s@s@q@y%b-c-r@X@s@r@#-d-e-f-M+> P i.i.i.i.' ' ' ' [.B.i.i.i.=+% & _+              ",
"                      %#= L+!%g-s t t t t t t >+=.v |.t s t Z G+-.s t t t t t R h-r+7*i-j-k-}#s@X@X@X@X@X@X@X@X@X@X@l-m-e=n-o-p-s$s@Y@5%q-r-s- *) % : R.Z$( .+a.i.) i.V d@i.X.i.7 X.i.* t-              ",
"                          `+C.u-L.t t t t t t t v-/.&.,+w-x-y-z-s t t t t t t F o 8 7 +.A-B-C-D-(&r@s@X@X@X@X@X@X@X@S$E-F-G-/%R&s$H-I-J-K-L-) ' ' ' i.' 6.: }+_+R.^+/ <.u+l Q+.+( R.2$<%                ",
"                              E.M-Z.t E t t t t t t `*(.K.v-Y s t t t t t t |.N-D=c%v#7 7 |$$#O-P-Q-u$}#r@r@r@s@s@r@r@k&o#)#R-'#1#S-T-U-i.' ' ' i.' ' ' i.i.7 ' Q+: a+|%z O.]+q.n V-G#                  ",
"                                  W->.F t t t t t t t t E t t t t t t t t s X-$ F%k.9 ++B@i.) A@Y-i-Z-P@C#`- ;m-_&.;4@+;@;#;$;%;&;+&8 i.' ' ' ' ' ' ' ' ' ' ' 7 6.(-V ) 7 i.=+) > .&                    ",
"                                      *;>+4=t s t t t t t t t t t t t s u =;-;9*!+i.!+$#O.C.G./+8 ~@A@/-R=;;>;2#,;';);!;~;m A@T.R.~ y+' ) ) ) i.p.' ' ' ' ' !+6.t+R#7 i.i.i.i.G.-$                      ",
"                                          {;w &@Z E t t t t s s t u ;+];^;/;6.7 ' ' ' i.i.a./ C.q.j+!+8 ) ) i.) ~@####i.' ' X.7 i.6.++]@~ ( (+B@l v#6+=+p.=+B@E@E%P..+^@L+! ( B=                        ",
"                                                '=(;_;,=v-n+3=:;<;[;};> |;[.z i.i.' ' ' ' i.) =+z+R.Z$T.=+7 i.' ' ' ' ' ' ' ' ' ' i.) b+7+n N+O.1;C.C.2$]+2;D.t#..[.N+s#3;4;5;                          ",
"                                                        6;7;8;9;`+H@8 ) i.b+s+F.Q+i.7 ' ' ' ' ' 7 i.6.( t+A+e@i.i.X.' ' ' ' ' ' ' ' ' i.i.i.i.i.i.' & P.[.2$j.i.' 8 ' n `&                              ",
"                                                                  0;a;Q#r+) =+y+_ [.B@' 7 i.' i.i.' i.7 % .+s+]@b;, i.7 7 i.i.' i.' ' i.i.i.i.i.r+y+C@t+k.r+i.' i.l *+c;                                ",
"                                                                      d;-=t+D+++:%_ w+1${+b+i.i.7 i.' ' i.7 i.9+V O._ / Q#P.e;i.i.' i.i.b+a.$#:%*+C.B.=+i.' i.% c%==                                    ",
"                                                                            f;P#}+T.Q#u+C.V-t#2$7.n e@j.=+i.i.7 8 i.P g;V=q.O.k.e@b+e@d@h;_+^+G.b+' X.i.i.' Q%_+z$                                      ",
"                                                                                8*M+|%G.6+' ! _ D.Z+2$~ ]@[.( [.~ O.z i;G./ ..`+j;V-p*k;u+F.$#Q.9+% a.k.~ l;`+                                          ",
"                                                                                    m;n;/*B.) i.& n O.**! P z+T.7+Q.n k.o;^@T.6.9+/+& $#: $##+p;y$`&.&q;E.                                              ",
"                                                                                        E.r;}%9+A.) ' B@D.9 y+7 7 7 X.X.i.i.) ) i.' s;e@: / N+8+t;                                                      ",
"                                                                                              a+8+s#P 8 i..+6 %#k.% A.X.=+b+P.c%7.]+=%U.Y$u;                                                            ",
"                                                                                                  . v;V-_ |%/@=%X*j;a+|=%#`&w;Y$                                                                        ",
"                                                                                                                                                                                                        ",
"                                                                                                                                                                                                        ",
"                                                                                                                                                                                                        ",
"                                                                                                                                                                                                        ",
"                                                                                                                                                                                                        ",
"                                                                                                                                                                                                        ",
"                                                                                                                                                                                                        ",
"                                                                                                                                                                                                        ",
"                                                                                                                                                                                                        "};
