/* XPM */
static char * nave2_2_xpm[] = {
"50 50 406 2",
"  	c None",
". 	c #000000",
"+ 	c #380039",
"@ 	c #4D004F",
"# 	c #7A007D",
"$ 	c #020003",
"% 	c #86008A",
"& 	c #D300D7",
"* 	c #E000E5",
"= 	c #DB00E0",
"- 	c #A500A9",
"; 	c #740077",
"> 	c #960099",
", 	c #CE00D2",
"' 	c #EA00EF",
") 	c #FA00FF",
"! 	c #EB00F0",
"~ 	c #600062",
"{ 	c #6F0072",
"] 	c #DE00E2",
"^ 	c #F600FB",
"/ 	c #F100F6",
"( 	c #88008B",
"_ 	c #530055",
": 	c #89008C",
"< 	c #D500DA",
"[ 	c #F500FA",
"} 	c #BC00C1",
"| 	c #9F00A3",
"1 	c #E600EA",
"2 	c #E600EB",
"3 	c #C000C5",
"4 	c #CC00D0",
"5 	c #8E0091",
"6 	c #DC00E0",
"7 	c #BC00C0",
"8 	c #370038",
"9 	c #1C001D",
"0 	c #B400B8",
"a 	c #F300F8",
"b 	c #F900FE",
"c 	c #C400C9",
"d 	c #3A003B",
"e 	c #4F450F",
"f 	c #D100D5",
"g 	c #450046",
"h 	c #716419",
"i 	c #9F8D27",
"j 	c #EA00EE",
"k 	c #CD00D1",
"l 	c #720075",
"m 	c #AC992C",
"n 	c #80721E",
"o 	c #610063",
"p 	c #C500CA",
"q 	c #F000F5",
"r 	c #AF00B3",
"s 	c #4B420E",
"t 	c #8F8023",
"u 	c #C1AC32",
"v 	c #950099",
"w 	c #E000E4",
"x 	c #E900EE",
"y 	c #C000C4",
"z 	c #CA00CE",
"A 	c #D800DC",
"B 	c #76691B",
"C 	c #B3A02E",
"D 	c #978625",
"E 	c #3A003C",
"F 	c #B900BD",
"G 	c #F700FB",
"H 	c #DD00E2",
"I 	c #9C009F",
"J 	c #49004A",
"K 	c #E500EA",
"L 	c #460048",
"M 	c #2B2505",
"N 	c #938324",
"O 	c #C6B034",
"P 	c #534910",
"Q 	c #830086",
"R 	c #F200F7",
"S 	c #D300D8",
"T 	c #670069",
"U 	c #440045",
"V 	c #E100E6",
"W 	c #E200E7",
"X 	c #9A009D",
"Y 	c #675B16",
"Z 	c #AB982B",
"` 	c #AA972B",
" .	c #AB00AF",
"..	c #ED00F2",
"+.	c #D200D7",
"@.	c #4A004C",
"#.	c #DA00DF",
"$.	c #C800CD",
"%.	c #68006A",
"&.	c #887921",
"*.	c #BEAA32",
"=.	c #75681B",
"-.	c #6C006F",
";.	c #CA00CF",
">.	c #860089",
",.	c #29002A",
"'.	c #38003A",
").	c #EC00F1",
"!.	c #A900AD",
"~.	c #544A10",
"{.	c #A19029",
"].	c #BBA631",
"^.	c #9C00A0",
"/.	c #E400E9",
"(.	c #BD00C1",
"_.	c #1D001E",
":.	c #50030F",
"<.	c #82081F",
"[.	c #5A0412",
"}.	c #C600CB",
"|.	c #D400D8",
"1.	c #7F0082",
"2.	c #7C6E1D",
"3.	c #B7A32F",
"4.	c #8E7E23",
"5.	c #BE00C2",
"6.	c #69006C",
"7.	c #A20E29",
"8.	c #BB1230",
"9.	c #7C081D",
"0.	c #5E0060",
"a.	c #C600CA",
"b.	c #B700BB",
"c.	c #300032",
"d.	c #3A3309",
"e.	c #988725",
"f.	c #C9B335",
"g.	c #7D6F1D",
"h.	c #191502",
"i.	c #170018",
"j.	c #8B008E",
"k.	c #DA00DE",
"l.	c #D400D9",
"m.	c #350107",
"n.	c #6C0618",
"o.	c #C91435",
"p.	c #530310",
"q.	c #540056",
"r.	c #D700DB",
"s.	c #DE00E3",
"t.	c #920096",
"u.	c #141001",
"v.	c #8D7C22",
"w.	c #211C03",
"x.	c #6E6118",
"y.	c #AE9B2D",
"z.	c #6D6018",
"A.	c #310032",
"B.	c #850088",
"C.	c #C900CD",
"D.	c #940097",
"E.	c #6F0619",
"F.	c #AF102D",
"G.	c #B3102E",
"H.	c #500052",
"I.	c #C300C8",
"J.	c #5C005E",
"K.	c #84751F",
"L.	c #A08E28",
"M.	c #8D7E22",
"N.	c #A39029",
"O.	c #665916",
"P.	c #2D2705",
"Q.	c #520054",
"R.	c #E300E8",
"S.	c #E900ED",
"T.	c #8E0A22",
"U.	c #C21333",
"V.	c #A60E2A",
"W.	c #5E0413",
"X.	c #B200B6",
"Y.	c #E800ED",
"Z.	c #A300A6",
"`.	c #B4A02E",
" +	c #73661A",
".+	c #5D5213",
"++	c #83741F",
"@+	c #594E12",
"#+	c #110012",
"$+	c #B800BC",
"%+	c #EE00F3",
"&+	c #180002",
"*+	c #BE1232",
"=+	c #CF00D3",
"-+	c #760079",
";+	c #695C17",
">+	c #C0AB32",
",+	c #5D5313",
"'+	c #383108",
")+	c #41390B",
"!+	c #9F00A2",
"~+	c #240025",
"{+	c #42020B",
"]+	c #670617",
"^+	c #75071B",
"/+	c #5D0413",
"(+	c #B100B5",
"_+	c #A29029",
":+	c #640067",
"<+	c #F800FD",
"[+	c #D500D9",
"}+	c #0E0001",
"|+	c #3E360A",
"1+	c #720074",
"2+	c #C100C5",
"3+	c #660068",
"4+	c #39003A",
"5+	c #330034",
"6+	c #A100A5",
"7+	c #AA00AE",
"8+	c #89008D",
"9+	c #1E001E",
"0+	c #7A6C1C",
"a+	c #B29F2E",
"b+	c #393208",
"c+	c #332C07",
"d+	c #210022",
"e+	c #D000D5",
"f+	c #2E2706",
"g+	c #867620",
"h+	c #7E701E",
"i+	c #230024",
"j+	c #A600A9",
"k+	c #360037",
"l+	c #8F7F23",
"m+	c #312B06",
"n+	c #AB982C",
"o+	c #292405",
"p+	c #130F01",
"q+	c #840087",
"r+	c #9D00A1",
"s+	c #B300B6",
"t+	c #E400E8",
"u+	c #84741F",
"v+	c #968525",
"w+	c #2C2605",
"x+	c #463D0C",
"y+	c #270028",
"z+	c #6C006E",
"A+	c #3B003C",
"B+	c #090701",
"C+	c #655A16",
"D+	c #83751F",
"E+	c #3A080A",
"F+	c #3C090B",
"G+	c #2E0506",
"H+	c #5D1315",
"I+	c #420B0C",
"J+	c #4D004E",
"K+	c #400041",
"L+	c #594F12",
"M+	c #5B5013",
"N+	c #2C0506",
"O+	c #902326",
"P+	c #A82A2E",
"Q+	c #A92B2E",
"R+	c #9A2629",
"S+	c #8D2225",
"T+	c #7A1C1F",
"U+	c #932427",
"V+	c #7B1C1F",
"W+	c #9E00A1",
"X+	c #500F11",
"Y+	c #8A2124",
"Z+	c #B22E31",
"`+	c #C03236",
" @	c #C93539",
".@	c #9E282B",
"+@	c #771C1E",
"@@	c #4F0F11",
"#@	c #6F191B",
"$@	c #8E2225",
"%@	c #882123",
"&@	c #551113",
"*@	c #510053",
"=@	c #A800AC",
"-@	c #19001A",
";@	c #741B1D",
">@	c #A5292D",
",@	c #7F1E21",
"'@	c #821F21",
")@	c #631517",
"!@	c #532B0C",
"~@	c #453400",
"{@	c #4A3800",
"]@	c #927100",
"^@	c #030100",
"/@	c #5E1315",
"(@	c #892124",
"_@	c #3D090B",
":@	c #69006B",
"<@	c #B600B9",
"[@	c #D600DB",
"}@	c #660069",
"|@	c #100010",
"1@	c #460C0E",
"2@	c #C63438",
"3@	c #140102",
"4@	c #6F5401",
"5@	c #AF8800",
"6@	c #DBAA00",
"7@	c #E8B500",
"8@	c #EBB700",
"9@	c #B38B00",
"0@	c #250404",
"a@	c #7C1D20",
"b@	c #BB3134",
"c@	c #731A1C",
"d@	c #0B0101",
"e@	c #650067",
"f@	c #750078",
"g@	c #59005B",
"h@	c #511011",
"i@	c #9B272A",
"j@	c #C13336",
"k@	c #AC2C2F",
"l@	c #745900",
"m@	c #ECB800",
"n@	c #FFC700",
"o@	c #F1BC00",
"p@	c #866700",
"q@	c #531911",
"r@	c #B12D31",
"s@	c #751B1D",
"t@	c #150202",
"u@	c #761B1E",
"v@	c #70191C",
"w@	c #B93034",
"x@	c #972528",
"y@	c #8D6D00",
"z@	c #B99000",
"A@	c #D9A900",
"B@	c #FDC500",
"C@	c #C09500",
"D@	c #1B1300",
"E@	c #912426",
"F@	c #6A171A",
"G@	c #2A2405",
"H@	c #322B06",
"I@	c #180202",
"J@	c #7A1D1F",
"K@	c #B83034",
"L@	c #0C0700",
"M@	c #2B1F00",
"N@	c #6E5400",
"O@	c #C29700",
"P@	c #F6C000",
"Q@	c #E5B200",
"R@	c #6E5401",
"S@	c #5A1214",
"T@	c #AD2C30",
"U@	c #430B0D",
"V@	c #3F370A",
"W@	c #877820",
"X@	c #5B5012",
"Y@	c #691719",
"Z@	c #7D1D20",
"`@	c #6E181B",
" #	c #410A0C",
".#	c #A68000",
"+#	c #EEBA00",
"@#	c #876800",
"##	c #4E0F11",
"$#	c #982629",
"%#	c #681719",
"&#	c #241F04",
"*#	c #C4AF34",
"=#	c #41390A",
"-#	c #AF2D30",
";#	c #AA2B2F",
">#	c #6A1719",
",#	c #463400",
"'#	c #9E7A00",
")#	c #B72F33",
"!#	c #6C181A",
"~#	c #3A3209",
"{#	c #5D5114",
"]#	c #080101",
"^#	c #8F2326",
"/#	c #671619",
"(#	c #661618",
"_#	c #7B1D1F",
":#	c #BD3135",
"<#	c #852023",
"[#	c #0F0C01",
"}#	c #1C0203",
"|#	c #3F0A0C",
"1#	c #490D0E",
"2#	c #922427",
"3#	c #B42E32",
"4#	c #2D0506",
"5#	c #7F1E20",
"6#	c #591214",
"7#	c #A92B2F",
"8#	c #320607",
"9#	c #280405",
"                                                                                                    ",
"                                                          . . . . .                                 ",
"                                                      .   . . . . . . .                             ",
"                                                  . . . . . . + @ # $ . . .                         ",
"                                                . . . . . . % & * = - . . .                         ",
"                                              . . . . ; > , ' ) ) ) ! ~ . .                         ",
"                                              . . . { ] ) ^ ) ) ) ) / ( . .                         ",
"                                              . _ : < ) ) ) ) ) ) ) [ } . . . .                     ",
"                                            . . | 1 ^ ) ) ) ) ) ) ) ) 2 ~ . . .                     ",
"                                            . _ 3 ) ) ) ) ) ) ) ) ) ) ) 4 . . .                     ",
"                            . . . . .     . . 5 6 ) ) ) ) ) ) ) ) ) ) ) 7 8 . .                     ",
"                          . . . . . . .   . 9 0 a ) ) ) ) ) ) ) ) ) ) b c d . .                     ",
"                          . . . e . . . . . # f ) ) ) ) ) ) ) ) ) ) ) b & g . .                     ",
"                        . . . h i . . . . . - j ) ) ) ) ) ) ) ) ) ) ) ) k l . .                     ",
"                        . . . m n . . . . o p ) ) ) ) ) ) ) ) ) ) ) ) q r . .                       ",
"                        . s t u . . . . . v w ) ) ) x y z ) ) ) ) ) ) A ( . .                       ",
"                      . . B C D . . . . E F G ) ) H I J . : K ) ) ) b 7 L .                         ",
"                      . M N O P . . . . Q < ) R S T . . . U V ) ) ) W X . .                         ",
"                    . . Y Z ` . . . . .  ...) +.: . . . . @.#.) ) ) $.%..                           ",
"                    . . &.*.=.. . . . -.;.) R >.,.. . . . '.7 ) ) ).!.. . . . .                     ",
"                    . ~.{.].. . . . . ^./.) (._.. :.<.[.. . }.[ ) |.1.. . . . . . .                 ",
"                  . . 2.3.4.. . . . @ 5.) ) 6.. . 7.8.9.. 0.a.) [ b.c.. . . . . . . .               ",
"                  . d.e.f.g.h.. . i.j.k.) l.. m.n.o.o.p.. q.r.) s.t.. . . . u.v.w.. .               ",
"                . . x.Z y.z.. . A.B.C.R ) D.. E.F.o.G.m.. H.) ) I.J.. . . . K.L.. . .               ",
"                . . M.N.O.P.. Q.!.R./ ) S.. . T.U.o.V.W.. X.) Y.Z.. . . . . `. +. . .               ",
"              . . .+++@+. #+. $+%+b ) ) X.. &+9.*+U.T.. . S.) =+-+. . . . ;+>+,+. .                 ",
"              . . '+)+. . l F q ) ) ) ) !+~+. {+]+^+/+. D.) / (+. . . . . _+y.x.. .                 ",
"              . . . . . :++./ ) ) ) ) <+[+6.. . . }+. . l.) k.j.. . . . |+f.e.d..                   ",
"            . . . . . 1+2+) ) ) ) ) ) ) ) ) l.D.. . ~+6.) ) S 3+. . . . 4.3.2.. .                   ",
"            . . . . 4+S q ) ) ) ) ) ) ) ) ) ) ) S.X.!+[+) b * ( . . . . ].{.~..                     ",
"          . . . . 5+6+) ) ) ) ) ) ) ) ) ) ) ) ) ) ) ) <+) ) q v . . . =.*.&.. .                     ",
"        . . . . . . 7+/ ) ) ) ) ) ) ) ) ) ) ) ) ) ) ) ) ) ) ^ 8+9+. 0+a+Z Y . .                     ",
"      . . . b+c+. . d+e+<+) ) ) ) ) ) ) ) ) ) ) ) ) ) ) ) ) / r . f+g+O N M .                       ",
"      . . . t h+|+. i+D.' [ /.) ) ) ) ) ) ) ) ) ) ) ) ) ) ) ) j+k+. l+y.B . .                       ",
"      . . m+n+o+p+. . . . q+r+Z.s+s.z t+) ) ) ) ) ) ) ) ) ) [ 3 . . u+v+s .                         ",
"      . . w+x+. . . . . . . . y+. . z+^.5.k./ ) ) ) ) ) ) ) ) (.A+B+C+D+. .                         ",
"      . . . . . .   . . . E+F+G+H+. . I+J+j.(+2 ) ) ) ) ) ) ) X.K+. L+M+. .                         ",
"          . . . . . . N+. O+P+Q+R+S+T+U+V+. . W+H ) ) ) ) ) b 2+. . . . .                           ",
"          . . . . . X+Y+Z+`+ @.@+@@@#@$@%@&@. . *@C./.) ) ) ) =@-@. . . .                           ",
"              . . ;@>@$@,@'@)@!@~@{@]@^@/@(@(@_@. :@<@) / x [@}@|@. . .                             ",
"              . 1@R+2@N+3@. 4@5@6@7@8@9@0@a@b@c@d@. . e@I f@g@. . . . .                             ",
"            . h@i@j@k@. . l@m@n@n@n@n@o@p@q@k@r@s@. . . . . . . . . .                               ",
"            t@u@v@%@w@x@_@y@z@A@n@n@n@B@C@D@E@j@F@. . . . . G@H@. . .                               ",
"          . . . I@0@J@K@H+L@M@. N@O@P@n@Q@R@S@Q+T@U@.   . . V@W@X@. .                               ",
"              . . . . Y@Z@S+`@ #. . . .#+#@#. ##$#%#. . . . &#*#=#. .                               ",
"                  . . . . _@#@-#;#>#. ,#'#. . . )#!#. . . . ~#{#. . .                               ",
"                            ]#Y@$#^#(@/#N+S@(#_#:#<#. . . . . [#. .                                 ",
"                            . }#|#. 1#s@2#r@3#2@w@/#. . . . . . . .                                 ",
"                                .     . 4#5#6#%#7#8#.     .                                         ",
"                                      . . . . 9#%#u@.                                               "};
