/* XPM */
static char * nave1_1_xpm[] = {
"50 50 21 1",
" 	c None",
".	c #000000",
"+	c #595FA0",
"@	c #6C74C0",
"#	c #7B84DA",
"$	c #3F4474",
"%	c #B19D2D",
"&	c #C9B335",
"*	c #938324",
"=	c #930B24",
"-	c #C91435",
";	c #6B0618",
">	c #6B5E18",
",	c #932427",
"'	c #B12D31",
")	c #C93539",
"!	c #6B181A",
"~	c #E1AF00",
"{	c #896A00",
"]	c #FFC700",
"^	c #BC9200",
"                     ........                     ",
"                    ..........                    ",
"                    ....+@....                    ",
"                  .....####.....                  ",
"                 .....@####@.....                 ",
"                 ....@######@....                 ",
"                ....##########....                ",
"                ...$##########$...                ",
"                ...@##########@...                ",
"                ..+############+..                ",
"                ..+############+..                ",
"                ..+############+..                ",
"                ..+############+..                ",
"                ..+############+..                ",
"           .... ..+############+.. ....           ",
"         .........+####+..+####+.........         ",
"         .........+####....####+.........         ",
"         ...%.....+###$....$###+.....%...         ",
"         ...&.....+##@......@##+.....&...         ",
"         ...&.....+##+......+##+.....&...         ",
"         ..*&.....+##$..==..$##+.....&*..         ",
"         ..*&.....+##...--...##+.....&*..         ",
"         ..*&.....+##...--...##+.....&*..         ",
"         ..*&.....+##..=--=..##+.....&*..         ",
"         ..*&.....+##..=--=..##+.....&*..         ",
"         ..*&.....+##..=--=..##+.....&*..         ",
"         ..*&....$@##...;;...##@$....&*..         ",
"         ..*&*...@###........###@...*&*..         ",
"         ..*&>..$####+......+####$..>&*..         ",
"         ..*%...@################@...%*..         ",
"         ..*>..$##################$..>*..         ",
"         ..*...@##################@...*..         ",
"         .....$####################$.....         ",
"         .....+####################+.....         ",
"         .....######################.....         ",
"         ....$######################$....         ",
"         .....@#######++++++#######@.....         ",
"         ......+##++..........++##+......         ",
"        ................,,................        ",
"        ...*>........,,,,,,,,........>*...        ",
"        ...&.......,')!....!)',.......&...        ",
"        ...>... ...))!..~~..!))... ...>...        ",
"        .........!)'!.{]]]]{.!')!.........        ",
"         ........'!..{]]]]]]{..!'........         ",
"           .....,)...]]]]]]]]...),.....           ",
"              ..,)...^......^...),..              ",
"              ..))),..........,)))..              ",
"              .,!.!),,,,)),,,,)!.!,.              ",
"              ..........!!..........              ",
"              .......  ....  .......              "};
