/* XPM */
static char * nave1_9_xpm[] = {
"50 50 21 1",
" 	c None",
".	c #000000",
"+	c #6B181A",
"@	c #932427",
"#	c #C93539",
"$	c #BC9200",
"%	c #FFC700",
"&	c #B12D31",
"*	c #896A00",
"=	c #6B5E18",
"-	c #E1AF00",
";	c #C9B335",
">	c #938324",
",	c #595FA0",
"'	c #7B84DA",
")	c #6C74C0",
"!	c #3F4474",
"~	c #B19D2D",
"{	c #6B0618",
"]	c #930B24",
"^	c #C91435",
"              .......  ....  .......              ",
"              ..........++..........              ",
"              .@+.+#@@@@##@@@@#+.+@.              ",
"              ..###@..........@###..              ",
"              ..@#...$......$...#@..              ",
"           .....@#...%%%%%%%%...#@.....           ",
"         ........&+..*%%%%%%*..+&........         ",
"        .........+#&+.*%%%%*.+&#+.........        ",
"        ...=... ...##+..--..+##... ...=...        ",
"        ...;.......@&#+....+#&@.......;...        ",
"        ...>=........@@@@@@@@........=>...        ",
"        ................@@................        ",
"         ......,'',,..........,,'',......         ",
"         .....)''''''',,,,,,''''''').....         ",
"         ....!''''''''''''''''''''''!....         ",
"         .....''''''''''''''''''''''.....         ",
"         .....,'''''''''''''''''''',.....         ",
"         .....!''''''''''''''''''''!.....         ",
"         ..>...)'''''''''''''''''')...>..         ",
"         ..>=..!''''''''''''''''''!..=>..         ",
"         ..>~...)'''''''''''''''')...~>..         ",
"         ..>;=..!'''',......,''''!..=;>..         ",
"         ..>;>...)'''........''')...>;>..         ",
"         ..>;....!)''...{{...'')!....;>..         ",
"         ..>;.....,''..]^^]..'',.....;>..         ",
"         ..>;.....,''..]^^]..'',.....;>..         ",
"         ..>;.....,''..]^^]..'',.....;>..         ",
"         ..>;.....,''...^^...'',.....;>..         ",
"         ..>;.....,''...^^...'',.....;>..         ",
"         ..>;.....,''!..]]..!'',.....;>..         ",
"         ...;.....,'',......,'',.....;...         ",
"         ...;.....,'')......)'',.....;...         ",
"         ...~.....,'''!....!''',.....~...         ",
"         .........,''''....'''',.........         ",
"         .........,'''',..,'''',.........         ",
"           .... ..,'''''''''''',.. ....           ",
"                ..,'''''''''''',..                ",
"                ..,'''''''''''',..                ",
"                ..,'''''''''''',..                ",
"                ..,'''''''''''',..                ",
"                ..,'''''''''''',..                ",
"                ...)'''''''''')...                ",
"                ...!''''''''''!...                ",
"                ....''''''''''....                ",
"                 ....)'''''')....                 ",
"                 .....)'''').....                 ",
"                  .....''''.....                  ",
"                    ....),....                    ",
"                    ..........                    ",
"                     ........                     "};
