/* XPM */
static char * nave2_3_xpm[] = {
"50 50 201 2",
"  	c None",
". 	c #000000",
"+ 	c #0C000D",
"@ 	c #140014",
"# 	c #3E0040",
"$ 	c #49004B",
"% 	c #710074",
"& 	c #C200C6",
"* 	c #BB00BF",
"= 	c #B900BD",
"- 	c #B800BC",
"; 	c #BA00BE",
"> 	c #C700CB",
", 	c #9C009F",
"' 	c #59005B",
") 	c #010100",
"! 	c #7D0080",
"~ 	c #BF00C3",
"{ 	c #D600DA",
"] 	c #E000E5",
"^ 	c #FA00FF",
"/ 	c #F500FA",
"( 	c #E800ED",
"_ 	c #1A001B",
": 	c #332C06",
"< 	c #887820",
"[ 	c #0B0901",
"} 	c #C300C7",
"| 	c #F100F6",
"1 	c #F900FE",
"2 	c #C800CC",
"3 	c #443C0B",
"4 	c #373008",
"5 	c #B39F2E",
"6 	c #8C7C22",
"7 	c #5B5013",
"8 	c #978725",
"9 	c #B9A530",
"0 	c #968525",
"a 	c #BEAA32",
"b 	c #ED00F2",
"c 	c #F200F7",
"d 	c #EE00F3",
"e 	c #CD00D1",
"f 	c #CA00CE",
"g 	c #960099",
"h 	c #B100B5",
"i 	c #BEA931",
"j 	c #AE9A2C",
"k 	c #6B5F18",
"l 	c #E700EC",
"m 	c #C100C5",
"n 	c #820085",
"o 	c #520054",
"p 	c #908123",
"q 	c #8D7D22",
"r 	c #5F5414",
"s 	c #2D2705",
"t 	c #020003",
"u 	c #DC00E0",
"v 	c #5F0061",
"w 	c #605514",
"x 	c #514710",
"y 	c #483F0D",
"z 	c #0D0A01",
"A 	c #2B002C",
"B 	c #160016",
"C 	c #6E0071",
"D 	c #8A008D",
"E 	c #DB00E0",
"F 	c #340035",
"G 	c #09000A",
"H 	c #1F0103",
"I 	c #48004A",
"J 	c #760079",
"K 	c #8D0090",
"L 	c #CB00CF",
"M 	c #D700DB",
"N 	c #DE00E3",
"O 	c #3F020A",
"P 	c #930B24",
"Q 	c #700619",
"R 	c #430045",
"S 	c #620064",
"T 	c #A800AC",
"U 	c #BD00C1",
"V 	c #EA00EF",
"W 	c #F800FD",
"X 	c #5D0413",
"Y 	c #6C0618",
"Z 	c #B5112F",
"` 	c #C71434",
" .	c #3C003E",
"..	c #6C006F",
"+.	c #AE00B2",
"@.	c #D900DE",
"#.	c #990C26",
"$.	c #BF1232",
"%.	c #C91435",
"&.	c #280029",
"*.	c #9F00A2",
"=.	c #EF00F4",
"-.	c #F300F8",
";.	c #EC00F1",
">.	c #77007A",
",.	c #190002",
"'.	c #8A0A21",
").	c #695D17",
"!.	c #76691B",
"~.	c #470049",
"{.	c #D800DC",
"].	c #0F0001",
"^.	c #6D0618",
"/.	c #BA1230",
"(.	c #544A11",
"_.	c #BFAA32",
":.	c #71631A",
"<.	c #3F360A",
"[.	c #C600CA",
"}.	c #43020B",
"|.	c #4C430E",
"1.	c #443B0B",
"2.	c #250026",
"3.	c #460048",
"4.	c #DF00E4",
"5.	c #A400A7",
"6.	c #DB00DF",
"7.	c #310033",
"8.	c #B400B8",
"9.	c #F600FB",
"0.	c #0A0101",
"a.	c #3F0A0B",
"b.	c #3A080A",
"c.	c #531012",
"d.	c #F400F9",
"e.	c #551112",
"f.	c #751B1D",
"g.	c #932427",
"h.	c #9C272A",
"i.	c #972528",
"j.	c #B02D31",
"k.	c #A72A2E",
"l.	c #801E21",
"m.	c #761B1D",
"n.	c #840087",
"o.	c #4D0E10",
"p.	c #6D181B",
"q.	c #942427",
"r.	c #BC3135",
"s.	c #9B262A",
"t.	c #B12D31",
"u.	c #B72F33",
"v.	c #C53438",
"w.	c #781C1E",
"x.	c #2A0505",
"y.	c #410A0C",
"z.	c #300607",
"A.	c #AA2B2F",
"B.	c #9D272A",
"C.	c #180202",
"D.	c #320607",
"E.	c #5A1D13",
"F.	c #541112",
"G.	c #5B1315",
"H.	c #791C1E",
"I.	c #8E2225",
"J.	c #8F2326",
"K.	c #2B0506",
"L.	c #350708",
"M.	c #A3292C",
"N.	c #070000",
"O.	c #755A00",
"P.	c #806200",
"Q.	c #8E6E00",
"R.	c #896A00",
"S.	c #3F2F00",
"T.	c #332600",
"U.	c #1A0202",
"V.	c #761B1E",
"W.	c #AC2C2F",
"X.	c #561113",
"Y.	c #644D00",
"Z.	c #EAB600",
"`.	c #F3BE00",
" +	c #F9C200",
".+	c #FFC700",
"++	c #E5B300",
"@+	c #C89B00",
"#+	c #521012",
"$+	c #A4292D",
"%+	c #621517",
"&+	c #685000",
"*+	c #715600",
"=+	c #DAAA00",
"-+	c #3E0A0B",
";+	c #8A2124",
">+	c #661618",
",+	c #470C0E",
"'+	c #882123",
")+	c #410B0C",
"!+	c #811F21",
"                                                                                                    ",
"                                                                                                    ",
"                                                                                                    ",
"                                                                                                    ",
"                                                                                                    ",
"                                                                  . . . . . . . .                   ",
"                                                              . . . . . . . . . . .                 ",
"                                        . .                 . . . + . . . . . . @ . .               ",
"                                      . . . . .           . . # $ % & * = - ; > , ' . .             ",
"                                    . . . ) . . .       . . ! ~ { ] ^ ^ / / ^ ^ ( * _ . .           ",
"                                  . . . : < [ . .     . . ! } | 1 ^ ^ ^ ^ ^ ^ ^ ^ 2 . . .           ",
"                                . . 3 4 5 6 . . . . . . ! } | ^ ^ ^ ^ ^ ^ ^ ^ ^ ^ ; . . .           ",
"                              . . 7 8 9 0 . . . . . . ! } | ^ ^ ^ ^ ^ ^ ^ ^ ^ ^ / - . . .           ",
"                            . . 7 8 a 0 . . . . . . ! } | ^ ^ ^ ^ ^ ^ ^ ^ ^ ^ ^ / = . . .           ",
"                          . . 7 8 a 0 . . . . . . ! } | ^ ^ ^ ^ ^ ^ ^ ^ ^ ^ ^ ^ ^ * . . .           ",
"                        . . 7 8 a 0 . . . . . . ! } | ^ ^ ^ ^ ^ ^ ^ ^ ^ ^ ^ ^ ^ ^ & . . .           ",
"                      . . 7 8 a 0 . . . . . . ! } | ^ ^ ^ ^ b ^ ^ ^ ^ ^ ^ ^ ^ ^ ] % + . .           ",
"                    . . 7 8 a 0 . . . . . . ! } | ^ c d e f g h ^ ^ ^ ^ ^ ^ ^ 1 { $ . .             ",
"                  . . 7 0 i j k . . . . . ! } | ^ l m n o . . . h ^ ^ ^ ^ ^ ^ | ~ # . .             ",
"                . . 7 p 0 q r s . . t . ! } | ^ u ! v . . . . . g b ^ ^ ^ ^ | } ! . .               ",
"              . . . w x y . z . A B C D } | ^ E F G . H . . . . f ^ ^ ^ ^ | } ! . .                 ",
"            . . . . . . . . I J K L M N c ^ E F . . O P Q . . o e ^ ^ ^ | } ! . .                   ",
"          . . . . . . R S T U V d ^ ^ W ^ E F . X Y Z ` P H . n d ^ ^ | } ! . .                     ",
"    . . . . . . .  ...+.@.c ^ ^ ^ ^ ^ ^ E F . X #.$.%.Z O . v m c ^ | } ! . .                       ",
"  . . . . . . . &.*.=.-.^ ^ ^ ^ ^ ^ ^ ;.>.. ,.'.$.%.$.Y . G ! l ^ | } ! . . .                       ",
"  . . . ).!.. . ~.{.1 ^ ^ ^ ^ ^ ^ ^ ^ ;.>.. ].^./.$.#.X . F u ^ | } ! . . . . . .                   ",
"  . . (._.:.<.. . [.^ ^ ^ ^ ^ ^ ^ ^ ^ ^ E F . }.^.'.X . F E ^ | } ! . . . . . . . .                 ",
"  . . |.1.. . . 2.= ^ ^ ^ ^ ^ ^ ^ ^ ^ ^ ^ E F . ].,.. F E ^ | } ! . . . . . . [ . .                 ",
"  . . . . . . . . 3.4.b ^ ^ ^ ^ ^ ^ ^ ^ ^ ^ E F . . F E ^ | } ! . . . . . . 6 < ) . .               ",
"  . . . . . . . . . # 5.6.^ ^ ^ ^ ^ ^ ^ ^ ^ ^ E >.>.E ^ c } ! . . . . . . 0 5 : . . .               ",
"    . . . . . . . . . 7.% 8.^ 9.^ ^ ^ ^ ^ ^ ^ ^ ;.;.^ W N D . . . . . . 0 9 4 . . .                 ",
"      . . . 0.a.. b.c.. . . g > d.^ ^ ^ ^ ^ ^ ^ ^ ^ ^ ^ M C t . . . . 0 a 8 3 . .                   ",
"    . . e.f.g.h.i.j.k.l.m.. . n.> d.^ ^ ^ ^ ^ ^ ^ ^ ^ ^ L B . . . . 0 a 8 7 . .                     ",
"  . o.p.q.r.s.f.k.t.u.v.g.w.x.y.n.> d.^ ^ ^ ^ ^ ^ ^ ^ d K A . . . 0 a 8 7 . .                       ",
". z.l.A.v.B.. C.D.E.F.G.c.H.I.J.y.n.> 9.^ ^ ^ ^ ^ ^ ^ V J . s k 0 a 8 7 . .                         ",
". . K.L.M.k.N.. O.P.Q.R.S.T.H.I.x.. g ^ ^ ^ ^ ^ ^ ^ ^ U I z r j a 8 7 . .                           ",
"  . . U.V.W.X.Y.Z.`. +.+++@+T.H.w.. . 8.^ ^ ^ ^ ^ ^ c T . . q i 8 7 . .                             ",
"    . . #+$+%+&+*+=+.+.+.+++S.c.g.m.. % 6.^ ^ ^ ^ ^ @.S . y 0 0 7 . .                               ",
"      . . -+;+%+. . =+.+.+.+R.G.v.l.. 7.5.b ^ ^ ^ -.+.R . x p 7 . .                                 ",
"        .   -+;+>+. . =+.+ +Q.F.u.k.c.. # 4.^ ^ 1 =.... . w 7 . .                                   ",
"            . ,+u.'+. . =+`.P.E.t.j.b.. . 3.= [.{.*. .. . . . .                                     ",
"            . )+!+u.>+. *+Z.O.D.k.i.. . . . 2.. ~.&.. . . . .                                       ",
"              . )+,+;+%+&+Y.. C.f.h.a.. . . . . . . . . . .                                         ",
"                . . -+;+%+X.N.. s.g.0.. . . . <.. . . . .                                           ",
"                      -+$+W.k.B.r.f.. . . . . :.!.. . .                                             ",
"                    . . #+V.M.v.q.e.. . . . 1._.).. .                                               ",
"                      . . U.L.A.p.. . . . . |.(.. . .                                               ",
"                        . . K.l.o..   . . . . . . . .                                               ",
"                          . . z..       . . . . . .                                                 ",
"                            . .                                                                     "};
