/* XPM */
static char * nave1_2_xpm[] = {
"50 50 447 2",
"  	c None",
". 	c #000000",
"+ 	c #010102",
"@ 	c #010104",
"# 	c #010103",
"$ 	c #03040C",
"% 	c #353863",
"& 	c #000001",
"* 	c #363B65",
"= 	c #6A72BE",
"- 	c #727BCC",
"; 	c #717ACA",
"> 	c #515893",
", 	c #2E3258",
"' 	c #414677",
") 	c #686FB9",
"! 	c #7780D3",
"~ 	c #7B84DA",
"{ 	c #7C85DC",
"] 	c #7982D6",
"^ 	c #191C34",
"/ 	c #000102",
"( 	c #292D4F",
"_ 	c #727BCB",
": 	c #7E87DF",
"< 	c #7982D7",
"[ 	c #383D69",
"} 	c #1B1E38",
"| 	c #3A3F6C",
"1 	c #6B73BE",
"2 	c #7C86DC",
"3 	c #7B84DB",
"4 	c #5C63A5",
"5 	c #020309",
"6 	c #4D538C",
"7 	c #737CCD",
"8 	c #7C85DB",
"9 	c #757ECF",
"0 	c #16192F",
"a 	c #1D1F3A",
"b 	c #5E64A8",
"c 	c #404476",
"d 	c #6D75C3",
"e 	c #7D86DD",
"f 	c #5A61A2",
"g 	c #070600",
"h 	c #04050E",
"i 	c #575D9C",
"j 	c #7B85DB",
"k 	c #6168AD",
"l 	c #090A18",
"m 	c #473E0C",
"n 	c #020200",
"o 	c #333760",
"p 	c #676EB8",
"q 	c #6A72BD",
"r 	c #010205",
"s 	c #010100",
"t 	c #73661A",
"u 	c #AC992C",
"v 	c #4F548E",
"w 	c #757DCF",
"x 	c #30335A",
"y 	c #B9A430",
"z 	c #83741F",
"A 	c #242747",
"B 	c #6067AD",
"C 	c #7880D4",
"D 	c #545A98",
"E 	c #41390A",
"F 	c #938324",
"G 	c #C7B134",
"H 	c #45497D",
"I 	c #7078C7",
"J 	c #7E87DE",
"K 	c #757ED0",
"L 	c #5D63A7",
"M 	c #636BB2",
"N 	c #7D86DE",
"O 	c #6B73BF",
"P 	c #3C406F",
"Q 	c #72651A",
"R 	c #BEA932",
"S 	c #9C8A27",
"T 	c #101225",
"U 	c #5A60A1",
"V 	c #7A83D8",
"W 	c #464C81",
"X 	c #3A3E6C",
"Y 	c #727ACB",
"Z 	c #7B84D9",
"` 	c #5B61A4",
" .	c #16182F",
"..	c #1F1B03",
"+.	c #CAB435",
"@.	c #393D6A",
"#.	c #6A71BD",
"$.	c #6971BB",
"%.	c #1F223E",
"&.	c #737BCC",
"*.	c #7179C9",
"=.	c #474C82",
"-.	c #605514",
";.	c #B29F2E",
">.	c #525894",
",.	c #777FD2",
"'.	c #7E88E0",
").	c #686FBA",
"!.	c #13152A",
"~.	c #6E76C4",
"{.	c #6269AF",
"].	c #282B4E",
"^.	c #877920",
"/.	c #C8B235",
"(.	c #716419",
"_.	c #2B2E52",
":.	c #636AB1",
"<.	c #7881D6",
"[.	c #3F4473",
"}.	c #080917",
"|.	c #767ED1",
"1.	c #515692",
"2.	c #4A410D",
"3.	c #A5932A",
"4.	c #C2AC33",
"5.	c #494E85",
"6.	c #808AE3",
"7.	c #5B62A4",
"8.	c #48020D",
"9.	c #850920",
"0.	c #530310",
"a.	c #6269AE",
"b.	c #6970BB",
"c.	c #373A66",
"d.	c #796C1C",
"e.	c #C1AC32",
"f.	c #8E7E23",
"g.	c #191C35",
"h.	c #5C63A6",
"i.	c #272B4D",
"j.	c #A70F2A",
"k.	c #C81435",
"l.	c #7F081E",
"m.	c #222543",
"n.	c #6167AD",
"o.	c #7A82D7",
"p.	c #585E9F",
"q.	c #0B0D1D",
"r.	c #2E2805",
"s.	c #988726",
"t.	c #C9B335",
"u.	c #80721E",
"v.	c #3B3F6E",
"w.	c #6C74C1",
"x.	c #8089E2",
"y.	c #2A0105",
"z.	c #650516",
"A.	c #C91435",
"B.	c #CE1537",
"C.	c #43020B",
"D.	c #0F1122",
"E.	c #7F88E1",
"F.	c #6F77C5",
"G.	c #43477A",
"H.	c #0C0901",
"I.	c #918023",
"J.	c #181402",
"K.	c #695E17",
"L.	c #B4A02E",
"M.	c #B6A22F",
"N.	c #6E6119",
"O.	c #050610",
"P.	c #3E4372",
"Q.	c #6168AE",
"R.	c #7F89E1",
"S.	c #414678",
"T.	c #6B0518",
"U.	c #B4102E",
"V.	c #B7112F",
"W.	c #13162B",
"X.	c #5F66AB",
"Y.	c #212442",
"Z.	c #887821",
"`.	c #B09C2D",
" +	c #908023",
".+	c #AA972B",
"++	c #5E5213",
"@+	c #100C03",
"#+	c #0E1021",
"$+	c #505690",
"%+	c #737CCC",
"&+	c #7881D5",
"*+	c #920B24",
"=+	c #C61334",
"-+	c #CD1536",
";+	c #AB0F2B",
">+	c #560411",
",+	c #555B9A",
"'+	c #747CCE",
")+	c #4D528C",
"!+	c #C0AB32",
"~+	c #6D6118",
"{+	c #8E7E22",
"]+	c #544911",
"^+	c #020102",
"/+	c #5A61A1",
"(+	c #535996",
"_+	c #7C081D",
":+	c #C61434",
"<+	c #910B23",
"[+	c #666DB6",
"}+	c #31355C",
"|+	c #615514",
"1+	c #C8B335",
"2+	c #554B11",
"3+	c #040300",
"4+	c #342E07",
"5+	c #3D3509",
"6+	c #2C3054",
"7+	c #585F9F",
"8+	c #494E84",
"9+	c #320107",
"0+	c #690617",
"a+	c #73071A",
"b+	c #590412",
"c+	c #B8A430",
"d+	c #6C6018",
"e+	c #020100",
"f+	c #262A4A",
"g+	c #6A72BC",
"h+	c #6971BC",
"i+	c #202340",
"j+	c #6C73C0",
"k+	c #3D4170",
"l+	c #302A06",
"m+	c #988826",
"n+	c #2D3156",
"o+	c #5D64A7",
"p+	c #676FB8",
"q+	c #252848",
"r+	c #918124",
"s+	c #C1AC33",
"t+	c #7F88E0",
"u+	c #7E87E0",
"v+	c #7079C7",
"w+	c #3D4270",
"x+	c #070814",
"y+	c #43497B",
"z+	c #6B5F18",
"A+	c #030200",
"B+	c #404576",
"C+	c #030309",
"D+	c #7C6E1D",
"E+	c #BAA630",
"F+	c #322C06",
"G+	c #2A2405",
"H+	c #020206",
"I+	c #555B99",
"J+	c #1D1803",
"K+	c #867720",
"L+	c #9F8D28",
"M+	c #857620",
"N+	c #40380B",
"O+	c #000004",
"P+	c #04040D",
"Q+	c #44497D",
"R+	c #4C528B",
"S+	c #948324",
"T+	c #B9A530",
"U+	c #292305",
"V+	c #1E1903",
"W+	c #070500",
"X+	c #4E548E",
"Y+	c #545B98",
"Z+	c #7079C8",
"`+	c #6268AF",
" @	c #727ACA",
".@	c #5F66AA",
"+@	c #84751F",
"@@	c #9A8926",
"#@	c #221C03",
"$@	c #41390B",
"%@	c #060206",
"&@	c #2A2C4F",
"*@	c #474E84",
"=@	c #635815",
"-@	c #8B7C21",
";@	c #040000",
">@	c #300607",
",@	c #2C0506",
"'@	c #551113",
")@	c #370000",
"!@	c #001A33",
"~@	c #3A4272",
"{@	c #545A97",
"]@	c #121427",
"^@	c #5F5514",
"/@	c #5F5414",
"(@	c #1B0203",
"_@	c #932427",
":@	c #AB2B2F",
"<@	c #B42E32",
"[@	c #A52A2D",
"}@	c #912326",
"|@	c #801E21",
"1@	c #9C272A",
"2@	c #801B16",
"3@	c #494F85",
"4@	c #6F78C6",
"5@	c #6067AC",
"6@	c #3F0A0B",
"7@	c #8A2124",
"8@	c #BF3236",
"9@	c #C83539",
"0@	c #CA3539",
"a@	c #A2292C",
"b@	c #74181D",
"c@	c #45100D",
"d@	c #66001C",
"e@	c #8F2126",
"f@	c #902326",
"g@	c #4C0E0F",
"h@	c #0C0C1C",
"i@	c #646BB2",
"j@	c #515792",
"k@	c #741A1D",
"l@	c #B12D31",
"m@	c #7F1E21",
"n@	c #7E1C20",
"o@	c #550014",
"p@	c #010002",
"q@	c #161C00",
"r@	c #876C00",
"s@	c #5C0E15",
"t@	c #8E2225",
"u@	c #220509",
"v@	c #292C4F",
"w@	c #585E9E",
"x@	c #6D75C1",
"y@	c #30345A",
"z@	c #380809",
"A@	c #992629",
"B@	c #C93539",
"C@	c #200303",
"D@	c #533F00",
"E@	c #A98400",
"F@	c #E1AF00",
"G@	c #F1BC00",
"H@	c #F9C200",
"I@	c #B78E00",
"J@	c #7A1B1F",
"K@	c #C73438",
"L@	c #6B171A",
"M@	c #050000",
"N@	c #494F86",
"O@	c #2D3055",
"P@	c #1A1C35",
"Q@	c #9F282B",
"R@	c #CF373B",
"S@	c #B22E31",
"T@	c #695100",
"U@	c #F9C300",
"V@	c #FFD000",
"W@	c #FFC700",
"X@	c #FFC800",
"Y@	c #FBC400",
"Z@	c #725A00",
"`@	c #3A0C0A",
" #	c #B42F32",
".#	c #BB3034",
"+#	c #0F0101",
"@#	c #6F191B",
"##	c #821F22",
"$#	c #C43437",
"%#	c #9A262A",
"&#	c #977500",
"*#	c #C19600",
"=#	c #DDAC00",
"-#	c #FFCA00",
";#	c #FFCD00",
">#	c #BF9400",
",#	c #090A00",
"'#	c #912227",
")#	c #CD363A",
"!#	c #581214",
"~#	c #282204",
"{#	c #2C2605",
"]#	c #0A0101",
"^#	c #761B1E",
"/#	c #C63438",
"(#	c #5D1215",
"_#	c #020300",
":#	c #5D4700",
"<#	c #C39800",
"[#	c #574200",
"}#	c #48020F",
"|#	c #AF2C30",
"1#	c #B93034",
"2#	c #360808",
"3#	c #312906",
"4#	c #5B5012",
"5#	c #6A1719",
"6#	c #811E21",
"7#	c #922327",
"8#	c #741C1D",
"9#	c #370809",
"0#	c #9C7900",
"a#	c #7F6200",
"b#	c #3A090A",
"c#	c #A1282C",
"d#	c #601416",
"e#	c #393108",
"f#	c #340708",
"g#	c #B52F32",
"h#	c #BA3034",
"i#	c #681719",
"j#	c #000300",
"k#	c #A68100",
"l#	c #C03236",
"m#	c #651618",
"n#	c #020000",
"o#	c #332B07",
"p#	c #625615",
"q#	c #6A181A",
"r#	c #A0282C",
"s#	c #952528",
"t#	c #8E2325",
"u#	c #64001A",
"v#	c #46000F",
"w#	c #591214",
"x#	c #751B1D",
"y#	c #872023",
"z#	c #080600",
"A#	c #120101",
"B#	c #2E0606",
"C#	c #420B0C",
"D#	c #7B1C1F",
"E#	c #922427",
"F#	c #C53437",
"G#	c #5E1416",
"H#	c #230304",
"I#	c #852022",
"J#	c #440C0D",
"K#	c #B12E31",
"L#	c #240404",
"M#	c #6D181B",
"N#	c #7D1D20",
"                                                                                                    ",
"                                                          . . . . .                                 ",
"                                                      .   . . + @ . . .                             ",
"                                                  . . . # # . $ . % & . . .                         ",
"                                                . . . # . . * = - ; > . + .                         ",
"                                              . . . . , ' ) ! ~ { { ] ^ . . .                       ",
"                                              . / . ( _ : ~ { ~ ~ ~ < [ . .                         ",
"                                              . } | 1 2 ~ ~ ~ ~ ~ ~ 3 4 . 5 . .                     ",
"                                            . . 6 7 8 8 ~ ~ ~ ~ ~ ~ 8 9 0 . . .                     ",
"                                            . a b 3 ~ ~ ~ ~ ~ ~ ~ ~ ~ : ) . . .                     ",
"                            . . . . .     . . c d e ~ ~ ~ ~ ~ ~ ~ ~ ~ : f . & .                     ",
"                          . . g . . . .   . h i ] j ~ ~ ~ ~ ~ ~ ~ ~ ~ ~ k l . .                     ",
"                          . . . m . n . . . o p e ~ ~ ~ ~ ~ ~ ~ ~ ~ ~ { q . r .                     ",
"                        . s . t u . . . . . v w { ~ ~ ~ ~ ~ ~ ~ ~ ~ ~ e p x . .                     ",
"                        . . . y z . . . . A B { ~ ~ ~ { : ~ ~ ~ ~ ~ 8 C D . .                       ",
"                        . E F G . . . . . H I e ~ J K L M ~ N ~ ~ ~ N O P . .                       ",
"                      . . Q R S . . . . T U V 3 : I W . . X Y ~ ~ ~ Z `  ..                         ",
"                      . ..F +.m . . . . @.#.: ] $.%.. . r . &.{ ~ e *.=.. .                         ",
"                    . . -.;.;.. . . . . >.,.'.).P . . . . !.~.~ ~ 2 {.]..                           ",
"                    . . ^./.(.. . . . _.:.N <.[.}.. . . & . f : { |.1.. . . . .                     ",
"                    . 2.3.4.. . . . . 5.Y 6.7.. . 8.9.0.. . a.V N b.c.. . . . . . .                 ",
"                  . . d.e.f.. . & . g.h.~ e i.. . j.k.l.. m.n.e o.p.q.. . . . . . . .               ",
"                  . r.s.t.u.. s . . v.w.x.= . y.z.A.B.C.. D.O E.F.G.. . . . H.I.J.s .               ",
"                . . K.L.M.N.. . O.P.Q.<.R.S.. T.U.B.V.. . W.~ { X.Y.. . . . Z.`.. . .               ",
"                . .  +.+++@+. #+$+%+&+e w . . *+=+-+;+>+. ,+6.'+)+. . . . . !+~+. . .               ",
"              . . -.{+]+. ^+. /+C 8 j E.(+. . _+:+A.<+. . w : [+}+. . . . |+1+2+. .                 ",
"              . 3+4+5+. . 6+7+Z 8 ~ ~ ~ 8+. & 9+0+a+b+. S.R.&+,+. . . . . .+c+d+. .                 ",
"              . . . e+. f+g+<.{ ~ ~ ~ Z h+i+. . . . & . = x.j+k+. . . . l+t.m+r..                   ",
"            . . . # . n+o+'.~ ~ ~ ~ ~ ~ '.e = S.. . . i+e ~ p+q+. & . . r+s+d.. .                   ",
"            . . . . . O &+{ ~ ~ ~ ~ ~ ~ ~ ~ J t+w (+8+h+u+j v+w+. . . . 4.3.2..                     ",
"          . . . . x+6 t+~ ~ ~ ~ ~ ~ ~ ~ ~ ~ ~ ~ { E.~ Z ~ ~ Z y+. . . z+/.^.. .                     ",
"        . . A+. & . >.8 8 ~ ~ ~ ~ ~ ~ ~ ~ ~ ~ ~ ~ ~ ~ ~ ~ ~ ~ B+C+. D+E+;.-.. .                     ",
"      . . . F+G+. . H+p 8 ~ { ~ ~ ~ ~ ~ ~ ~ ~ ~ ~ ~ ~ ~ ~ ~ V I+. J+K++.F ...                       ",
"      . . . L+M+N+O+P+Q+&+e Y ~ E.2 { e ~ ~ ~ ~ ~ ~ ~ ~ ~ ~ : R+. . S+T+Q . .                       ",
"      . . U+M.V+W+. . . . [ 5.X+Y+Z+`+ @~ e 8 ~ ~ ~ ~ ~ ~ ~ V .@. . +@@@E .                         ",
"      . s #@$@. n . . . . . . %@. . &@*@h.w.&+e ~ ~ ~ ~ ~ ~ '.o+. . =@-@. .                         ",
"      . . . . . .   ;@. . >@,@. '@. . )@!@~@>.'+J ~ ~ ~ ~ ~ ~ {@]@. ^@/@. .                         ",
"          . . . . . . (@. _@:@<@[@}@|@1@2@. . 3@4@e e ~ ~ ~ e 5@. . . . .                           ",
"          . . . . . 6@7@8@9@0@a@b@c@d@e@f@g@. . h@i@ @~ ~ 8 t+j@. # . . .                           ",
"              . . k@l@_@m@n@o@p@q@. r@s s@f@t@u@. v@w@x.3 K x@y@H+. . .                             ",
"              . z@A@B@C@. . D@E@F@G@H@I@. J@K@L@M@. . f+N@O@P@. . . . .                             ",
"            . g@Q@R@S@. . T@U@V@W@X@X@Y@Z@`@ #.#k@. . . . . . & . . .                               ",
"            +#|@@###$#%#O+&#*#=#-#;#X@X@>#,#'#)#!#. . . . . ~#{#. s .                               ",
"          . . . ]#. ^#/#(#_#. . :#<#U@V@G@[#}#|#1#2#.   . . 3#r+4#. .                               ",
"              . . . . 5#6#7#8#9#. . . 0#X@a#. b#c#d#. . . . A+/.e#. .                               ",
"                  . . . . f#@#g#h#i#. j#k#. . . l#m#. n#. . o#p#. . .                               ",
"                            . q#r#s#t#u#. v#w#x#9@y#. . . s . z#. .                                 ",
"                            . A#B#. C#D#E#8@l#)#F#G#. . . . . . . .                                 ",
"                                .     . H#I#J#w#K#L#.     .                                         ",
"                                      . . . . . M#N#.                                               "};
