/* XPM */
static char * nave1_6_xpm[] = {
"50 50 448 2",
"  	c None",
". 	c #000000",
"+ 	c #010100",
"@ 	c #221C03",
"# 	c #292305",
"$ 	c #0F0101",
"% 	c #41390B",
"& 	c #B6A22F",
"* 	c #9F8D28",
"= 	c #322C06",
"- 	c #030200",
"; 	c #801E21",
"> 	c #4C0E0F",
", 	c #1E1903",
"' 	c #857620",
") 	c #2A2405",
"! 	c #0A0101",
"~ 	c #6F191B",
"{ 	c #9F282B",
"] 	c #380809",
"^ 	c #020200",
"/ 	c #070500",
"( 	c #40380B",
"_ 	c #000001",
": 	c #040300",
"< 	c #821F22",
"[ 	c #CF373B",
"} 	c #992629",
"| 	c #741A1D",
"1 	c #000004",
"2 	c #070814",
"3 	c #010103",
"4 	c #342E07",
"5 	c #605514",
"6 	c #761B1E",
"7 	c #C43437",
"8 	c #B22E31",
"9 	c #C93539",
"0 	c #B12D31",
"a 	c #3F0A0B",
"b 	c #040000",
"c 	c #04040D",
"d 	c #020205",
"e 	c #525894",
"f 	c #4D538C",
"g 	c #020100",
"h 	c #3D3509",
"i 	c #8E7E22",
"j 	c #908023",
"k 	c #695E17",
"l 	c #2E2805",
"m 	c #6A1719",
"n 	c #C63438",
"o 	c #9A262A",
"p 	c #200303",
"q 	c #932427",
"r 	c #8A2124",
"s 	c #1B0203",
"t 	c #44497D",
"u 	c #676EB8",
"v 	c #7C85DB",
"w 	c #7F88E0",
"x 	c #6B73BF",
"y 	c #2D3156",
"z 	c #544911",
"A 	c #AA972B",
"B 	c #B4A02E",
"C 	c #988726",
"D 	c #796C1C",
"E 	c #4A410D",
"F 	c #811E21",
"G 	c #5D1215",
"H 	c #7F1E21",
"I 	c #BF3236",
"J 	c #7881D5",
"K 	c #7B84DA",
"L 	c #5D64A7",
"M 	c #262A4A",
"N 	c #5E5213",
"O 	c #C9B335",
"P 	c #C1AC32",
"Q 	c #A5932A",
"R 	c #877920",
"S 	c #1F1B03",
"T 	c #340708",
"U 	c #922327",
"V 	c #020300",
"W 	c #977500",
"X 	c #695100",
"Y 	c #7E1C20",
"Z 	c #C83539",
"` 	c #300607",
" .	c #383D69",
"..	c #7D86DD",
"+.	c #7C85DC",
"@.	c #7E88E0",
"#.	c #6A72BC",
"$.	c #2C3054",
"%.	c #020102",
"&.	c #100C03",
"*.	c #6E6119",
"=.	c #80721E",
"-.	c #8E7E23",
";.	c #C2AC33",
">.	c #C8B235",
",.	c #B29F2E",
"'.	c #938324",
").	c #72651A",
"!.	c #41390A",
"~.	c #741C1D",
"{.	c #C19600",
"].	c #F9C300",
"^.	c #533F00",
"/.	c #550014",
"(.	c #CA3539",
"_.	c #AB2B2F",
":.	c #2C0506",
"<.	c #494E85",
"[.	c #727ACB",
"}.	c #7881D6",
"|.	c #585F9F",
"1.	c #716419",
"2.	c #CAB435",
"3.	c #BEA932",
"4.	c #120101",
"5.	c #6A181A",
"6.	c #B52F32",
"7.	c #370809",
"8.	c #DDAC00",
"9.	c #FFD000",
"0.	c #A98400",
"a.	c #010002",
"b.	c #A2292C",
"c.	c #B42E32",
"d.	c #060206",
"e.	c #4E548E",
"f.	c #7B84D9",
"g.	c #5A61A1",
"h.	c #0E1021",
"i.	c #473E0C",
"j.	c #9C8A27",
"k.	c #C7B134",
"l.	c #B9A430",
"m.	c #73661A",
"n.	c #070600",
"o.	c #2D0606",
"p.	c #A0282C",
"q.	c #BA3034",
"r.	c #5D4700",
"s.	c #FFCA00",
"t.	c #FFC700",
"u.	c #E1AF00",
"v.	c #161C00",
"w.	c #74181D",
"x.	c #A52A2D",
"y.	c #551113",
"z.	c #545B98",
"A.	c #7F88E1",
"B.	c #7880D4",
"C.	c #505690",
"D.	c #050610",
"E.	c #83741F",
"F.	c #AC992C",
"G.	c #952528",
"H.	c #681719",
"I.	c #C39800",
"J.	c #FFCD00",
"K.	c #FFC800",
"L.	c #F1BC00",
"M.	c #45100D",
"N.	c #912326",
"O.	c #7079C8",
"P.	c #7C86DC",
"Q.	c #737CCC",
"R.	c #3E4372",
"S.	c #420B0C",
"T.	c #8E2325",
"U.	c #F9C200",
"V.	c #876C00",
"W.	c #66001C",
"X.	c #2A2C4F",
"Y.	c #6268AF",
"Z.	c #7B85DB",
"`.	c #6168AE",
" +	c #3B3F6E",
".+	c #191C35",
"++	c #7B1C1F",
"@+	c #64001A",
"#+	c #000300",
"$+	c #9C7900",
"%+	c #FBC400",
"&+	c #B78E00",
"*+	c #8F2126",
"=+	c #9C272A",
"-+	c #370000",
";+	c #474E84",
">+	c #727ACA",
",+	c #6C74C1",
"'+	c #5C63A6",
")+	c #2B2E52",
"!+	c #230304",
"~+	c #922427",
"{+	c #A68100",
"]+	c #BF9400",
"^+	c #725A00",
"/+	c #5C0E15",
"(+	c #902326",
"_+	c #801B16",
":+	c #001A33",
"<+	c #6971BC",
"[+	c #494E84",
"}+	c #535996",
"|+	c #757DCF",
"1+	c #7F89E1",
"2+	c #8089E2",
"3+	c #636AB1",
"4+	c #393D6A",
"5+	c #101225",
"6+	c #852022",
"7+	c #46000F",
"8+	c #7F6200",
"9+	c #574200",
"0+	c #090A00",
"a+	c #3A0C09",
"b+	c #7A1B1F",
"c+	c #3A4272",
"d+	c #202340",
"e+	c #414678",
"f+	c #6A72BE",
"g+	c #808AE3",
"h+	c #7D86DE",
"i+	c #777FD2",
"j+	c #6A71BD",
"k+	c #5A60A1",
"l+	c #45497D",
"m+	c #242747",
"n+	c #440C0D",
"o+	c #C03236",
"p+	c #591214",
"q+	c #48020F",
"r+	c #912227",
"s+	c #B42F32",
"t+	c #C73438",
"u+	c #8E2225",
"v+	c #7E87DE",
"w+	c #272B4D",
"x+	c #5B62A4",
"y+	c #7E87DF",
"z+	c #7A83D8",
"A+	c #7078C7",
"B+	c #6067AD",
"C+	c #4F548E",
"D+	c #333760",
"E+	c #04050E",
"F+	c #CD363A",
"G+	c #751B1D",
"H+	c #3A090A",
"I+	c #AF2C30",
"J+	c #BB3034",
"K+	c #6B171A",
"L+	c #220509",
"M+	c #494F85",
"N+	c #747CCE",
"O+	c #320107",
"P+	c #7C081D",
"Q+	c #920B24",
"R+	c #6B0518",
"S+	c #2A0105",
"T+	c #3F4473",
"U+	c #686FBA",
"V+	c #7982D6",
"W+	c #7B84DB",
"X+	c #575D9C",
"Y+	c #404476",
"Z+	c #1D1F3A",
"`+	c #6D181B",
" @	c #B12E31",
".@	c #C53437",
"+@	c #A1282C",
"@@	c #B93034",
"#@	c #581214",
"$@	c #050000",
"%@	c #0C0C1C",
"&@	c #6F78C6",
"*@	c #690617",
"=@	c #C61434",
"-@	c #C61334",
";@	c #B4102E",
">@	c #650516",
",@	c #080917",
"'@	c #3C406F",
")@	c #6971BB",
"!@	c #6D75C3",
"~@	c #5E64A8",
"{@	c #1B1E38",
"]@	c #000102",
"^@	c #7D1D20",
"/@	c #240404",
"(@	c #5E1416",
"_@	c #872023",
":@	c #651618",
"<@	c #601416",
"[@	c #360808",
"}@	c #292C4F",
"|@	c #646BB2",
"1@	c #73071A",
"2@	c #C91435",
"3@	c #CD1536",
"4@	c #CE1537",
"5@	c #A70F2A",
"6@	c #48020D",
"7@	c #1F223E",
"8@	c #737CCD",
"9@	c #3A3F6C",
"0@	c #585E9E",
"a@	c #590412",
"b@	c #910B23",
"c@	c #AB0F2B",
"d@	c #B7112F",
"e@	c #C81435",
"f@	c #850920",
"g@	c #464C81",
"h@	c #757ED0",
"i@	c #6B73BE",
"j@	c #292D4F",
"k@	c #020000",
"l@	c #560411",
"m@	c #43020B",
"n@	c #7F081E",
"o@	c #530310",
"p@	c #5D63A7",
"q@	c #727BCB",
"r@	c #2E3258",
"s@	c #494F86",
"t@	c #7E87E0",
"u@	c #010205",
"v@	c #636BB2",
"w@	c #414677",
"x@	c #2D3055",
"y@	c #555B9A",
"z@	c #13162B",
"A@	c #0F1122",
"B@	c #222543",
"C@	c #13152A",
"D@	c #3A3E6C",
"E@	c #686FB9",
"F@	c #332B07",
"G@	c #312906",
"H@	c #282204",
"I@	c #1A1C35",
"J@	c #6D75C1",
"K@	c #7079C7",
"L@	c #676FB8",
"M@	c #6C73C0",
"N@	c #6167AD",
"O@	c #6269AE",
"P@	c #5A61A2",
"Q@	c #6E76C4",
"R@	c #737BCC",
"S@	c #7780D3",
"T@	c #363B65",
"U@	c #080600",
"V@	c #625615",
"W@	c #918124",
"X@	c #2C2605",
"Y@	c #30345A",
"Z@	c #515792",
"`@	c #6067AC",
" #	c #545A97",
".#	c #5F66AA",
"+#	c #4C528B",
"@#	c #555B99",
"##	c #404576",
"$#	c #43497B",
"%#	c #3D4270",
"&#	c #252848",
"*#	c #3D4170",
"=#	c #666DB6",
"-#	c #03040C",
";#	c #010102",
">#	c #393108",
",#	c #5B5012",
"'#	c #020206",
")#	c #121427",
"!#	c #030309",
"~#	c #31355C",
"{#	c #4D528C",
"]#	c #5F66AB",
"^#	c #6F77C5",
"/#	c #7A82D7",
"(#	c #727BCC",
"_#	c #010104",
":#	c #1D1803",
"<#	c #212442",
"[#	c #43477A",
"}#	c #585E9F",
"|#	c #6970BB",
"1#	c #767ED1",
"2#	c #717ACA",
"3#	c #353863",
"4#	c #5F5514",
"5#	c #635815",
"6#	c #84751F",
"7#	c #948324",
"8#	c #867720",
"9#	c #7C6E1D",
"0#	c #0B0D1D",
"a#	c #373A66",
"b#	c #515692",
"c#	c #6269AF",
"d#	c #7179C9",
"e#	c #7982D7",
"f#	c #515893",
"g#	c #5F5414",
"h#	c #8B7C21",
"i#	c #9A8926",
"j#	c #B9A530",
"k#	c #BAA630",
"l#	c #6B5F18",
"m#	c #282B4E",
"n#	c #474C82",
"o#	c #5B61A4",
"p#	c #757ECF",
"q#	c #5C63A5",
"r#	c #191C34",
"s#	c #302A06",
"t#	c #16182F",
"u#	c #545A98",
"v#	c #6A72BD",
"w#	c #6168AD",
"x#	c #16192F",
"y#	c #C1AC33",
"z#	c #615514",
"A#	c #30335A",
"B#	c #090A18",
"C#	c #020309",
"D#	c #988826",
"E#	c #B8A430",
"F#	c #C8B335",
"G#	c #C0AB32",
"H#	c #887821",
"I#	c #0C0901",
"J#	c #6C6018",
"K#	c #554B11",
"L#	c #6D6118",
"M#	c #B09C2D",
"N#	c #918023",
"O#	c #181402",
"                                                                                                    ",
"                                                                                                    ",
"                                                                                                    ",
"                          . . . . .                                                                 ",
"                          . + . . . .                                                               ",
"            .         . . . @ # . . . .                                                             ",
"            . $ .     . . . % & * = - . . .                                                         ",
"          . . ; > . . . . . . , ' ) . . . . . . .                                                   ",
"          . ! ~ { ] . . . . ^ / ( . _ . . . . : . . .                                               ",
"        . . . < [ } | . .   . . 1 . . 2 . 3 . 4 5 . . . .                                           ",
"        . . 6 7 8 9 0 a . b . . c d e f . . g h i j k l . . . .                                     ",
"        . m n o . p q r s . . . t u v w x y . . z A B C D E . . . .                                 ",
"        . F G 1 . . H I . . . . J v v K J L M . . N & O P Q R 5 S . . . .                           ",
"        T U V W X . Y Z q ` .  ...K K K +.@.#.$.%.&.*.=.-.;.>.,.'.).!.. + . .                       ",
"    . . ~ ~.. {.].^./.(._.:.. <.[.+.K K K K }.|.. . . . . . 1.,.2.3.'.. . . . .                     ",
"    4.5.6.7.. 8.9.0.a.b.c.. d.e.K K K K K K +.f.g.h.. + . . . . i.j.k.l.m.. n..                     ",
"  . o.p.q.. r.s.t.u.v.w.x.y.. z.A.K K K K K K v B.C.D.. _ . . . . . . E.F.i.. .                     ",
"    . G.H.. I.J.K.L.. M.N.. . O.P.K K K K K K K v Q.R.. . . . . . . . . . . . .                     ",
"    S.T.. . ].K.K.U.V.W.; . X.Y.+.K K K K K K K Z.J `. +.+. . . . . . . . ^ . .                     ",
". . ++@+#+$+9.K.%+&++ *+=+-+;+>+..K K K K K f.K A...}.,+'+<.)+. . . . . . . .                       ",
". !+~+. {+K.L.]+^+. /+(+_+:+'+K K K K K K @.<+[+}+|+1+2+K [.3+e 4+5+. . . .                         ",
". 6+I 7+. 8+9+0+a+b+(+> . c+,+..K K K K K ..d+. . . e+f+..g+h+i+j+k+l+m+. . . .                     ",
". n+o+p+. . q+r+s+t+u+. . e J v K K K K v+f+. _ . . . . w+x+}.@.y+z+A+B+C+D+E+. . .                 ",
". p+F+G+. H+I+F+J+K+L+. M+N+..K K K K K w e+. O+P+Q+R+S+. . T+U+V+W+..+.|+u X+Y+Z+. . . .           ",
"`+ @.@Z o++@@@#@| $@. %@&@v+K K K K K +.|+. . *@=@-@;@>@. . ,@'@)@y+K K +...V+!@~@f {@]@. .         ",
"^@/@(@_@:@<@[@. . . }@|@..K K K K K K A.}+. . 1@2@3@4@2@5@6@. . 7@A+v+K K K Z...W+8@9@. . . .       ",
". . . . . . . . . . 0@>+..K K K K K K K [+. _ a@b@c@d@4@e@f@. . . g@h@K K K K K K v i@j@. . .       ",
"    . . k@.   . . M 2+K K K K K K K K f.<+d+. . . l@. m@n@o@. . . . p@+.K K K K K v P.q@r@3 . .     ",
"    . . . . . . . s@W+K K K K K K K K K t@..f+e+. . . . . . _ . u@. v@y+K K K K K K K y+w@. 3       ",
"  . . + . . . . . x@h@v K K K K K K K K Z.K 2+1+|+y@z@A@B@. . C@. D@K K K K K K K K K K E@. 3 . .   ",
"    . . F@- G@H@. I@J@w ..K @.z+y+z+K f.K@L@M@J y+g+K x N@O@P@Q@R@[.h+K K K K K K K K +.S@T@. . .   ",
"    . U@V@>.W@X@_ . Y@Z@`@ #L .#+#@###$#%#&#*#y@=#N++.A...z+y+K +.K K K K K K K K K K K K f+-#;#.   ",
"    . . . >#,#. . . '#. . )#. . . . !#. . . . . ~#{#]#^#/#h++.K K K K K K K K K K K K K +.(#. _#.   ",
"    . . . . . + . . . 3 . . . . . :#. . . _ . . . . <#[#}#|#1#P...K K K K K K K K K K K +.2#3#. .   ",
"        . . . . . . . . . 4#5#6#7#8#9#. . . . . . . . . 0#a#b#c#d#f.h+v K K K K K v W+e#V+f#_ .     ",
"                  . . . . g#h#i#j#2.k#l#. . . . . . . . . . . m#n#o#x B...+.K y+y+p#q# .r#. . .     ",
"                      . . . . !.).'.,.>.;.W@s#. . . . . . . . . . t#'@u#u v#w#P@E@x#. . . ;#.       ",
"                          . . . . S 5 R Q y#O A z#. . . . . .   . . . . A#. B#. . . C#. . . .       ",
"                                . . . . E D D#E#F#G#H#I#. . .       . . . u@. _ . . .   .           ",
"                                    . . . . l J#K#L#M#N#. . .           . . . . . . .               ",
"                                          . . . . . . O#. .                                         ",
"                                              . . . . + . .                                         ",
"                                                  . . . .                                           ",
"                                                                                                    ",
"                                                                                                    ",
"                                                                                                    ",
"                                                                                                    ",
"                                                                                                    ",
"                                                                                                    ",
"                                                                                                    "};
