/* XPM */
static char * nave1_10_xpm[] = {
"50 50 448 2",
"  	c None",
". 	c #000000",
"+ 	c #7D1D20",
"@ 	c #6D181B",
"# 	c #240404",
"$ 	c #B12E31",
"% 	c #591214",
"& 	c #440C0D",
"* 	c #852022",
"= 	c #230304",
"- 	c #5E1416",
"; 	c #C53437",
"> 	c #CD363A",
", 	c #C03236",
"' 	c #BF3236",
") 	c #922427",
"! 	c #7B1C1F",
"~ 	c #420B0C",
"{ 	c #2D0606",
"] 	c #120101",
"^ 	c #080600",
"/ 	c #010100",
"( 	c #872023",
"_ 	c #C83539",
": 	c #751B1D",
"< 	c #46000F",
"[ 	c #64001A",
"} 	c #8E2325",
"| 	c #952528",
"1 	c #A0282C",
"2 	c #6A181A",
"3 	c #625615",
"4 	c #332B07",
"5 	c #020000",
"6 	c #651618",
"7 	c #A68100",
"8 	c #000300",
"9 	c #681719",
"0 	c #BA3034",
"a 	c #B52F32",
"b 	c #6F191B",
"c 	c #340708",
"d 	c #393108",
"e 	c #C8B235",
"f 	c #030200",
"g 	c #601416",
"h 	c #A1282C",
"i 	c #3A090A",
"j 	c #7F6200",
"k 	c #FFC800",
"l 	c #9C7900",
"m 	c #370809",
"n 	c #741C1D",
"o 	c #922327",
"p 	c #811E21",
"q 	c #6A1719",
"r 	c #5B5012",
"s 	c #918124",
"t 	c #312906",
"u 	c #360808",
"v 	c #B93034",
"w 	c #AF2C30",
"x 	c #48020F",
"y 	c #574200",
"z 	c #F1BC00",
"A 	c #FFD000",
"B 	c #F9C300",
"C 	c #C39800",
"D 	c #5D4700",
"E 	c #020300",
"F 	c #5D1215",
"G 	c #C63438",
"H 	c #761B1E",
"I 	c #0A0101",
"J 	c #2C2605",
"K 	c #282204",
"L 	c #581214",
"M 	c #912227",
"N 	c #090A00",
"O 	c #BF9400",
"P 	c #FFCD00",
"Q 	c #FFCA00",
"R 	c #DDAC00",
"S 	c #C19600",
"T 	c #977500",
"U 	c #000004",
"V 	c #9A262A",
"W 	c #C43437",
"X 	c #821F22",
"Y 	c #801E21",
"Z 	c #0F0101",
"` 	c #000001",
" .	c #741A1D",
"..	c #BB3034",
"+.	c #B42F32",
"@.	c #3A0C09",
"#.	c #725A00",
"$.	c #FBC400",
"%.	c #FFC700",
"&.	c #695100",
"*.	c #B22E31",
"=.	c #CF373B",
"-.	c #9F282B",
";.	c #4C0E0F",
">.	c #1A1C35",
",.	c #2D3055",
"'.	c #494F86",
").	c #262A4A",
"!.	c #050000",
"~.	c #6B171A",
"{.	c #C73438",
"].	c #7A1B1F",
"^.	c #B78E00",
"/.	c #F9C200",
"(.	c #E1AF00",
"_.	c #A98400",
":.	c #533F00",
"<.	c #200303",
"[.	c #C93539",
"}.	c #992629",
"|.	c #380809",
"1.	c #020206",
"2.	c #30345A",
"3.	c #6D75C1",
"4.	c #757ED0",
"5.	c #7B84DB",
"6.	c #8089E2",
"7.	c #585E9E",
"8.	c #292C4F",
"9.	c #220509",
"0.	c #8E2225",
"a.	c #902326",
"b.	c #5C0E15",
"c.	c #876C00",
"d.	c #161C00",
"e.	c #010002",
"f.	c #550014",
"g.	c #7E1C20",
"h.	c #7F1E21",
"i.	c #932427",
"j.	c #B12D31",
"k.	c #010103",
"l.	c #515792",
"m.	c #7F88E0",
"n.	c #7C85DB",
"o.	c #7B84DA",
"p.	c #727ACA",
"q.	c #646BB2",
"r.	c #0C0C1C",
"s.	c #8F2126",
"t.	c #66001C",
"u.	c #45100D",
"v.	c #74181D",
"w.	c #A2292C",
"x.	c #CA3539",
"y.	c #8A2124",
"z.	c #3F0A0B",
"A.	c #6067AC",
"B.	c #7D86DD",
"C.	c #6F78C6",
"D.	c #494F85",
"E.	c #801B16",
"F.	c #9C272A",
"G.	c #912326",
"H.	c #A52A2D",
"I.	c #B42E32",
"J.	c #AB2B2F",
"K.	c #1B0203",
"L.	c #5F5414",
"M.	c #5F5514",
"N.	c #121427",
"O.	c #545A97",
"P.	c #7E87DE",
"Q.	c #747CCE",
"R.	c #525894",
"S.	c #3A4272",
"T.	c #001A33",
"U.	c #370000",
"V.	c #551113",
"W.	c #2C0506",
"X.	c #300607",
"Y.	c #040000",
"Z.	c #8B7C21",
"`.	c #635815",
" +	c #5D64A7",
".+	c #7E88E0",
"++	c #7881D5",
"@+	c #6C74C1",
"#+	c #5C63A6",
"$+	c #474E84",
"%+	c #2A2C4F",
"&+	c #060206",
"*+	c #020200",
"=+	c #41390B",
"-+	c #221C03",
";+	c #41390A",
">+	c #9A8926",
",+	c #84751F",
"'+	c #5F66AA",
")+	c #7A83D8",
"!+	c #6268AF",
"~+	c #7079C8",
"{+	c #545B98",
"]+	c #4E548E",
"^+	c #494E85",
"/+	c #383D69",
"(+	c #070500",
"_+	c #1E1903",
":+	c #B6A22F",
"<+	c #292305",
"[+	c #72651A",
"}+	c #B9A530",
"|+	c #948324",
"1+	c #4C528B",
"2+	c #7E87DF",
"3+	c #7C85DC",
"4+	c #7C86DC",
"5+	c #7F88E1",
"6+	c #727ACB",
"7+	c #44497D",
"8+	c #04040D",
"9+	c #40380B",
"0+	c #857620",
"a+	c #9F8D28",
"b+	c #1F1B03",
"c+	c #938324",
"d+	c #CAB435",
"e+	c #867720",
"f+	c #1D1803",
"g+	c #555B99",
"h+	c #676EB8",
"i+	c #020205",
"j+	c #2A2405",
"k+	c #322C06",
"l+	c #605514",
"m+	c #B29F2E",
"n+	c #BAA630",
"o+	c #7C6E1D",
"p+	c #030309",
"q+	c #404576",
"r+	c #877920",
"s+	c #6B5F18",
"t+	c #43497B",
"u+	c #7B84D9",
"v+	c #4D538C",
"w+	c #070814",
"x+	c #4A410D",
"y+	c #A5932A",
"z+	c #C2AC33",
"A+	c #3D4270",
"B+	c #7079C7",
"C+	c #7B85DB",
"D+	c #7E87E0",
"E+	c #6971BC",
"F+	c #494E84",
"G+	c #535996",
"H+	c #757DCF",
"I+	c #6B73BF",
"J+	c #796C1C",
"K+	c #C1AC33",
"L+	c #252848",
"M+	c #676FB8",
"N+	c #202340",
"O+	c #414678",
"P+	c #6A72BE",
"Q+	c #2D3156",
"R+	c #2E2805",
"S+	c #988826",
"T+	c #C9B335",
"U+	c #302A06",
"V+	c #3D4170",
"W+	c #6C73C0",
"X+	c #7881D6",
"Y+	c #6A72BC",
"Z+	c #020100",
"`+	c #6C6018",
" @	c #B8A430",
".@	c #AA972B",
"+@	c #555B9A",
"@@	c #7F89E1",
"#@	c #590412",
"$@	c #73071A",
"%@	c #690617",
"&@	c #320107",
"*@	c #585F9F",
"=@	c #2C3054",
"-@	c #3D3509",
";@	c #342E07",
">@	c #040300",
",@	c #554B11",
"'@	c #C8B335",
")@	c #615514",
"!@	c #31355C",
"~@	c #666DB6",
"{@	c #910B23",
"]@	c #C91435",
"^@	c #C61434",
"/@	c #7C081D",
"(@	c #7880D4",
"_@	c #5A61A1",
":@	c #020102",
"<@	c #544911",
"[@	c #8E7E22",
"}@	c #6D6118",
"|@	c #C0AB32",
"1@	c #4D528C",
"2@	c #808AE3",
"3@	c #560411",
"4@	c #AB0F2B",
"5@	c #CD1536",
"6@	c #C61334",
"7@	c #920B24",
"8@	c #737CCC",
"9@	c #505690",
"0@	c #0E1021",
"a@	c #100C03",
"b@	c #5E5213",
"c@	c #908023",
"d@	c #B09C2D",
"e@	c #887821",
"f@	c #212442",
"g@	c #5F66AB",
"h@	c #13162B",
"i@	c #B7112F",
"j@	c #CE1537",
"k@	c #B4102E",
"l@	c #6B0518",
"m@	c #6168AE",
"n@	c #3E4372",
"o@	c #050610",
"p@	c #6E6119",
"q@	c #B4A02E",
"r@	c #695E17",
"s@	c #181402",
"t@	c #918023",
"u@	c #0C0901",
"v@	c #43477A",
"w@	c #6F77C5",
"x@	c #0F1122",
"y@	c #43020B",
"z@	c #650516",
"A@	c #2A0105",
"B@	c #3B3F6E",
"C@	c #80721E",
"D@	c #988726",
"E@	c #0B0D1D",
"F@	c #585E9F",
"G@	c #7A82D7",
"H@	c #6167AD",
"I@	c #222543",
"J@	c #7F081E",
"K@	c #C81435",
"L@	c #A70F2A",
"M@	c #272B4D",
"N@	c #191C35",
"O@	c #8E7E23",
"P@	c #C1AC32",
"Q@	c #373A66",
"R@	c #6970BB",
"S@	c #7D86DE",
"T@	c #6269AE",
"U@	c #530310",
"V@	c #850920",
"W@	c #48020D",
"X@	c #5B62A4",
"Y@	c #515692",
"Z@	c #767ED1",
"`@	c #5A61A2",
" #	c #080917",
".#	c #3F4473",
"+#	c #636AB1",
"@#	c #2B2E52",
"##	c #716419",
"$#	c #282B4E",
"%#	c #6269AF",
"&#	c #6E76C4",
"*#	c #13152A",
"=#	c #3C406F",
"-#	c #686FBA",
";#	c #777FD2",
">#	c #474C82",
",#	c #7179C9",
"'#	c #737BCC",
")#	c #010205",
"!#	c #1F223E",
"~#	c #6971BB",
"{#	c #7982D6",
"]#	c #6A71BD",
"^#	c #393D6A",
"/#	c #473E0C",
"(#	c #16182F",
"_#	c #5B61A4",
":#	c #3A3E6C",
"<#	c #464C81",
"[#	c #7078C7",
"}#	c #5A60A1",
"|#	c #101225",
"1#	c #9C8A27",
"2#	c #BEA932",
"3#	c #636BB2",
"4#	c #5D63A7",
"5#	c #45497D",
"6#	c #C7B134",
"7#	c #545A98",
"8#	c #6067AD",
"9#	c #242747",
"0#	c #83741F",
"a#	c #B9A430",
"b#	c #30335A",
"c#	c #4F548E",
"d#	c #AC992C",
"e#	c #73661A",
"f#	c #6A72BD",
"g#	c #333760",
"h#	c #090A18",
"i#	c #6168AD",
"j#	c #575D9C",
"k#	c #04050E",
"l#	c #070600",
"m#	c #6D75C3",
"n#	c #404476",
"o#	c #686FB9",
"p#	c #5E64A8",
"q#	c #1D1F3A",
"r#	c #16192F",
"s#	c #757ECF",
"t#	c #737CCD",
"u#	c #020309",
"v#	c #5C63A5",
"w#	c #6B73BE",
"x#	c #3A3F6C",
"y#	c #1B1E38",
"z#	c #7982D7",
"A#	c #727BCB",
"B#	c #292D4F",
"C#	c #000102",
"D#	c #191C34",
"E#	c #7780D3",
"F#	c #414677",
"G#	c #2E3258",
"H#	c #010102",
"I#	c #515893",
"J#	c #717ACA",
"K#	c #727BCC",
"L#	c #363B65",
"M#	c #353863",
"N#	c #03040C",
"O#	c #010104",
"                                              . + @ . . . . .                                       ",
"                                        .     . # $ % & * = .     .                                 ",
"                                . . . . . . . . - ; > , ' ) ! ~ . { ] .                             ",
"                                . . ^ . / . . . ( _ : % < . [ } | 1 2 .                             ",
"                              . . . 3 4 . . 5 . 6 , . . . 7 8 . 9 0 a b c . . . .                   ",
"                              . . d e f . . . . g h i . j k l . . . m n o p q . . . .               ",
"                              . . r s t . .   . u v w x y z A B C D . . E F G H . I . . .           ",
"                              . / . J K . . . . . L > M N O k k P Q R S T U V W X b Y Z             ",
"                              . . . ` . . . . . .  ...+.@.#.$.k k %.A B &.. . *.=.-.;..             ",
"                            . . . . . >.,.'.).. . !.~.{.].. ^./.z (._.:.. . <.[.}.|..               ",
"                            . . . 1.2.3.4.5.6.7.8.. 9.0.a.b./ c.. d.e.f.g.h.i.j. .. .               ",
"                          . . . k.. l.m.n.o.o.p.q.r.. . ;.a.s.t.u.v.w.x._ ' y.z.. . . . .           ",
"                          . . . . . A.B.o.o.o.B.B.C.D.. . E.F.Y G.H.I.J.i.. K.. . . . . .           ",
"                        . . L.M.. N.O.o.o.o.o.o.o.P.Q.R.S.T.U.. . V.. W.X.. . Y.  . . . . . .       ",
"                        . . Z.`.. .  +.+o.o.o.o.o.o.B.++@+#+$+%+. . &+. . . . . . *+. =+-+/ .       ",
"                        . ;+>+,+. . '+)+o.o.o.o.o.o.o.n.B.o.p.!+~+{+]+^+/+. . . . (+_+:+<+. .       ",
"                      . . [+}+|+. . 1+2+o.o.o.o.o.o.o.o.o.o.B.3+4+5+o.6+B.++7+8+U 9+0+a+. . .       ",
"                      . b+c+d+e+f+. g+)+o.o.o.o.o.o.o.o.o.o.o.o.o.o.o.3+o.n.h+i+. . j+k+. . .       ",
"                    . . l+m+n+o+. p+q+o.o.o.o.o.o.o.o.o.o.o.o.o.o.o.o.o.o.n.n.R.. ` . f . .         ",
"                    . . r+e s+. . . t+u+o.o.u+o.5+3+o.o.o.o.o.o.o.o.o.o.o.o.m.v+w+. . . .           ",
"                    . x+y+z+. . . . A+B+C+D+E+F+G+H+m.P.o.o.o.o.o.o.o.o.3+++I+. . . . .             ",
"                  . . J+K+s . . ` . L+M+o.B.N+. . . O+P+B..+o.o.o.o.o.o..+ +Q+. k.. . .             ",
"                  . R+S+T+U+. . . . V+W+6.P+. ` . . . . N+E+u+o.o.o.3+X+Y+).. Z+. . .               ",
"                . . `+ @.@. . . . . +@++@@O+. #@$@%@&@` . F+o.o.o.n.u+*@=@. . -@;@>@.               ",
"                . . ,@'@)@. . . . !@~@2+H+. . {@]@^@/@. . G+5+C+n.(@_@. :@. <@[@l+. .               ",
"              . . . }@|@. . . . . 1@Q.2@+@. 3@4@5@6@7@. . H+B.++8@9@0@. a@b@.@c@. .                 ",
"              . . . d@e@. . . . f@g@3+o.h@. . i@j@k@l@. O+@@X+m@n@o@. . p@:+q@r@. .                 ",
"              . / s@t@u@. . . . v@w@5+I+x@. y@j@]@z@A@. P+6.@+B@. . / . C@T+D@R+.                   ",
"              . . . . . . . . E@F@G@B.H@I@. J@K@L@. . M@B.o.#+N@. ` . . O@P@J+. .                   ",
"                . . . . . . . Q@R@S@)+T@. . U@V@W@. . X@2@6+^+. . . . . z+y+x+.                     ",
"                    . . . . . Y@Z@3+2+`@. ` . . .  #.#X+S@+#@#. . . . ##e r+. .                     ",
"                          . $#%#4+o.o.&#*#. . . . =#-#.+;#R.. . . . . m+m+l+. .                     ",
"                        . . >#,#B.o.3+'#. )#. . !#~#{#2+]#^#. . . . /#d+c+b+.                       ",
"                        . (#_#u+o.o.o.6+:#. . <#[#2+5.)+}#|#. . . . 1#2#[+. .                       ",
"                      . . =#I+S@o.o.o.S@o.3#4#4.P.o.B.[#5#. . . . . 6#c+;+.                         ",
"                      . . 7#(@n.o.o.o.o.o.2+3+o.o.o.3+8#9#. . . . 0#a#. . .                         ",
"                    . . b#h+B.o.o.o.o.o.o.o.o.o.o.3+H+c#. . . . . d#e#. / .                         ",
"                    . )#. f#3+o.o.o.o.o.o.o.o.o.o.B.h+g#. . . *+. /#. . .                           ",
"                    . . h#i#o.o.o.o.o.o.o.o.o.o.C+{#j#k#.   . . . . l#. .                           ",
"                    . ` . `@2+o.o.o.o.o.o.o.o.o.B.m#n#. .     . . . . .                             ",
"                    . . . o#2+o.o.o.o.o.o.o.o.o.5.p#q#.                                             ",
"                    . . . r#s#n.o.o.o.o.o.o.n.n.t#v+. .                                             ",
"                    . . u#. v#5.o.o.o.o.o.o.4+w#x#y#.                                               ",
"                        . . /+z#o.o.o.3+o.2+A#B#. C#.                                               ",
"                      . . . D#{#3+3+o.E#o#F#G#. . . .                                               ",
"                        . H#. I#J#K#P+L#. . k.. . .                                                 ",
"                        . . . ` M#. N#. k.k.. . .                                                   ",
"                            . . . O#H#. .   .                                                       ",
"                                . . . . .                                                           ",
"                                                                                                    "};
