/* XPM */
static char * nave2_8_xpm[] = {
"50 50 407 2",
"  	c None",
". 	c #000000",
"+ 	c #280405",
"@ 	c #681719",
"# 	c #761B1E",
"$ 	c #2D0506",
"% 	c #7F1E20",
"& 	c #591214",
"* 	c #A92B2F",
"= 	c #320607",
"- 	c #1C0203",
"; 	c #3F0A0C",
"> 	c #490D0E",
", 	c #751B1D",
"' 	c #922427",
") 	c #B12D31",
"! 	c #B42E32",
"~ 	c #C63438",
"{ 	c #B93034",
"] 	c #671619",
"^ 	c #080101",
"/ 	c #691719",
"( 	c #982629",
"_ 	c #8F2326",
": 	c #892124",
"< 	c #2C0506",
"[ 	c #5A1214",
"} 	c #661618",
"| 	c #7B1D1F",
"1 	c #BD3135",
"2 	c #852023",
"3 	c #0F0C01",
"4 	c #3D090B",
"5 	c #6F191B",
"6 	c #AF2D30",
"7 	c #AA2B2F",
"8 	c #6A1719",
"9 	c #463400",
"0 	c #9E7A00",
"a 	c #B72F33",
"b 	c #6C181A",
"c 	c #3A3209",
"d 	c #5D5114",
"e 	c #7D1D20",
"f 	c #8D2225",
"g 	c #6E181B",
"h 	c #410A0C",
"i 	c #A68000",
"j 	c #EEBA00",
"k 	c #876800",
"l 	c #4E0F11",
"m 	c #241F04",
"n 	c #C4AF34",
"o 	c #41390A",
"p 	c #180202",
"q 	c #250404",
"r 	c #7A1D1F",
"s 	c #B83034",
"t 	c #5D1315",
"u 	c #0C0700",
"v 	c #2B1F00",
"w 	c #6E5400",
"x 	c #C29700",
"y 	c #F6C000",
"z 	c #FFC700",
"A 	c #E5B200",
"B 	c #6E5401",
"C 	c #A92B2E",
"D 	c #AD2C30",
"E 	c #430B0D",
"F 	c #3F370A",
"G 	c #877820",
"H 	c #5B5012",
"I 	c #150202",
"J 	c #70191C",
"K 	c #882123",
"L 	c #972528",
"M 	c #8D6D00",
"N 	c #B99000",
"O 	c #D9A900",
"P 	c #FDC500",
"Q 	c #C09500",
"R 	c #1B1300",
"S 	c #912426",
"T 	c #C13336",
"U 	c #6A171A",
"V 	c #2A2405",
"W 	c #322B06",
"X 	c #511011",
"Y 	c #9B272A",
"Z 	c #AC2C2F",
"` 	c #745900",
" .	c #ECB800",
"..	c #F1BC00",
"+.	c #866700",
"@.	c #531911",
"#.	c #460C0E",
"$.	c #9A2629",
"%.	c #140102",
"&.	c #6F5401",
"*.	c #AF8800",
"=.	c #DBAA00",
"-.	c #E8B500",
";.	c #EBB700",
">.	c #B38B00",
",.	c #7C1D20",
"'.	c #BB3134",
").	c #731A1C",
"!.	c #0B0101",
"~.	c #650067",
"{.	c #9C009F",
"].	c #750078",
"^.	c #59005B",
"/.	c #741B1D",
"(.	c #A5292D",
"_.	c #8E2225",
":.	c #7F1E21",
"<.	c #821F21",
"[.	c #631517",
"}.	c #532B0C",
"|.	c #453400",
"1.	c #4A3800",
"2.	c #927100",
"3.	c #030100",
"4.	c #5E1315",
"5.	c #69006B",
"6.	c #B600B9",
"7.	c #FA00FF",
"8.	c #F100F6",
"9.	c #E900EE",
"0.	c #D600DB",
"a.	c #660069",
"b.	c #100010",
"c.	c #500F11",
"d.	c #8A2124",
"e.	c #B22E31",
"f.	c #C03236",
"g.	c #C93539",
"h.	c #9E282B",
"i.	c #771C1E",
"j.	c #4F0F11",
"k.	c #551113",
"l.	c #510053",
"m.	c #C900CD",
"n.	c #E400E9",
"o.	c #A800AC",
"p.	c #19001A",
"q.	c #902326",
"r.	c #A82A2E",
"s.	c #7A1C1F",
"t.	c #932427",
"u.	c #7B1C1F",
"v.	c #9E00A1",
"w.	c #DD00E2",
"x.	c #F900FE",
"y.	c #C100C5",
"z.	c #3A080A",
"A.	c #3C090B",
"B.	c #2E0506",
"C.	c #420B0C",
"D.	c #4D004E",
"E.	c #8B008E",
"F.	c #B100B5",
"G.	c #E600EB",
"H.	c #B200B6",
"I.	c #400041",
"J.	c #594F12",
"K.	c #5B5013",
"L.	c #2C2605",
"M.	c #463D0C",
"N.	c #270028",
"O.	c #6C006E",
"P.	c #9C00A0",
"Q.	c #BE00C2",
"R.	c #DA00DE",
"S.	c #BD00C1",
"T.	c #3B003C",
"U.	c #090701",
"V.	c #655A16",
"W.	c #83751F",
"X.	c #312B06",
"Y.	c #AB982C",
"Z.	c #292405",
"`.	c #130F01",
" +	c #840087",
".+	c #9D00A1",
"++	c #A300A6",
"@+	c #B300B6",
"#+	c #DE00E3",
"$+	c #CA00CE",
"%+	c #E400E8",
"&+	c #F500FA",
"*+	c #C000C5",
"=+	c #84741F",
"-+	c #968525",
";+	c #4B420E",
">+	c #8F7F23",
",+	c #7E701E",
"'+	c #3E360A",
")+	c #230024",
"!+	c #940097",
"~+	c #EA00EF",
"{+	c #A600A9",
"]+	c #360037",
"^+	c #AE9B2D",
"/+	c #76691B",
"(+	c #393208",
"_+	c #332C07",
":+	c #210022",
"<+	c #D000D5",
"[+	c #F800FD",
"}+	c #AF00B3",
"|+	c #2E2706",
"1+	c #867620",
"2+	c #C6B034",
"3+	c #938324",
"4+	c #2B2505",
"5+	c #AA00AE",
"6+	c #F600FB",
"7+	c #89008D",
"8+	c #1E001E",
"9+	c #7A6C1C",
"0+	c #B29F2E",
"a+	c #AB982B",
"b+	c #675B16",
"c+	c #330034",
"d+	c #A100A5",
"e+	c #F000F5",
"f+	c #950099",
"g+	c #75681B",
"h+	c #BEAA32",
"i+	c #887921",
"j+	c #39003A",
"k+	c #D300D8",
"l+	c #E900ED",
"m+	c #9F00A2",
"n+	c #D500D9",
"o+	c #E000E5",
"p+	c #88008B",
"q+	c #BBA631",
"r+	c #A19029",
"s+	c #544A10",
"t+	c #720074",
"u+	c #D400D9",
"v+	c #240025",
"w+	c #69006C",
"x+	c #660068",
"y+	c #8E7E23",
"z+	c #B7A32F",
"A+	c #7C6E1D",
"B+	c #640067",
"C+	c #D200D7",
"D+	c #0E0001",
"E+	c #C9B335",
"F+	c #988725",
"G+	c #3A3309",
"H+	c #383108",
"I+	c #41390B",
"J+	c #720075",
"K+	c #B900BD",
"L+	c #42020B",
"M+	c #670617",
"N+	c #75071B",
"O+	c #5D0413",
"P+	c #A29029",
"Q+	c #6E6118",
"R+	c #5D5213",
"S+	c #83741F",
"T+	c #594E12",
"U+	c #110012",
"V+	c #B800BC",
"W+	c #EE00F3",
"X+	c #180002",
"Y+	c #7C081D",
"Z+	c #BE1232",
"`+	c #C21333",
" @	c #8E0A22",
".@	c #CF00D3",
"+@	c #760079",
"@@	c #695C17",
"#@	c #C0AB32",
"$@	c #5D5313",
"%@	c #8D7E22",
"&@	c #A39029",
"*@	c #665916",
"=@	c #2D2705",
"-@	c #520054",
";@	c #A900AD",
">@	c #E300E8",
",@	c #C91435",
"'@	c #A60E2A",
")@	c #5E0413",
"!@	c #E800ED",
"~@	c #B4A02E",
"{@	c #73661A",
"]@	c #6D6018",
"^@	c #310032",
"/@	c #850088",
"(@	c #F200F7",
"_@	c #6F0619",
":@	c #AF102D",
"<@	c #B3102E",
"[@	c #350107",
"}@	c #500052",
"|@	c #C300C8",
"1@	c #5C005E",
"2@	c #84751F",
"3@	c #A08E28",
"4@	c #7D6F1D",
"5@	c #191502",
"6@	c #170018",
"7@	c #6C0618",
"8@	c #530310",
"9@	c #540056",
"0@	c #D700DB",
"a@	c #920096",
"b@	c #141001",
"c@	c #8D7C22",
"d@	c #211C03",
"e@	c #4D004F",
"f@	c #A20E29",
"g@	c #BB1230",
"h@	c #5E0060",
"i@	c #C600CA",
"j@	c #B700BB",
"k@	c #300032",
"l@	c #1D001E",
"m@	c #50030F",
"n@	c #82081F",
"o@	c #5A0412",
"p@	c #C600CB",
"q@	c #D400D8",
"r@	c #7F0082",
"s@	c #6C006F",
"t@	c #CA00CF",
"u@	c #860089",
"v@	c #29002A",
"w@	c #38003A",
"x@	c #BC00C0",
"y@	c #EC00F1",
"z@	c #AA972B",
"A@	c #AB00AF",
"B@	c #ED00F2",
"C@	c #89008C",
"D@	c #4A004C",
"E@	c #DA00DF",
"F@	c #C800CD",
"G@	c #68006A",
"H@	c #534910",
"I@	c #830086",
"J@	c #D500DA",
"K@	c #670069",
"L@	c #440045",
"M@	c #E100E6",
"N@	c #E200E7",
"O@	c #9A009D",
"P@	c #B3A02E",
"Q@	c #978625",
"R@	c #3A003C",
"S@	c #F700FB",
"T@	c #49004A",
"U@	c #E500EA",
"V@	c #460048",
"W@	c #8F8023",
"X@	c #C1AC32",
"Y@	c #E000E4",
"Z@	c #C000C4",
"`@	c #D800DC",
" #	c #AC992C",
".#	c #80721E",
"+#	c #610063",
"@#	c #C500CA",
"##	c #716419",
"$#	c #9F8D27",
"%#	c #A500A9",
"&#	c #EA00EE",
"*#	c #CD00D1",
"=#	c #4F450F",
"-#	c #7A007D",
";#	c #D100D5",
">#	c #D300D7",
",#	c #450046",
"'#	c #1C001D",
")#	c #B400B8",
"!#	c #F300F8",
"~#	c #C400C9",
"{#	c #3A003B",
"]#	c #8E0091",
"^#	c #DC00E0",
"/#	c #370038",
"(#	c #530055",
"_#	c #CC00D0",
":#	c #9F00A3",
"<#	c #E600EA",
"[#	c #600062",
"}#	c #BC00C1",
"|#	c #6F0072",
"1#	c #DE00E2",
"2#	c #740077",
"3#	c #960099",
"4#	c #CE00D2",
"5#	c #86008A",
"6#	c #DB00DF",
"7#	c #380039",
"8#	c #5D0060",
"9#	c #8C0090",
"0#	c #020002",
"                                      . . . . + @ # .                                               ",
"                                .     . $ % & @ * = .     .                                         ",
"                            . - ; . > , ' ) ! ~ { ] . . . . . . . .                                 ",
"                            ^ / ( _ : ] < [ } | 1 2 . . . . . 3 . .                                 ",
"                  . . . . 4 5 6 7 8 . 9 0 . . . a b . . . . c d . . .                               ",
"              . . . . / e f g h . . . i j k . l ( @ . . . . m n o . .                               ",
"          . . . p q r s t u v . w x y z A B [ C D E .   . . F G H . .                               ",
"            I # J K { L 4 M N O z z z P Q R S T U . . . . . V W . . .                               ",
"            . X Y T Z . . `  .z z z z ..+.@.Z ) , . . . . . . . . . .                               ",
"              . #.$.~ < %.. &.*.=.-.;.>.q ,.'.).!.. . ~.{.].^.. . . . .                             ",
"              . . /.(._.:.<.[.}.|.1.2.3.4.: : 4 . 5.6.7.8.9.0.a.b.. . .                             ",
"          . . . . . c.d.e.f.g.h.i.j.5 _.K k.. . l.m.n.7.7.7.7.o.p.. . . .                           ",
"          . . . . . . < . q.r.C $.f s.t.u.. . v.w.7.7.7.7.7.x.y.. . . . .                           ",
"      . . . . . .   . . . z.A.B.t . . C.D.E.F.G.7.7.7.7.7.7.7.H.I.. J.K.. .                         ",
"      . . L.M.. . . . . . . . N.. . O.P.Q.R.8.7.7.7.7.7.7.7.7.S.T.U.V.W.. .                         ",
"      . . X.Y.Z.`.. . . .  +.+++@+#+$+%+7.7.7.7.7.7.7.7.7.7.&+*+. . =+-+;+.                         ",
"      . . . >+,+'+. )+!+~+&+n.7.7.7.7.7.7.7.7.7.7.7.7.7.7.7.7.{+]+. >+^+/+. .                       ",
"      . . . (+_+. . :+<+[+7.7.7.7.7.7.7.7.7.7.7.7.7.7.7.7.7.8.}+. |+1+2+3+4+.                       ",
"        . . . . . . 5+8.7.7.7.7.7.7.7.7.7.7.7.7.7.7.7.7.7.7.6+7+8+. 9+0+a+b+. .                     ",
"          . . . . c+d+7.7.7.7.7.7.7.7.7.7.7.7.7.7.7.7.[+7.7.e+f+. . . g+h+i+. .                     ",
"            . . . . j+k+e+7.7.7.7.7.7.7.7.7.7.7.l+H.m+n+7.x.o+p+. . . . q+r+s+.                     ",
"            . . . . . t+y.7.7.7.7.7.7.7.7.7.u+!+. . v+w+7.7.k+x+. . . . y+z+A+. .                   ",
"              . . . . . B+C+8.7.7.7.7.[+n+w+. . . D+. . u+7.R.E.. . . . '+E+F+G+.                   ",
"              . . H+I+. . J+K+e+7.7.7.7.m+v+. L+M+N+O+. !+7.8.F.. . . . . P+^+Q+. .                 ",
"              . . R+S+T+. U+. V+W+x.7.7.H.. X+Y+Z+`+ @. . l+7..@+@. . . . @@#@$@. .                 ",
"                . . %@&@*@=@. -@;@>@8.7.l+. .  @`+,@'@)@. H.7.!@++. . . . . ~@{@. . .               ",
"                . . Q+a+^+]@. . ^@/@m.(@7.!+. _@:@,@<@[@. }@7.7.|@1@. . . . 2@3@. . .               ",
"                  . G+F+E+4@5@. . 6@E.R.7.u+. [@7@,@,@8@. 9@0@7.#+a@. . . . b@c@d@. .               ",
"                  . . A+z+y+. . . . e@Q.7.7.w+. . f@g@Y+. h@i@7.&+j@k@. . . . . . . .               ",
"                    . s+r+q+. . . . . P.n.7.S.l@. m@n@o@. . p@&+7.q@r@. . . . . . .                 ",
"                    . . i+h+g+. . . . s@t@7.(@u@v@. . . . w@x@7.7.y@;@. . . . .                     ",
"                    . . b+a+z@. . . . . A@B@7.C+C@. . . . D@E@7.7.7.F@G@.                           ",
"                      . 4+3+2+H@. . . . I@J@7.(@k+K@. . . L@M@7.7.7.N@O@. .                         ",
"                      . . /+P@Q@. . . . R@K+S@7.7.w.{.T@. C@U@7.7.7.x.x@V@.                         ",
"                        . ;+W@X@. . . . . f+Y@7.7.7.9.Z@$+7.7.7.7.7.7.`@p+. .                       ",
"                        . . .  #.#. . . . +#@#7.7.7.7.7.7.7.7.7.7.7.7.e+}+. .                       ",
"                        . . . ##$#. . . . . %#&#7.7.7.7.7.7.7.7.7.7.7.7.*#J+. .                     ",
"                          . . . =#. . . . . -#;#7.7.7.7.7.7.7.7.7.7.7.x.>#,#. .                     ",
"                          . . . . . . .   . '#)#!#7.7.7.7.7.7.7.7.7.7.x.~#{#. .                     ",
"                            . . . . .     . . ]#^#7.7.7.7.7.7.7.7.7.7.7.x@/#. .                     ",
"                                            . (#*+7.7.7.7.7.7.7.7.7.7.7._#. . .                     ",
"                                            . . :#<#6+7.7.7.7.7.7.7.7.G.[#. . .                     ",
"                                              . (#C@J@7.7.7.7.7.7.7.&+}#. . . .                     ",
"                                              . . . |#1#7.6+7.7.7.7.8.p+. .                         ",
"                                              . . . . 2#3#4#~+7.7.7.~+[#. .                         ",
"                                                . . . . . . 5#>#<#6#C@. . .                         ",
"                                                  . . . . . . 7#8#9#0#. . .                         ",
"                                                      .   . . . . . . .                             ",
"                                                          . . . . .                                 ",
"                                                                                                    "};
