/* XPM */
static char *b4c94d9f4dae4c838c8daac59c2ba83d[] = {
/* columns rows colors chars-per-pixel */
"200 200 205 2 ",
"   c None",
".  c #000000",
"X  c #0B0402",
"o  c #0C0B0B",
"O  c #090705",
"+  c #120601",
"@  c #140A02",
"#  c #1B0C03",
"$  c #130B0B",
"%  c #180F0F",
"&  c #1C1304",
"*  c #1A1504",
"=  c #1C1212",
"-  c #161717",
";  c #010212",
":  c #220E03",
">  c #241305",
",  c #2B1404",
"<  c #2C1B0A",
"1  c #251A04",
"2  c #361A07",
"3  c #3B1E08",
"4  c #371D08",
"5  c #211615",
"6  c #241919",
"7  c #2A1D1D",
"8  c #251917",
"9  c #2B2403",
"0  c #3B230D",
"q  c #352708",
"w  c #3C3102",
"e  c #3C2611",
"r  c #3C2711",
"t  c #2F201F",
"y  c #081527",
"u  c #2A2626",
"i  c #342424",
"p  c #3C2A2A",
"a  c #382727",
"s  c #343535",
"d  c #3B3C3C",
"f  c #292C32",
"g  c #45240B",
"h  c #4A270D",
"j  c #4E290D",
"k  c #522C0E",
"l  c #463B06",
"z  c #442D14",
"x  c #482F15",
"c  c #562E10",
"v  c #4C3317",
"b  c #5D3212",
"n  c #533619",
"m  c #55391B",
"M  c #593C1D",
"N  c #633614",
"B  c #6B3B16",
"V  c #683A16",
"C  c #713F18",
"Z  c #703D17",
"A  c #412E2E",
"S  c #463232",
"D  c #4A3535",
"F  c #4E3939",
"G  c #533C3C",
"H  c #583F3F",
"J  c #421D0B",
"K  c #574A09",
"L  c #55470C",
"P  c #6B5B0E",
"I  c #64550C",
"U  c #754119",
"Y  c #7B451B",
"T  c #60401F",
"R  c #71610E",
"E  c #736007",
"W  c #756410",
"Q  c #7B6A12",
"!  c #644321",
"~  c #6D4A25",
"^  c #694723",
"/  c #724D27",
"(  c #754F29",
")  c #7C542B",
"_  c #79522A",
"`  c #4B4B4C",
"'  c #444547",
"]  c #5C4343",
"[  c #535353",
"{  c #5B5B5C",
"}  c #4C4E51",
"|  c #614646",
" . c #654A4A",
".. c #6C4F4F",
"X. c #686868",
"o. c #787878",
"O. c #353942",
"+. c #844A1E",
"@. c #894D1F",
"#. c #80471C",
"$. c #806E13",
"%. c #8A7715",
"&. c #917D16",
"*. c #8C4E20",
"=. c #8E5021",
"-. c #83592E",
";. c #80572D",
":. c #945322",
">. c #995724",
",. c #9E5A26",
"<. c #8A5E31",
"1. c #875C30",
"2. c #A25C27",
"3. c #A65E28",
"4. c #A85F29",
"5. c #8D6132",
"6. c #946535",
"7. c #9D6C39",
"8. c #986937",
"9. c #AC622A",
"0. c #A76028",
"q. c #B3662C",
"w. c #B6682C",
"e. c #BC6B2E",
"r. c #A16F3A",
"t. c #A5713C",
"y. c #AA753E",
"u. c #AE783F",
"i. c #BF6D30",
"p. c #C06E2F",
"a. c #C16F30",
"s. c #C57131",
"d. c #CA7433",
"f. c #D17935",
"g. c #D07734",
"h. c #B37B42",
"j. c #B97F44",
"k. c #AC7840",
"l. c #9B8519",
"z. c #988318",
"x. c #97800A",
"c. c #A38C1A",
"v. c #A28B17",
"b. c #AA931C",
"n. c #A5901B",
"m. c #B49B1E",
"M. c #B2981E",
"N. c #B59B22",
"B. c #BDA321",
"V. c #BAA01F",
"C. c #C5AA23",
"Z. c #CAAE23",
"A. c #C0A521",
"S. c #CDB124",
"D. c #D3B625",
"F. c #DABC27",
"G. c #D9BC27",
"H. c #DDC028",
"J. c #E3C429",
"K. c #ECCC2B",
"L. c #E7C82A",
"P. c #F0CF2C",
"I. c #F6D42E",
"U. c #F8D62E",
"Y. c #FBD92F",
"T. c #F7D82E",
"R. c #FFDD30",
"E. c #E7D02D",
"W. c #FFE231",
"Q. c #FFED34",
"!. c #BD8246",
"~. c #B88246",
"^. c #C38648",
"/. c #CB8C4C",
"(. c #C38748",
"). c #D2914E",
"_. c #D99651",
"`. c #DD9A53",
"'. c #D59451",
"]. c #CF904E",
"[. c #E49E56",
"{. c #ECA459",
"}. c #E6A157",
"|. c #F1A75B",
" X c #F6AB5D",
".X c #F8AC5E",
"XX c #FCAF60",
"oX c #FFB362",
"OX c #FFB966",
"+X c #8B8B8B",
"@X c #858585",
"#X c #939393",
"$X c #9B9B9B",
"%X c #A4A4A4",
"&X c #ACACAC",
"*X c #B4B4B4",
"=X c #BCBCBC",
"-X c #C4C4C4",
";X c #CBCBCB",
":X c #D4D4D4",
">X c #DBDBDB",
",X c #E3E3E3",
"<X c gray92",
"1X c #F4F4F4",
"2X c #FFFFFF",
/* pixels */
"                                                                                                                                                                                                                                                                                                                                                                                                                ",
"                                                                                                                                                                                                                                                                                                                                                                                                                ",
"                                                                                                                                                                                                                                                                                                                                                                                                                ",
"                                                                                                                                                                                                                                                                                                                                                                                                                ",
"              . . . .                                                                                                                                                                                                                                                                                                                                                                     . . . .               ",
"              . . . .                                                                                                                                                                                                                                                                                                                                                                     . . . .               ",
"              . . . . . . . .                                                                                                                                                                                                                                                                                                                                                     . . . . . . . .               ",
"              . . . . . . . . . . . . . . . . . . . . . . . . . . .                                                                                                                                                                                                                                                                         . . . . . . . . . . . . . . . . . . . . . . . . . . .               ",
"              . . . . . . . . . . . . . . . . . . . . . . . . . . . . . . . . . . . . . . . . . . . . .                                                                                                                                                                                                 . . . . . . . . . . . . . . . . . . . . . . . . . . . . . . . . . . . . . . . . . . . . .               ",
"              . . . ..... . . . . . . . . . . . . . . . . . . . . . . . . . . . . . . . . . . . . . . . . . . . . . . . . . . . . .                                                                                                                                         . . . . . . . . . . . . . . . . . . . . . . . . . . . . . . . . . . . . . . . . . . . . . . . . . . . . . . ..... . .               ",
"              . . . ........................... . . ............. . . . . . . . . . . . . . . . . . . . . . . . . . . . . . . . . . . . . . . .                                                                                                                 . . . . . . . . . . . . . . . . . . . . . . . . . . . . . . . . . . . . . . . . ............. . . ........................... . .               ",
"              . . . ........................... . . ........................... . . ................. . . . . . . . . . . . . . . . . . . . . . . . . . . . . . . . . . . . . . . . . . . . . . . . . . . . . . . . . . . . . . . . . . . . . . . . . . . . . . . . . . . . . . . . . . . . . . . . . . . . ................. . . ........................... . . ........................... . .               ",
"              . . . ........................... . . ......................... . . . ................................. . . ....... . . . . . . . . . . . . . . . . . . . . . . . . . . . . . . . . . . . . . . . . . . . . . . . . . . . . . . . . . . . . . . . . . . . . . . . ....... . . ................................. . . . ......................... . . ........................... . .               ",
"              . . . ........................... . . ......................... . . . ................................. . . ................. . . . . . . . . . . . . . . . . . . . . . . . . . . . . . . . . . . . . . . . . . . . . . . . . . . . . . . . . . . . . . ................. . . ................................. . . . ......................... . . ........................... . .               ",
"              . . . ........................... . . ......................... . . ................................... . . ............................................. . . ......................................................... . . ............................................. . . ................................... . . ......................... . . ........................... . .               ",
"              . . . ........................... . . ......................... . . ................................... . . ............................................. . . ......................................................... . . ............................................. . . ................................... . . ......................... . . ........................... . .               ",
"              . . . ........................... . . ......................... . . ................................... . . ............................................. . . ........................| . . . i ....................... . . ............................................. . . ................................... . . ......................... . . ........................... . .               ",
"              . . . ........................... . . ......................... . . ................................... . . ............................................. . . ......................G . . . . . i ..................... . . ............................................. . . ................................... . . ......................... . . ........................... . .               ",
"              . . . ........................... . . ......................... . . ................................... . . ............................................. . . ....................H . . . . . . . A ................... . . ............................................. . . ................................... . . ......................... . . ........................... . .               ",
"              . . . ........................... . . ......................... . . ................................... . . ............................................O . . ..................i . X . . . . . . . % H ............... . . ............................................. . . ................................... . . ......................... . . ........................... . .               ",
"              . . . ........................... . . ......................... . . ................................... . . ............................................. . . ................. . . , 9.. . . r.) > . O ] ............. . . ............................................. . . ................................... . . ......................... . . ........................... . .               ",
"              . . . ......................... . . . ......................... . . ................................... . . ............................................. . . ..............] . X C f.d.B . . `.OX^.. O S ............. . . ............................................. . . ................................... . . ......................... . . . ......................... . .               ",
"              . . . ......................... . . . ......................... . . ................................... . . ............................................. . . ..............% X #.s.s.d.2.. . OX XXX_.. . | ........... . . ............................................. . . ................................... . . ......................... . . . ......................... . .               ",
"              . . . ......................... . . . ......................... . . ................................... . . ............................................. . . ............S . : 2.d.s.s.,.. . oX.X.XoXx . . ........... . . ............................................. . . ................................... . . ......................... . . . ......................... . .               ",
"              . . . ......................... . . ........................... . . ................G p A ............. . . ............................................. . . ............p . b f.a.s.s.2.. . oX.X.X.X{.. .  .......... . . ............................................. . . ..............] i D ............... . . ........................... . . ......................... . .               ",
"              . . . ......................... . . ........................... . . ............ .D o . 7 ............. . . ............................................. . . ..........F . . d.s.s.s.a.,.. . oX.X.X.X X7.. i ......... . . ............................................. . . ..............G . . D ] ........... . . ........................... . . ......................... . .               ",
"              . . . ......................... . . ........................... . . .......... .i . . $ ] ............. . . ............................................. . . ........ .$ . j d.s.s.s.d.2.. . OX.X.X.X Xy.. . G ....... . . ............................................. . . .............. .p . . . ] ......... . . ........................... . . ......................... . .               ",
"              . . . ......................... . . ........................... . . ..........6 . . . . ] ............. . . ............................................. . . ........| . , p.a.s.s.s.p.2.. . oX.X.X.X.XXX) . 7 ....... . . ............................................. . . .............. .6 . . . . | ....... . . ........................... . . ......................... . .               ",
"              . . . ......................... . . ........................... . . ...... .i . . M M . ] ............. . . ............................................. . . ......] . . q.d.s.s.s.s.s.,.. . OX.X.X.X.X.XOXz . A ..... . . ............................................. . . ................= M M . . . | ..... . . ........................... . . ......................... . .               ",
"              . . . ......................... . . ........................... . . ......p . . + (.t.. ] ............. . . ............................................. . . ......$ @ +.p.s.s.s.s.s.s.,.. . oX.X.X.X.X.X.X].< $ | ... . . ............................................. . . .............. .= <. X. . . . ..... . . ........................... . . ......................... . .               ",
"              . . . ......................... . . ........................... . . ....] $ . X . '.t.. ] ............. . . ............................................. . . ....] $ : q.d.s.s.s.s.s.s.2.. . OX.X.X.X.X.X.XoXz . ] ... . . ............................................. . . .............. .= ) oX0 . . . S ... . . ........................... . . ......................... . .               ",
"              . . . . . . . . . . ........... . . ........................... . . ..F . . . . /.OX7.. ] ............. . . ............................................. . . ....S . b a.a.s.s.s.s.s.s.,.. . oX.X.X.X.X.X.X.X/.. 6 ... . . ............................................. . . .............. .= -. X{./ . . . p . . . ........................... . . ........... . . . . . . . . .               ",
"              . . . . . . . . . . . . . . . . . . ........................... . . ] . + 2 . < XXXXr.. ] ............. . . ............................................. . . ....i . U d.s.s.s.s.s.s.s.,.. . oX.X X.X.X.X.X.X{.. .  .. . . ............................................. . . .............. .= -. X X7.. < > . . . . ........................... . . . . . . . . . . . . . . . . .               ",
"              . . . . . . . . . . . . . . . . . . . . . . ................... . . p X 3 *.. !.XXoX7.. ] ............. . . ............................................. . . ..] X . q.s.s.s.s.s.s.s.s.2.. . oX.X.X.X.X.X.X.X X1.. . . . . ............................................. . . ................= )  X.X_.. N ,.. . . . ................... . . . . . . . . . . . . . . . . . . . . .               ",
"              . . . ........... . . . . . . . . . . . . . . . ............... . . O . w.B % [.XXoX7.. ] ............. . . ............................................. . . ..] . >.d.s.s.s.s.s.s.s.s.,.. . OX.X.X.X.X.X.X.X.X[.n % . . . ............................................. . . ................= -. X.X X) . a.U . . . ............... . . . . . . . . . . . . . . . ........... . .               ",
"              . . . ....................... . . . . . . . . . . . . . . . . . . . . w.q.. . XXXXoX7.. ] ............. . . ............................................. . .  .. . w.s.s.s.s.s.s.s.s.s.2.. . oX.X.X.X.X.X.X X.X[.! . . . . ............................................. . . .............. .= )  X.XoX6.. b p.h . . . . . . . . . . . . . . . . . . . ....................... . .               ",
"              . . . ....................... . . ....... . . . . . . . . . . . . . N p.9.. /..X.XoX7.. ] ............. . . ............................................. . . . . . w.s.s.s.s.s.s.s.s.s.,.. . OX.X.X.X.X X.X.X.X}.^ . . . . ............................................. . . ................= )  X.X.X{.0 j f.U . . . . . . . . . . . . . ....... . . ....................... . .               ",
"              . . . ....................... . . ........... . . . . . . . . . . . :.s.q.. _..X.XoX6.. D ............. . . ............................................. . . . X ,.s.s.s.s.s.s.s.s.s.s.,.. . oX.X.X.X.X.X.X X.XoX`.m . . . ............................................. . . ..............] O ) .X.X.X.Xe j f.9.# . . . . . . . . . . ........... . . ....................... . .               ",
"              . . . ....................... . . ......................... . . . . 9.d.9.. _..X.XXX_.< 8 ............. . . ............................................. . . > 2.s.s.s.s.s.s.s.s.s.s.s.2.. . OX.X.X.X.X.X.X.X.X.XoX[._ . . ............................................. . . ..............D . h..X.X.X.X0 h g.f.. X . . ......................... . . ....................... . .               ",
"              . . . ....................... . . ............................. . Y d.s.9.. _..X.X.XOXr 6 ............. . . ............................................. . . > d.s.s.s.s.s.a.s.s.s.s.s.,.. . oX.X.X.X X.X.X.X.X X X.Xy.. . ............................................. . . ..............G . `..X.X.X.Xr h d.s.e.. O | ......................... . . ....................... . .               ",
"              . . . ....................... . . ............................. : 2.d.s.q.. _..X X.XoX0 . ] ........... . . ............................................. . . 3.d.s.s.s.s.s.s.s.s.s.s.s.2.. . OX.X.X.X.X.X.X.X.X.X.X X|.0 .  ............................................ . . ............. . . _..X.X.X.Xe h g.s.a.j X | ......................... . . ....................... . .               ",
"              . . . ....................... . . ............................. 3 s.s.s.9.. _..X.X.XoXt.. . . . . . . . . . ............................................. . . >.s.s.s.s.s.s.s.s.s.s.s.s.,.. . oX.X.X.X.X.X.X.X.X.X.XXX{.# . G ........................................... . . . . . . . . . . ^ }..X.X.X.Xe j g.s.d.+.O | ......................... . . ....................... . .               ",
"              . . . ....................... . . ..........................G . , s.s.s.q.. _..X.X.X.X}.. . . . . . . . . . . . . ....................................... . . s.s.s.s.s.s.s.s.s.s.s.s.s.2.. . OX.X.X.X.X.X.X X.X.X.X X.Xk.. . ..................................... . . . . . . . . . . . . . r.oX.X.X.X.Xq j g.s.s.U . D ......................... . . ....................... . .               ",
"              . . . ....................... . . ..........................D . @.s.s.d.9.. _..X.X.X.X[.. . . . . . . . . . . . . . . . . . . . . . . ................... . 9.d.s.s.s.s.s.s.s.s.s.s.s.s.,.. . oX.X.X.X.X.X.X.X.X.X.X.X.X|.^ . D ............... . . . . . . . . . . . . . . . . . . . . . . . r.XX.X.X.X.X0 j g.s.s.q.. S ......................... . . ....................... . .               ",
"              . . . ....................... . . ........................ .7 . >.d.s.s.q.. _..X.X.X.XoX8.o ] ......... . . . . . . . . . . . . . . . . . . . . . . . . . . a.s.s.s.s.s.s.s.s.s.s.s.s.d.,.. . oX.X.X.X.X.X.X.X X.X.X.X.XXX) . . . . . . . . . . . . . . . . . . . . . . . . . ............$ n .X.X.X.X.X.X0 j g.a.s.a.> .  ........................ . . ....................... . .               ",
"              . . . ....................... . . ........................| = # s.s.s.s.9.. _..X.X.X.X.X-.. S ......... . . . . . . . . . . . . . . . . . . . . . . . . > =.s.s.s.s.s.s.s.s.s.s.s.s.s.a.,.. . oX.X.X.X.X X.X.X.X.X.X.X XXX].z . . . . . . . . . . . . . . . . . . . . . . . . ..........D X e {..X.X.X.X.X0 j g.s.s.a.@.. G ....................... . . ....................... . .               ",
"              . . . ....................... . . ........................H . , d.s.s.s.q.. _..X.X.X.X.X[.. S ......... . . ....................... . . . . . . . . . . g w.s.s.s.s.s.s.s.s.s.s.s.s.s.s.,.. . oX.X.X.X.X.X.X.X.X.X.X.X X XOX! . . . . . . . . . . ....................... . . ..........F . t.oX.X.X.X.X.Xe j d.s.s.s.>.. . ....................... . . ....................... . .               ",
"              . . . ....................... . . ........................G . d.s.s.s.s.9.. + .X.X X.X.X X. . F ....... . . ........................................8 # 9.d.s.s.s.s.s.s.s.s.s.s.s.s.s.s.2.. . OX.X.X.X.X.X X.X.X.X X.X.X.X.XoX_..  ...................................... . . ........| = . y.oX X.X.XoX8.X h g.s.s.s.s.V . ....................... . . ....................... . .               ",
"              . . . ....................... . . ........................F . p.s.s.s.s.e.N 0 XX X.X.X.X.X/.# . D ..... . . ......................................S . , f.s.s.s.s.s.s.s.s.s.s.s.s.s.s.s.,.. . OX.X.X.X.X.X.X.X.X.X.X.X.X.X.X.X).. = ..................................... . . ......... . ^ oX.X.X.X.XoX6.. e.s.s.s.s.a.N .  ...................... . . ....................... . .               ",
"              . . . ....................... . . ......................... , a.s.s.s.s.s.V * {. X.X.X.X.XXXy.+ p ..... . . ......................................D . N d.s.s.s.s.s.s.s.s.s.s.s.s.s.s.s.,.. . oX.X.X.X.X.X.X X.X.X.X.X.X.X.X.X_.. $ ..................................... . . ......| . ;.oX.X.X.X.X.X.X-.. e.s.s.s.s.a.C . a ..................... . . ....................... . .               ",
"              . . . ....................... . . ...................... .. =.s.s.s.s.s.s.b . !.XX.X.X.X XoX^.& 6  .... . . ......................................7 . w.d.s.s.s.s.s.s.s.s.s.a.s.s.s.s.s.2.. . oX.X.X.X.X X.X.X.X.X.X.X X.X.X.X{._ . ] ................................... . . ......i . j. X X.X.X.X.X_.e . e.s.s.s.s.d.,.+ p ..................... . . ....................... . .               ",
"              . . . ....................... . . ......................... :.s.s.s.s.s.s.9.. k.XX.X.X.X.XXX/.> = | ... . . ....................................| . . e.s.s.s.s.s.s.s.s.s.s.s.s.s.s.s.s.,.. . oX.X X.X.X.X.X.X.X.X.X.X.X.X X.X|.) . G ................................... . . ......i . j. X.X.X.X.X.X].. *.d.s.s.s.s.s.2.+ p ..................... . . ....................... . .               ",
"              . . . ....................... . . ......................S . :.s.s.s.s.s.s.4.. .  X.X X.X.XXXOX) . A ... . . ....................................] . V a.s.s.s.s.s.s.s.s.s.s.s.s.s.s.s.s.2.. . oX.X.X.X.X.X.X.X X.X.X X.X.X.X.X.Xh.. D ................................... . . ....] $ M [..X.X.X.X.X X<.. +.d.s.s.s.s.d.,.X 7  .................... . . ....................... . .               ",
"              . . . ....................... . . ......................= 2 3.s.s.s.s.s.s.e.c .  X.X.X.X.X X XoX. . S . . . ....................................A . +.s.s.s.s.s.s.s.s.s.s.s.s.s.s.s.s.s.,.. . OX.X.X.X.X.X.X.X.X.X.X.X.X.X X.XXX(.. . ................................... . . ..] . . -.|..X.X.X.X.X X6.. 9.s.s.s.s.s.d.w.4 = | ................... . . ....................... . .               ",
"              . . . . . . . . . ........... . . ......................6 j w.s.s.s.s.s.s.d.Y .  X.X.X.X.X X.XXXj.. . . . . ....................................7 . 2.s.s.s.s.s.s.s.s.s.s.s.s.s.s.s.s.s.2.. . oX.X.X.X.X.X.X.X.X X.X.X.X.X.X.XXX[.n . G ................................. . .  .6 X < XX.X.X.X.X.X.X|.6.. d.s.s.s.s.s.s.f.h = | ................... . . ........... . . . . . . . .               ",
"              . . . . . . . . . . . ....... . . ......................6 h q.s.s.s.s.s.s.d.Y . oX.X.X.X.X.X.X.X{.M . . . . .................................. .. X e.s.s.s.s.s.s.s.s.s.s.s.s.s.s.s.s.s.,.. . OX X.X.X.X X.X.X.X.X.X.X.X X.X.X XoX) . i ................................. . . F . . _.XX.X.X.X.X.X.X X6.. s.s.s.s.s.s.s.g.h = | ................... . . ....... . . . . . . . . . .               ",
"              . . . . . . . . . . . . . ... . . ......................6 h w.s.s.s.s.s.s.d.+.+ r oX.X.X.X.X.X.X.X}.z . . . ..................................G . V s.s.s.s.s.s.s.s.s.s.s.s.s.s.s.s.s.s.2.. . oX.X X.X.X.X.X.X.X.X.X.X.X X X.X XoXh.. 7  ................................ . . . . ^.oX.X.X.X.X X.X.X[.. 3 s.s.s.s.s.s.s.g.g = | ................... . . ... . . . . . . . . . . . .               ",
"              . . . ......... . . . . . . . . . ......................6 h w.s.s.s.s.s.s.s.w., T OX.X.X.X.X.X.X.XoX!.. . . ................................... g w.s.s.s.s.s.s.s.s.s.s.s.s.s.s.s.s.s.s.,.. . oX.X.X.X.X.X.X.X.X.X.X.X.X.X.X.X.X.XoX-.. G ............................... . . . -.XX X X.X.X.X.X.X.X[.. ,.s.s.s.s.s.s.s.g.h 6 | ................... . . . . . . . . . ......... . .               ",
"              . . . ............. . . . . . . . . ....................8 h w.s.s.s.s.s.s.s.a.2 M XX.X.X.X.X X.X.X.XoXt.. X ] ..............................A . N s.s.s.s.s.s.s.s.s.s.s.s.s.s.s.s.s.s.s.,.. . OX.X.X.X.X.X.X.X.X.X.X.X.X.X.X.X.X.XXXu.. p ............................... . . / |..X.X.X.X.X.X.X.X.X_.. 9.s.s.s.s.s.s.s.g.g = | ................. . . . . . . . . ............. . .               ",
"              . . . . ............... . . . . . . . . ................8 h w.s.s.s.s.s.s.s.e.2 + j.XX X.X.X.X.X.X.X.XoXh.. . ] ............................a X *.s.s.s.s.s.s.s.s.s.s.s.s.s.s.s.s.s.s.s.2.. . oX.X.X.X.X.X X.X.X.X.X.X.X.X.X.X.X.X.X[.. a  ........................... .. X v  X.X.X.X.X.X.X.X.X XoX. . 9.s.s.s.s.s.s.s.d.h 5 | ............. . . . . . . . . ............... . . .               ",
"              . . . . ..................... . . . . . . . ............6 h w.s.s.s.s.s.s.s.d.=.. h..X.X.X.X.X X.X.X.X X.Xr.. . ] ..........................a # 3.d.s.s.s.s.s.s.s.s.s.s.s.s.s.s.s.s.s.s.,.. . OX.X.X.X.X.X.X.X.X.X X.X.X.X.X.X X.X.XoX> i .......................... .6 . . oX.X.X.X.X.X.X.X.X.X.X}.. U s.s.s.s.s.s.s.s.g.g = | ......... . . . . . . . ..................... . . .               ",
"                . . . ..................... . . . . . . . . . . ......6 h w.s.s.s.s.s.s.a.d.3.. n [..X.X.X.X.X.X X.X.X X[.y.. + G ...................... .7 + 3.s.s.s.s.s.s.s.s.s.s.s.s.s.s.s.s.s.s.s.,.. . oX.X.X.X.X X.X.X X.X.X.X.X.X.X.X.X.X.XoX> $ | ......................| t . ;./..X.X.X.X.X.X.X.X.X.X.XM X +.s.s.s.s.s.s.s.s.g.h = | ... . . . . . . . . . . ..................... . .                 ",
"                . . . ..................... . . ... . . . . . . . . . . h w.s.s.s.s.s.s.s.s.d.. . _..X.X.X.X.X.X.X.X.X.XXX.X!.. X ] ....................] = X 2.s.s.s.s.s.s.s.s.s.s.s.s.s.s.s.s.s.s.s.2.. . OX.X.X.X.X.X.X.X.X.X.X.X.X.X.X.X.X.X.XoX. . ] ....................] 8 . (  X.X.X.X.X X.X.X.X.X.X.X[.0 : 2.d.s.s.s.s.s.s.s.g.h . . . . . . . . . . ... . . ..................... . .                 ",
"                . . . ..................... . . ....... . . . . . . . . h w.s.s.s.s.s.s.s.s.s.d.. . .X.X.X.X.X.X.X.X.X.X.X.XXXr.. . | ..................| = k f.s.s.s.s.s.s.s.s.s.s.s.s.s.s.s.s.s.s.s.,.. . oX.X.X.X X.X.X.X.X.X.X X.X.X.X.X X.X.X X{.. ] .................. .t . v |..X.X.X.X.X.X.X.X.X.X.XXX5.. b g.s.s.s.s.s.s.s.s.g.h . . . . . . . . ....... . . ..................... . .                 ",
"                . . . ..................... . . ............. . . . . . h w.s.s.s.s.s.s.s.s.s.a.Y . }..X.X.X.X.X.X.X.X.X.X.X.X.Xh.+ . p  ...............| = j d.s.s.s.s.s.s.s.s.s.s.s.s.s.s.s.s.s.s.s.,.. . oX.X.X.X.X.X X.X.X.X.X.X.X.X.X.X.X.X.X.X[.. | ................S 8 . (  X.X.X.X.X.X X.X.X.X.X.X.X X) . e.d.s.s.s.s.s.s.s.s.d.h . . . . . ............. . . ..................... . .                 ",
"                . . . ..................... . . ..................... . j w.s.s.s.s.s.s.s.s.s.s.:.. , {..X.X.X.X.X.X.X.X.X.X.X.X Xt.. . 7 G ............] = k f.s.s.s.s.s.s.s.s.s.s.s.s.s.s.s.s.s.s.s.2.. . oX.X.X.X.X.X.X.X.X.X.X.X.X.X.X.X.X.X.X X[.. H ............] A . . )  X.X.X.X.X.X.X.X.X.X.X.X.X.X5.. . d.s.s.s.s.s.s.s.s.s.f.h . | ................... . . ..................... . .                 ",
"                . . . ..................... . . ......................6 : 2.s.s.s.s.s.s.s.s.s.s.9.2 . 8.oX X.X.X.X.X.X.X.X.X.X.X XXX!.) . . S F ........D . j d.s.s.s.s.s.s.s.s.d.f.f.g.f.g.f.f.g.f.g.0.. . OXOXOXoXOXOXoXoXOXoXOX.X.X.X X.X.X.X.X.X[.. . ........S S = . . (.}..X.X.X.X.X.X.X.X.X.X.X X.X).. . 3.s.s.s.s.s.s.s.s.s.d.w., 5 | ................... . . ..................... . .                 ",
"                . . . ..................... . . ......................7 . :.s.s.s.s.s.s.s.s.s.s.d.Y X M .X.X.X.X.X.X.X.X.X.X.X.X XXXXXoX^.. # . . | ....S . b f.s.s.s.s.s.s.s.e.B . . . . . . . . . . . . . . . . . . . . . . . . .X|..X.X.X.X.X.X.X[.. . .... .6 . X . ~ oX.X.X.X.X.X.X.X X.X.X.X.X.X.X.X!.. B s.s.s.s.s.s.s.s.s.s.d.2.X 6  .................... . . ..................... . .                 ",
"                . . . ..................... . . ......................... :.s.s.s.s.s.s.s.s.s.s.d.f.> . 8..X.X.X.X.X.X.X.X.X X.XXX X.X XoX(.!.^ r . F  .S . f.s.s.s.d.d.e.:.h . . P W W W W W W W W W W W W W W W W W W W W W P . . & u.`..XoX.X.X.X.Xh.. ..H i . ( 6.h.oX.X.X.X.X.X.X.X.X.X.X.X.X X X.X{.;.. w.s.s.s.s.s.s.s.s.s.s.d.2.X A ..................... . . ..................... . .                 ",
"                . . . . ................... . . ......................... :.s.s.s.s.s.s.s.s.s.s.s.d.:.. n {..X.X X.X.X.X.X.X.X.X.X X.X.XXXXXXX[./ . . 7 i . d.s.d.d.*.Y k . . P Z.L.K.K.P.K.P.K.P.K.K.K.P.K.P.K.P.K.K.K.K.K.K.L.S.A.. . < r.h.|..X.X.Xt.. S . . . }. XoX X.X.X.X.X.X.X.X.X.X.X.X.X.X.XOX~ . b e.s.a.s.s.s.s.s.s.s.s.s.2.+ p ..................... . . ................... . . .                 ",
"                . . . . ................... . . ...................... .. :.s.s.s.s.s.s.s.s.s.s.s.s.w.. . 6. X.X.X.X.X.X.X.X.X.X.X X.X.X X.X.X.XoX6.n . . . f.d.w.*.. . . . $.T.Y.U.U.U.U.U.U.U.U.U.U.U.U.U.T.U.U.U.U.U.U.U.U.U.U.Y.B.l . . . 7.`.|.oXy.. . < -.}.XX.X.X X.X.X.X.X.X.X.X.X.X X.X.X.XXXh.# . *.d.s.s.s.s.s.s.s.s.s.s.s.2.+ p ..................... . . ................... . . .                 ",
"                  . . . ................... . . ......................... :.s.s.s.s.s.s.s.s.s.s.s.s.s.w.. . |..X.X.X.X X.X.X X.X.X.X.X.X.X.X.X.X XoX|.> . . B b . . X &.J.J.R.I.U.U.U.U.U.U.U.U.U.U.U.U.U.U.U.U.U.U.U.U.U.U.U.U.U.U.Y.P.F.J.. . . M -.M . # ^.oX.X.X.X.X.X X X.X.X.X.X.X.X.X.X.X.X.X{._ . Y d.s.s.s.s.s.s.s.s.s.s.s.d.,.+ p ..................... . . ................... . .                   ",
"                  . . . ................... . . ......................... :.s.s.s.s.s.s.s.s.s.s.s.s.s.a.c . . oX.X X.X.X.X X.X.X X.X.X.X.X.X.X.X X XXX}.z . . . l z.c.W.Y.Y.I.Y.U.U.U.U.U.U.U.U.U.U.U.U.U.U.U.U.U.U.U.U.U.U.U.U.U.U.I.Y.Y.Y.L.z.I O . . . y.oX.X.X.X.X X.X.X.X.X.X X.X.X.X.X.X X.XXX^.. . 0.d.s.s.s.s.s.s.s.s.s.s.s.s.2.+ p ..................... . . ................... . .                   ",
"                  . . . ................... . . ...................... .. ,.s.s.s.s.s.s.s.s.s.s.s.s.s.d.q.> . y.oX.X.X.X.X.X.X.X.X.X.X.X.X.X.X.X XOX{.;.! . m.V.H.R.Y.T.Y.I.U.U.U.U.U.U.U.U.U.U.U.U.U.U.U.U.U.U.U.U.U.U.U.U.U.U.U.U.U.U.I.I.Y.W.J.C.b.P . 6.!.OXXX.X.X.X.X.X.X.X.X.X.X.X.X.X.X XoX].M . +.d.s.s.s.s.s.s.s.s.s.s.s.s.d.3.@ p ..................... . . ................... . .                   ",
"                  . . . ................... . . ......................... . p.s.s.s.s.s.s.s.s.s.s.s.s.s.s.:.. . j..X.X.X.X.X.X.X.X.X.X.X.X.X.X.XoX<.x . . Z.U.I.Y.I.U.U.I.Y.I.U.U.U.U.U.U.U.U.U.U.U.U.U.U.U.U.U.U.U.U.U.U.U.U.U.U.U.U.U.U.U.U.U.T.T.T.D.w . 1 ! |..X.X.X.X.X X.X.X.X.X.X.X.X XXX`.@ . +.a.s.s.s.s.s.s.s.s.s.s.s.s.s.s.B . p ..................... . . ................... . .                   ",
"    . . .         . . . ................... . . ...................... .i . p.s.s.s.s.s.s.s.s.s.s.s.s.s.s.f.*.. . `..X.X.X.X.X X.X.X.X.X.X.X.X.Xr.. . I C.I.U.U.U.U.U.U.U.I.U.U.U.U.U.U.U.U.U.U.U.U.U.U.U.U.U.U.U.U.U.U.U.U.U.U.U.U.U.U.U.U.U.I.T.T.I.Y.C.l.. . /  X.X X.X.X.X.X.X.X.X.X.X X XoXz . V s.s.s.s.s.s.s.s.s.s.s.s.s.s.s.a.N . H ..................... . . ................... . .           . . .   ",
"    . . . . . .   . . . ................... . . ........................G . k d.s.s.s.s.s.s.s.s.s.s.s.s.s.s.d.c . ^ |..X.X.X.X X.X X.X.X.X.XoXh.. . c.J.R.Y.U.U.Y.U.U.U.U.U.U.U.U.U.U.U.I.U.U.U.U.U.U.U.U.U.U.U.U.U.U.U.U.U.U.U.U.U.U.U.U.U.U.Y.I.U.Y.I.R.R.M.I . n {.oX.X.X.X.X.X.X X.X.X.X X7.. . 2.d.s.s.s.s.s.s.s.s.s.s.s.s.s.s.2.. . ....................... . . ................... . .     . . . . . .   ",
"    . . g . . . . . . . ................... . . ........................| 6 # s.s.s.s.s.s.s.s.s.s.s.s.s.s.s.s.e.b . h.oX X.X.X.X.X.X.X.XoX{.t.. . C.W.R.H.J.J.L.Y.U.U.U.U.U.U.U.U.U.U.U.U.U.U.U.U.U.U.U.U.U.U.U.U.U.U.U.U.U.U.U.U.U.U.U.U.U.U.I.Y.I.H.J.J.J.W.K.K . ~ _.oXXX.X.X.X.X.X.X.X.X`.# + 3.d.s.s.s.s.s.s.s.s.s.s.s.s.s.s.s.=.. G ....................... . . ................... . .   . . . . g @ .   ",
"    . . >.# @ . O . . . ................... . . ........................ .8 . 2.s.s.s.s.s.s.s.s.s.s.s.s.s.s.s.d.,.. < y.oX.X.X.X.X.X.X{.7.n . 1 S.W.$.%.9 w w K &.Y.U.U.U.U.U.U.U.U.U.U.U.U.U.U.U.U.U.U.U.U.U.U.U.U.U.U.U.U.U.U.U.U.U.U.U.U.T.W.M.P 9 w w L &.H.Y.. & > ;.`..X.X.X.X.X.X.X|.r . b d.s.s.s.s.s.s.s.s.s.s.s.s.s.s.s.s.+ . ......................... . . ................... . . . . . . . :.3 .   ",
"    . . >.g . .Xe 0 . .  .................. . . ..........................F . , s.s.s.s.s.s.s.s.s.s.s.s.s.s.s.s.d.C . ^ XX.X.X.X.X.X X`.0 . L c.C.. - s { X.X.' . l.Y.U.U.U.U.U.U.U.U.U.U.U.U.U.U.U.U.U.U.U.U.U.U.U.U.U.U.U.U.U.U.U.U.U.I.T.Y.C.. ; X.X.X.s f . l.I.. 1 . ^.|..X.X.X.X.X.X[.. . s.s.s.s.s.s.s.s.s.s.s.s.s.s.s.s.d.U . D ......................... . . ................... . . . ! r.<.. >.4 .   ",
"    . . 3.2.. 6. X(.) . . a ............... . . .......................... .. 3 d.a.s.s.s.s.s.s.s.s.s.s.a.s.s.s.s.>.. . 6.'.oX.XoX|.8.. . . v.x.. #X%X&X;X,X2X,X[ K R.I.U.U.U.U.U.U.U.U.U.U.U.U.U.U.U.U.U.U.U.U.U.U.U.U.U.U.U.U.U.U.U.U.U.U.I.v.. =X2X1X<X%X&X$X; . N.l . . x [.oXXXXX}.^.. . +.s.s.s.s.s.s.s.s.s.s.s.s.s.s.s.a.d.+.. ] ......................... . . ................F . . ^ 8.oX(.0 . f.# .   ",
"    . . 3.w.g . ) |..X-.. . i ............. . . ............................. : ,.d.s.s.s.s.s.s.s.s.s.s.s.s.s.s.s.d.N . . . !.oX_.^ . . o . . O.;X*Xo.' d . $X-X%X. l.W.U.U.U.U.U.U.U.U.U.U.U.U.U.U.U.I.U.U.U.U.U.U.U.U.U.U.U.U.U.U.U.U.U.U.J.1 s >X$XX.u ' { $X>X>X. . . . . M 5.oX}.M . . g w.s.s.s.s.s.s.s.s.s.s.s.s.s.s.s.d.p.g . ] ......................... . . ..............G O . M [.oXt.. . ,.s.: .   ",
"    . . 2.d.q., . <.|.XX}.r . = G ......... . . ............................. . . ,.a.s.s.s.s.s.s.s.s.s.s.s.s.s.s.s.d.C g . & x < O . B.X @X2X-Xo.% . . . . . @X2X{ 9 K.U.U.U.U.U.U.U.U.U.U.U.I.U.R.R.R.Y.W.Y.W.U.U.U.U.U.U.U.U.U.U.U.U.U.Y.c.. ,X=X. . . . . . u ;X,X=Xy b.z.. . x r . . +.0.d.s.s.s.s.s.s.s.s.a.s.s.s.s.s.d.w.3 . 7  .......................... . . ............% + . k.oX.X_.. X ,.s.s.: .   ",
"    . . 2.d.d.j 3 . `.XX.X'.^ . . i | ..... . . ............................. . . B a.s.s.s.s.s.s.s.s.s.s.s.s.s.s.s.s.d.0.k X . * l J.. =X2X#X. . . . . . . . @X2X=X. c.R.U.U.U.U.U.U.U.U.U.U.I.R.K I K I K K L G.I.I.U.U.U.U.U.U.U.U.U.U.R.. %X2X=X. . . . . . o . X.2X,Xy z.c.* . . , :.d.d.s.s.s.s.s.s.s.s.s.s.s.s.s.s.s.d.U . . ............................. . . ........i % . < (.oX X.XM . j w.s.s.# .   ",
"    . . g s.s.d.9.. . _.oX.XOX8.n . . G ] . . . ............................. . . . 3.s.s.a.s.s.s.s.s.s.s.s.s.s.s.s.s.s.d.d.+ . z.L.. o.2X*X. O . . . . . . . @X2X;X. b.R.U.U.U.U.U.U.I.U.Y.m.. . . . . . . . . . . q P.U.U.U.U.U.U.U.U.I.Y.. *X2X=X. . . . . . . . . @X2X*X. C.C.. . 3.d.s.s.s.s.s.s.s.s.s.s.s.s.s.s.s.s.s.q.3 . . ............................. . . .. .F 8 . # ) {.oX.X|.( . g 9.d.s.*.. .   ",
"      . c d.s.s.a.U . z ^.OX.X.X[.h.. . o . . . ............................. . . . 4 f.a.d.s.s.s.s.s.s.s.s.s.s.s.s.s.s.i.Z X l B.v . <X,Xd . . . . . . . . . o.2X;X. b.R.U.U.U.U.U.Y.Y.W.Q.. X . . . . . . . . . . w G.Q.Y.U.U.U.U.U.I.Y.W.. &X2X&X. . . . . . . . O . *X2X%X. b.c.. 0 w.s.s.s.s.s.s.s.s.s.s.s.s.s.s.s.s.s.2.. . . ............................. . . S 7 . . h./.|.XX|.oX! . 0 w.d.s.d.>..     ",
"      . . :.s.s.s.d.b . < /..X.X.X|.oX0 > . . . ............................. . . p . V d.a.s.s.s.s.s.s.s.s.s.s.s.s.s.a.#.. . J.N.. 2X<X` . . . . . . . . . u :X2X;X. b.R.U.U.U.Y.I.I.D.* l . . . . . . . . . . . . . q q l.U.I.U.Y.I.I.I.W.. &X2X2Xu . . . . . . . . . . >X2X#X. R.W . . d.s.s.s.s.s.s.s.s.s.s.s.s.s.s.s.e.. . . . ............................. . . . . M _..X.X.X.XoX> . . s.s.s.s.a.. .     ",
"      . . :.d.s.s.s.d.V . 0 [..X.X.X.XoX`.M # . F  .......................... . . G O . *.d.s.s.s.s.s.s.s.s.s.s.s.s.s.w.g . c.E.. :X2X:X. . . . . . . . . . - :X2X-X. b.R.U.I.J.M.. . . . ' . . . . . . . . . . . . - s . . . . v.M.Y.Y.U.Y.. &X2X2XO . . . . . . . . . . #X2X:Xs Q E.. . :.d.s.s.s.s.s.s.s.s.s.s.s.a.d.q.. X . . . ............................. . . x r.OXXX.X.X.X|.M . h w.s.s.s.s.s.. .     ",
"        . C s.s.s.s.s.d.U . . _.oX.X.X.X.X.Xy.. . i G ....................... . . ..F . . @.d.s.s.s.s.s.s.s.s.s.s.s.d.. . %.R.E y :X2X+X. . . . . . . . . . s <X<Xd * W.R.D.%.. . . $ $X%X<X. . . . . . . . . . . . ' =X&X&X' . . . L C.I.Y.D.. *X2X#X. . . . . . . . . O . ,X,XD 9 L.C.X . @.s.a.d.s.s.s.s.s.s.s.s.d.9.. . a . . . ........................| p . . / {..X.X.X.X.X X( . , q.s.s.s.s.d.2.. .     ",
"        . . w.s.s.s.s.s.s.U . > ].oX X.X.X.X X[.~ . . D ] ................... . . ....H . . +.d.s.s.s.s.s.s.s.s.s.f.:.. @ K.F.. +X1X2X. O . . . . . . . % . *X2X#X. J.Z.z.O . d =X,X,X2X2X2X. . . . . . . . . . . . s :X2X2X,X,X=X#X. . P Z.D.E . 1X1Xd . . . . . . . . . . +X2X*X. b.I.c.. V s.s.a.s.s.s.s.s.s.s.s.0., . p ... . . ....................] G 6 . . ^. X.X.X.X.X.X.X/ . h w.d.s.s.s.s.f.3 .       ",
"        . : w.s.s.s.s.s.s.d.c . > /.XXXX.X.X.X.X.Xh.@ . O 6 $ ............... . . ......G . . B f.s.s.s.s.s.s.s.d.Y , 9 C.Y.D.. *X2X2X. . . . . . . . . . ;X2X*X. b.%.. o . *X1X2X2X2X2X2X2X. o . . . . . . . . . . s ;X2X2X2X2X2X2X>X. . 1 P l.. s 2X:Xd . . . . . . . . . #X2X2X. &.Y.W.. > 0 d.s.s.s.s.s.s.s.s.p.. . p ..... . . ................F 7 O X . t.}..X.X.X.X.X XOX> . 3 e.s.s.s.s.s.s.f.h .       ",
"        . . Y s.s.s.s.s.s.s.f.c . . `.|.XX.X.X.X XOX7.<.v 0 . . 7 ] ] ] | ... . . ........D O . Y s.s.s.s.s.s.d.>.. . I J.Y.D.. =X2X2X. . . . . . . . . $X2X;X. $.A.. u [ 2X2X2X2X2X2X2X2X2X2XX.+X+X{ ` ` ` [ @X+X+X%X2X2X2X2X2X2X2X2X2X$X` . B.c.= { 2X=X. O . . . . . . . #X2X2X. &.Y.R.Q X . c d.s.s.s.s.s.s.w.. X i ....... . . ......] ] | i . . e z _ 8. X.X.X.X.X.X.X Xx X 3 q.d.s.s.s.s.s.d.@.. .       ",
"          . V s.s.s.s.s.s.s.s.s.Y . n -.`. X.X.X X XoXoX[./.t.8.. . . . $ i . . .  .........G . . *.d.s.s.s.s.w.b . Q L.R.U.D.. =X2X2X. . . . . . o . ' ,X&X. &.R.b.. #X2X2X2X2X2X2X2X2X2X2X2X2X2X2X<X,X,X,X,X2X2X2X2X2X2X2X2X2X2X2X2X2X2X,X. $.W.B.. o.2X#X. . . . . . . . +X2X2X. &.Y.I.Y.n.. > >.d.s.s.s.d.4.. X p ......... . . H p a . . . . < t.)._..XoX.X.X.X XXX[.j.x . 3 w.d.s.s.s.s.s.s.s.+.. .       ",
"          . . a.s.s.s.s.s.s.s.s.s.Y . . > /..XoX.X.X.X.XXX.X.X X`.[.}.! > . . . O i a p | ....] . . Y d.d.s.s.2.. l I.Y.U.U.D.. =X2X2X. . . . . . . &X1X=X. P W.C.* . *X2X2X2X2X2X2X2X2X2X2X2X2X2X2X2X2X2X2X2X2X2X2X2X2X2X2X2X2X2X2X2X2X2X2X. . W Y.S.. X.2X:X. . . . . . . #X2X2X. &.Y.U.U.Y.&.. 2 f.s.d.d.9.> . 7 ......a i . . . . . < M /.[.[.}..X.XXX.X.X X.X.XoX[.x . . . e.s.s.s.s.s.s.s.s.e.N .         ",
"            . +.d.s.s.s.s.s.s.s.s.d.w.. . @ n h.OX.X.X.X.X.X.X.X.X.X X.X X(.h.j.. . . + X O O O . . . U :.e.d.N . m.U.I.U.R.D.. =X2X2X,X=X=X=X=X=X=X1X. ; %.W.&.. . *X2X2X2X2X2X2X2X2X2X2X2X2X2X2X2X2X2X2X2X2X2X2X2X2X2X2X2X2X2X2X2X2X2X2X2X<X' . $.Z.Z.@ f &X,X=X=X=X=X-X=X2X2X2X. &.Y.U.U.Y.F.w , 9.d.:.=.+ . . . O O o . . . . 5.!.u. X.X.X.X.X.X.X.X.X.X.X XoX[.h.M X . :.d.s.s.s.s.s.s.s.s.s.9.2 .         ",
"            . . f.s.s.s.s.s.s.s.s.s.s.a.>.2 . . x '..X.X.X.X.X.X.X.X.X.X.X.XoXXX X XXXT / / n + & # @ . @ 0.d.. . J.U.U.U.U.G.. { <X2X2X2X2X2X2X2X2X. q l.I.. . 7 { 2X2X2X2X2X2X2X2X2X2X2X2X2X2X2X2X2X2X2X2X2X2X2X2X2X2X2X2X2X2X2X2X2X2X2X2X1X%Xs . . D.v.I . *X2X2X2X2X2X2X2X2XX.. c.Y.U.U.I.Y.L . Y d., . . # # # z ~ / / ^..X X.XXXXX X.X.X.X.X.X.X.X.X.X.XoX> . . : b d.d.a.s.s.s.s.s.s.s.s.s.,.. .         ",
"            . . 3.d.s.s.s.s.s.s.s.s.s.s.d.w.C . . ^ t.|.oX.X.X.X.X.X.X.X.X.X.X.X.X.X.XoXoXOX[.^.(.(.j.( . . @.. W P.U.U.U.U.R.Z.q o.2X2X2X2X,X,X;Xu r S.W.P O @X;X2X2X2X2X2X2X2X2X2X2X2X2X2X2X2X2X2X2X2X2X2X2X2X2X2X2X2X2X2X2X2X2X2X2X2X2X2X2X2X:X&X. K U.Y.$.. %X,X,X1X2X2X2X&X. l.R.U.U.U.U.R.c.. h , . e 7.(./.^.'.oXoXoXXX.X.X.X.X.X.X.X.X.X.X X XXXXXoX/.^ . . k 2.d.s.s.s.s.s.s.s.s.s.s.p.d.V .           ",
"            . . k a.s.s.s.s.s.s.s.s.s.s.s.s.p.9.=.. . ( j.oX.X.X.X.X.X.X.X.X.X.X.X.X.X.X.X.X.XXXXXXX.X{.r.. . l G.R.U.U.U.U.I.R.b.. #X$X#X+X` } . . L.R.L.K o -X2X2X2X2X2X2X2X2X2X2X2X2X2X2X2X2X2X2X2X2X2X2X2X2X2X2X2X2X2X2X2X2X2X2X2X2X2X2X2X2X2X2X. . J.U.I.%.. } ` o.#X#X#X[ . R.U.U.U.U.U.U.U.K . . . {. XoX.X.X.X.X.X.X.X.X X.X.X.X.X.X.X.X.X XXXXX{._ , . . w.w.d.s.s.s.s.s.s.s.s.s.s.s.g.@.. .           ",
"              . . *.s.s.s.s.s.s.s.s.s.s.s.s.s.s.d.9., . . !.[.XX.X.X.X.X.X X.X.X X.X.X.X.X.X.X.X.X.X.X.XoX(.# I K.U.U.U.U.U.U.U.P.P . . . . I I B.Y.U.U.b.. X.2X2X2X2X2X2X2X2X2X2X2X2X2X2X2X2X2X2X2X2X2X2X2X2X2X2X2X2X2X2X2X2X2X2X2X2X2X2X2X2X2X2X2X,X. . W.U.Y.Z.P I & . . . . K.U.U.U.U.U.U.U.R.z.. j.XX X.X.X.X.X.X.X.X.X.X.X.X.X X.X.X.X.X.XXXXX{.{.& . . >.d.d.s.s.s.s.s.s.s.s.s.s.s.s.d.2.. .             ",
"                . 3 e.s.s.s.s.s.s.s.s.s.s.s.s.s.s.d.9.3 . . . 6.y.}.|..XXX.X.X.X.X.X.X.X.X.X.X.X.X.X.X.XXX^.X c.R.U.U.U.U.U.U.U.Y.L.D.D.D.S.U.W.Y.I.U.K.l . ,X2X2X2X2X2X2X2X2X2X2X2X2X2X2X2X2X2X2X2X2X2X2X2X2X2X2X2X2X2X2X2X2X2X2X2X2X2X2X2X2X2X2X2X1X+X. M.Y.U.Y.W.R.F.G.D.D.L.U.U.U.U.U.U.U.U.U.R.. j. X.X.X.X.X.X.X.X.X.X.X.X.X.X.X.X.XXX X{.j.1.v . . X :.d.s.s.s.s.s.s.s.s.s.s.s.s.s.s.d.N . .             ",
"                . . w.d.s.s.s.s.s.s.s.s.s.s.s.s.s.s.d.w.:.@.3 . . . / ^.)..XoX.X.X.X X.X.X.X.X.X.X.X.X.X.Xt.. c.R.U.U.U.U.U.U.U.U.U.Y.Y.R.U.I.U.T.I.Y.J.. $X2X2X2X2X2X2X2X2X2X2X2X2X2X2X2X2X2X2X2X2X2X2X2X2X2X2X2X2X2X2X2X2X2X2X2X2X2X2X2X2X2X2X2X2X2X;Xf P W.I.U.U.U.U.R.U.Y.U.U.U.U.U.U.U.U.U.U.I.. -. X.X.X.X.X.X.X.X.X.X.X.X.XXXoX.X.X!.6.. . . . +.:.,.s.a.s.s.s.s.s.s.s.s.s.s.s.s.s.s.d.g .               ",
"                  . g e.s.s.s.s.s.s.s.s.s.s.s.s.s.s.s.s.s.s.w.w.Z . . . 2 r.^.^._.OXOXoX X.X.X.X X.X.X.X|.( . %.R.U.U.U.U.U.U.U.U.U.U.U.U.U.U.U.Y.I.R.M.. ,X2X2X2X2X2X2X2X2X2X2X2X2X2X2X2X2X2X2X2X2X2X2X2X2X2X2X2X2X2X2X2X2X2X2X2X2X2X2X2X2X2X2X2X2X2X,X` L K.Y.U.U.U.U.I.U.U.U.U.U.U.U.U.U.U.U.U.I.. . |..X.X.X.X.X.X.X.X.XoXOXoXh.(.r.( . . . N :.e.s.d.d.s.s.s.s.s.s.s.s.s.s.s.s.s.s.s.s.Y + .               ",
"                  . . . d.a.s.s.s.s.s.s.s.s.s.s.s.s.s.s.s.s.s.s.s.a.d.3 . . . . > r e 5.OX.X.X.X.X.X.X.X|.) . R.U.U.U.U.U.U.U.U.U.U.U.U.U.U.U.U.I.I.Y.w . >X2X2X2X2X2X2X2X2X2X2X2X2X2X2X2X2X2X2X2X2X2X2X2X2X2X2X2X2X2X2X2X2X2X2X2X2X2X2X2X2X2X2X2X2X2X>X` * D.Y.U.U.U.U.U.U.U.U.U.U.U.U.U.U.U.U.U.U.C.. |..X.X.X.X.X.XoX.X|.. r 0 . . . . 3 q.a.a.s.s.s.s.s.s.s.s.s.s.s.s.s.s.s.s.s.s.s.s.@.. .                 ",
"                    . . 4.d.s.s.s.s.s.s.s.s.s.s.s.s.s.s.s.s.s.s.s.s.s.d.w.Y +.V g 2 . . . . -.].|.{.XXXX X) . W.I.U.U.U.U.U.U.U.U.U.U.U.U.U.U.U.U.I.R.w +X1X2X2X2X2X2X2X2X2X2X2X2X2X2X2X2X2X2X2X2X2X2X2X2X2X2X2X2X2X2X2X2X2X2X2X2X2X2X2X2X2X2X2X2X2X2X2X#X@ D.Y.U.U.U.U.U.U.U.U.U.U.U.U.U.U.U.U.U.U.Z..  XXXXX|.{.}.7.. . . . 2 h k +.+.Y f.s.s.s.s.s.s.s.s.s.s.s.s.s.s.s.s.s.s.s.s.s.s.s.N . .                 ",
"                    . . g p.s.s.s.s.s.s.s.s.s.s.s.s.s.s.s.s.s.s.s.s.s.s.s.d.d.a.w.9.*.:.U . . . ~ n !.!.~.M . Q.I.U.U.U.U.U.U.U.U.U.U.U.U.U.U.U.U.U.Y.w [ 1X2X2X2X2X2X2X2X2X2X2X2X2X2X2X2X2X2X2X2X2X2X2X2X2X2X2X2X2X2X2X2X2X2X2X2X2X2X2X2X2X2X2X2X2X2X1Xo.@ G.T.U.U.U.U.U.U.U.U.U.U.U.U.U.U.U.U.U.U.D.. ~.!.^.-.! M . . k :.*.4.w.w.d.d.d.s.s.s.s.s.s.s.s.s.s.s.s.s.s.s.s.s.s.s.s.s.s.g.@.. . .                 ",
"                      . . B s.s.s.s.s.s.s.s.s.s.s.s.s.s.s.s.s.s.s.s.s.s.s.s.s.s.s.s.s.s.s.q.k j : . . . . . . N.R.U.U.U.U.U.U.U.U.U.U.U.U.U.U.U.U.U.Y.X . [ 2X2X2X2X2X2X2X2X2X2X2X2X2X2X2X2X2X2X2X2X2X2X2X2X2X2X2X2X2X2X2X2X2X2X2X2X2X2X2X2X2X2X2X2X2X&X. . D.T.U.U.U.U.U.U.U.U.U.U.U.U.U.U.U.U.U.U.l . . . . . . k 0 2.e.d.s.s.s.d.s.s.s.s.s.s.s.s.s.s.s.s.s.s.s.s.s.s.s.s.s.s.s.s.d.+.. . .                   ",
"                      . . . b f.s.s.s.s.s.s.s.s.s.s.s.s.s.s.s.s.s.s.s.s.s.s.s.s.s.s.s.s.s.s.d.s.w.2.3.3.,.j . z.R.U.U.U.U.U.U.U.U.U.U.U.I.U.U.U.U.U.Y.B.. o o =X2X2X2X2X2X2X2X2X2X2X2X2X2X2X2X2X2X2X2X2X2X2X2X2X2X2X2X2X2X2X2X2X2X2X2X2X2X2X2X2X2X>X@X. . I I.Y.U.U.U.U.U.U.U.U.U.U.U.U.U.U.U.U.U.I.. . 2.2.2.2.2.d.d.s.s.s.s.s.s.s.s.s.s.s.s.s.s.s.a.d.s.s.s.s.s.s.s.s.s.s.s.s.s.d.>.X . .                     ",
"                          . . k i.s.s.s.s.s.s.s.s.s.s.s.s.s.s.s.s.s.s.s.s.s.s.s.s.s.s.s.s.s.s.s.s.s.d.s.a.N . W.I.U.U.U.U.U.U.U.U.U.U.U.U.U.U.U.U.U.U.J.. s . . &X2X1X2X2X2X2X2X2X2X2X2X2X2X2X2X2X2X2X2X2X2X2X2X2X2X2X2X2X2X2X2X2X2X2X2X2X2X2X2X,X. . $ ; R W.I.U.U.U.U.U.U.U.U.U.U.U.U.U.U.U.U.U.U.D.. s.s.s.s.d.s.s.s.s.s.s.s.s.s.s.s.s.s.s.s.s.s.s.a.s.s.s.s.s.s.s.s.s.s.s.s.e.,.. . .                       ",
"                            . . 0 9.a.s.s.s.s.s.s.s.s.s.s.s.s.s.s.s.s.s.s.s.s.s.s.s.s.s.s.s.s.s.s.s.s.s.a.b . W.U.U.U.U.U.U.U.U.U.U.U.U.U.U.U.U.U.U.U.J.. -X+X. . #X$X*X:X:X1X2X2X2X2X2X2X2X2X2X2X2X2X2X2X2X2X2X2X2X2X2X2X2X2X2X2X2X2X:X:X:X#X%Xf . s &X' R R.I.U.U.U.U.U.U.U.U.I.U.U.U.U.U.U.U.U.U.Z.. s.s.s.s.p.a.s.s.s.s.s.s.s.s.s.s.s.s.s.s.s.s.s.s.s.s.s.s.s.s.s.s.s.s.s.9.+.. . .                         ",
"                              . . k a.s.s.s.s.s.s.s.s.a.s.s.s.s.s.s.s.s.s.s.s.s.s.s.s.s.s.s.s.s.s.s.s.s.a.b . W.U.U.U.U.U.U.U.U.U.U.U.U.U.U.U.U.U.U.U.J.. >X2X;X. . . . d s X.o.<X2X2X2X2X2X2X2X2X2X2X2X2X2X2X2X2X2X2X2X2X2X2X2X2Xo.o.d s f . . . &X1X,X' W W.I.U.U.U.U.U.U.U.U.U.U.U.U.U.U.U.U.U.U.Z.. e.s.s.s.a.d.s.s.s.s.s.s.s.s.s.s.s.s.s.s.s.s.s.s.s.s.s.s.s.s.s.s.s.s.f.N : . .                           ",
"                                . . C d.s.s.s.s.s.s.s.s.s.s.s.s.s.s.s.s.s.s.s.s.s.s.s.s.a.s.s.s.s.s.s.s.a.N . W.U.U.U.U.U.U.U.U.U.U.U.U.U.U.U.U.U.U.I.J.. >X2X2X2X,X#X$XX.- - O . . - =X>X>X>X2X2X2X2X2X2X2X2X2X2X2X1X:X>X,X- . . o o $ [ $X#X;X2X2X2X,X' W W.U.U.U.U.U.U.U.U.U.U.U.U.U.U.U.U.U.U.U.Z.. s.s.s.s.s.s.s.s.s.s.s.s.s.s.s.s.s.s.s.s.s.s.s.s.s.s.s.s.s.s.s.s.s.d.=.. . .                             ",
"                                  . . c >.d.s.s.s.s.s.s.s.s.s.s.s.s.s.s.s.s.s.s.s.s.s.s.s.s.s.s.s.s.s.s.a.b . W.U.U.U.U.U.U.U.U.U.U.U.U.U.U.U.U.U.U.U.J.. >X2X2X2X2X2X2X2X<X<Xo.+Xu O . . . O X.-X,X2X2X2X2X2X,X:Xo.X.. . . . u o.@X-X1X1X2X2X2X2X2X2X,X' R R.U.U.U.U.U.U.U.U.U.U.U.U.U.U.U.U.U.U.U.Z.. s.s.s.s.s.s.s.s.s.s.s.s.s.s.s.s.s.s.s.s.s.s.s.s.s.s.s.s.s.s.s.s.d.3 > . .                               ",
"                                    . . B a.d.s.s.s.s.s.s.s.s.s.s.s.s.s.s.s.s.s.s.s.s.s.s.s.s.s.s.s.s.s.i.N . W.U.U.U.U.U.U.U.U.U.U.U.U.U.U.U.U.U.U.I.J.. >X2X2X2X2X2X2X2X2X2X2X2X:X-X-X-XX.X.- . . $X*X*X*X&X. . . X.[ *X-X-X;X2X2X2X2X2X2X2X2X2X2X2X,X' R R.U.U.U.I.U.U.U.U.U.U.U.U.U.U.U.U.U.U.U.Z.. a.s.s.s.s.s.s.s.s.s.s.s.s.s.s.s.s.s.s.s.s.s.s.s.s.s.s.s.s.s.s.d.>.. . .                                 ",
"                                    . . . N d.s.s.s.p.s.s.s.s.s.s.s.s.s.s.s.s.s.s.s.s.s.s.s.s.s.s.s.s.s.a.b . W.U.U.U.U.U.U.U.U.U.U.U.U.U.U.U.U.U.U.I.J.. >X2X2X2X2X2X2X2X2X2X2X2X2X2X2X2X1X<X,XX.. . . . . . . f -X1X1X2X2X2X2X2X2X2X2X2X2X2X2X2X2X2X,X` W W.U.U.U.U.U.U.U.U.U.U.U.U.U.U.U.U.U.U.U.Z.. a.s.s.s.s.s.s.s.s.s.s.s.s.s.s.s.s.s.s.s.s.s.s.s.s.s.s.s.s.a.f.+.. .                                     ",
"                                      . . . c d.s.s.s.s.s.s.s.s.s.s.s.s.s.s.s.s.s.s.s.s.s.s.s.s.s.s.s.s.i.b . W.U.U.U.U.U.U.U.U.U.U.U.U.U.U.U.U.U.U.U.J.. >X2X2X2X2X2X2X2X2X2X2X2X2X2X2X2X2X2X2X2X2X2X2X2X2X2X2X2X2X2X2X2X2X2X2X2X2X2X2X2X2X2X2X2X2X2X>X' R R.I.U.U.U.U.U.U.U.U.U.U.U.U.U.U.U.U.U.U.Z.. a.s.s.s.s.s.s.s.s.a.s.s.s.s.s.s.s.s.s.s.s.s.s.s.s.s.s.s.s.d.=.. . .                                     ",
"                                        . . . . 2.s.s.s.s.s.s.s.s.s.s.s.s.s.a.s.s.s.s.s.s.s.s.s.s.s.s.s.i.N . I.U.U.U.U.U.U.U.U.U.U.U.U.U.U.I.U.U.U.U.J.. #X2X2X2X2X2X2X2X2X2X2X2X2X2X2X2X2X2X2X2X2X2X2X2X2X2X2X2X2X2X2X2X2X2X2X2X2X2X2X2X2X2X2X2X2X2X;Xy W W.I.U.U.U.U.U.U.U.U.U.U.U.U.U.U.U.U.U.U.V.. a.s.s.s.s.s.s.s.s.s.s.s.s.s.s.s.s.s.s.s.s.s.s.s.s.a.s.d.w.c . . .                                       ",
"                                        . . . . . 2.s.d.s.s.s.s.s.s.s.s.s.s.s.s.s.s.s.s.s.s.s.s.s.s.s.s.i.b . b.R.U.U.U.U.U.U.U.U.U.U.U.U.U.U.U.U.U.I.J.. . =X2X2X2X2X2X2X2X2X2X2X2X2X2X2X2X2X2X2X2X2X2X2X2X2X2X2X2X2X2X2X2X2X2X2X2X2X2X2X2X2X2X2X2X1XX.O I R.I.U.U.U.U.U.U.U.U.U.U.U.U.U.U.U.U.U.U.. . a.s.s.s.s.s.s.s.s.s.s.s.s.s.s.s.s.s.s.s.s.s.s.s.s.s.d.q.4 . . .                                         ",
"                                        . . . . . X 2.w.d.s.s.s.s.s.s.s.s.s.s.s.s.s.s.s.s.s.s.s.s.s.s.s.d.:.X I K.I.U.U.U.U.U.U.U.U.U.U.U.U.U.U.U.U.U.I.b.. u >X2X2X2X2X2X2X2X2X2X2X2X2X2X2X2X2X2X2X2X2X2X2X2X2X2X2X2X2X2X2X2X2X2X2X2X2X2X2X2X2X2X2X[ . I I.Y.I.U.U.U.U.U.U.U.U.U.U.U.U.U.U.U.I.U.H.. @.s.s.s.s.s.s.s.s.s.s.s.s.s.s.s.s.s.s.s.s.s.s.s.s.s.s.3.j . . . .                                         ",
"                                        . . . . G . . > p.d.s.s.s.s.s.s.s.s.s.s.s.s.s.s.s.s.s.s.s.s.s.s.d.>.+ K L.I.U.U.U.U.U.U.U.U.U.U.U.U.U.U.U.U.U.U.Y.%.. #X2X2X2X2X2X2X2X2X2X2X2X2X2X2X2X2X2X2X2X2X2X2X2X2X2X2X2X2X2X2X2X2X2X2X2X2X2X2X2X2X2X;X. W I.U.I.I.U.U.U.U.U.U.U.U.U.U.U.U.U.U.U.I.W.P . :.a.s.s.s.s.s.s.s.s.s.s.s.a.s.s.s.s.s.s.s.s.s.s.s.d.#.. . . . . .                                         ",
"                                          . . . . . . . k 0.q.d.s.s.s.s.s.s.s.s.s.s.s.s.s.s.s.s.s.s.s.s.s.f.c . l.Y.U.U.U.U.U.U.U.U.U.U.U.U.U.U.U.U.U.U.Y.A.w . %X2X2X2X2X2X2X2X2X2X2X2X2X2X2X2X2X2X2X2X2X2X2X2X2X2X2X2X2X2X2X2X2X2X2X2X2X2X2X2X>X. . n.I.U.I.Y.U.U.U.U.U.U.U.U.U.U.U.U.U.U.U.R.Z.. j w.s.s.s.s.s.s.s.s.s.s.s.s.s.s.s.s.s.s.s.s.s.d.w.3.:.. . . . . .                                           ",
"                                          . . . . . . . . . g 2.e.d.s.s.s.s.s.s.s.s.s.s.s.s.s.s.s.s.s.s.s.s.w.. w L.U.U.U.U.U.U.U.U.U.U.U.U.U.U.U.U.U.U.I.W.D.L . ;X2X2X2X2X2X2X2X2X2X2X2X2X2X2X2X2X2X2X2X2X2X2X2X2X2X2X2X2X2X2X2X2X2X2X2X2X2X>Xu . V.I.U.U.U.U.U.U.U.U.U.U.U.U.U.U.U.U.U.U.U.R.Q . B s.s.s.s.s.s.s.s.s.s.s.s.s.s.s.s.s.s.s.s.s.f.>.B . . X . . . . .                                           ",
"                                          . . . . . . . . . . # 2 0.d.s.s.s.s.s.s.s.s.s.s.s.s.s.s.s.s.s.s.s.s.>.. H.U.U.U.U.U.U.U.U.U.U.U.U.U.U.U.U.U.U.U.U.I.G.. O 1X2X2X2X2X2X2X2X2X2X2X2X2X2X2X2X2X2X2X2X2X2X2X2X2X2X2X2X2X2X2X2X2X2X2X2X2X+X. b.Y.U.U.U.U.U.U.U.U.U.U.U.U.U.U.U.U.U.U.U.U.W.L 3 d.s.s.s.s.s.s.s.s.s.s.s.s.s.s.s.s.s.s.s.d.a.k + X . . . . . . . .                                           ",
"                                          . . . . . . . . . . . . . 2.d.s.s.s.s.s.s.s.s.s.s.s.s.s.s.s.s.s.s.s.2.. L Y.U.U.U.U.U.U.U.U.U.U.U.U.U.U.U.U.U.U.U.U.K.Q $ . ,X2X2X2X2X2X2X2X2X2X2X2X2X2X2X2X2X2X2X2X2X2X2X2X2X2X2X2X2X2X2X2X2X2X2X$X. . G.U.U.U.U.U.U.U.U.U.U.U.U.U.U.U.U.U.U.U.U.R.l.. g d.s.s.s.s.s.s.s.s.s.s.s.s.s.s.s.s.s.s.s.e.g . . . . . . . . . . .                                           ",
"                                            . . . . . . . . . . . X . 4.w.d.s.s.s.s.s.s.s.s.s.s.s.s.s.s.s.s.s.e.J K P.U.U.U.U.U.U.U.U.U.U.U.U.U.U.U.U.U.U.I.I.R.I.%.. ` ,X2X2X2X2X2X2X2X2X2X2X2X2X2X2X2X2X2X2X2X2X2X2X2X2X2X2X2X2X2X2X2X1Xo.. L K.R.U.U.U.U.U.U.U.U.U.U.U.U.U.U.U.U.U.U.U.U.I.&.. 9.d.s.s.s.s.s.s.s.s.s.s.s.s.s.s.s.s.s.d.3.k . . . . . . . . . . .                                             ",
"                                              . . . . . . . . . . . . . 3 >.d.d.s.s.s.s.s.s.s.s.s.s.s.s.s.s.s.a.B . D.Y.U.U.U.U.U.U.U.U.U.U.U.U.U.U.U.U.U.U.U.U.R.G.. . X.,X2X2X2X2X2X2X2X2X2X2X2X2X2X2X2X2X2X2X2X2X2X2X2X2X2X2X2X2X2X2X%X. . m.U.U.U.U.U.U.U.U.U.U.U.U.U.U.U.U.U.U.U.U.U.U.J.w + w.s.s.s.s.s.s.s.s.s.s.s.s.s.s.s.s.f.2.Y . . . . . . . . . . . .                                               ",
"                                              . . . . . . . . ....... . . X N 9.f.s.s.s.s.s.s.s.s.s.s.s.s.s.s.s.,.. K W.U.U.U.U.U.U.U.U.U.U.U.U.U.U.U.U.U.U.U.U.I.R.G.b.. u ,X2X2X2X2X2X2X2X2X2X2X2X2X2X2X2X2X2X2X2X2X2X2X2X2X2X2X2X1X#Xd . J.P.U.U.U.U.U.U.U.U.U.U.U.U.U.U.U.U.U.U.U.U.U.I.B.. B d.s.s.s.s.s.s.s.s.s.s.s.s.s.s.d.d.B 4 . . a  .... . . . . . . .                                               ",
"                                                . . . . . . . ......... . . . . . 2.s.s.s.s.s.s.s.s.s.s.s.s.s.d.,.. . K.U.U.U.U.U.U.U.U.U.U.U.U.U.U.U.U.U.U.U.U.U.U.I.Z.. O u 1X2X2X2X2X2X2X2X2X2X2X2X2X2X2X2X2X2X2X2X2X2X2X2X2X2X2X$X. . L W.U.U.U.U.U.U.U.U.U.U.U.U.U.U.U.U.U.U.U.U.U.U.I.l.. C d.s.s.s.s.s.s.s.s.s.s.s.s.s.s.. . . . . D ....... . . . . . .                                                 ",
"                                                . . . . . . . ............| p 6 . , B w.w.d.s.s.s.s.s.s.s.s.s.s.i.U @ I W.U.U.U.U.U.U.U.U.U.U.U.U.U.U.U.U.U.U.U.U.U.I.R.B.. . ` :X>X2X2X2X2X2X2X2X2X2X2X2X2X2X2X2X2X2X2X2X2X2X<X,X#X. . %.R.U.U.U.U.U.U.U.U.U.U.U.U.I.U.U.U.U.U.U.U.U.U.U.I.. k 9.d.s.s.s.s.s.s.s.s.s.d.e.9.,.# . . i G ........... . . . . . .                                                 ",
"                                                  . . . . . . ................| . . . X h #.s.d.s.s.s.s.s.s.s.s.d.w.# L H.Y.I.U.U.U.U.U.U.U.U.U.U.U.U.U.U.U.U.U.U.U.U.U.R.S.. . . . %X$X<X2X2X2X2X2X2X2X2X2X2X2X2X2X2X2X2X%X%Xo.O . . %.U.U.U.U.U.U.U.U.U.U.U.U.U.U.U.U.U.U.U.U.U.U.U.I.W.z.. 2.d.s.s.s.s.s.s.s.s.d.d.>.V . . . = ] ............... . . . . .                                                   ",
"                                                    . . . . . . ................... . . . . 2 ,.w.f.s.s.s.s.s.s.s.w.. * m.U.U.U.U.U.U.U.U.U.U.U.U.U.U.U.U.U.U.I.U.U.U.U.I.U.I.c.K . . . ' ` } ' &X;X-X;X;X;X;X;X*X[ } ` } X . . . b.F.R.U.U.U.U.U.U.U.U.U.U.U.U.U.U.U.U.U.U.U.U.U.U.U.Y.J.. . ,.s.s.s.s.s.s.s.d.f.:.V + . . . |  ................ . . . . .                                                     ",
"                                                    . . . . . . ................... . . ] $ . . # . a.s.s.s.s.d.s.d.U . %.I.U.U.U.U.U.U.U.U.U.U.U.U.U.U.U.U.U.U.U.U.U.U.U.U.U.R.I.P.K.$.l K l . . . . . . . . . . X 9 L K l J.I.P.Y.U.U.U.U.U.U.U.U.U.U.U.U.U.U.U.U.I.U.U.U.U.U.U.U.U.R.l.. b e.s.s.s.s.s.s.a.C 3 . . o . . . ................... . . . . .                                                     ",
"                                                    . . . . . . ................... . . ....p 7 8 . . Y 0.w.w.d.d.d.3.g . Z.U.U.U.U.U.U.U.U.U.U.U.U.U.U.U.U.U.U.U.U.U.U.U.U.U.I.U.Y.U.R.W.W.Y.c.M.M.M.M.M.M.M.M.M.b.B.Q.Y.W.Y.Y.U.U.U.U.U.U.U.U.U.U.U.U.U.U.U.U.U.U.U.U.U.U.U.U.U.U.Y.F.q @ @.s.d.d.s.w.w.:.. . 6 7 t  .. . . ................... . . . . .                                                     ",
"                                                      . . . . . . . ............... . . ...... . .7 . . , k j =.+.p.f.q.. w W.I.U.U.U.U.U.U.U.U.U.U.U.U.U.U.U.U.U.U.U.U.U.U.U.U.U.U.U.U.U.U.U.R.R.R.R.R.R.R.R.R.Y.Y.Y.I.T.U.U.I.U.U.U.U.U.U.U.U.U.U.U.U.U.U.U.U.U.U.U.U.U.U.U.U.I.Y.R.m.. 3 f.f.*.@.U h c . . $ ]  . .... . . ............... . . . . . .                                                       ",
"                                                      . . . . . . . ............... . . .......... ...S $ . . . . 2 3 4 . . %.R.U.U.U.U.U.U.U.U.U.U.U.U.U.U.U.U.U.U.U.U.U.U.U.U.U.U.U.U.U.U.U.U.U.U.U.U.I.I.U.U.Y.U.Y.U.U.U.I.Y.U.U.U.U.U.U.U.U.U.U.U.U.U.U.U.U.U.U.U.U.U.U.U.I.I.Y.G.. . X 0 g X . . . = 6  ............ . . ............... . . . . . .                                                       ",
"                                                        . . . . . . ............... . . ..................] H S % 6 O . . X . %.D.R.U.U.U.U.U.U.U.U.U.U.U.U.U.U.U.I.U.U.U.U.U.U.U.U.U.U.U.U.U.U.U.U.U.U.U.U.U.U.Y.I.U.U.U.U.Y.I.U.U.U.U.U.U.U.U.U.U.U.U.U.U.U.U.U.U.U.U.U.U.U.I.Y.z.& . . . X = = 7 H G ................. . . ............... . . . . .                                                         ",
"                                                          . . . . . . ............. . . ............................G A . . . . w F.Y.U.U.U.U.U.U.U.U.U.U.U.U.U.U.U.U.U.U.U.U.U.U.U.U.U.U.U.U.U.U.U.U.U.U.U.U.U.I.Y.U.U.U.U.U.U.U.U.U.U.U.U.U.U.U.U.U.U.U.U.U.U.U.U.U.U.U.U.Y.I.K . . . S A D ........................... . . ............. . . . . .                                                           ",
"                                                          . . . . . . ............. . . ................................. . . . . K D.R.I.U.U.U.U.U.U.U.U.U.U.U.U.U.U.U.U.U.U.U.U.U.U.U.U.U.U.U.U.U.U.U.U.U.U.U.U.U.U.U.U.U.U.U.U.U.U.U.U.U.U.U.U.U.U.U.U.U.U.U.U.U.U.U.I.I.I.Q . . . . ................................. . . ............. . . . . .                                                           ",
"                                                          . . . . . . ............. . . ................................. . . . . . 9 Z.Y.U.U.U.U.U.U.U.U.U.U.U.U.U.U.U.U.U.U.U.U.U.U.U.U.U.U.U.U.U.U.U.U.U.U.U.U.U.U.U.U.U.U.U.U.U.U.U.U.U.I.U.U.U.U.U.U.U.U.U.U.U.U.I.I.R.l . . . . . ] ............................... . . ............. . . . . .                                                           ",
"                                                            . . . . . . ........... . . ................................p . 0 .XXX_ . K P.U.U.U.U.U.U.U.U.U.U.U.U.U.U.U.U.U.U.U.U.U.U.U.U.U.U.U.U.U.U.U.U.U.U.U.U.U.U.U.U.U.U.U.U.U.U.U.U.U.U.U.U.U.U.U.U.U.U.U.U.U.I.U.R.$.. X  XoX7.. . ............................... . . ........... . . . . .                                                             ",
"                                                            . . . . . . ........... . . ..............................D $ . ^.oXoX).. 1 n.J.U.U.U.U.U.U.U.U.U.U.U.U.U.U.U.U.U.U.U.U.U.U.U.U.U.U.U.U.U.U.U.U.U.U.U.U.U.U.U.U.U.U.U.U.U.U.U.U.U.U.U.U.U.U.U.U.U.U.U.U.R.L.C.w . j. X.X{.n . a  ............................ . . ........... . . . . .                                                             ",
"                                                              . . . . . ........... . . ............................... . ^..X.X.XXX_.. . 9 K.R.I.Y.I.U.U.U.U.U.U.U.U.U.U.U.U.U.U.U.U.U.U.U.U.U.U.U.U.U.U.U.U.U.U.U.U.U.U.U.U.U.U.U.U.U.U.U.U.U.U.U.U.U.U.U.U.U.U.U.I.Q . . 5. X.X.X.X[.z . F ........................... . . ........... . . . .                                                               ",
"                                                              . . . . . . ......... . . ............................A . 5. X.X.X.X.X.X'.. . l.C.Y.Y.U.U.U.U.U.U.U.U.U.U.U.U.U.U.U.U.U.U.U.U.U.U.U.U.U.U.U.U.U.U.U.U.U.U.U.U.U.U.U.U.U.U.U.U.U.U.U.U.U.U.U.U.U.U.I.W.%.l . 6.oX.X.X.X XoX6.. i ........................... . . ......... . . . . .                                                               ",
"                                                                . . . . . ......... . . ..........................| . 0 )..X.X X.X.X.XXX/.@ . w D.K.I.Y.I.I.I.Y.U.U.U.U.U.U.U.U.U.U.U.U.U.U.U.U.U.U.U.U.U.U.U.U.U.U.U.U.U.U.I.U.U.U.U.U.U.U.U.U.U.U.U.U.U.U.I.I.T.@ . . ) oX X.X.X.X.X XOX. . G ......................... . . ......... . . . .                                                                 ",
"                                                                . . . . . . . . . . . . . ........................7 X x |..X.X.X.X.X.X.XOX!.<.. . . M.G.I.Y.U.I.U.U.U.U.U.U.U.U.U.I.U.U.U.U.U.U.U.U.U.U.U.U.U.U.U.U.U.U.U.U.U.U.U.U.U.U.U.U.U.U.U.U.U.U.R.F.B.P . . e t.XX X.X.X.X.X.X.XoX!.. . | ..................... . . . . . . . . . . . .                                                                 ",
"                                                                . . . . . . . . . . . . . . . . . . . . . . ....A X . [.oX.X X.X.X.X.X.X.X.X|./.M . . l n.Y.Y.I.U.U.U.U.U.U.I.Y.U.U.U.U.U.U.U.U.U.I.U.U.U.U.U.U.U.U.U.U.U.U.U.U.U.U.U.U.U.U.U.U.U.U.U.W.B.l . . . ).`..X.X.X.X.X.X.X.X.X.X.X1.. 6  .. . . . . . . . . . . . . . . . . . . . . .                                                                 ",
"                                                                  . . . . . . . . . . . . . . . . . . . . . . . . . `..X.X.X.X.X X.X.X.X.X.X.X.XoX8.m . . . L.I.U.U.U.U.U.I.Y.I.U.U.U.U.U.U.U.U.U.U.U.U.U.U.U.U.U.U.U.U.U.U.U.U.U.U.U.U.U.U.U.U.I.Y.F.l.. . < 1.|..X.X.X.X.X.X.X X.X.X.X.X.X}.! . . . . . . . . . . . . . . . . . . . . . . .                                                                   ",
"                                                                    . . . . ....... . . . . . . . . . . . . . . > )..X.X.X.X.X.X.X.X.X.X.X.X.X.X.XoX|._.6.. . %.I.I.Y.U.U.U.T.T.U.U.U.U.U.U.U.U.U.U.U.U.U.U.U.U.U.U.U.U.U.U.U.U.U.U.U.U.U.U.U.Y.I.C.. . . [.[.oX.X.X.X.X.X.X.X.X.X.X.X.X.X.XXX{.^ . . . . . . . . . . . . . . ....... . . .                                                                     ",
"                                                                    . . . . ......... . . ............... . . + ).oX.X.X X.X.X.X.X.X.X.X X.X.X.X XoX.X}.) . . . . m.K.K.U.Y.T.T.U.U.U.U.U.U.U.U.U.U.U.U.U.U.U.U.U.U.U.U.U.U.U.U.U.U.U.Y.Y.P.K.D.l . . . . /..XoX.X.X.X.X.X.X.X.X.X.X.X.X.X.X.XXX|.! . . G ............. . . ......... . . .                                                                     ",
"                                                                    . . . . ......... . . ............S 5 . . )..X.X X.X.X.X.X.X.X.X.X.X.X.X.X.XoX/.7.T . U *.:.b . P P l.m.K.W.W.W.W.Y.U.U.U.U.U.U.U.U.U.U.U.U.U.U.U.U.U.U.W.W.W.W.W.B.c.R P & . :.:.U # . <.!..X.X.X.X.X.X.X X.X.X.X.X.X.X.X.X.X{.-.. . A ] ......... . . ......... . . .                                                                     ",
"                                                                      . . . . . ..... . . ..........= . . y. X.X.X.X.X.X.X.X.X.X.X.X.X X.X.X.XXX/.< . . b p.s.s.a.g . . X @ 1 9 9 9 l J.U.R.U.Y.U.Y.Y.Y.Y.Y.Y.Y.U.Y.Y.Y.U.W.I * 9 9 9 @ X . . . w.s.a.d.V . . . h.XX.X.X.X.X.X.X.X.X.X X X.X.X.X.X.XXXh.+ . . ] ....... . . ..... . . . .                                                                       ",
"                                                                      . . . . . . ... . . ...... .7 . M h. X.X X.X.X.X.X.X.X.X.X.X.X.X XXX X/.t.. . B @.w.d.s.s.s.f.f.Y B g h h h . . . . . . . . . . . . . . . . . . . . . . . g g h g b *.2.f.s.s.s.s.f.#.+.> . . '.}..X.X.X.X.X.X X.XXX X X.X.X.X XOXh.<.. $ |  .... . . ... . . . . .                                                                       ",
"                                                                        . . . . . ... . . ....F O . . /.oX.X.X.X.X.X.X.X.X.X X.X.X.X.X X/./ . . c +.s.d.d.s.s.s.s.s.s.d.s.e.w.w.p.:.*.*.*.*.*.>.b . A D D D D $ g :.*.*.*.*.*.:.w.e.e.w.a.d.d.s.s.s.s.s.s.d.d.3.N . . 0 ~.}.oX.X.X.X.X.X.X X.X.X.X.X.X XoX X. . $ i ... . . ... . . . .                                                                         ",
"                                                                          . . . . ... . . | a . > n }.|..X.X.X.X.X.X.X.X.X.X.X X.XOX[.~ . . j Y a.s.s.s.s.s.s.s.s.s.s.s.s.s.s.s.s.d.s.s.d.s.d.=.3 . | ........8 , B e.d.a.d.a.d.s.s.s.s.s.s.s.s.s.s.s.s.s.s.s.s.a.w.2 . . ! y.oXXX X.X.X.X.X.X.X.X.X.X.X.X.X}.r.. X 6 . . . ... . . .                                                                           ",
"                                                                            . . . . . . . . . . t.XX.X.X.X.X.X.X.X.X.X.X.X.X.X.X|.t.+ . . h s.s.s.s.s.s.s.s.s.s.s.s.s.s.s.s.s.s.s.s.s.s.s.f.B . . . ] ...... .= . . 0 w.d.d.d.a.s.s.s.s.s.s.s.s.s.s.s.s.s.s.s.s.s.s.d.Y . . @ m  X X.X.X X.X.X.X.X.X.X.X.X.X.XoX{.. X . . . . . . .                                                                             ",
"                                                                            . . . . . . . < ! 6.OX.X.X.X.X X X.X.X.X.X.X.X.X.X[.7.. 2 B d.d.s.s.s.s.s.s.s.s.s.s.s.s.s.s.s.s.s.s.s.s.s.s.s.C . + 6 ..............S $ . N w.a.d.s.s.s.s.s.s.s.s.s.s.s.s.s.s.s.s.s.s.s.s.d.f.:.+ . . {.|..X.X.X.X X.X.X.X.X.X.X.X.X.X|.m r . . . . . .                                                                             ",
"                                                                          . . . . . . . ) (.{.oX X.X.X.X.X.X.X.X.X.X.X.XoX`.^.. . j 0.e.s.s.s.s.s.s.s.s.s.s.s.s.s.s.s.s.s.s.s.s.s.s.d.2.V . o G ..................G p . N +.d.d.s.s.s.s.s.s.s.s.s.s.s.s.s.s.s.s.s.s.s.s.s.d.3.Z . . 8._.oX.X.X X.X.X.X.X.X.X.X.X.XoX.X).t.. . . . . . .                                                                         ",
"                                                                    . . . . . . . ) [.[.|..X.X.X.X.X.X.X.X.X.X.X.X X.XXX!.x # . +.e.s.s.s.s.s.s.s.s.s.s.s.s.s.s.s.s.s.s.s.s.s.s.s.d.b 2 . . o ......................| . . . b 2.d.s.s.s.s.s.s.s.s.s.s.s.s.s.s.s.s.s.s.s.s.s.s.i.w.. . z ~ oXXXXX.X.X.X.X.X.X.X.X.X.X.X.X.X[.{.5.. . . . . . . .                                                                 ",
"                                                              . . . . . ! r.t.OXXXXX X.X.X.X.X.X.X X.X.X.X.X.X.X.X X'.. . . 3 =.d.s.s.s.s.s.s.s.s.s.s.s.s.s.s.s.s.s.s.s.s.s.s.s.s.3 X . . | ..........................| 8 . . , q.s.s.s.s.s.s.s.s.s.s.s.s.s.s.s.s.s.s.s.s.s.s.s.d.w.N . + + 6.{..X.X.X.X.X.X.X.X.X.X.X.X.X.X.XXXoXoX_.8.t.. . . . . .                                                           ",
"                                                        . . . . z _ y.|. XoXoX.X.X.X.X.X.X.X.X.X.X.X.X.X.X.XoX}.!.x . . g 9.a.d.s.s.s.s.s.s.s.s.s.s.s.s.s.s.s.s.s.s.s.s.s.s.s.s.V . O ] ................................ .... . . w.d.s.s.s.s.s.s.s.s.s.s.s.s.s.s.s.s.s.s.s.s.s.s.d.s.q.U . . 0 6.}.|.XX.X.X.X.X.X.X.X.X.X.X.X.X.X.XoXoXoX}./.) M . . . . .                                                     ",
"                                                        . . . . ! j.j.j.}.[.[.[.}.[.}.[.}.}.}.[.}.[.[.}.[.!.h.. . . h ,.e.d.s.s.s.s.s.s.s.s.s.s.s.s.s.s.s.s.s.s.s.s.s.s.s.s.>.U . . p  ...................................... . . . >.e.s.s.s.s.s.s.s.s.s.s.s.s.s.s.s.s.s.s.s.s.s.s.s.s.g.:.Y . . . ! h.[.[.[.[.}.[.}.[.[.}.}.[.[.[.[.[.}._.h.(.;.. . . . .                                                     ",
"                                                          . . . . . . . M M M M M M M M M M M M M M M m M @ . . :.2.e.d.s.s.s.s.s.s.s.s.s.s.s.s.s.s.s.s.s.s.s.s.s.s.s.s.s.d.. . . . ......................................... . . . . 2.d.s.s.s.s.s.s.s.a.s.s.s.s.s.s.s.s.s.s.s.s.s.s.s.s.d.a.9.4.# . . m M M M M M M M M m M M M M M M M z . . . X . .                                                         ",
"                                                          . . . V s.4.: 3 4 2 2 4 4 2 2 2 2 4 4 2 2 2 2 3 . p.d.d.s.s.s.s.s.s.s.s.s.s.s.s.s.s.s.s.s.s.s.s.s.s.s.s.s.s.p.d.g . . . . ......................................... . . $ . . q.s.s.s.s.s.s.s.s.s.s.s.s.s.s.s.s.s.s.s.s.s.a.s.s.s.s.s.s.d.p.V 2 2 2 2 2 2 2 4 2 4 4 4 4 2 2 3 2 > @.d.+.. . .                                                         ",
"                                                              . . . ,.s.f.g.g.g.g.g.g.f.g.g.g.g.g.g.g.g.g.g.s.s.s.s.s.s.s.s.s.s.s.s.s.s.s.s.s.s.s.s.s.s.s.s.s.s.s.d.w.,.. . . . . . ......................................... . . ... . . C a.s.s.s.a.s.s.s.s.s.s.s.s.s.s.s.s.s.s.s.s.s.s.s.s.s.s.s.s.g.g.g.f.f.g.g.f.f.g.g.g.g.g.g.g.d.g.f.q., . . .                                                           ",
"                                                                . . . > 9.d.s.s.s.s.s.s.p.s.s.s.s.s.s.s.s.s.s.s.s.s.s.s.s.s.s.s.s.s.s.s.s.s.s.s.s.s.s.s.s.s.d.d.s.,.2 X . D G . . . ......................................... . . ..] G = . 3 Y a.d.d.s.s.s.s.s.s.s.s.s.s.s.s.s.s.s.s.s.s.s.s.s.s.s.s.s.s.s.s.s.s.s.s.s.s.p.s.s.s.s.s.d.d.U . . .                                                               ",
"                                                                    . . , j 2.f.a.s.s.s.s.s.s.s.s.s.s.s.s.s.s.s.s.s.s.s.s.s.s.s.s.s.s.s.s.s.s.s.s.s.s.s.s.f.:.h c . . . G ..... . . ......................................... . . ......| . . . h c B s.d.s.s.s.s.s.s.a.s.s.s.s.s.s.s.s.s.s.s.s.s.s.s.s.s.s.s.s.s.s.s.s.s.s.s.s.s.d.e.B k . . .                                                                 ",
"                                                                      . . . . b d.d.s.s.s.s.s.s.s.s.s.s.s.s.s.s.s.s.s.s.s.s.s.s.s.s.s.s.s.s.s.s.a.s.s.s.w.N . X O O $ ......... . . ......................................... . . ........ .G . O X . . q.d.s.s.s.s.s.s.s.s.s.s.s.s.s.s.s.s.s.s.s.s.s.s.s.s.s.s.s.s.s.s.s.s.s.s.d.:., . . .                                                                     ",
"                                                                          . . . . :.e.d.s.s.d.a.s.s.s.s.s.s.s.s.s.p.s.s.s.s.s.s.s.s.s.s.s.s.s.d.d.e.e.:.. . 6 S ............... . . . ..................................... . . . ................] = O . # e.e.d.d.d.s.s.s.s.s.s.s.s.s.s.s.s.s.s.s.s.s.s.s.s.s.s.s.p.s.d.a.s.w.. . . . .                                                                       ",
"                                                                              . . : k 9.f.d.a.d.s.s.s.s.s.s.s.s.s.s.s.s.s.s.s.s.s.s.s.s.s.s.f.:.,.B V . . p  .................. . . . ..................................... . . . .................. .D . . g V :.>.q.d.s.s.s.s.s.s.s.s.s.s.s.s.s.s.s.s.s.s.s.s.s.s.s.s.f.d.U X . .                                                                             ",
"                                                                                  . . , k 9.a.a.s.d.d.d.s.a.s.s.s.s.s.s.s.s.s.s.a.s.s.a.s.9.c . X . . O F ....................... . . ..................................... . . ........................ .. . . X X 2 ,.p.s.s.s.a.s.s.s.s.s.a.s.s.s.s.s.s.d.d.s.s.s.a.a.b k . . .                                                                               ",
"                                                                                  . . . . . . . 2 +.=.*.0.d.d.s.s.d.d.s.s.s.s.d.d.s.d.3.. . . . . G D ........................... . . . ................................. . . . ............................] . . . . . . B d.d.d.s.d.s.s.d.d.s.s.s.s.d.d.+.=.:., . . . . . . .                                                                                 ",
"                                                                                        . . . . . . . . . : # # # # # # # # # # # # # . . . . . . ............................... . . . ................................. . . . ............................... . . . 6 . . # # # # # # # # # # # # # # # . . . . . . . . .                                                                                     ",
"                                                                                                      . . . . . . . . a a . . . . . . . . . . . . . ............................... . . ................................. . . ............................... . . . . . . . . . . . . a a . . . . . . . . . .                                                                                                   ",
"                                                                                                              . . . . . . . . . . . . . . . . . . . ............................... . . . ............................. . . . ............................... . . . . . . . . . . . . . . . . . .                                                                                                               ",
"                                                                                                                . . . . . . . . . . . . . . . . . . . . . . ....................... . . . ............................. . . . ....................... . . . . . . . . . . . . . . . . . . . . .                                                                                                                 ",
"                                                                                                                  . . . . . . . . ....... . . . . . . . . . . . . ................... . . ............................. . . ................... . . . . . . . . . . . . ....... . . . . . . .                                                                                                                   ",
"                                                                                                                        . . . . . . . ........... . . . . . . . . . . . ............. . . ............................. . . ............. . . . . . . . . . . . ........... . . . . . .                                                                                                                         ",
"                                                                                                                            . . . . . . ......... . . . . . . . . . . . . . . . ..... . . . ......................... . . . ..... . . . . . . . . . . . . . . . ......... . . . . .                                                                                                                             ",
"                                                                                                                              . . . . . . . ..... . . . . ... . . . . . . . . . . . . . . . . . . . ......... . . . . . . . . . . . . . . . . . . . ... . . . . ..... . . . . . .                                                                                                                               ",
"                                                                                                                                  . . . . . . . ... . . . . ......... . . . . . . . . . . . . . . . . . . . . . . . . . . . . . . . . . . . ......... . . . . ... . . . . . .                                                                                                                                   ",
"                                                                                                                                    . . . . . . . ... . . . . ............... . . . . . . . . . . . . . . . . . . . . . . . . . . . ............... . . . . ... . . . . . .                                                                                                                                     ",
"                                                                                                                                        . . . . . . . . . . . ......................... . . . . . . . . . . . . . . . . . ......................... . . . . . . . . . .                                                                                                                                         ",
"                                                                                                                                            . . . . . . . . . . ......................... . . . ................. . . . ......................... . . . . . . . . .                                                                                                                                             ",
"                                                                                                                                              . . . . . . . . . ......................... . . . ................. . . . ......................... . . . . . . . .                                                                                                                                               ",
"                                                                                                                                                . . . . . . . . ........................... . . ................. . . ........................... . . . . . . .                                                                                                                                                 ",
"                                                                                                                                                  . . . . . . . . . . . . . ............... . . ................. . . ............... . . . . . . . . . . . .                                                                                                                                                   ",
"                                                                                                                                                        . . . . . . . . . . . . . ......... . . . ............... . . ......... . . . . . . . . . . . .                                                                                                                                                         ",
"                                                                                                                                                            . . . . . . . . . . . . . . ... . . . ............... . . ... . . . . . . . . . . . . .                                                                                                                                                             ",
"                                                                                                                                                                        . . . . . . . . . ... . . ............... . . . . . . . . . . .                                                                                                                                                                         ",
"                                                                                                                                                                              . . . . . . . . . ................. . . . . . . . .                                                                                                                                                                               ",
"                                                                                                                                                                                    . . . . . . . . ......... . . . . . . .                                                                                                                                                                                     ",
"                                                                                                                                                                                      . . . . . . . . . . . . . . . . . .                                                                                                                                                                                       ",
"                                                                                                                                                                                            . . . . . . . . . . . .                                                                                                                                                                                             ",
"                                                                                                                                                                                                . . . . . . . .                                                                                                                                                                                                 ",
"                                                                                                                                                                                                    . . . . .                                                                                                                                                                                                   ",
"                                                                                                                                                                                                                                                                                                                                                                                                                ",
"                                                                                                                                                                                                                                                                                                                                                                                                                ",
"                                                                                                                                                                                                                                                                                                                                                                                                                ",
"                                                                                                                                                                                                                                                                                                                                                                                                                ",
"                                                                                                                                                                                                                                                                                                                                                                                                                ",
"                                                                                                                                                                                                                                                                                                                                                                                                                "
};
