/* XPM */
static char * sunny_4_xpm[] = {
"100 100 1882 2",
"  	c None",
". 	c #000000",
"+ 	c #040100",
"@ 	c #130701",
"# 	c #050201",
"$ 	c #1D0A02",
"% 	c #47250C",
"& 	c #512B0F",
"* 	c #653715",
"= 	c #77421A",
"- 	c #82491D",
"; 	c #874C1E",
"> 	c #955423",
", 	c #965423",
"' 	c #74401A",
") 	c #78421A",
"! 	c #4B270C",
"~ 	c #3B1D07",
"{ 	c #221306",
"] 	c #644221",
"^ 	c #522C0F",
"/ 	c #160801",
"( 	c #160902",
"_ 	c #5A3011",
": 	c #935322",
"< 	c #BA692D",
"[ 	c #C47132",
"} 	c #C87332",
"| 	c #C97332",
"1 	c #C77231",
"2 	c #C67231",
"3 	c #C67232",
"4 	c #BD6D2E",
"5 	c #B0642B",
"6 	c #874C1F",
"7 	c #43220B",
"8 	c #301D0C",
"9 	c #AD7840",
"0 	c #845429",
"a 	c #B1642C",
"b 	c #623614",
"c 	c #140701",
"d 	c #040200",
"e 	c #371E09",
"f 	c #7D532A",
"g 	c #6C431E",
"h 	c #80481D",
"i 	c #AE6229",
"j 	c #C57031",
"k 	c #C77232",
"l 	c #C57131",
"m 	c #C67131",
"n 	c #AF632A",
"o 	c #8A4E20",
"p 	c #4D290D",
"q 	c #241003",
"r 	c #190D04",
"s 	c #C28748",
"t 	c #B47E43",
"u 	c #A25B26",
"v 	c #BD6C2F",
"w 	c #76411A",
"x 	c #2B1405",
"y 	c #100802",
"z 	c #77512A",
"A 	c #CE8F4D",
"B 	c #CB8F4D",
"C 	c #885C2F",
"D 	c #71401A",
"E 	c #A25C26",
"F 	c #C16F30",
"G 	c #BF6E2F",
"H 	c #9D5925",
"I 	c #572E11",
"J 	c #120501",
"K 	c #060200",
"L 	c #A9763F",
"M 	c #E19D56",
"N 	c #7D4B21",
"O 	c #C77331",
"P 	c #C26F30",
"Q 	c #955424",
"R 	c #311806",
"S 	c #000002",
"T 	c #5E3F20",
"U 	c #BD8546",
"V 	c #F0A85C",
"W 	c #D89752",
"X 	c #9C6C39",
"Y 	c #5E3717",
"Z 	c #965422",
"` 	c #C47030",
" .	c #925222",
"..	c #49260C",
"+.	c #0C0301",
"@.	c #070404",
"#.	c #0D0707",
"$.	c #010101",
"%.	c #020101",
"&.	c #221717",
"*.	c #1D1313",
"=.	c #030101",
"-.	c #865C2F",
";.	c #F7AB5D",
">.	c #936434",
",.	c #B2652A",
"'.	c #8E5021",
").	c #150801",
"!.	c #010000",
"~.	c #100A0A",
"{.	c #342424",
"].	c #513B3B",
"^.	c #5C4446",
"/.	c #453132",
"(.	c #855B30",
"_.	c #E7A157",
":.	c #FBB060",
"<.	c #E5A158",
"[.	c #956635",
"}.	c #79431B",
"|.	c #B9692D",
"1.	c #B6682C",
"2.	c #603313",
"3.	c #2D2020",
"4.	c #5B4242",
"5.	c #594141",
"6.	c #453232",
"7.	c #4B3535",
"8.	c #4E3737",
"9.	c #543C3C",
"0.	c #4D3737",
"a.	c #1E1414",
"b.	c #573F3F",
"c.	c #604646",
"d.	c #473232",
"e.	c #2E2021",
"f.	c #7B532A",
"g.	c #F8AC5F",
"h.	c #C98B4B",
"i.	c #935423",
"j.	c #B8692D",
"k.	c #5B3112",
"l.	c #0E0808",
"m.	c #2E2020",
"n.	c #473333",
"o.	c #483333",
"p.	c #614747",
"q.	c #6D4F4F",
"r.	c #6D5050",
"s.	c #6E5050",
"t.	c #6C4F4F",
"u.	c #513B3E",
"v.	c #805731",
"w.	c #DA9851",
"x.	c #FBAE5F",
"y.	c #F2A85B",
"z.	c #BF8547",
"A.	c #6B3E1B",
"B.	c #B4662B",
"C.	c #B96A2E",
"D.	c #754118",
"E.	c #402821",
"F.	c #5B4344",
"G.	c #6F5151",
"H.	c #342323",
"I.	c #372727",
"J.	c #503A3A",
"K.	c #372626",
"L.	c #1A1012",
"M.	c #795129",
"N.	c #F6AA5D",
"O.	c #ECA459",
"P.	c #815329",
"Q.	c #C06E30",
"R.	c #1A0B02",
"S.	c #140B0B",
"T.	c #3A2828",
"U.	c #422E2E",
"V.	c #694D4D",
"W.	c #6D5051",
"X.	c #533D40",
"Y.	c #563A1E",
"Z.	c #BF8446",
"`.	c #F5A95C",
" +	c #F9AD5F",
".+	c #CA8D4C",
"++	c #774B23",
"@+	c #8E4E1E",
"#+	c #C47031",
"$+	c #A65E26",
"%+	c #512C17",
"&+	c #533E3F",
"*+	c #684C4C",
"=+	c #5A4040",
"-+	c #3E2C2C",
";+	c #1C1212",
">+	c #4D3838",
",+	c #412F33",
"'+	c #A36F3D",
")+	c #FAAE60",
"!+	c #AA763F",
"~+	c #A35B26",
"{+	c #593011",
"]+	c #1B1111",
"^+	c #362626",
"/+	c #493434",
"(+	c #201515",
"_+	c #664A4A",
":+	c #6E4F4F",
"<+	c #654949",
"[+	c #4E3838",
"}+	c #312222",
"|+	c #1E1415",
"1+	c #3E2A25",
"2+	c #9B6B39",
"3+	c #E7A158",
"4+	c #FCAE60",
"5+	c #E49E57",
"6+	c #966735",
"7+	c #935020",
"8+	c #C77332",
"9+	c #B1652B",
"0+	c #5B331A",
"a+	c #503B3C",
"b+	c #624848",
"c+	c #4C3737",
"d+	c #2C1F1F",
"e+	c #251919",
"f+	c #433030",
"g+	c #3D2C2C",
"h+	c #2F2120",
"i+	c #6E5151",
"j+	c #422E31",
"k+	c #C78A49",
"l+	c #D89751",
"m+	c #854B20",
"n+	c #8F5121",
"o+	c #050200",
"p+	c #100909",
"q+	c #2C1E1E",
"r+	c #4C3636",
"s+	c #6C5050",
"t+	c #2F2020",
"u+	c #3C2A2A",
"v+	c #694C4C",
"w+	c #322323",
"x+	c #6B4E4E",
"y+	c #443137",
"z+	c #906134",
"A+	c #F2A75B",
"B+	c #FAAE5F",
"C+	c #EFA65B",
"D+	c #86592D",
"E+	c #A05924",
"F+	c #CA7433",
"G+	c #B5682B",
"H+	c #713F1B",
"I+	c #150D0F",
"J+	c #624747",
"K+	c #1F1414",
"L+	c #5A4142",
"M+	c #503625",
"N+	c #E7A259",
"O+	c #F9AD5E",
"P+	c #DE9B54",
"Q+	c #7D471D",
"R+	c #C87232",
"S+	c #B8692E",
"T+	c #351C0D",
"U+	c #000102",
"V+	c #040202",
"W+	c #1E1313",
"X+	c #3F2C2C",
"Y+	c #594040",
"Z+	c #563D3D",
"`+	c #1B1212",
" @	c #674C4C",
".@	c #5F4545",
"+@	c #463333",
"@@	c #412F2F",
"#@	c #5E4444",
"$@	c #463234",
"%@	c #B17A40",
"&@	c #F8AD5E",
"*@	c #FAAD5F",
"=@	c #E09B54",
"-@	c #7E5026",
";@	c #A85F27",
">@	c #B4672C",
",@	c #683A17",
"'@	c #473537",
")@	c #6C4E4E",
"!@	c #2F2124",
"~@	c #815830",
"{@	c #F5AC5E",
"]@	c #F8AC5E",
"^@	c #DF9B54",
"/@	c #7E481E",
"(@	c #6D3E1D",
"_@	c #000206",
":@	c #090505",
"<@	c #181010",
"[@	c #634848",
"}@	c #533B3B",
"|@	c #553D3D",
"1@	c #694C4D",
"2@	c #654635",
"3@	c #DC9952",
"4@	c #D69552",
"5@	c #6D411C",
"6@	c #BE6C2F",
"7@	c #B96A2D",
"8@	c #693B1C",
"9@	c #503C3D",
"0@	c #6B4F4F",
"a@	c #573F3E",
"b@	c #0E080A",
"c@	c #B77D43",
"d@	c #FBAF5F",
"e@	c #FAAD5E",
"f@	c #D79651",
"g@	c #7E461C",
"h@	c #A45D27",
"i@	c #1F0D03",
"j@	c #211616",
"k@	c #422F2F",
"l@	c #5C4343",
"m@	c #281B1B",
"n@	c #302121",
"o@	c #0B0606",
"p@	c #644A4A",
"q@	c #574145",
"r@	c #815832",
"s@	c #B37C43",
"t@	c #85481B",
"u@	c #B7682C",
"v@	c #703F1C",
"w@	c #543E3F",
"x@	c #6C4F50",
"y@	c #674A4B",
"z@	c #553A27",
"A@	c #E8A158",
"B@	c #F7AC5E",
"C@	c #C38749",
"D@	c #86491D",
"E@	c #BE6D2F",
"F@	c #43230A",
"G@	c #362727",
"H@	c #573E3E",
"I@	c #302222",
"J@	c #160D0D",
"K@	c #674B4B",
"L@	c #2A1C1C",
"M@	c #453131",
"N@	c #6A4D4D",
"O@	c #644949",
"P@	c #4F3838",
"Q@	c #2F2121",
"R@	c #3E2B2B",
"S@	c #392828",
"T@	c #664B4B",
"U@	c #6A4E4E",
"V@	c #3B282C",
"W@	c #B07840",
"X@	c #EBA75B",
"Y@	c #885B2E",
"Z@	c #AA5F28",
"`@	c #B26529",
" #	c #4D2D1F",
".#	c #634748",
"+#	c #4A3534",
"@#	c #A7733C",
"##	c #BB8145",
"$#	c #9E5824",
"%#	c #C57231",
"&#	c #BC6C2E",
"*#	c #42230C",
"=#	c #030203",
"-#	c #433131",
";#	c #080404",
">#	c #261A1A",
",#	c #483232",
"'#	c #614646",
")#	c #513A3A",
"!#	c #574040",
"~#	c #3A2929",
"{#	c #2E1F1F",
"]#	c #4C3838",
"^#	c #634949",
"/#	c #1F1515",
"(#	c #3A2A2A",
"_#	c #664A4B",
":#	c #644A4B",
"<#	c #281C1C",
"[#	c #513720",
"}#	c #D5954F",
"|#	c #DB9B54",
"1#	c #613918",
"2#	c #9C5923",
"3#	c #493331",
"4#	c #533B3C",
"5#	c #885F31",
"6#	c #F3AA5C",
"7#	c #F6AC5D",
"8#	c #916334",
"9#	c #AE632A",
"0#	c #391D08",
"a#	c #000001",
"b#	c #382828",
"c#	c #332424",
"d#	c #312121",
"e#	c #3C2B2B",
"f#	c #4A3636",
"g#	c #291C1C",
"h#	c #241818",
"i#	c #443030",
"j#	c #5C4444",
"k#	c #5A4141",
"l#	c #674B4C",
"m#	c #5A4344",
"n#	c #493433",
"o#	c #53301E",
"p#	c #64381C",
"q#	c #683B1E",
"r#	c #683A1E",
"s#	c #633719",
"t#	c #3F2112",
"u#	c #341806",
"v#	c #312225",
"w#	c #594245",
"x#	c #825B33",
"y#	c #F3A95C",
"z#	c #77411A",
"A#	c #C26D31",
"B#	c #AE612B",
"C#	c #925322",
"D#	c #83481D",
"E#	c #8C4921",
"F#	c #87491F",
"G#	c #81481D",
"H#	c #844C1D",
"I#	c #7F451D",
"J#	c #7C431B",
"K#	c #2E170F",
"L#	c #4C3638",
"M#	c #573B24",
"N#	c #E49F56",
"O#	c #EFA75A",
"P#	c #724821",
"Q#	c #BF6D2F",
"R#	c #4A2710",
"S#	c #392727",
"T#	c #0B0505",
"U#	c #0C0707",
"V#	c #150C0C",
"W#	c #4A3535",
"X#	c #261919",
"Y#	c #563E3E",
"Z#	c #3D2D2E",
"`#	c #2D1A15",
" $	c #4F2E1D",
".$	c #73401B",
"+$	c #9E5A24",
"@$	c #BB6B2D",
"#$	c #C37031",
"$$	c #BA6A2E",
"%$	c #B2652B",
"&$	c #8B4D20",
"*$	c #53301F",
"=$	c #4C3738",
"-$	c #2A1E21",
";$	c #BE8346",
">$	c #F5AB5D",
",$	c #986736",
"'$	c #A95D29",
")$	c #A66227",
"!$	c #9F771F",
"~$	c #BB9F21",
"{$	c #D4B826",
"]$	c #D1B525",
"^$	c #CCB225",
"/$	c #CAB024",
"($	c #CFB424",
"_$	c #D7BA27",
":$	c #D1B725",
"<$	c #C1A721",
"[$	c #B49B1D",
"}$	c #5C4E0A",
"|$	c #81562E",
"1$	c #EBA459",
"2$	c #F6AB5D",
"3$	c #F9AC5E",
"4$	c #E4A057",
"5$	c #6D421C",
"6$	c #4C2D1F",
"7$	c #684C4D",
"8$	c #271B1B",
"9$	c #251818",
"0$	c #523B3B",
"a$	c #281A1A",
"b$	c #2D1F1F",
"c$	c #604747",
"d$	c #4D383A",
"e$	c #4C2E25",
"f$	c #7D451E",
"g$	c #C27030",
"h$	c #BB6B2E",
"i$	c #955421",
"j$	c #5B3214",
"k$	c #714C27",
"l$	c #E6A158",
"m$	c #F8AD5F",
"n$	c #DE9954",
"o$	c #946D31",
"p$	c #846E14",
"q$	c #EDCE2B",
"r$	c #F9D72F",
"s$	c #FAD82F",
"t$	c #F9D72E",
"u$	c #FAD92F",
"v$	c #FBD82F",
"w$	c #FAD72E",
"x$	c #FAD82E",
"y$	c #FBD92F",
"z$	c #FCD930",
"A$	c #E2C42A",
"B$	c #A9911C",
"C$	c #7D641E",
"D$	c #996A37",
"E$	c #D59450",
"F$	c #FAAC5E",
"G$	c #E19C56",
"H$	c #834E22",
"I$	c #3D2724",
"J$	c #140D0D",
"K$	c #191010",
"L$	c #63494A",
"M$	c #4A3435",
"N$	c #5E361D",
"O$	c #9B5823",
"P$	c #BC6B2D",
"Q$	c #84481C",
"R$	c #754A26",
"S$	c #A17139",
"T$	c #9F871E",
"U$	c #DFC325",
"V$	c #F1D02D",
"W$	c #F8D62E",
"X$	c #F9D82F",
"Y$	c #F0CF2C",
"Z$	c #BCA31E",
"`$	c #756517",
" %	c #B97F44",
".%	c #CB8C4C",
"+%	c #7E461B",
"@%	c #C67331",
"#%	c #AC6229",
"$%	c #4F3939",
"%%	c #6D5151",
"&%	c #5B4141",
"*%	c #221616",
"=%	c #5A4243",
"-%	c #513022",
";%	c #8F501F",
">%	c #BC6B2E",
",%	c #C97333",
"'%	c #B5672D",
")%	c #5B3C0E",
"!%	c #C0A721",
"~%	c #F7D62E",
"{%	c #FBDA2F",
"]%	c #EDCF2C",
"^%	c #958119",
"/%	c #AD7740",
"(%	c #B17A42",
"_%	c #8C4F20",
":%	c #B06429",
"<%	c #3E2A28",
"[%	c #6C4F4E",
"}%	c #231717",
"|%	c #5D4444",
"1%	c #503939",
"2%	c #654A4A",
"3%	c #6A4E4F",
"4%	c #533C3E",
"5%	c #6C3B1B",
"6%	c #B3662B",
"7%	c #C87233",
"8%	c #C97432",
"9%	c #BA692E",
"0%	c #664612",
"a%	c #BEA621",
"b%	c #F8D82F",
"c%	c #EACB2B",
"d%	c #9E881C",
"e%	c #523A16",
"f%	c #A85F28",
"g%	c #422E30",
"h%	c #342525",
"i%	c #6F5252",
"j%	c #160E0E",
"k%	c #5F4646",
"l%	c #4B302A",
"m%	c #BC6C2D",
"n%	c #B1632A",
"o%	c #A25B25",
"p%	c #925121",
"q%	c #84481D",
"r%	c #915120",
"s%	c #935222",
"t%	c #A55D26",
"u%	c #A95F28",
"v%	c #86481F",
"w%	c #9B8819",
"x%	c #FBDA30",
"y%	c #F7D52E",
"z%	c #C0A521",
"A%	c #7A5119",
"B%	c #844A1E",
"C%	c #523D3E",
"D%	c #5D4343",
"E%	c #412E2E",
"F%	c #4B3636",
"G%	c #1D1212",
"H%	c #391D07",
"I%	c #A35C27",
"J%	c #945222",
"K%	c #864C20",
"L%	c #784720",
"M%	c #7D5026",
"N%	c #A16E39",
"O%	c #C48748",
"P%	c #D1914F",
"Q%	c #C68949",
"R%	c #C38849",
"S%	c #B47D43",
"T%	c #AA753F",
"U%	c #8B6032",
"V%	c #6F4924",
"W%	c #6F411C",
"X%	c #874A1D",
"Y%	c #AC6129",
"Z%	c #C16E2F",
"`%	c #C97433",
" &	c #AD5F2A",
".&	c #806C14",
"+&	c #E1C624",
"@&	c #E2C320",
"#&	c #CFB21E",
"$&	c #EACB23",
"%&	c #F7D52C",
"&&	c #F9D62E",
"*&	c #CBB024",
"=&	c #674114",
"-&	c #BC6B2F",
";&	c #BA6A2D",
">&	c #472510",
",&	c #392829",
"'&	c #0F0808",
")&	c #170E0E",
"!&	c #190F0F",
"~&	c #130B0B",
"{&	c #402E2E",
"]&	c #604545",
"^&	c #40210B",
"/&	c #9A5724",
"(&	c #A55C26",
"_&	c #864E22",
":&	c #926233",
"<&	c #C5894A",
"[&	c #DB9953",
"}&	c #E7A258",
"|&	c #EDA55A",
"1&	c #F7AB5E",
"2&	c #F7AD5E",
"3&	c #F4A95D",
"4&	c #E19D55",
"5&	c #946635",
"6&	c #80552B",
"7&	c #6E3E18",
"8&	c #A95D28",
"9&	c #7D5219",
"0&	c #AE970E",
"a&	c #A9985D",
"b&	c #B0AEAB",
"c&	c #B8B8BB",
"d&	c #98958D",
"e&	c #BDA324",
"f&	c #FAD72D",
"g&	c #F8D72E",
"h&	c #F8D62D",
"i&	c #A28D1A",
"j&	c #925221",
"k&	c #170E10",
"l&	c #362525",
"m&	c #543D3D",
"n&	c #090404",
"o&	c #533C3C",
"p&	c #291D1D",
"q&	c #352423",
"r&	c #6B3A14",
"s&	c #7E4C23",
"t&	c #B37B41",
"u&	c #E49F57",
"v&	c #FCAF5F",
"w&	c #BE8446",
"x&	c #553518",
"y&	c #84720A",
"z&	c #9D9270",
"A&	c #D0D0D2",
"B&	c #D4D4D4",
"C&	c #D1D1D0",
"D&	c #E9E9EB",
"E&	c #948764",
"F&	c #F2D029",
"G&	c #EBCD25",
"H&	c #C0A81C",
"I&	c #D2B51E",
"J&	c #E7C726",
"K&	c #EBCF2C",
"L&	c #6F5214",
"M&	c #673918",
"N&	c #584041",
"O&	c #040303",
"P&	c #201616",
"Q&	c #2A1D1E",
"R&	c #6E4823",
"S&	c #D39350",
"T&	c #F0A75B",
"U&	c #E9A257",
"V&	c #DE9A53",
"W&	c #D99751",
"X&	c #E49E55",
"Y&	c #EBA359",
"Z&	c #FBAF60",
"`&	c #F4AA5D",
" *	c #816027",
".*	c #948556",
"+*	c #CECFCF",
"@*	c #949495",
"#*	c #323232",
"$*	c #5A5A5A",
"%*	c #E7E6E6",
"&*	c #9A9792",
"**	c #E8C922",
"=*	c #F8D72D",
"-*	c #EFCF2B",
";*	c #D9BD1F",
">*	c #AA973E",
",*	c #8E887C",
"'*	c #AAABAE",
")*	c #9D9EA0",
"!*	c #837D71",
"~*	c #988239",
"{*	c #C2A61D",
"]*	c #E8C825",
"^*	c #F7D62D",
"/*	c #FADA2F",
"(*	c #B6A020",
"_*	c #945822",
":*	c #522D18",
"<*	c #634849",
"[*	c #352525",
"}*	c #463232",
"|*	c #5F4444",
"1*	c #473434",
"2*	c #674522",
"3*	c #D89651",
"4*	c #E6A057",
"5*	c #B47C43",
"6*	c #916337",
"7*	c #6E4B28",
"8*	c #513619",
"9*	c #473128",
"0*	c #46312C",
"a*	c #62432B",
"b*	c #4F3526",
"c*	c #5A3D27",
"d*	c #885E32",
"e*	c #B87F43",
"f*	c #F6AB5E",
"g*	c #E49E56",
"h*	c #5E4518",
"i*	c #B4B0A8",
"j*	c #A3A4A4",
"k*	c #191919",
"l*	c #151515",
"m*	c #C4C3C3",
"n*	c #9B9995",
"o*	c #E0C323",
"p*	c #A08A35",
"q*	c #736A50",
"r*	c #45423E",
"s*	c #C2C3C5",
"t*	c #F4F4F4",
"u*	c #FFFFFE",
"v*	c #FEFEFE",
"w*	c #F6F6F7",
"x*	c #DBDCDD",
"y*	c #B4B4B5",
"z*	c #7C7667",
"A*	c #978226",
"B*	c #D8BA21",
"C*	c #FBD82E",
"D*	c #F6D52E",
"E*	c #98761D",
"F*	c #914F21",
"G*	c #38292A",
"H*	c #120A0A",
"I*	c #322222",
"J*	c #2B1E1E",
"K*	c #060303",
"L*	c #2F1F1C",
"M*	c #936534",
"N*	c #966738",
"O*	c #583D31",
"P*	c #4C383D",
"Q*	c #5F4649",
"R*	c #5C4344",
"S*	c #6B4E4F",
"T*	c #604647",
"U*	c #322429",
"V*	c #180D04",
"W*	c #4B331A",
"X*	c #9A6838",
"Y*	c #DC9852",
"Z*	c #F5AA5D",
"`*	c #FAAF60",
" =	c #B97F45",
".=	c #403832",
"+=	c #B8B8B8",
"@=	c #4D4D4C",
"#=	c #A2A3A4",
"$=	c #A4955D",
"%=	c #DDC21A",
"&=	c #7D7663",
"*=	c #C5C6C9",
"==	c #E6E7E7",
"-=	c #A9AAA9",
";=	c #8C8C8B",
">=	c #E8E8E8",
",=	c #FFFFFF",
"'=	c #FDFDFD",
")=	c #EEEEEF",
"!=	c #C0C1C2",
"~=	c #86806F",
"{=	c #D7B818",
"]=	c #FCDA2F",
"^=	c #C7AA23",
"/=	c #4A2A11",
"(=	c #503A3C",
"_=	c #030202",
":=	c #382727",
"<=	c #5E4547",
"[=	c #6E5150",
"}=	c #402D2D",
"|=	c #513B3F",
"1=	c #4F362C",
"2=	c #946637",
"3=	c #DE9B53",
"4=	c #956934",
"5=	c #95844D",
"6=	c #A3A4A5",
"7=	c #1C1C1C",
"8=	c #5F5F5E",
"9=	c #B2B3B5",
"0=	c #9E881D",
"a=	c #8A7E59",
"b=	c #DDDDDF",
"c=	c #C9C9C9",
"d=	c #989898",
"e=	c #F7F7F7",
"f=	c #DADADC",
"g=	c #94865A",
"h=	c #EECF25",
"i=	c #F8D72F",
"j=	c #EBCC2B",
"k=	c #665629",
"l=	c #2A1D1D",
"m=	c #584040",
"n=	c #120B0B",
"o=	c #4B363D",
"p=	c #6A492D",
"q=	c #C68A49",
"r=	c #E69F56",
"s=	c #937A1F",
"t=	c #AA953D",
"u=	c #7E8083",
"v=	c #090806",
"w=	c #A6A6A6",
"x=	c #A39D92",
"y=	c #AE9411",
"z=	c #ACADB0",
"A=	c #F8F8F8",
"B=	c #919191",
"C=	c #C8C8C8",
"D=	c #BFC1C3",
"E=	c #B09D2A",
"F=	c #A58F24",
"G=	c #553C43",
"H=	c #3B2929",
"I=	c #443131",
"J=	c #3B2A2A",
"K=	c #231818",
"L=	c #291B1B",
"M=	c #5A4145",
"N=	c #533828",
"O=	c #BC8245",
"P=	c #F3AB5E",
"Q=	c #BC8247",
"R=	c #A28D19",
"S=	c #AB9428",
"T=	c #96999D",
"U=	c #414141",
"V=	c #404040",
"W=	c #A9A9A9",
"X=	c #D2D2D3",
"Y=	c #8C7A3E",
"Z=	c #8C7D42",
"`=	c #D4D5D6",
" -	c #E1E1E1",
".-	c #858584",
"+-	c #DFDFDF",
"@-	c #F0F1F2",
"#-	c #86817B",
"$-	c #DABB1E",
"%-	c #F8D52E",
"&-	c #D9BD27",
"*-	c #463013",
"=-	c #3D2720",
"--	c #543D3F",
";-	c #241919",
">-	c #674A4A",
",-	c #2D1E1E",
"'-	c #604648",
")-	c #412D30",
"!-	c #80582D",
"~-	c #7C522D",
"{-	c #CDB125",
"]-	c #D2B425",
"^-	c #999A9D",
"/-	c #B0B1B3",
"(-	c #D2D2D4",
"_-	c #D8D8DA",
":-	c #A59B80",
"<-	c #8B7511",
"[-	c #B6B6B8",
"}-	c #FCFCFC",
"|-	c #C6C6C6",
"1-	c #A3A3A3",
"2-	c #F9F9F9",
"3-	c #CECED0",
"4-	c #AF9735",
"5-	c #F4D52E",
"6-	c #916F1C",
"7-	c #734119",
"8-	c #432E2C",
"9-	c #5F4647",
"0-	c #4E3939",
"a-	c #483434",
"b-	c #1C1313",
"c-	c #352626",
"d-	c #5B4343",
"e-	c #6B4F50",
"f-	c #5B4246",
"g-	c #50372E",
"h-	c #966736",
"i-	c #62491A",
"j-	c #E1C429",
"k-	c #F5D429",
"l-	c #B9A029",
"m-	c #9D894A",
"n-	c #9D8E64",
"o-	c #BFAA40",
"p-	c #E8CA1D",
"q-	c #978437",
"r-	c #DEDEDF",
"s-	c #FAFAFA",
"t-	c #9E9E9E",
"u-	c #CECECE",
"v-	c #F2F2F3",
"w-	c #948A76",
"x-	c #ECCB22",
"y-	c #B69E20",
"z-	c #AA5E2A",
"A-	c #8E501F",
"B-	c #532E14",
"C-	c #180E0E",
"D-	c #130C0D",
"E-	c #3B2B2B",
"F-	c #453030",
"G-	c #281D1D",
"H-	c #3F2D2D",
"I-	c #5F4548",
"J-	c #4F3834",
"K-	c #99693C",
"L-	c #D5944F",
"M-	c #F6AC5E",
"N-	c #8E6430",
"O-	c #DFC328",
"P-	c #F9D82E",
"Q-	c #F8D72C",
"R-	c #8E7F53",
"S-	c #EFEFF0",
"T-	c #E2E2E2",
"U-	c #858586",
"V-	c #E3E3E3",
"W-	c #B6B6B6",
"X-	c #C9AD1E",
"Y-	c #C6AE23",
"Z-	c #8A4B20",
"`-	c #8D4F21",
" ;	c #552E15",
".;	c #312323",
"+;	c #584141",
"@;	c #5D4242",
"#;	c #1C1111",
"$;	c #4D373A",
"%;	c #75502F",
"&;	c #C88C4A",
"*;	c #8D682D",
"=;	c #887948",
"-;	c #E8E8E9",
";;	c #D2D2D2",
">;	c #B5B5B5",
",;	c #D2D3D5",
"';	c #9F8A25",
");	c #DEC629",
"!;	c #784B18",
"~;	c #C36F2F",
"{;	c #C87432",
"];	c #764019",
"^;	c #0A0505",
"/;	c #2B1D1D",
"(;	c #684D4D",
"_;	c #433033",
":;	c #906334",
"<;	c #7F5D28",
"[;	c #E9C92A",
"};	c #978436",
"|;	c #D7D6D8",
"1;	c #F4F3F4",
"2;	c #A7A7A7",
"3;	c #F1F1F1",
"4;	c #EDEEEE",
"5;	c #887D55",
"6;	c #F6D82D",
"7;	c #F2D22D",
"8;	c #725B11",
"9;	c #B7682D",
"0;	c #6E3D1B",
"a;	c #050303",
"b;	c #5D4547",
"c;	c #47312E",
"d;	c #9F6D3A",
"e;	c #E8A259",
"f;	c #F3A85C",
"g;	c #886827",
"h;	c #EFCF2C",
"i;	c #F7D72F",
"j;	c #8F801A",
"k;	c #727274",
"l;	c #7B7B7B",
"m;	c #EBEBEB",
"n;	c #F4F5F5",
"o;	c #89806A",
"p;	c #F2D229",
"q;	c #F5D42D",
"r;	c #877414",
"s;	c #B7672C",
"t;	c #C87333",
"u;	c #BE6D2E",
"v;	c #7D451B",
"w;	c #412C2A",
"x;	c #664B4C",
"y;	c #0D0808",
"z;	c #2A1C1E",
"A;	c #7A5232",
"B;	c #C68849",
"C;	c #F5AD5F",
"D;	c #8E6E2B",
"E;	c #EFD02B",
"F;	c #E9CA2B",
"G;	c #574A09",
"H;	c #030303",
"I;	c #B4B4B4",
"J;	c #CBCBCB",
"K;	c #7F7C77",
"L;	c #EACA28",
"M;	c #957C19",
"N;	c #B8682E",
"O;	c #C46F30",
"P;	c #864B1D",
"Q;	c #312324",
"R;	c #493535",
"S;	c #503A3B",
"T;	c #5D3F1F",
"U;	c #E39E56",
"V;	c #A4763D",
"W;	c #D1B622",
"X;	c #ECCD2B",
"Y;	c #534608",
"Z;	c #626261",
"`;	c #EFEFEF",
" >	c #CFCFCF",
".>	c #BABABA",
"+>	c #706752",
"@>	c #EDCD29",
"#>	c #F2D12D",
"$>	c #796412",
"%>	c #A95F29",
"&>	c #C57132",
"*>	c #693915",
"=>	c #261B1B",
"->	c #594144",
";>	c #573C29",
">>	c #C58949",
",>	c #D89854",
"'>	c #A28B1D",
")>	c #F7D52D",
"!>	c #F7D92F",
"~>	c #857414",
"{>	c #262626",
"]>	c #8B8B8B",
"^>	c #A18B21",
"/>	c #775724",
"(>	c #82562B",
"_>	c #8C4D1E",
":>	c #C26E30",
"<>	c #6F3D17",
"[>	c #070405",
"}>	c #110B0B",
"|>	c #3C2A2D",
"1>	c #6D4B2A",
"2>	c #CA8C4A",
"3>	c #F4AC5E",
"4>	c #967330",
"5>	c #E6C728",
"6>	c #FBDB2F",
"7>	c #C4AC23",
"8>	c #2A2202",
"9>	c #0C0C0B",
"0>	c #888888",
"a>	c #F2F1F2",
"b>	c #827D71",
"c>	c #E1C222",
"d>	c #D6B926",
"e>	c #E5A157",
"f>	c #956636",
"g>	c #BD6C2E",
"h>	c #3C1E08",
"i>	c #422B13",
"j>	c #D2924F",
"k>	c #FAB060",
"l>	c #B07F44",
"m>	c #C0A720",
"n>	c #F4D52D",
"o>	c #A48D1A",
"p>	c #3A351A",
"q>	c #878889",
"r>	c #E7E7E7",
"s>	c #F2F2F2",
"t>	c #BFC0C3",
"u>	c #A28C27",
"v>	c #D4B725",
"w>	c #A1703A",
"x>	c #FCB060",
"y>	c #B07941",
"z>	c #78441C",
"A>	c #B7672B",
"B>	c #C87231",
"C>	c #703E18",
"D>	c #010103",
"E>	c #201414",
"F>	c #3A2A2E",
"G>	c #49311D",
"H>	c #AB753F",
"I>	c #F4AB5E",
"J>	c #EEA95C",
"K>	c #C88F4E",
"L>	c #896032",
"M>	c #563115",
"N>	c #837013",
"O>	c #F2D12C",
"P>	c #FAD72F",
"Q>	c #F3D42D",
"R>	c #CAB622",
"S>	c #837E75",
"T>	c #EAEAEA",
"U>	c #8C8C8C",
"V>	c #E6E8E9",
"W>	c #8B816A",
"X>	c #E7C723",
"Y>	c #B9A11E",
"Z>	c #AE7741",
"`>	c #F4AA5C",
" ,	c #BD8347",
".,	c #754620",
"+,	c #A75E27",
"@,	c #A25C28",
"#,	c #201112",
"$,	c #271A1A",
"%,	c #573C2F",
"&,	c #C28747",
"*,	c #DC9D55",
"=,	c #A4743D",
"-,	c #6B4721",
";,	c #723E17",
">,	c #A15B26",
",,	c #C06E2F",
"',	c #915A20",
"),	c #D9BC26",
"!,	c #BBA11A",
"~,	c #A4A4A4",
"{,	c #9F9F9F",
"],	c #D7D7D7",
"^,	c #F7F7F8",
"/,	c #9D9D9E",
"(,	c #BA9F1C",
"_,	c #F3D12D",
":,	c #7D6A17",
"<,	c #D59451",
"[,	c #DA9852",
"},	c #8F5F30",
"|,	c #8E4F1F",
"1,	c #C16E30",
"2,	c #572F10",
"3,	c #50392D",
"4,	c #CA8C4C",
"5,	c #F8AB5E",
"6,	c #EEA85C",
"7,	c #C2894A",
"8,	c #895D30",
"9,	c #6B3E1A",
"0,	c #8F4F1F",
"a,	c #B5672C",
"b,	c #C87331",
"c,	c #AF632B",
"d,	c #A58F1A",
"e,	c #F6D52B",
"f,	c #A78E2E",
"g,	c #A4A4A3",
"h,	c #ECEDED",
"i,	c #8A8B8A",
"j,	c #B5B0A9",
"k,	c #A99239",
"l,	c #F1D02A",
"m,	c #CBB023",
"n,	c #8E6331",
"o,	c #E8A157",
"p,	c #9B6A37",
"q,	c #8B4D1F",
"r,	c #C47131",
"s,	c #422F32",
"t,	c #9F6E3B",
"u,	c #F7AC5D",
"v,	c #FBB161",
"w,	c #F4AE5F",
"x,	c #D59953",
"y,	c #9F703B",
"z,	c #6B4521",
"A,	c #7A4219",
"B,	c #A96028",
"C,	c #C57032",
"D,	c #7C5E16",
"E,	c #ECCC2B",
"F,	c #F2D128",
"G,	c #A88F14",
"H,	c #6F695E",
"I,	c #94918F",
"J,	c #C4C4C6",
"K,	c #FCFCFD",
"L,	c #E4E5E6",
"M,	c #585450",
"N,	c #A29677",
"O,	c #C3A945",
"P,	c #E5C421",
"Q,	c #F6D42A",
"R,	c #F5D32D",
"S,	c #8D761B",
"T,	c #D0904F",
"U,	c #FDB061",
"V,	c #EEA65A",
"W,	c #A6723C",
"X,	c #945322",
"Y,	c #AB6229",
"Z,	c #3A1E07",
"`,	c #453136",
" '	c #9E6D39",
".'	c #EEA55A",
"+'	c #FCAF60",
"@'	c #F9AE60",
"#'	c #E2A258",
"$'	c #B17F44",
"%'	c #714F28",
"&'	c #6A3C17",
"*'	c #975523",
"='	c #B8682D",
"-'	c #C87433",
";'	c #985724",
">'	c #B69F1E",
",'	c #F2D129",
"''	c #B69D2B",
")'	c #968A67",
"!'	c #A09673",
"~'	c #907F49",
"{'	c #BEA416",
"]'	c #8C7B36",
"^'	c #86837A",
"/'	c #999795",
"('	c #A19F9B",
"_'	c #8A836D",
":'	c #B89F14",
"<'	c #F4D229",
"['	c #FAD82B",
"}'	c #DEC028",
"|'	c #43340B",
"1'	c #CA8B4B",
"2'	c #DA9752",
"3'	c #EDA45A",
"4'	c #FBAE60",
"5'	c #A5713B",
"6'	c #9F5A24",
"7'	c #BB6A2E",
"8'	c #552E10",
"9'	c #5C4242",
"0'	c #5F4546",
"a'	c #604022",
"b'	c #ECA559",
"c'	c #FDB161",
"d'	c #EFA85C",
"e'	c #CD914F",
"f'	c #8C6234",
"g'	c #653E1B",
"h'	c #894C1E",
"i'	c #C06D2F",
"j'	c #7C4E1A",
"k'	c #A7921B",
"l'	c #F5D42A",
"m'	c #AF9A45",
"n'	c #B5B6BA",
"o'	c #DCDCDE",
"p'	c #D3D3D4",
"q'	c #C6C7CA",
"r'	c #AFAEA7",
"s'	c #978958",
"t'	c #C3A812",
"u'	c #E1C21D",
"v'	c #E7C821",
"w'	c #F2D127",
"x'	c #FAD92E",
"y'	c #F6D62E",
"z'	c #AD981E",
"A'	c #1A1506",
"B'	c #433132",
"C'	c #422D29",
"D'	c #4F3525",
"E'	c #956735",
"F'	c #E19C55",
"G'	c #825024",
"H'	c #633613",
"I'	c #4E393A",
"J'	c #7C562C",
"K'	c #D99A53",
"L'	c #AD7A41",
"M'	c #745027",
"N'	c #77431B",
"O'	c #A05B26",
"P'	c #BC6A2E",
"Q'	c #744817",
"R'	c #B19C1D",
"S'	c #CDB020",
"T'	c #939496",
"U'	c #9D9D9D",
"V'	c #525151",
"W'	c #2E2D2E",
"X'	c #8A8A8A",
"Y'	c #A7A8AB",
"Z'	c #A9A7A4",
"`'	c #AD9640",
" )	c #F3D229",
".)	c #F6D42E",
"+)	c #BFA521",
"@)	c #784D18",
"#)	c #3B221C",
"$)	c #684B4B",
"%)	c #3B2B2C",
"&)	c #3B260F",
"*)	c #9D6B38",
"=)	c #AA5F27",
"-)	c #854B1D",
";)	c #644848",
">)	c #150B03",
",)	c #573314",
"')	c #8D4E1F",
"))	c #B2662B",
"!)	c #774519",
"~)	c #B69E1F",
"{)	c #D0B221",
"])	c #727271",
"^)	c #090909",
"/)	c #39393A",
"()	c #CFCFD0",
"_)	c #B8B9BA",
":)	c #B79E22",
"<)	c #F9D72D",
"[)	c #B8A21F",
"})	c #6F4816",
"|)	c #B2632C",
"1)	c #63371A",
"2)	c #251A1B",
"3)	c #473436",
"4)	c #69482A",
"5)	c #BB8244",
"6)	c #F1A95C",
"7)	c #82491E",
"8)	c #82481C",
"9)	c #150908",
"0)	c #884C1F",
"a)	c #5C460F",
"b)	c #B79E20",
"c)	c #E4C524",
"d)	c #9C8D56",
"e)	c #777980",
"f)	c #39383A",
"g)	c #010100",
"h)	c #979797",
"i)	c #EBEBEC",
"j)	c #8B8370",
"k)	c #EECD27",
"l)	c #F1D12C",
"m)	c #784B19",
"n)	c #B7672D",
"o)	c #6D3C17",
"p)	c #614748",
"q)	c #473230",
"r)	c #8C6031",
"s)	c #EAA258",
"t)	c #83562A",
"u)	c #683815",
"v)	c #563F3F",
"w)	c #342220",
"x)	c #623617",
"y)	c #7D461B",
"z)	c #854A1D",
"A)	c #A65E27",
"B)	c #AD632A",
"C)	c #B7692C",
"D)	c #B1652A",
"E)	c #C37030",
"F)	c #BE6B2F",
"G)	c #B9692E",
"H)	c #A55E26",
"I)	c #854A1E",
"J)	c #61371D",
"K)	c #55301E",
"L)	c #704B25",
"M)	c #A16F3B",
"N)	c #7E6E15",
"O)	c #AF9B14",
"P)	c #9F9268",
"Q)	c #929392",
"R)	c #656565",
"S)	c #2E2E2E",
"T)	c #101010",
"U)	c #313130",
"V)	c #949494",
"W)	c #F1F2F3",
"X)	c #918E8B",
"Y)	c #E1C224",
"Z)	c #A98F1D",
"`)	c #884A1F",
" !	c #84491B",
".!	c #694E4E",
"+!	c #50393A",
"@!	c #241612",
"#!	c #B27C42",
"$!	c #9C5623",
"%!	c #4F2B0E",
"&!	c #6A4C4C",
"*!	c #4D393A",
"=!	c #483435",
"-!	c #422B27",
";!	c #372526",
">!	c #4B322E",
",!	c #34221D",
"'!	c #552E0F",
")!	c #5F3413",
"!!	c #562F12",
"~!	c #623618",
"{!	c #784319",
"]!	c #7B451D",
"^!	c #6F3E1C",
"/!	c #58321C",
"(!	c #513122",
"_!	c #512F1F",
":!	c #482B21",
"<!	c #3F2D2E",
"[!	c #533D3F",
"}!	c #483437",
"|!	c #B77F44",
"1!	c #F9AF5F",
"2!	c #A07136",
"3!	c #5B4B18",
"4!	c #7C7A7B",
"5!	c #BDBDBC",
"6!	c #BDBDBE",
"7!	c #CCCCCD",
"8!	c #D9D9D9",
"9!	c #E6E7E8",
"0!	c #BEBFC2",
"a!	c #B39C3C",
"b!	c #F7D62C",
"c!	c #EBCB2B",
"d!	c #978218",
"e!	c #8C4B20",
"f!	c #83491C",
"g!	c #553F41",
"h!	c #705252",
"i!	c #432F2F",
"j!	c #352526",
"k!	c #342212",
"l!	c #BE8647",
"m!	c #E39F56",
"n!	c #7D4A20",
"o!	c #301705",
"p!	c #2D201F",
"q!	c #1E1515",
"r!	c #3E2D2E",
"s!	c #4E3839",
"t!	c #1F1516",
"u!	c #543E40",
"v!	c #694D4E",
"w!	c #422E2C",
"x!	c #D0914E",
"y!	c #C38748",
"z!	c #7B5526",
"A!	c #746631",
"B!	c #9A8B67",
"C!	c #B3AC9A",
"D!	c #9C978D",
"E!	c #A2946A",
"F!	c #C0A633",
"G!	c #EFCE25",
"H!	c #ECD02B",
"I!	c #C5AF24",
"J!	c #8A7119",
"K!	c #894720",
"L!	c #563F41",
"M!	c #312221",
"N!	c #090405",
"O!	c #54391B",
"P!	c #D99752",
"Q!	c #946434",
"R!	c #9A5723",
"S!	c #2C1605",
"T!	c #5A4242",
"U!	c #3D2B2B",
"V!	c #48322A",
"W!	c #ECA35A",
"X!	c #AA773E",
"Y!	c #605205",
"Z!	c #93800A",
"`!	c #B1990E",
" ~	c #DABC22",
".~	c #F1D12B",
"+~	c #FCDA30",
"@~	c #F3D62E",
"#~	c #BBA621",
"$~	c #9A851A",
"%~	c #7C5719",
"&~	c #954F24",
"*~	c #B5642D",
"=~	c #713E1A",
"-~	c #5B4444",
";~	c #80572D",
">~	c #976836",
",~	c #7C451B",
"'~	c #351A06",
")~	c #4A3434",
"!~	c #5E4129",
"~~	c #CB8D4D",
"{~	c #693916",
"]~	c #A25A28",
"^~	c #80451D",
"/~	c #714617",
"(~	c #6C5C0F",
"_~	c #A28C1B",
":~	c #A58F1C",
"<~	c #A8911B",
"[~	c #88721A",
"}~	c #876B26",
"|~	c #674624",
"1~	c #924F21",
"2~	c #6A3A18",
"3~	c #231A1B",
"4~	c #1E1314",
"5~	c #533719",
"6~	c #3A1F09",
"7~	c #523C3C",
"8~	c #7E562D",
"9~	c #F8AC5D",
"0~	c #9F6E3A",
"a~	c #8E4F20",
"b~	c #AE622B",
"c~	c #A55C28",
"d~	c #975324",
"e~	c #7B512B",
"f~	c #DC9853",
"g~	c #D59551",
"h~	c #8C4F21",
"i~	c #5F3313",
"j~	c #020100",
"k~	c #4D3736",
"l~	c #C28647",
"m~	c #CE904E",
"n~	c #6C3F1B",
"o~	c #955322",
"p~	c #A3703C",
"q~	c #FDAF61",
"r~	c #C37131",
"s~	c #552F19",
"t~	c #654A4B",
"u~	c #62484A",
"v~	c #6F4B2D",
"w~	c #EDA459",
"x~	c #EAA358",
"y~	c #7D5229",
"z~	c #AD6229",
"A~	c #743F18",
"B~	c #8C6032",
"C~	c #70441E",
"D~	c #BC6C2F",
"E~	c #44271B",
"F~	c #463131",
"G~	c #AF7940",
"H~	c #FAB061",
"I~	c #AA7840",
"J~	c #905121",
"K~	c #B3672A",
"L~	c #36211E",
"M~	c #5B3E24",
"N~	c #F3AA5D",
"O~	c #815529",
"P~	c #B4672B",
"Q~	c #341D16",
"R~	c #180F0F",
"S~	c #2D1F20",
"T~	c #5E4020",
"U~	c #D08F4D",
"V~	c #6C411E",
"W~	c #894D1F",
"X~	c #503A3D",
"Y~	c #503833",
"Z~	c #DB9B53",
"`~	c #7F582D",
" {	c #945422",
".{	c #322324",
"+{	c #211515",
"@{	c #5E4545",
"#{	c #0E0707",
"${	c #3D2A2A",
"%{	c #2F2021",
"&{	c #291A11",
"*{	c #B57E43",
"={	c #FAAF5F",
"-{	c #DD9954",
";{	c #694521",
">{	c #AB6028",
",{	c #513021",
"'{	c #513937",
"){	c #D1904E",
"!{	c #A16E3A",
"~{	c #A45C26",
"{{	c #5A4343",
"]{	c #4B373B",
"^{	c #8B6135",
"/{	c #E9A359",
"({	c #724D27",
"_{	c #A15C26",
":{	c #8D5122",
"<{	c #443334",
"[{	c #342426",
"}{	c #B57D42",
"|{	c #985523",
"1{	c #4B3637",
"2{	c #80572E",
"3{	c #E3A057",
"4{	c #906233",
"5{	c #955422",
"6{	c #9E5A25",
"7{	c #3A1F0B",
"8{	c #1C1416",
"9{	c #281C20",
"0{	c #926435",
"a{	c #B98044",
"b{	c #9C5725",
"c{	c #BF6D30",
"d{	c #47250B",
"e{	c #060404",
"f{	c #553E3E",
"g{	c #322425",
"h{	c #503B3E",
"i{	c #80572F",
"j{	c #E29E56",
"k{	c #865B2F",
"l{	c #9C5925",
"m{	c #552E13",
"n{	c #875D35",
"o{	c #C08648",
"p{	c #935120",
"q{	c #AA6129",
"r{	c #241312",
"s{	c #6B4D4D",
"t{	c #584042",
"u{	c #38230F",
"v{	c #946536",
"w{	c #E59F56",
"x{	c #CB8C4D",
"y{	c #6D441F",
"z{	c #A35C26",
"A{	c #C57232",
"B{	c #A35D26",
"C{	c #4F2F22",
"D{	c #543E41",
"E{	c #684831",
"F{	c #F0A65A",
"G{	c #8D4F1F",
"H{	c #08050A",
"I{	c #070303",
"J{	c #1A1010",
"K{	c #513B41",
"L{	c #5D412E",
"M{	c #BF8546",
"N{	c #F4A95C",
"O{	c #FCAE5F",
"P{	c #DC9A53",
"Q{	c #875A2E",
"R{	c #8D5022",
"S{	c #BB6A2D",
"T{	c #BD6B2D",
"U{	c #9C5824",
"V{	c #4C322B",
"W{	c #54392C",
"X{	c #E7A057",
"Y{	c #B98145",
"Z{	c #572F11",
"`{	c #63484A",
" ]	c #533C3F",
".]	c #543B30",
"+]	c #8D6136",
"@]	c #EFA55B",
"#]	c #B67D43",
"$]	c #7F4E24",
"%]	c #8F5124",
"&]	c #6A3F2D",
"*]	c #422D27",
"=]	c #DF9D55",
"-]	c #A65D26",
";]	c #975524",
">]	c #1A0A02",
",]	c #463332",
"']	c #67462D",
")]	c #B07C42",
"!]	c #E29F56",
"~]	c #F8AF60",
"{]	c #E29D55",
"]]	c #BA8043",
"^]	c #996130",
"/]	c #A15D28",
"(]	c #C67132",
"_]	c #512D18",
":]	c #4F3B3E",
"<]	c #6A4F4F",
"[]	c #6C504F",
"}]	c #3A2825",
"|]	c #DB9A54",
"1]	c #7B5229",
"2]	c #633514",
"3]	c #2B1D1E",
"4]	c #553819",
"5]	c #916434",
"6]	c #A06F3B",
"7]	c #9F6C39",
"8]	c #A06936",
"9]	c #975A29",
"0]	c #C26F2F",
"a]	c #9C5723",
"b]	c #6A3B19",
"c]	c #462D28",
"d]	c #211719",
"e]	c #3D2C2D",
"f]	c #654B4C",
"g]	c #6B482C",
"h]	c #F2A95C",
"i]	c #663F1D",
"j]	c #9F5A26",
"k]	c #331A06",
"l]	c #2F2122",
"m]	c #291612",
"n]	c #6C3A13",
"o]	c #AA6028",
"p]	c #A15B24",
"q]	c #804821",
"r]	c #6A3D24",
"s]	c #4E3026",
"t]	c #4D3738",
"u]	c #372729",
"v]	c #906333",
"w]	c #693D19",
"x]	c #723F19",
"y]	c #271D1F",
"z]	c #2D1505",
"A]	c #1E0C02",
"B]	c #34211E",
"C]	c #453334",
"D]	c #4B373A",
"E]	c #553F40",
"F]	c #5F4748",
"G]	c #21171A",
"H]	c #B27B41",
"I]	c #C68A4A",
"J]	c #864B1E",
"K]	c #AF642B",
"L]	c #331906",
"M]	c #170F0F",
"N]	c #CD904D",
"O]	c #8E6032",
"P]	c #A96027",
"Q]	c #623514",
"R]	c #6F5050",
"S]	c #6E5051",
"T]	c #3F2C2B",
"U]	c #D89551",
"V]	c #6C3E1A",
"W]	c #8D4F20",
"X]	c #220E03",
"Y]	c #523927",
"Z]	c #E8A459",
"`]	c #A5723C",
" ^	c #9C5724",
".^	c #915221",
"+^	c #230F03",
"@^	c #3C2929",
"#^	c #5F4547",
"$^	c #855C30",
"%^	c #6D421E",
"&^	c #965624",
"*^	c #301806",
"=^	c #614848",
"-^	c #402C2C",
";^	c #312224",
">^	c #AB753E",
",^	c #AD763F",
"'^	c #9B5724",
")^	c #CA7432",
"!^	c #824A1D",
"~^	c #351B07",
"{^	c #412D2D",
"]^	c #634747",
"^^	c #291908",
"/^	c #A2703A",
"(^	c #774820",
"_^	c #BD6B2F",
":^	c #623513",
"<^	c #1E0D02",
"[^	c #382626",
"}^	c #241507",
"|^	c #724721",
"1^	c #995623",
"2^	c #965424",
"3^	c #381B07",
"4^	c #5D4545",
"5^	c #180801",
"6^	c #502A0D",
"7^	c #4E290D",
"8^	c #523A3A",
"9^	c #070200",
"0^	c #1A1111",
"a^	c #160C0C",
"b^	c #382929",
"c^	c #0C0606",
"                                                                                                                                                                                                        ",
"                                                                                                                                                                                                        ",
"                                                                                                                                                                                                        ",
"                                                                                                                                                                                                        ",
"                                                                                                                                                                                                        ",
"                                                                                                                                      .                                                                 ",
"                                                                          + @ . .                                                     . # $                                                             ",
"                                                                % & * = - ; > , ' ) ! ~ .                                             { ] = ^ /                                                         ",
"                                                            ( _ : < [ } | 1 2 } 3 2 4 5 6 7 @                                         8 9 0 a b c                                                       ",
"                                                            d e f g h i j k l l l l m k 2 n o p q . . . . . .                         r s t u v w x                                                     ",
"                                                              y z A B C D E F } 2 l l l l k k G H I J . . . . . . . . . . . . . . .   K L M N O P Q R                                                   ",
"                                                              . S T U V W X Y Z ` k l l l l l l } v  ...+.. . . @.#.$.. %.%.%.. &.*.=.=.-.;.>.,.k 3 '.).                                                ",
"                                                      . !.. ~.{.].^./.(._.:.<.[.}.|.} l l l l l l m k 1.2.# 3.4.4.5.6.7.8.9.0.a.b.c.d.e.f.g.h.i.| l j.k.                                                ",
"                                              . . . l.m.n.o.p.q.r.s.t.u.v.w.x.y.z.A.B.| m l l l l l l 1 C.D.E.F.r.r.r.r.s.G.t.H.I.J.K.L.M.N.O.P.Q.l k i.R.                                              ",
"                                          . . S.T.U.4.V.s.q.r.t.t.t.q.W.X.Y.Z.`. +.+++@+#+3 m l l l l l 2 l $+%+&+q.r.r.*+=+-+;+. a.>+,+'+)+ +!+~+} l j {+                                              ",
"                                    . . ]+^+/+(+_+:+r.t.t.t.t.t.r.q.<+[+}+|+1+2+3+4+5+6+7+8+l l l l l l l m k 9+0+a+b+c+d+e+f+4.g+h+i+j+k+ +x.l+m+8+l | n+o+.                                           ",
"                                . p+q+r+p.s+q.t+u+v+r.t.t.r.i+*+b.T.*.w+J.<+x+y+z+A+B+C+D+E+F+l l l l l l l l 1 G+H+I+w+9._+t.i+J+K+L+M+N+ +O+P+Q+R+l l S+T+U+                                          ",
"                          . V+W+X+Y+v+s.r.t.r.Z+`+^+ @i+x+.@+@K+K+@@#@x+s.q.q.x+$@%@&@*@=@-@;@} l l l l l l l l k >@,@'@q.r.t.t.)@^+!@~@{@]@ +^@/@m l l 2 (@_@$.!.                                      ",
"                    . . :@<@}+[@s+s.t.t.t.t.t.r.Y+(+-+}@w+`+{.|@*+s.r.q.t.t.t.q.1@2@3@x.B+4@5@6@1 l l l l l l l l R+7@8@9@0@t.t.s.a@b@c@d@]@e@f@g@2 l l } h@i@&.;+.                                     ",
"                . $.j@k@l@b.m@*+r.t.t.t.t.r.i+x+.@n@@.o@o.p@s+s.r.t.t.t.t.t.t.t.r.q@r@O.O+O+s@t@k m l l l l l l l l R+u@v@w@x@t.r.y@z@A@ +B@*@C@D@8+l l 3 E@F@G@H@I@%.                                  ",
"          . . J@K.9.*+r.i+K@L@M@N@t.r.i+r.O@P@Q@W+R@/+]+S@T@r.t.t.t.t.t.t.t.q.s.r.U@V@W@ +O+X@Y@Z@} l l l l l l l l l 1 `@ #.#r.U@+#@# +B@B@B+##$#} l l %#&#*#=#-#T@{.p+.                               ",
"      . ;#>#,#'#x+q.t.t.t.q.)#W+.@G.v+!#~#K+{#]#^#r.s.Y+/#(#x+r.r.q._#p@:#^#p.p./+<#<#[#}#B+*@|#1#j.2 l l 1 } 2 } } } k R+2#3#0@4#5#6#B+]@]@7#8#9#3 l l l S+0#a#*.b#c#d#!..                             ",
"    . . e#K@r.r.t.t.t.t.t.t.)@-+u+f#g#h#i#j#x+i+q.t.t.r.k#J@0.l#m#n#o#p#q#r#s#t#u#v#b+w#x#y#O+B+s z#l 2 A#B#C#D#E#F#G#H#I#J#K#L#M#N#B+]@]@]@O#P#Q#2 l l %#E@R#i#S#T#U#:@$.=..                           ",
"      . V#|@i+t.t.t.t.t.r.r.V.W#=.X#Y#T@r.r.t.t.t.t.t.t. @Z#`# $.$+$@$#$` l P $$%$&$*$=$-$;$B+O+>$,$'$)$!$~${$]$^$/$($_$:$<$[$}$|$1$2$e@3$3$4$5$P l l l l Q#6$7$*+8$9$W#0$0$Q@.                         ",
"        . {.0@t.t.t.r.t.J+0.d+a$b$n@*+i+t.t.t.t.q.x+c$d$e$f$i g$3 8+2 l l l l m k 3 h$i$j$k$l$m$n$o$p$]$q$r$s$t$u$v$w$t$x$y$z$A$B$C$D$E$F$*@G$H$3 l l l 3 B.I$)@r.j#K+f+x+r.0..                         ",
"          J$c.r.r.i+V.n.K${.0$T@O@W+^+<+r.t.t.r.L$M$N$O$P$} } l l l l l l l l l l l 1 } Q.Q$R$S$T$U$V$y$t$W$W$W$W$W$W$W$W$W$W$x$X$Y$Z$`$ %)+.%+%@%l l l l #%i#s.t.t.|@]+$%s._+m..                       ",
"          . W#s.J+c+d+j@k@*+%%r.t.&%*%d.i+t.0@=%-%;%>%,%m l l l l l l l l l l l l l l l | '%)%!%~%s$W$W$W$W$W$W$W$W$W$W$W$W$W$W$W$t${%]%^%/%(%_%k l l l 2 :%<%[%t.t.0@0.}%|%G.p.&..                     ",
"          . W+K.W+Q@1%2%t.r.t.t.t.q.|@g#1@3%4%5%6%3 k l 3 k 1 7%8%k 2 3 2 l l l l l l 2 9%0%a%b%r$W$W$W$W$W$W$W$W$W$W$W$W$W$W$W$W$W$W$s$c%d%e%f%} l l l 2 $+g%s.t.r.s. @h%e#t.i%k#j%.                   ",
"            . S@k%x+s.r.t.t.t.t.t.s+K@j@c#l%- m%F+} ` 4 n%o%p%q%r%s%t%u%j.l k 8+2 m l m v%w%x%r$r$W$W$W$W$y%W$W$W$W$W$W$W$W$W$W$W$W$W$W$y$~%z%A%j.} l l #+B%C%V..@.@D%k#M@V#E%F%@@*.G%.                 ",
"            . -+q.q.t.t.t.t.t.t.r.G.*+Q@H%I%| < J%K%L%M%N%O%P%Q%R%S%T%U%V%W%X%Y%u@Z%`% &.&+&@&#&$&%&&&W$W$W$W$W$W$W$W$W$W$W$W$W$W$W$W$W$W$t$s$*&=&-&m 1 ;&>&,&&.'&J$)&!&b$~&!.K+{&4.l@d+.               ",
"              a.]&r.t.t.t.r.s.N@&%X+a.^&/&(&_&:&<&[&}&|&1&B+B+x.B+*@*@2&3&4&t 5&6&7&8&9&0&a&b&c&d&e&f&W$W$W$W$W$r$r$s$t$g&W$W$W$W$W$W$W$W$W$&&h&i&j&1 3 , k&l&m&|%c.c.[@x+].n&$%s.r.G.o&o@              ",
"              %.w+K@q.r.t.b+0.p&*.u+q&r&s&t&u&&@v&v&B+ +O+]@]@]@]@]@]@]@3$3$B+]@y#w&x&y&z&A&B&C&D&E&F&W$W$&&s$x$G&H&I&J&x$s$t$W$W$W$W$W$W$W$W$v$K&L&9%3 M&N&t.i+r.r.r.t.r. @K.S@t.r.t.o&O&              ",
"                ;#H@U@Y+(#P&m.].K@2%Q&R&S&v&]@T&U&V&W&1$X&Y&;.Z&O+]@]@]@]@]@]@]@]@`& *.*+*@*#*$*%*&***v$=*-*;*>*,*'*)*!*~*{*]*^*y$W$W$W$W$W$W$W$/*(*_*P :*<*t.t.t.t.t.t.t.i+]&;+[@*+u+{.$.              ",
"                . [*{.*%}*|*x+s.t.1*2*3*4*5*6*7*8*9*0*a*b*c*d*e*N#f**@]@]@]@]@]@O+g*h*i*j*k*. l*m*n*$&o*p*q*r*s*t*u*v*w*x*y*z*A*B*C*t$W$W$W$y%W$&&D*E*F*G*t.t.t.t.t.t.t.t.r..@H*I*L@J*S@O&              ",
"                  K*d+l@s.q.t.t.K@L*M*N*O*P*Q*R*m@0$r.0@S*T*U*V*W*X*Y*Z*O+]@]@]@`* =.=+=@=. . . #=$=%=&=*===-=;=>=,=,=,=,='=)=!=~={=v$W$W$W$W$W$W$]=^=/=(=s.t.t.t.t.t.t.t.q.U@>#_=:=2%n.!.              ",
"                  %.+@G.t.t.t.t.'#e.P@<=3%[=r.i+F%{.V.&%}=&.J*7.T*|=1=2=3= +]@B@B@4=5=6=7=. . 8=9=0=a=b=v*,='=c=d=e=,=,=,=,=,=,=f=g=h=i=W$W$W$W$W$r$j=k=7$r.t.t.t.t.t.t.s.*+)#~&`+J+i%W#!.              ",
"                  . l=U@t.t.t.t.U@2%r.r.t.q.r.i+m=n=g#*%k@l@U@i+s.r.U@o=p=q=g.x.r=s=t=u=v=. . w=x=y=z='=,=,=,=A=B=C=v*,=,=,=,=,='=D=E=i=W$W$W$W$W$W$x$F=G=K@r.t.t.t.t.i+[@H=G%I=j@.@G.1%!.              ",
"                    T#k#i+t.t.t.t.t.t.r.i+V.b.J=K=L=:@d.s.r.t.t.t.t.t.r.M=N=O=P=Q=R=S=T=U=V=W=X=Y=Z=`=,=,=,=,=,= -.-+-,=,=,=,=,=,=@-#-$-y$%-W$W$W$W$y$&-*-=--- @q.r.i+|%<#>#Y+K@(+0$i+J..               ",
"                    . X#'#r.t.t.t.r.0@c.d.>#;-k@|%>-[*,-N@t.t.t.t.t.t.t.s.'-)-!-~-{-]-^-/-(-_-:-<-[-}-,=,=,=,=,=v*|-1-2-,=,=,=,=,=v*3-4-{%W$W$W$W$W$W$5-6-u 7-8-9-O@0-a.n@c.s.x+w+a-i+<+b-              ",
"                      !.F%i+r.q._+|@c-(+^+m&K@s.q.s.<+*%d-r.t.t.t.t.t.r.e-f-g-h-i-j-k-l-m-n-o-p-q-r-,=,=,=,=,=,=,=s-t-u-v*,=,=,=,=,=v-w-x-r$W$W$W$W$W$x%y-z-P A-B-C-D-[+_+s.t.t.I.E-s.Y+G%.             ",
"                      . Q@*+#@F-m@G-W#'#t.i+r.t.t.t.r.E%H-t.t.t.t.q.x@I-J-K-L-M-N-O-P-X$=*Q-{%D*R-S-,=,=,=,=,=,=,=,=T-U-V-,=,=,=,=,=v*W-X-{%W$W$W$W$W$y$Y-Z-| R+&#`- ;o&x+q.t.t.S@.;m=`+. .             ",
"                        :@q+/#J=+;K@s.q.t.t.t.t.t.t.q.@;#;m=r.t.r.V.$;%;&;2$e@Z**;j=t$W$W$W$W$~%=;-;,=,=,=,=,=,=,=,=v*;;>;v*,=,=,=,=,=,;';x%W$W$W$W$W$r$);!;~;l m {;P$];f+s+t.r.H-*%g#^;. .             ",
"                        . /;J+t.r.t.t.t.t.t.t.t.t.t.t.V.-+g#V.r.(;_;:;U&B+ +]@Z*<;[;t$W$W$W$W$s$};|;1;v*,=,=,=,=,=,=,=2-2;3;,=,=,=,=,=4;5;6;W$W$W$W$W$i=7;8;9;l l l O P 0;=$V.s.}*V+p+[*a;.             ",
"                          a.Y+r.t.t.t.t.t.t.t.t.t.t.t.r.T@K+5.b;c;d;e;d@]@]@]@f;g;h;W$W$W$W$W$i;j;k;l;m;,=,=,=,=,=,=,=,=2;B&,=,=,=,=,=n;o;p;W$W$W$W$W$W$q;r;s;2 l l l t;u;v;w;x;F%y;H-I._=              ",
"                          . l=*+r.t.t.t.t.t.t.t.t.t.t.t.s.i#z;A;B;f;*@]@]@]@B@C;D;E;t$W$W$W$t$F;G;. H;>;'=,=,=,=,=,=,=,=I;J;,=,=,=,=,=A=K;L;W$W$W$W$W$W$s$M;N;3 l l l l 1 O;P;Q;n=a.2%^+.               ",
"                            ^;R;0@t.t.t.t.t.t.t.t.t.t.t.i+S;T;U;3$O+]@]@]@]@]@`*V;W;v$W$W$W$W$X;Y;. $.Z;`;,=,=,=,=,=,=,= >.>,=,=,=,=,=-;+>@>W$W$W$W$W$W$#>$>%>&>1 l l l l %#E@*>. o@!#=>.               ",
"                            . ~&c.r.t.t.t.t.t.t.t.t.r.t.->;>>> +]@]@]@]@]@]@]@B+,>'>)>W$W$W$W$!>~>. $.{>B&,=,=,=,=,=,=,=+-]>s-,=,=,=v*9=^>i=W$W$W$W$W$&&j=/>(>_>:>1 l l l l 8+E@<>[>n.}>.               ",
"                              !.d.i+t.t.t.t.t.q.q.v+4.|>1>2>O+]@]@]@B@]@]@]@B@&@3>4>5>t$W$W$W$6>7>8>. 9>W-,=,=,=,=,=,=,=`;0>A=,=,=,=a>b>c>s$W$W$W$W$W$&&d>:;e>f>K%g>} l l l l k C.h>p+%.                ",
"                              . }%v+q.t.t.s.r.[@8.h+l.i>j>B+]@]@]@]@]@]@]@]@]@Z&k>l>m>x$W$W$W$&&n>o>p>q>r>,=,=,=,=,=,=,=3;l;s>,=,=v*t>u>X$W$W$W$W$W$W$w$v>w>x>3&y>z>A>B>l l l l k C>D>.                 ",
"                                =.k#i+s.*+m=H=E>[*F>G>H>I>]@]@]@]@]@]@]@*@`*J>K>L>M>N>O>t$W$W$W$P>Q>R>S>T>,=,=,=,=,=,=,=2-U>V-,=,=V>W>X>P>W$W$W$W$W$W${%Y>Z>B+O+`> ,.,+,%#2 l l } @,#,.                 ",
"                                . :=.@}*$,X#k@.@->%,&,2$ +]@]@]@]@O+B+2&*,=,-,;,>,,,',),x$W$W$W$W$&&{%!,~,w*,=,=,=,=,=,='={,],,=^,/,(,P-W$W$W$W$W$W$W$_,:,<,x.]@ +m$[,},|,` 2 l %#1,2,.                 ",
"                                  :@K+G@b.T@G.l#3,4,O+O+]@]@5, +Z&6,7,8,9,0,a,j k b,c,d,s$W$W$W$W$W$t$e,f,g,h,2-,=,=,=,=e=i,f=b=j,k,l,r$W$W$W$W$W$W$s$m,n,B@3$]@]@]@e@o,p,q,Z%2 r,8+_%@                 ",
"                                  $.n.r.i+r.*+s,t,B@]@u,*@v,w,x,y,z,A,B,Q#3 2 l l l C,D,E,t$W$W$W$W$r${%F,G,H,I,J,e=K,'=L,M,N,O,P,Q,w$W$W$W$W$W$W$W$R,S,T,U,]@ +B@]@]@ +V,W,X,m l 3 Y,Z,                ",
"                                  . I*N@q.t.`, '.'*@+'@'#'$'%'&'*'='m 1 m l l l l l -';'>'s$r$W$W$s$,''')'!'~'{']'^'/'('_':'<'['r$W$y%W$W$W$W$W$W$t$}'|'5&1'2'3'B@4']@]@ +V,5'6'{;3 7'8'                ",
"                                    p+9'r.0'a'b'c'd'e'f'g'h'9#g$k m l l l l l l l l 2 i'j'k'i=r$g&l'm'n'o'p'q'r's't'u'v'w'x'P>W$W$W$W$W$W$W$W$W$t$y'z'A'|>B'C'D'E'L-2& +B@ +F'G'l l l H'                ",
"                                    . f+i+I'J'K'L'M'N'O'g>2 2 l l l l l l l l l l l l 2 P'Q'R'y'v$S'T'U'V'W'V'X'Y'Z'`' )r$W$W$W$W$W$W$W$W$W$W$t$.)+)@)#)$)i+r.x+%)&)W,_.*@ +N.*)=)8+`%-).               ",
"                                      j@;)[*>),)')))P 3 l l l l l l l l l l l l l l l l R+='!)~)s${)^-]). $.$.^)/)()_):)<)W$W$W$W$W$W$W$W$W$t$^*[)})|)1)^#t.t.r.f+2)3)4)5)6)+'j>7)| 8+8)!.              ",
"                                      a;].W#9)0)3 } } 1 3 3 2 m m l l l l l l l l l 1 k | } s;a)b)c)d)e)f). . g). h)i)j)k)t$W$W$W$W$W$W$W$t$l)b)m)n)-'o)R*r.t.i+l@&._+p)q)r)s)y.t)E@%#u)                ",
"                                      . ^+v+v)w)x)y)z)A)9+B)C)D)F E)1,#+3 {;r,,,F)Q#G)H)I)J)K)L)M)N)O)P)Q)R)S)T)U)V)W)X)Y)W$W$W$W$W$W$W$w$q$Z)`)P'k k  !N&r.t.r..!b$9.V.+!@!p,N.#!$!#$%!                ",
"                                        ~&k%G.&!|%w@*!=!-!;!>!,!'!)!!!~!{!]!^!/!(!_!:!<![!O@}!|!1!P%2!3!4!5!6!7!8!9!0!a!b!W$W$W$W$W$g&y$c!d!e!#+2 l } f!g!r.t.q.h!i!)&>#8$j!k!l!m!n!>%o!                ",
"                                        . }*r.t.q.s.s.G.t.<+9.p!q!r!5.s!t!u!T*2%U@7$v!t.s.s.w!x!B+O+B@y!z!A!B!C!D!E!F!G!r$W$W$&&s$u$H!I!J!K!#$2 l l R+v;L!r.r. @Y#8$^;].9'M!N!O!P!Q!R!S!                ",
"                                        . m@*+q.r.s.N@T!U!K=b$8.O@s+s.2%X#l@s.t.t.t.t.t.t.t.V!=@B+]@]@ +W!X!Y!Z!`! ~.~+~t$]=~%@~#~$~%~&~*~m m l l l 2 =~-~.@}*$,p&{&;+p.[+$.    ;~>~,~'~                ",
"                                          ;#m=r.'#)~L@K+H-4.N@i+r.t.t.t.{&H-r.t.t.t.t.t.t.*+!~V,]@]@]@B@x.~~{~]~^~/~(~_~:~<~[~}~|~1~l 8+m l l l l l m 2~3~4~~#b.V.r.c-X#a..       5~6~                  ",
"                                          . b$:=;+{.0$2%s.r.r.t.t.t.t.s.7~j@2%t.t.t.t.t.t.0'8~2$9~]@]@3$B@0~a~} 2 2 b~c~d~e~f~T&g~h~3 l l l l l l l r,i~}*J+t.s.r.|%e+. .         j~.                   ",
"                                            $.}='#q.i+r.t.t.t.t.t.t.t.r.b.G% @q.t.t.t.t.t.k~l~ +]@]@]@4+m~n~u@2 l l 3 | o~p~q~ +U;W%r~l l l l l l l P s~t~r.t.t.Y#P&. .                                 ",
"                                            _=c+s.t.t.t.t.t.t.t.t.t.t.r.V.e+9.G.t.t.t.t.u~v~w~*@]@]@ +x~y~z~k l l l l 3 A~B~1&]@o,C~E)l l l l l l 2 D~E~K@q.V.[+~.. .                                   ",
"                                            . /;*+q.t.t.t.t.t.t.t.t.t.t.r.F~:=r.t.q.r.v+}!G~ +]@]@]@H~I~J~m l l l l 2 K~L~M~|&O+N~O~Q#l l l l l l 2 P~Q~$)r.v):@. .                                     ",
"                                              #.Y+r.t.t.t.t.t.t.t.t.t.t.r.k#R~[@t.b+c+S~T~3+ +]@]@v&U~V~7'l l l l l m W~X~Y~Z~*@{@`~,.m l l l l l 8+ {.{r.Y#+{!..                                       ",
"                                              . u+i+t.t.t.t.t.t.t.t.t.t.s.@{#{${J=K=%{&{*{={B@]@+'-{;{>{2 l l l l m >%,{l#'{){B+O+!{~{k l l l l l 3 o)U#w+}>. .                                         ",
"                                              . !&;)q.t.t.t.t.t.t.r.r.0@.@f+^;h#n.{{]{^{C+ +]@:./{({_{2 l l l l l #+:{<{.@[{}{+'4'|!|{3 l l l l l #+H'. . . .                                           ",
"                                              . #{.@r.t.t.t.t.r.r.2%)#n@K$[*K+J.G.1{2{3{B+]@v&O.4{5{3 2 l l l l m 6{7{8{+{9{0{ +x.a{b{k l l l l m c{d{. . .                                             ",
"                                                e{f{r.t.r.s.N@D%{&*%q+W#[@s.W#g{h{i{Y&4'&@Z&j{k{l{2 l l l l l 2 i m{t+[+[@:#n{]@B+o{p{1 l l l l m q{r{n&.                                               ",
"                                                . }*G.r.p@0.q+}%H-d-s{s.r.G.t{u{v{w{B+Z&>$x{y{z{A{l l l l l l B{C{D{x+i+r.3%E{F{x..%G{2 l l l l l h H{I{.                                               ",
"                                                . H-Y#:=J{b$)#2%s+r.q.r..!K{L{M{N{O{*@P{Q{R{S{k l l l m m T{U{V{<=r.t.t.t.x@W{X{+'Y{0)%#l l l m Q#Z{!.                                                  ",
"                                                  _=K+I=D%0@s.r.r.t.`{ ].]+]4&:.*@@]#]$]f%j 3 l l 2 2 1.%]&]|@:#r.t.t.t.t.x@*]=]e@Q!-]R+l l l 1 ;]>]                                                    ",
"                                                  %.W#h!q.t.t.t.9',]'])]!]~]g.{]]]^]/]&#1 (]2 1 E)D)_%_]:]<]r.q.t.t.t.t.t.[]}]|]`&1];&2 l l m G 2]                                                      ",
"                                                  . 3.x+t.t.t.t.k#3]4]5]6]7]8]9]Y%:>} R+k 0]C)a]b]c]d]e]s.q.t.t.t.t.t.t.s.f]g]h].'i]E@l l l k j]k]                                                      ",
"                                                    '&d-r.t.t.t.r.^#$%l]m]n]z{o]%$p]i$: q]r]s]t]9-i+d.[*)@t.t.t.s+r.i+v+b.u]v]*@n$w]k l l l 2 x]                                                        ",
"                                                    ;#!#s.t.t.t.t.q.r.x+5.y]z]A]B]C]D]E]F] @0@i+q.r.I=n@t.t.r.s.t..@f+K=e+G]H]+'I]J]8+l l 8+K]L]                                                        ",
"                                                    _=/+r.t.t.q.r.0@p.W#J*L@J=#{)#G.s.r.q.t.t.t.t.%%a-8$V.t.2%)#I@M]I.|@v+}!N]`*O]P]8+l 2 6@Q]                                                          ",
"                                                    . J*U@s.%%K@f{I./#I.m&K@V.m.[+i+t.t.t.t.t.t.t.R]U!Q@D%k@&./;F%b+r.s.S]T]U]^@V]r,l m F W]X]                                                          ",
"                                                      p+/+W#f+}%>#n.]&x+r.t.%%0.w+x+t.t.t.t.t.s.r.[@n@_=>#}=&%V.r.t.t.t.S*Y]Z]`] ^8+m 8+.^+^                                                            ",
"                                                      . '&e+J=b.*+s.r.t.t.t.s.m=j%b+q.t.r.s.*+5.@^&.n=u+<+t.r.t.t.t.r.s.#^$^l$%^G k #+&^*^                                                              ",
"                                                        j@.@s.s.t.t.t.t.t.t.r.$%a.v+r.0@=^/+l=h#E%4.w+-^r.t.t.t.r.s.K@o&;^>^,^'^)^h$!^~^                                                                ",
"                                                        %.>+r.t.t.t.t.t.t.t.r.k%(+.@Z+S@(+^+m&T@s.r.m.{^r.t.r.G.]^k@a.!.^^/^(^_^q{:^<^                                                                  ",
"                                                        . [^t.t.t.t.r.r.i+N@T!T.^;K+g#o.c.t.i+r.t. @h#r+i+r.K@9.b$. .   }^|^1^2^3^                                                                      ",
"                                                        . w+0@t.r.0@4^}*}=e+<@g+`+k@V.r.r.t.t.t.t.s+K./+_+I=h#V+.       5^6^7^<^                                                                        ",
"                                                          V#J+T@0$c#/#}%n@8^T@G.r+c#t.t.t.t.t.t.r.h!1%a.K._=              9^                                                                            ",
"                                                          =.$,/#J*F%^#v+0@i+t.r.Y#0^O@r.t.q.i+t.|*M@e+. !.                                                                                              ",
"                                                          . a^v)U@r.r.t.t.t.t.r.D%W+O@i+r.O@$%Q@l.!..                                                                                                   ",
"                                                            ;#Y+r.t.t.t.t.t.t.t.x+n@0.4.g+;+_=.                                                                                                         ",
"                                                            . ~#x+t.t.t.t.r.r.q.O@b^l.#..                                                                                                               ",
"                                                              ;+J+r.t.r.s.v+m=H-b-%..                                                                                                                   ",
"                                                              %.$%i+t..@o.m@n&.                                                                                                                         ",
"                                                              $.M@f{^+~&%..                                                                                                                             ",
"                                                              . c^;#.                                                                                                                                   ",
"                                                              . .                                                                                                                                       ",
"                                                                                                                                                                                                        ",
"                                                                                                                                                                                                        ",
"                                                                                                                                                                                                        "};
