/* XPM */
static char * sunny_6_xpm[] = {
"100 100 2015 2",
"  	c None",
". 	c #000000",
"+ 	c #2C1E1E",
"@ 	c #3A2828",
"# 	c #180F0F",
"$ 	c #010000",
"% 	c #402E2E",
"& 	c #6A4E4E",
"* 	c #5F4545",
"= 	c #493333",
"- 	c #271B1B",
"; 	c #040303",
"> 	c #080404",
", 	c #4D3737",
"' 	c #6E5151",
") 	c #6D5050",
"! 	c #664A4A",
"~ 	c #553D3D",
"{ 	c #362626",
"] 	c #130B0B",
"^ 	c #201616",
"/ 	c #634949",
"( 	c #6C4F4F",
"_ 	c #6D4F4F",
": 	c #6B4E4E",
"< 	c #5E4444",
"[ 	c #433030",
"} 	c #1E1414",
"| 	c #020101",
"1 	c #030202",
"2 	c #422F2F",
"3 	c #6E5050",
"4 	c #4A3535",
"5 	c #241818",
"6 	c #312323",
"7 	c #170E0E",
"8 	c #040202",
"9 	c #0E0808",
"0 	c #573E3E",
"a 	c #705252",
"b 	c #684C4C",
"c 	c #322323",
"d 	c #513A3A",
"e 	c #6A4D4D",
"f 	c #5B4242",
"g 	c #432F2F",
"h 	c #271A1A",
"i 	c #0B0606",
"j 	c #120A0A",
"k 	c #2D1E1E",
"l 	c #4B3535",
"m 	c #614747",
"n 	c #5D4343",
"o 	c #1F1515",
"p 	c #634848",
"q 	c #503939",
"r 	c #332424",
"s 	c #0C0606",
"t 	c #4C3737",
"u 	c #523B3B",
"v 	c #332323",
"w 	c #211616",
"x 	c #3F2D2D",
"y 	c #4F3939",
"z 	c #574040",
"A 	c #684B4B",
"B 	c #5C4242",
"C 	c #231818",
"D 	c #3C2A2A",
"E 	c #060303",
"F 	c #050202",
"G 	c #281A1A",
"H 	c #705151",
"I 	c #694D4D",
"J 	c #201515",
"K 	c #1A1212",
"L 	c #2E1F1F",
"M 	c #4B3737",
"N 	c #443131",
"O 	c #3B2929",
"P 	c #140C0C",
"Q 	c #050200",
"R 	c #2E1605",
"S 	c #4D290E",
"T 	c #362525",
"U 	c #614646",
"V 	c #533B3B",
"W 	c #352525",
"X 	c #281C1C",
"Y 	c #120C0C",
"Z 	c #2D1F1F",
"` 	c #6B4D4D",
" .	c #382727",
"..	c #453131",
"+.	c #563D3D",
"@.	c #3A2929",
"#.	c #1A1111",
"$.	c #030100",
"%.	c #4B290E",
"&.	c #83491D",
"*.	c #7E461B",
"=.	c #3C1F0A",
"-.	c #573F3F",
";.	c #190F0F",
">.	c #2E2020",
",.	c #2B1E1E",
"'.	c #463232",
").	c #5E4545",
"!.	c #6C4E4E",
"~.	c #6F5151",
"{.	c #694C4C",
"].	c #2F2020",
"^.	c #604646",
"/.	c #3F2C2C",
"(.	c #100802",
"_.	c #724E28",
":.	c #855225",
"<.	c #B6672B",
"[.	c #9D5926",
"}.	c #4C290D",
"|.	c #171010",
"1.	c #5A4141",
"2.	c #563F3F",
"3.	c #664949",
"4.	c #674B4B",
"5.	c #221717",
"6.	c #553E3E",
"7.	c #3D2B2B",
"8.	c #6C5050",
"9.	c #040201",
"0.	c #936535",
"a.	c #A5723D",
"b.	c #8D4F20",
"c.	c #C87333",
"d.	c #AF632A",
"e.	c #623614",
"f.	c #1B1212",
"g.	c #583F3F",
"h.	c #684D4D",
"i.	c #1C1212",
"j.	c #6D5151",
"k.	c #2B1D1D",
"l.	c #2F2121",
"m.	c #6F5050",
"n.	c #594041",
"o.	c #3B2A2C",
"p.	c #7B542C",
"q.	c #DF9E56",
"r.	c #7C4D25",
"s.	c #BC6B2D",
"t.	c #C97332",
"u.	c #B7692C",
"v.	c #744118",
"w.	c #291404",
"x.	c #050303",
"y.	c #2C1F1F",
"z.	c #2D2020",
"A.	c #291B1B",
"B.	c #4B3636",
"C.	c #624747",
"D.	c #221616",
"E.	c #644848",
"F.	c #654A4A",
"G.	c #533C3C",
"H.	c #594040",
"I.	c #694C4D",
"J.	c #51392D",
"K.	c #DE9C54",
"L.	c #A7743E",
"M.	c #9B5623",
"N.	c #C67231",
"O.	c #BF6D2E",
"P.	c #83491E",
"Q.	c #604747",
"R.	c #3C2B2B",
"S.	c #402D2D",
"T.	c #281B1B",
"U.	c #644949",
"V.	c #6E5051",
"W.	c #463234",
"X.	c #C68949",
"Y.	c #DC9B54",
"Z.	c #70401B",
"`.	c #C47030",
" +	c #C57131",
".+	c #C77231",
"++	c #BB6B2F",
"@+	c #663715",
"#+	c #6E4F4F",
"$+	c #4F3839",
"%+	c #1F1415",
"&+	c #6F5152",
"*+	c #6D5150",
"=+	c #3E2C2C",
"-+	c #644A4A",
";+	c #503B3B",
">+	c #1E1313",
",+	c #594242",
"'+	c #4F3A3D",
")+	c #B98043",
"!+	c #F7AD5F",
"~+	c #8A5E30",
"{+	c #A65E26",
"]+	c #C87332",
"^+	c #C77232",
"/+	c #B7682D",
"(+	c #552D10",
"_+	c #0F0808",
":+	c #624848",
"<+	c #3A292A",
"[+	c #1F0E06",
"}+	c #321B10",
"|+	c #2A1505",
"1+	c #3E2720",
"2+	c #50393B",
"3+	c #553F41",
"4+	c #564142",
"5+	c #5D4647",
"6+	c #63494B",
"7+	c #6A4E4D",
"8+	c #302222",
"9+	c #312222",
"0+	c #553E42",
"a+	c #A5723C",
"b+	c #FCB161",
"c+	c #CC904D",
"d+	c #80481C",
"e+	c #C77331",
"f+	c #C57231",
"g+	c #A05B26",
"h+	c #371C07",
"i+	c #4F3A3A",
"j+	c #352527",
"k+	c #271717",
"l+	c #683813",
"m+	c #8C4E1E",
"n+	c #A55D27",
"o+	c #AE6329",
"p+	c #9D5923",
"q+	c #8E5021",
"r+	c #884C1F",
"s+	c #73401D",
"t+	c #5A3422",
"u+	c #48322D",
"v+	c #4E3B3D",
"w+	c #63494A",
"x+	c #6B4F4E",
"y+	c #402E2D",
"z+	c #362627",
"A+	c #6B5050",
"B+	c #4C3636",
"C+	c #322222",
"D+	c #2A1D1D",
"E+	c #291D20",
"F+	c #865B2E",
"G+	c #F5AA5D",
"H+	c #E49E56",
"I+	c #6A3D1B",
"J+	c #C36F30",
"K+	c #C57232",
"L+	c #C67131",
"M+	c #C16E31",
"N+	c #6B3B16",
"O+	c #302121",
"P+	c #2C1E20",
"Q+	c #664420",
"R+	c #996936",
"S+	c #A7743C",
"T+	c #A46F3B",
"U+	c #9F6A37",
"V+	c #8E5626",
"W+	c #A55C26",
"X+	c #BF6C2E",
"Y+	c #CA7432",
"Z+	c #C97433",
"`+	c #C16F30",
" @	c #BA6A2E",
".@	c #AC6227",
"+@	c #8F5122",
"@@	c #5D3624",
"#@	c #473334",
"$@	c #2B2022",
"%@	c #5A4040",
"&@	c #3E2D2E",
"*@	c #6A4725",
"=@	c #EDA459",
"-@	c #F2A85B",
";@	c #7F532A",
">@	c #B9692D",
",@	c #985623",
"'@	c #1F0D03",
")@	c #6F5252",
"!@	c #4B3637",
"~@	c #6B4930",
"{@	c #B07941",
"]@	c #DF9B54",
"^@	c #F8AD5E",
"/@	c #E29E56",
"(@	c #B97F45",
"_@	c #8E5C2E",
":@	c #BC6A2D",
"<@	c #A35B25",
"[@	c #713D18",
"}@	c #432B26",
"|@	c #594243",
"1@	c #694D4E",
"2@	c #6A4D4E",
"3@	c #52392E",
"4@	c #DD9A53",
"5@	c #F7AC5E",
"6@	c #875B2E",
"7@	c #B4672C",
"8@	c #5D4444",
"9@	c #64494C",
"0@	c #4B383E",
"a@	c #5D4134",
"b@	c #926438",
"c@	c #D99752",
"d@	c #F8AD5F",
"e@	c #FDB060",
"f@	c #EEA65B",
"g@	c #B88044",
"h@	c #844F25",
"i@	c #A85E26",
"j@	c #C67232",
"k@	c #CA7332",
"l@	c #A65F27",
"m@	c #6B3C1D",
"n@	c #4E332D",
"o@	c #553E3F",
"p@	c #674B4D",
"q@	c #422E2F",
"r@	c #CE8F4D",
"s@	c #FCAF60",
"t@	c #A16F3B",
"u@	c #AA5F27",
"v@	c #81491D",
"w@	c #180902",
"x@	c #010101",
"y@	c #342424",
"z@	c #261A1A",
"A@	c #362424",
"B@	c #6F5251",
"C@	c #684D4E",
"D@	c #543E43",
"E@	c #61422E",
"F@	c #B57E42",
"G@	c #EFA55A",
"H@	c #FEB060",
"I@	c #F9AD5F",
"J@	c #D59450",
"K@	c #8B5C2E",
"L@	c #925222",
"M@	c #BA692C",
"N@	c #C97432",
"O@	c #BF6E2F",
"P@	c #A85F26",
"Q@	c #7A441C",
"R@	c #4A3331",
"S@	c #654B4C",
"T@	c #6E5150",
"U@	c #6B4E4F",
"V@	c #4D362F",
"W@	c #DC9752",
"X@	c #B88045",
"Y@	c #84481B",
"Z@	c #B2662B",
"`@	c #3D1F09",
" #	c #4A3636",
".#	c #2C2020",
"+#	c #291C1C",
"@#	c #463333",
"##	c #5F4444",
"$#	c #4F3A3C",
"%#	c #2D1C0E",
"&#	c #926435",
"*#	c #FBAE5F",
"=#	c #EBA359",
"-#	c #C38749",
";#	c #915B2C",
">#	c #A65D26",
",#	c #C16F2F",
"'#	c #8F5020",
")#	c #4C3431",
"!#	c #62494A",
"~#	c #6C504F",
"{#	c #6A4D4F",
"]#	c #624532",
"^#	c #E49E55",
"/#	c #D59451",
"(#	c #6F3D17",
"_#	c #584040",
":#	c #382828",
"<#	c #382626",
"[#	c #543D3D",
"}#	c #2F2123",
"|#	c #4A373B",
"1#	c #805831",
"2#	c #E9A258",
"3#	c #FBAF60",
"4#	c #F9AD5E",
"5#	c #FAAD5E",
"6#	c #E39E56",
"7#	c #895B2E",
"8#	c #C87432",
"9#	c #C37030",
"0#	c #4E3129",
"a#	c #61484B",
"b#	c #855B38",
"c#	c #F0A85B",
"d#	c #CB8C4C",
"e#	c #8A4C1F",
"f#	c #C87331",
"g#	c #955423",
"h#	c #160802",
"i#	c #251919",
"j#	c #291D1D",
"k#	c #2A1C1C",
"l#	c #563E3E",
"m#	c #503A39",
"n#	c #946636",
"o#	c #E19C54",
"p#	c #FAAE5F",
"q#	c #F8AC5E",
"r#	c #FCAE5F",
"s#	c #E29D55",
"t#	c #7F552B",
"u#	c #A15B25",
"v#	c #C77132",
"w#	c #884C1E",
"x#	c #2E1E1F",
"y#	c #594247",
"z#	c #916337",
"A#	c #F5AA5C",
"B#	c #C18647",
"C#	c #915120",
"D#	c #B3652B",
"E#	c #391D07",
"F#	c #674A4A",
"G#	c #231717",
"H#	c #120B0B",
"I#	c #523C3C",
"J#	c #6C4E50",
"K#	c #4C373A",
"L#	c #8A5F33",
"M#	c #F1A75B",
"N#	c #FBAF5F",
"O#	c #E09C55",
"P#	c #754C25",
"Q#	c #AB6028",
"R#	c #BE6D2F",
"S#	c #774118",
"T#	c #23171F",
"U#	c #A8733E",
"V#	c #F8AB5E",
"W#	c #FBAE60",
"X#	c #BE8447",
"Y#	c #945321",
"Z#	c #C26F30",
"`#	c #643614",
" $	c #070404",
".$	c #2E1E1E",
"+$	c #4A3435",
"@$	c #5F4646",
"#$	c #44302D",
"$$	c #BD8346",
"%$	c #D69551",
"&$	c #724722",
"*$	c #B2652B",
"=$	c #C87232",
"-$	c #B0632A",
";$	c #4B2F27",
">$	c #594142",
",$	c #322423",
"'$	c #C78949",
")$	c #AE7941",
"!$	c #955321",
"~$	c #673815",
"{$	c #180E0E",
"]$	c #392828",
"^$	c #1C1319",
"/$	c #694623",
"($	c #E9A157",
"_$	c #F9AE5F",
":$	c #BD8447",
"<$	c #71401A",
"[$	c #C17031",
"}$	c #72401C",
"|$	c #5D4446",
"1$	c #4C3634",
"2$	c #D2924D",
"3$	c #946535",
"4$	c #AB6027",
"5$	c #7C441B",
"6$	c #191012",
"7$	c #5D4545",
"8$	c #432F30",
"9$	c #211513",
"0$	c #B88145",
"a$	c #FAAD5F",
"b$	c #F6AB5E",
"c$	c #9E6C3A",
"d$	c #9B5723",
"e$	c #A05A24",
"f$	c #3C292C",
"g$	c #63452E",
"h$	c #E8A357",
"i$	c #F0AA5D",
"j$	c #84552A",
"k$	c #B9692C",
"l$	c #C77332",
"m$	c #9E5A24",
"n$	c #432F2D",
"o$	c #090505",
"p$	c #0A0505",
"q$	c #5A4242",
"r$	c #594145",
"s$	c #7D552F",
"t$	c #F0A75B",
"u$	c #DC9A53",
"v$	c #663E1A",
"w$	c #582F14",
"x$	c #875C30",
"y$	c #E7A358",
"z$	c #774821",
"A$	c #C26E30",
"B$	c #472C24",
"C$	c #3A2A2A",
"D$	c #191010",
"E$	c #6A4E4F",
"F$	c #4D352F",
"G$	c #D3924E",
"H$	c #F9AC5E",
"I$	c #B77F44",
"J$	c #7E481C",
"K$	c #C16E2F",
"L$	c #C97333",
"M$	c #81471C",
"N$	c #E19D54",
"O$	c #72431C",
"P$	c #C47031",
"Q$	c #B96A2D",
"R$	c #4E2F22",
"S$	c #674C4C",
"T$	c #372727",
"U$	c #6B4F4F",
"V$	c #4C373E",
"W$	c #A2703B",
"X$	c #F5AB5D",
"Y$	c #F3A85C",
"Z$	c #926334",
"`$	c #9D5723",
" %	c #C06D30",
".%	c #BF6C2F",
"+%	c #8E4D1F",
"@%	c #D1924E",
"#%	c #7D451C",
"$%	c #BC6C2D",
"%%	c #56321F",
"&%	c #654A4B",
"*%	c #604545",
"=%	c #483434",
"-%	c #5E4548",
";%	c #835B33",
">%	c #F2A85C",
",%	c #F7AB5D",
"'%	c #BC8246",
")%	c #7E441B",
"!%	c #B8672E",
"~%	c #A25928",
"{%	c #82451E",
"]%	c #684413",
"^%	c #725A13",
"/%	c #6B550F",
"(%	c #7F661F",
"_%	c #A37538",
":%	c #C78B49",
"<%	c #A5703D",
"[%	c #A15825",
"}%	c #C67132",
"|%	c #6A3B1E",
"1%	c #563F40",
"2%	c #070401",
"3%	c #3E2B2B",
"4%	c #654B4B",
"5%	c #513B3B",
"6%	c #332525",
"7%	c #6D4F50",
"8%	c #231819",
"9%	c #6F5150",
"0%	c #6D504F",
"a%	c #5C3F29",
"b%	c #F3AA5D",
"c%	c #A8763E",
"d%	c #5A430A",
"e%	c #7E660D",
"f%	c #99840A",
"g%	c #BBA619",
"h%	c #D8BD28",
"i%	c #EECF2D",
"j%	c #ECCE2C",
"k%	c #EFD02B",
"l%	c #E3C527",
"m%	c #CBB121",
"n%	c #887316",
"o%	c #986621",
"p%	c #BF6B30",
"q%	c #C67032",
"r%	c #5F3413",
"s%	c #191215",
"t%	c #523619",
"u%	c #5F3F1F",
"v%	c #391C08",
"w%	c #030000",
"x%	c #664B4C",
"y%	c #533D3E",
"z%	c #322428",
"A%	c #140D0E",
"B%	c #302021",
"C%	c #473236",
"D%	c #553E43",
"E%	c #574044",
"F%	c #37272B",
"G%	c #2A1B1A",
"H%	c #4E3A3E",
"I%	c #574045",
"J%	c #61474A",
"K%	c #61484A",
"L%	c #65494B",
"M%	c #664B4B",
"N%	c #5B3E2B",
"O%	c #E59E57",
"P%	c #F6AC5E",
"Q%	c #D08F4E",
"R%	c #8D5F2F",
"S%	c #6F5B26",
"T%	c #978755",
"U%	c #9F9267",
"V%	c #AB9C6B",
"W%	c #B7A143",
"X%	c #E0C115",
"Y%	c #F9D62D",
"Z%	c #F9D72F",
"`%	c #FAD82F",
" &	c #FBD92F",
".&	c #F0D02C",
"+&	c #E0C328",
"@&	c #BEA322",
"#&	c #A57D21",
"$&	c #9F5F25",
"%&	c #BC6A2E",
"&&	c #C36F31",
"*&	c #6B3C1C",
"=&	c #4E3A3C",
"-&	c #473232",
";&	c #4B3217",
">&	c #A9743E",
",&	c #956434",
"'&	c #754119",
")&	c #251103",
"!&	c #563E41",
"~&	c #473337",
"{&	c #422F31",
"]&	c #5B402E",
"^&	c #6D4A32",
"/&	c #66462D",
"(&	c #604021",
"_&	c #60401F",
":&	c #8D6132",
"<&	c #8E6135",
"[&	c #895D32",
"}&	c #895F32",
"|&	c #B57D43",
"1&	c #AC753F",
"2&	c #895D34",
"3&	c #704C2E",
"4&	c #65452A",
"5&	c #6B492E",
"6&	c #523A30",
"7&	c #4B3639",
"8&	c #5A4246",
"9&	c #D1924F",
"0&	c #F8AE5F",
"a&	c #DB9752",
"b&	c #A3743A",
"c&	c #674F12",
"d&	c #71716F",
"e&	c #BAB6B1",
"f&	c #C7C7C5",
"g&	c #C3C4C5",
"h&	c #D3D3D5",
"i&	c #D4D5D8",
"j&	c #A29D91",
"k&	c #D4B61B",
"l&	c #F8D62E",
"m&	c #FBD82F",
"n&	c #F9D82E",
"o&	c #EDCD2B",
"p&	c #C1A722",
"q&	c #81551A",
"r&	c #B4642C",
"s&	c #6D3E1E",
"t&	c #604748",
"u&	c #0D0707",
"v&	c #2E2121",
"w&	c #483232",
"x&	c #0B0602",
"y&	c #906435",
"z&	c #8B592B",
"A&	c #A15A26",
"B&	c #47250C",
"C&	c #3F2D2E",
"D&	c #6C4A28",
"E&	c #B57D41",
"F&	c #CB8C4B",
"G&	c #E39F56",
"H&	c #EAA257",
"I&	c #E59E56",
"J&	c #E39F57",
"K&	c #F4AB5C",
"L&	c #F4A95C",
"M&	c #F8AB5D",
"N&	c #F2A75C",
"O&	c #EDA55A",
"P&	c #EAA459",
"Q&	c #ECA459",
"R&	c #DF9C54",
"S&	c #CD8F4C",
"T&	c #AA7540",
"U&	c #7B5332",
"V&	c #513623",
"W&	c #966737",
"X&	c #A16E3D",
"Y&	c #8D751D",
"Z&	c #B09916",
"`&	c #A29677",
" *	c #A8A9AB",
".*	c #878786",
"+*	c #5E5E5F",
"@*	c #494949",
"#*	c #606160",
"$*	c #B9B9B8",
"%*	c #DCDDE0",
"&*	c #A29362",
"**	c #F2D227",
"=*	c #F8D72E",
"-*	c #BEA621",
";*	c #7D4E1A",
">*	c #B7662E",
",*	c #76431E",
"'*	c #5B4447",
")*	c #271B1D",
"!*	c #5A3C1D",
"~*	c #DC9A54",
"{*	c #C4894A",
"]*	c #955523",
"^*	c #AF642B",
"/*	c #2C1604",
"(*	c #1F1305",
"_*	c #B27D42",
":*	c #F8B060",
"<*	c #FEB161",
"[*	c #FBAD5F",
"}*	c #F8AC5D",
"|*	c #F3AA5C",
"1*	c #BF8448",
"2*	c #574413",
"3*	c #B09720",
"4*	c #D6B918",
"5*	c #938553",
"6*	c #808184",
"7*	c #4D4D4D",
"8*	c #0B0D0D",
"9*	c #A3A3A3",
"0*	c #E7E7EA",
"a*	c #978C6B",
"b*	c #EECC24",
"c*	c #F9D72E",
"d*	c #F8D82F",
"e*	c #C2A922",
"f*	c #7C5417",
"g*	c #AA5E2A",
"h*	c #703E1D",
"i*	c #5E4547",
"j*	c #241918",
"k*	c #1F1418",
"l*	c #472E15",
"m*	c #C98A4A",
"n*	c #F3A95C",
"o*	c #9A6635",
"p*	c #B5662A",
"q*	c #49270C",
"r*	c #2C1E1F",
"s*	c #462308",
"t*	c #6A3F1B",
"u*	c #916534",
"v*	c #CA904E",
"w*	c #EDA65C",
"x*	c #FBB061",
"y*	c #FCAF5F",
"z*	c #E39D56",
"A*	c #966B33",
"B*	c #C2A921",
"C*	c #F9D82D",
"D*	c #BDA332",
"E*	c #9E9FA3",
"F*	c #010100",
"G*	c #454545",
"H*	c #D6D6D7",
"I*	c #B5B6B9",
"J*	c #BEA32D",
"K*	c #FAD72D",
"L*	c #FAD72E",
"M*	c #CEB224",
"N*	c #826218",
"O*	c #A95C2A",
"P*	c #BF6D2F",
"Q*	c #56311F",
"R*	c #664A4C",
"S*	c #483539",
"T*	c #714C2D",
"U*	c #C48749",
"V*	c #864F22",
"W*	c #C57130",
"X*	c #5A3111",
"Y*	c #110909",
"Z*	c #594141",
"`*	c #433133",
" =	c #8C4F20",
".=	c #A15B26",
"+=	c #764119",
"@=	c #7C542B",
"#=	c #AB7942",
"$=	c #DE9E56",
"%=	c #F5AE60",
"&=	c #FCB060",
"*=	c #FAAC5E",
"==	c #F7AB5E",
"-=	c #E09A54",
";=	c #966F30",
">=	c #C4AA21",
",=	c #F5D62E",
"'=	c #FAD82E",
")=	c #AE973C",
"!=	c #A3A6AC",
"~=	c #7C7C7C",
"{=	c #313130",
"]=	c #383837",
"^=	c #6F6F6F",
"/=	c #9E9FA2",
"(=	c #AEAEAF",
"_=	c #A99759",
":=	c #EFCE22",
"<=	c #D5B926",
"[=	c #785A16",
"}=	c #935021",
"|=	c #4E3329",
"1=	c #2B1E1D",
"2=	c #352629",
"3=	c #4E3529",
"4=	c #E69F57",
"5=	c #AB763F",
"6=	c #A65D27",
"7=	c #C57132",
"8=	c #713E18",
"9=	c #584041",
"0=	c #5C3317",
"a=	c #BB6B2E",
"b=	c #8A4C1E",
"c=	c #6E441E",
"d=	c #906635",
"e=	c #C8904E",
"f=	c #EFAA5D",
"g=	c #FAAF5F",
"h=	c #F9AF60",
"i=	c #E8A159",
"j=	c #946D2F",
"k=	c #BDA31E",
"l=	c #F9D82F",
"m=	c #DEBF1C",
"n=	c #A09579",
"o=	c #CACBCF",
"p=	c #CECECF",
"q=	c #BFBFBF",
"r=	c #BABBBD",
"s=	c #B6B4B4",
"t=	c #908671",
"u=	c #CBB12B",
"v=	c #EDCF1D",
"w=	c #F8D82D",
"x=	c #FBD92E",
"y=	c #FAD92E",
"z=	c #CBB024",
"A=	c #5A480A",
"B=	c #442F31",
"C=	c #6C4F50",
"D=	c #4F393C",
"E=	c #362315",
"F=	c #8A5D31",
"G=	c #D39450",
"H=	c #F8AD60",
"I=	c #E7A158",
"J=	c #86562A",
"K=	c #BE6C2E",
"L=	c #C06E30",
"M=	c #703E18",
"N=	c #6C4F4E",
"O=	c #433234",
"P=	c #77421B",
"Q=	c #C16E30",
"R=	c #9C5724",
"S=	c #74421A",
"T=	c #7D552B",
"U=	c #B68044",
"V=	c #E3A057",
"W=	c #F9AF5F",
"X=	c #F4AB5E",
"Y=	c #A0763A",
"Z=	c #CBB122",
"`=	c #FAD82D",
" -	c #DEBF21",
".-	c #AEA06E",
"+-	c #B4B0A8",
"@-	c #AAA6A0",
"#-	c #978A6A",
"$-	c #AD942A",
"%-	c #98822B",
"&-	c #9B8B50",
"*-	c #8B815D",
"=-	c #8F7E47",
"--	c #BAA126",
";-	c #EBCC28",
">-	c #FBDA2F",
",-	c #A68F1A",
"'-	c #291B21",
")-	c #4B342E",
"!-	c #5D4026",
"~-	c #78542F",
"{-	c #9A6938",
"]-	c #D49350",
"^-	c #FBB060",
"/-	c #FAAE5E",
"(-	c #BE8547",
"_-	c #925122",
":-	c #B6682D",
"<-	c #552E0F",
"[-	c #1F1414",
"}-	c #382A2E",
"|-	c #905121",
"1-	c #AD6229",
"2-	c #82471C",
"3-	c #774C24",
"4-	c #986C39",
"5-	c #D19350",
"6-	c #F1AA5C",
"7-	c #DF9D57",
"8-	c #9B8220",
"9-	c #F4D32B",
"0-	c #F7D724",
"a-	c #E0C212",
"b-	c #9F861A",
"c-	c #877950",
"d-	c #89826A",
"e-	c #B7B8B9",
"f-	c #E4E4E7",
"g-	c #EBEBED",
"h-	c #DEDEE1",
"i-	c #999B9D",
"j-	c #7A6B26",
"k-	c #C2AA30",
"l-	c #E4C61C",
"m-	c #F8D72C",
"n-	c #FAD92F",
"o-	c #CBAF24",
"p-	c #674622",
"q-	c #D2914E",
"r-	c #ECA559",
"s-	c #CD8F4D",
"t-	c #814F24",
"u-	c #A25D27",
"v-	c #381D08",
"w-	c #4A2E27",
"x-	c #C47132",
"y-	c #B8682C",
"z-	c #9A5723",
"A-	c #76431B",
"B-	c #80582C",
"C-	c #B58145",
"D-	c #E5A359",
"E-	c #FAAF60",
"F-	c #B38144",
"G-	c #C7AE20",
"H-	c #EFCF26",
"I-	c #B19936",
"J-	c #9C9A9A",
"K-	c #E0E1E3",
"L-	c #EFEFF0",
"M-	c #FCFCFC",
"N-	c #FFFFFF",
"O-	c #D8D8D8",
"P-	c #6A6B70",
"Q-	c #B3B4B7",
"R-	c #999386",
"S-	c #A69441",
"T-	c #DBBE21",
"U-	c #EECE2C",
"V-	c #8E7124",
"W-	c #DF9A54",
"X-	c #FBAE5E",
"Y-	c #CC8E4C",
"Z-	c #7C4D23",
"`-	c #B3652A",
" ;	c #8F5121",
".;	c #160E0E",
"+;	c #4E3838",
"@;	c #493433",
"#;	c #261919",
"$;	c #614848",
"%;	c #422921",
"&;	c #C47131",
"*;	c #AC6129",
"=;	c #82481C",
"-;	c #6A421E",
";;	c #986D3A",
">;	c #D69853",
",;	c #E6A45A",
"';	c #9A7B2C",
");	c #EACB28",
"!;	c #FAD72F",
"~;	c #F7D52B",
"{;	c #B19A2D",
"];	c #ABACAF",
"^;	c #F7F7F7",
"/;	c #F0F0F0",
"(;	c #919191",
"_;	c #F1F1F1",
":;	c #F3F3F4",
"<;	c #C0C2C6",
"[;	c #907F47",
"};	c #F1D029",
"|;	c #BCA31D",
"1;	c #A5733C",
"2;	c #F6AB5D",
"3;	c #B87F45",
"4;	c #76461F",
"5;	c #B1642A",
"6;	c #593011",
"7;	c #5C4342",
"8;	c #5B4344",
"9;	c #50342A",
"0;	c #995723",
"a;	c #B9682D",
"b;	c #6D3D18",
"c;	c #674925",
"d;	c #B49B1E",
"e;	c #F9D62E",
"f;	c #F3D22D",
"g;	c #C6AE1F",
"h;	c #92908E",
"i;	c #F0F0F1",
"j;	c #E9E9E9",
"k;	c #929292",
"l;	c #FAFAFA",
"m;	c #A5A5A8",
"n;	c #BDA21B",
"o;	c #FCD92E",
"p;	c #E4C629",
"q;	c #70581D",
"r;	c #E79F57",
"s;	c #E4A056",
"t;	c #AB763E",
"u;	c #80491E",
"v;	c #B8692C",
"w;	c #A55E28",
"x;	c #1A0A02",
"y;	c #4F3838",
"z;	c #5B4343",
"A;	c #402F2F",
"B;	c #392728",
"C;	c #33272A",
"D;	c #4E2A10",
"E;	c #C06D2F",
"F;	c #7C5617",
"G;	c #DEC027",
"H;	c #EDCE2C",
"I;	c #9B8518",
"J;	c #514A30",
"K;	c #B5B6B8",
"L;	c #F8F7F8",
"M;	c #D1D1D2",
"N;	c #9C9C9C",
"O;	c #F9F9F9",
"P;	c #E9E9EA",
"Q;	c #8E8369",
"R;	c #E6C621",
"S;	c #F9D92F",
"T;	c #94811B",
"U;	c #D99552",
"V;	c #CE904D",
"W;	c #7C5026",
"X;	c #914F20",
"Y;	c #75421F",
"Z;	c #000003",
"`;	c #342524",
" >	c #181010",
".>	c #5F3312",
"+>	c #AB6129",
"@>	c #B6652C",
"#>	c #9D841A",
"$>	c #F6D52D",
"%>	c #F8D92F",
"&>	c #A48F1B",
"*>	c #1E1801",
"=>	c #070709",
"->	c #525152",
";>	c #DEDDDD",
">>	c #C5C5C5",
",>	c #B0B0B0",
"'>	c #FEFEFE",
")>	c #FDFDFD",
"!>	c #B39A29",
"~>	c #9E8918",
"{>	c #D29150",
"]>	c #C98B4D",
"^>	c #7C4E24",
"/>	c #A95F27",
"(>	c #B5672C",
"_>	c #381E0F",
":>	c #3E2E31",
"<>	c #5A331C",
"[>	c #C87233",
"}>	c #935722",
"|>	c #CDB123",
"1>	c #E4C72A",
"2>	c #524708",
"3>	c #676767",
"4>	c #EFEFEF",
"5>	c #B1B1B1",
"6>	c #BEBEBE",
"7>	c #E7E8E9",
"8>	c #847B65",
"9>	c #E4C623",
"0>	c #A48F1C",
"a>	c #BF8347",
"b>	c #AC773F",
"c>	c #77441D",
"d>	c #B6682C",
"e>	c #8C4E21",
"f>	c #130601",
"g>	c #362729",
"h>	c #673813",
"i>	c #BB6B2D",
"j>	c #896D18",
"k>	c #C1A922",
"l>	c #1F1901",
"m>	c #030303",
"n>	c #9B9B9A",
"o>	c #FBFBFB",
"p>	c #A9A9A9",
"q>	c #DBDBDB",
"r>	c #B39917",
"s>	c #FCDA2F",
"t>	c #C0A821",
"u>	c #58381A",
"v>	c #81491E",
"w>	c #9A5724",
"x>	c #381C06",
"y>	c #2E2122",
"z>	c #0A0606",
"A>	c #3A2B2C",
"B>	c #683B1F",
"C>	c #AC6228",
"D>	c #A55B28",
"E>	c #AB941D",
"F>	c #BCA320",
"G>	c #0F0B04",
"H>	c #404040",
"I>	c #EDEDED",
"J>	c #D4D5D7",
"K>	c #9F8B3D",
"L>	c #F9D72C",
"M>	c #D6BA26",
"N>	c #844F1D",
"O>	c #C47130",
"P>	c #9A5624",
"Q>	c #381C08",
"R>	c #000001",
"S>	c #473333",
"T>	c #684C4D",
"U>	c #4D2F24",
"V>	c #A15826",
"W>	c #A9921C",
"X>	c #FBD930",
"Y>	c #D5BE23",
"Z>	c #5A584A",
"`>	c #5E5E5E",
" ,	c #9E9E9E",
".,	c #F8F8F8",
"+,	c #EAEAEA",
"@,	c #8E8E8F",
"#,	c #F4F4F4",
"$,	c #D3D4D5",
"%,	c #AD9538",
"&,	c #FBD82C",
"*,	c #DEC128",
"=,	c #81521B",
"-,	c #4D2A16",
";,	c #160E0F",
">,	c #503A3A",
",,	c #493330",
"',	c #C77131",
"),	c #A25726",
"!,	c #9B8619",
"~,	c #F7D62E",
"{,	c #DFC31D",
"],	c #908D86",
"^,	c #E6E6E6",
"/,	c #F3F3F3",
"(,	c #E4E4E4",
"_,	c #A9A9AA",
":,	c #FEFFFF",
"<,	c #C6C8CA",
"[,	c #BAA226",
"},	c #FDDB2F",
"|,	c #CDB224",
"1,	c #744419",
"2,	c #945221",
"3,	c #4B2E25",
"4,	c #5A4243",
"5,	c #493434",
"6,	c #1C1111",
"7,	c #584141",
"8,	c #664C4C",
"9,	c #45302F",
"0,	c #713F1B",
"a,	c #A15827",
"b,	c #998718",
"c,	c #D2B319",
"d,	c #A6A5A3",
"e,	c #DADADA",
"f,	c #A5A5A3",
"g,	c #D2B816",
"h,	c #FDDB30",
"i,	c #C1AA22",
"j,	c #894C1F",
"k,	c #C57030",
"l,	c #985622",
"m,	c #48312D",
"n,	c #624849",
"o,	c #201414",
"p,	c #0F0909",
"q,	c #4E3939",
"r,	c #523C3E",
"s,	c #482E27",
"t,	c #7C451D",
"u,	c #BD6D2E",
"v,	c #AF602A",
"w,	c #957F18",
"x,	c #F8D72F",
"y,	c #F8D72A",
"z,	c #F8D529",
"A,	c #FDDD31",
"B,	c #CCAE17",
"C,	c #ADADAE",
"D,	c #FDFDFE",
"E,	c #D6D6D6",
"F,	c #959595",
"G,	c #F2F2F3",
"H,	c #8F887D",
"I,	c #E2C31F",
"J,	c #F7D52E",
"K,	c #F5D72E",
"L,	c #93801A",
"M,	c #A95C28",
"N,	c #BB6A2D",
"O,	c #905020",
"P,	c #432A24",
"Q,	c #110A0A",
"R,	c #221515",
"S,	c #302020",
"T,	c #322121",
"U,	c #241717",
"V,	c #412E2E",
"W,	c #4F3B3D",
"X,	c #603621",
"Y,	c #723B18",
"Z,	c #9E8A19",
"`,	c #E1C224",
" '	c #B49C38",
".'	c #AE9B5A",
"+'	c #AC974C",
"@'	c #D5B814",
"#'	c #D2B412",
"$'	c #A6A4A2",
"%'	c #909090",
"&'	c #DCDCDC",
"*'	c #DADADC",
"='	c #A7924C",
"-'	c #F8D729",
";'	c #F1D22D",
">'	c #866918",
",'	c #B5662C",
"''	c #58311B",
")'	c #664A4B",
"!'	c #543C3C",
"~'	c #1D1313",
"{'	c #1B1111",
"]'	c #150C0C",
"^'	c #523B3F",
"/'	c #5D4029",
"('	c #916234",
"_'	c #90781F",
":'	c #EDCD24",
"<'	c #A08F58",
"['	c #A2A5AB",
"}'	c #CBCCD0",
"|'	c #ACA9A3",
"1'	c #A69029",
"2'	c #7D786F",
"3'	c #E7E8E8",
"4'	c #AEAEAE",
"5'	c #C4C4C4",
"6'	c #AEACAA",
"7'	c #D1B21A",
"8'	c #FBDA30",
"9'	c #E2C429",
"0'	c #966021",
"a'	c #955422",
"b'	c #4A2A1B",
"c'	c #1D1112",
"d'	c #201619",
"e'	c #533D3C",
"f'	c #4A3437",
"g'	c #845930",
"h'	c #DA9752",
"i'	c #F0A85C",
"j'	c #7F6227",
"k'	c #CCB21A",
"l'	c #928B78",
"m'	c #87898A",
"n'	c #474745",
"o'	c #CECFD1",
"p'	c #A19A8B",
"q'	c #917A1A",
"r'	c #ACABAC",
"s'	c #CBCBCB",
"t'	c #DEDEE0",
"u'	c #928560",
"v'	c #F3D228",
"w'	c #B99D20",
"x'	c #7A3D1A",
"y'	c #6A3B1A",
"z'	c #3E2A29",
"A'	c #5D4445",
"B'	c #5E4445",
"C'	c #453232",
"D'	c #49332F",
"E'	c #996A37",
"F'	c #A5733B",
"G'	c #A49118",
"H'	c #898475",
"I'	c #4F5054",
"J'	c #080808",
"K'	c #848384",
"L'	c #BEBDBE",
"M'	c #B8A240",
"N'	c #8A7F66",
"O'	c #EDEDEE",
"P'	c #898989",
"Q'	c #E2E2E2",
"R'	c #9D9D9D",
"S'	c #CCB11B",
"T'	c #EFD02C",
"U'	c #766621",
"V'	c #37242B",
"W'	c #533D40",
"X'	c #5C4343",
"Y'	c #2A1E1E",
"Z'	c #3E2D2D",
"`'	c #392929",
" )	c #3E2C2D",
".)	c #3A2820",
"+)	c #5B4038",
"@)	c #584044",
"#)	c #705152",
"$)	c #251918",
"%)	c #553B35",
"&)	c #7A5430",
"*)	c #BD8345",
"=)	c #D99652",
"-)	c #746119",
";)	c #999280",
">)	c #5B5D60",
",)	c #2D2D2C",
"')	c #A5A7AA",
"))	c #9A9071",
"!)	c #978432",
"~)	c #B9BABD",
"{)	c #FBFBFC",
"])	c #F2F2F2",
"^)	c #BFC0C3",
"/)	c #9F8D3F",
"()	c #F5D729",
"_)	c #F8D62F",
":)	c #CFB325",
"<)	c #58433F",
"[)	c #241919",
"})	c #352626",
"|)	c #030101",
"1)	c #503A3B",
"2)	c #533618",
"3)	c #AC783E",
"4)	c #9F6F3D",
"5)	c #604232",
"6)	c #4A3639",
"7)	c #523C41",
"8)	c #39282C",
"9)	c #281D21",
"0)	c #654A4C",
"a)	c #614849",
"b)	c #543E42",
"c)	c #07030B",
"d)	c #190F10",
"e)	c #573B27",
"f)	c #906236",
"g)	c #CE8E4C",
"h)	c #EFA65B",
"i)	c #F9AE5E",
"j)	c #E7A059",
"k)	c #614223",
"l)	c #939193",
"m)	c #8B8C8D",
"n)	c #030302",
"o)	c #7D7E7E",
"p)	c #A3A09B",
"q)	c #C8AC16",
"r)	c #9A874E",
"s)	c #CBCDCE",
"t)	c #F6F7F8",
"u)	c #E3E3E3",
"v)	c #A7A8A7",
"w)	c #F5F5F5",
"x)	c #C3C3C7",
"y)	c #8E8159",
"z)	c #E9CA21",
"A)	c #937F1B",
"B)	c #4B343C",
"C)	c #654949",
"D)	c #160C0C",
"E)	c #090606",
"F)	c #2B1D1C",
"G)	c #966837",
"H)	c #E19E56",
"I)	c #C18748",
"J)	c #A8763F",
"K)	c #986836",
"L)	c #7C542E",
"M)	c #6A492F",
"N)	c #7A522F",
"O)	c #714C2C",
"P)	c #7B5733",
"Q)	c #946635",
"R)	c #BB8145",
"S)	c #E09C54",
"T)	c #F4AA5D",
"U)	c #9E6D35",
"V)	c #87816F",
"W)	c #BFBEBE",
"X)	c #535353",
"Y)	c #838282",
"Z)	c #C5C7CA",
"`)	c #C3A837",
" !	c #EFCF22",
".!	c #A5903A",
"+!	c #94928D",
"@!	c #6A6765",
"#!	c #98999D",
"$!	c #EFEFF1",
"%!	c #F9F9FA",
"&!	c #E8E9EB",
"*!	c #BCBCBF",
"=!	c #83807D",
"-!	c #8A7737",
";!	c #DBBD1D",
">!	c #DFC329",
",!	c #794E17",
"'!	c #3F2520",
")!	c #372626",
"!!	c #2E1509",
"~!	c #956433",
"{!	c #E5A057",
"]!	c #FCB160",
"^!	c #F1A75A",
"/!	c #EBA258",
"(!	c #F1A95D",
"_!	c #BE8446",
":!	c #7E6C27",
"<!	c #B9B4AD",
"[!	c #C6C7C8",
"}!	c #676766",
"|!	c #262627",
"1!	c #BBBBBB",
"2!	c #CFCFD2",
"3!	c #B59E37",
"4!	c #FDDA2E",
"5!	c #F7D529",
"6!	c #DFC11C",
"7!	c #D1B320",
"8!	c #B7A466",
"9!	c #BDB7AB",
"0!	c #D7D7D9",
"a!	c #D6D7D9",
"b!	c #BABBBE",
"c!	c #9F9B97",
"d!	c #8A7F61",
"e!	c #AB942A",
"f!	c #D6B81C",
"g!	c #F1D12C",
"h!	c #A9901E",
"i!	c #70401C",
"j!	c #150B0B",
"k!	c #42271D",
"l!	c #894B1D",
"m!	c #9C602F",
"n!	c #B97E42",
"o!	c #DB9852",
"p!	c #FDAF60",
"q!	c #FCB061",
"r!	c #F9AC5F",
"s!	c #F1A85C",
"t!	c #D89652",
"u!	c #81582D",
"v!	c #615102",
"w!	c #A7975A",
"x!	c #C1C1C2",
"y!	c #DFDFE1",
"z!	c #CCCCCB",
"A!	c #B1B0B1",
"B!	c #C6A911",
"C!	c #FCD92F",
"D!	c #F6D521",
"E!	c #E3C31B",
"F!	c #C4AA44",
"G!	c #A18C3F",
"H!	c #B29920",
"I!	c #D7BA18",
"J!	c #EDCD25",
"K!	c #FCDB30",
"L!	c #C1AD22",
"M!	c #82501C",
"N!	c #C46F31",
"O!	c #8F501E",
"P!	c #493637",
"Q!	c #1B0F0E",
"R!	c #AC6128",
"S!	c #AF6329",
"T!	c #9E5E2B",
"U!	c #A76E38",
"V!	c #C88C4B",
"W!	c #DA9953",
"X!	c #FDAF5F",
"Y!	c #E2A057",
"Z!	c #C18648",
"`!	c #A6723D",
" ~	c #81572D",
".~	c #6A411D",
"+~	c #8F5322",
"@~	c #998604",
"#~	c #B29B41",
"$~	c #A8A396",
"%~	c #C3C4C7",
"&~	c #BAB9BB",
"*~	c #8D815F",
"=~	c #F9D72B",
"-~	c #F6D52A",
";~	c #F9D62F",
">~	c #8B7219",
",~	c #AE602A",
"'~	c #CB7533",
")~	c #A25C25",
"!~	c #402B2A",
"~~	c #130A0A",
"{~	c #120602",
"]~	c #643713",
"^~	c #B3662B",
"/~	c #A35D26",
"(~	c #905223",
"_~	c #844D22",
":~	c #89582B",
"<~	c #956535",
"[~	c #A2713C",
"}~	c #B47C43",
"|~	c #B77F43",
"1~	c #A9773F",
"2~	c #926535",
"3~	c #855B2E",
"4~	c #7E5329",
"5~	c #724520",
"6~	c #8A4D1F",
"7~	c #A15A25",
"8~	c #764F17",
"9~	c #CAAF1D",
"0~	c #E4C51D",
"a~	c #C8AE32",
"b~	c #D1B422",
"c~	c #E9C925",
"d~	c #F7D52D",
"e~	c #A9931B",
"f~	c #82481D",
"g~	c #C46F30",
"h~	c #BE6D2E",
"i~	c #5B3113",
"j~	c #5C4444",
"k~	c #513022",
"l~	c #9B5722",
"m~	c #C67230",
"n~	c #C36F2F",
"o~	c #B4652C",
"p~	c #A55C27",
"q~	c #975523",
"r~	c #A35B26",
"s~	c #9D5824",
"t~	c #A65E28",
"u~	c #B7682C",
"v~	c #A85D29",
"w~	c #7B6714",
"x~	c #FBD82E",
"y~	c #F5D32D",
"z~	c #C5AB23",
"A~	c #85581B",
"B~	c #844A1D",
"C~	c #0E0708",
"D~	c #412D2D",
"E~	c #1D1111",
"F~	c #5F4748",
"G~	c #462F2C",
"H~	c #925323",
"I~	c #C06D2E",
"J~	c #C67332",
"K~	c #C27031",
"L~	c #7C471C",
"M~	c #AF981D",
"N~	c #ECCD2B",
"O~	c #A9931C",
"P~	c #764819",
"Q~	c #BB6A2F",
"R~	c #B1652B",
"S~	c #4B2F28",
"T~	c #604645",
"U~	c #543D3E",
"V~	c #6F4025",
"W~	c #BC6B2E",
"X~	c #814C1D",
"Y~	c #B0981E",
"Z~	c #F2D22C",
"`~	c #E2C428",
" {	c #8C731E",
".{	c #916035",
"+{	c #864C21",
"@{	c #512E1E",
"#{	c #090404",
"${	c #463131",
"%{	c #130C0C",
"&{	c #5E4647",
"*{	c #52352E",
"={	c #78431B",
"-{	c #A65D25",
";{	c #A85E28",
">{	c #73411D",
",{	c #855C2E",
"'{	c #8C751C",
"){	c #DEC328",
"!{	c #F4D62E",
"~{	c #D3B825",
"{{	c #866D1E",
"]{	c #C18649",
"^{	c #DE9B54",
"/{	c #70431C",
"({	c #C06E2F",
"_{	c #59321E",
":{	c #644A4B",
"<{	c #5C4445",
"[{	c #48322F",
"}{	c #65391F",
"|{	c #B5682C",
"1{	c #C67130",
"2{	c #A86127",
"3{	c #7A431C",
"4{	c #523216",
"5{	c #C5894A",
"6{	c #F3AA5E",
"7{	c #CD8C4D",
"8{	c #89652E",
"9{	c #7B6E14",
"0{	c #CDB425",
"a{	c #F3D52D",
"b{	c #E8C92A",
"c{	c #BEA61F",
"d{	c #927C1A",
"e{	c #805C2B",
"f{	c #CF8E4E",
"g{	c #EDA55B",
"h{	c #805128",
"i{	c #BD6C2E",
"j{	c #512F20",
"k{	c #0D0606",
"l{	c #1B1010",
"m{	c #412F2F",
"n{	c #543D3F",
"o{	c #180C0B",
"p{	c #4A291B",
"q{	c #6E3F23",
"r{	c #9A5826",
"s{	c #B5672B",
"t{	c #C26E2F",
"u{	c #9D5825",
"v{	c #693B1C",
"w{	c #48302D",
"x{	c #2A212A",
"y{	c #946534",
"z{	c #F4A95D",
"A{	c #83461E",
"B{	c #88511E",
"C{	c #92771B",
"D{	c #C1AB22",
"E{	c #E1C529",
"F{	c #E6C72A",
"G{	c #EBCB2A",
"H{	c #EDCE2B",
"I{	c #E9CA2B",
"J{	c #EACA2A",
"K{	c #E3C629",
"L{	c #B69E1E",
"M{	c #745D19",
"N{	c #9E6B3B",
"O{	c #D39150",
"P{	c #F1A75C",
"Q{	c #8C5D2F",
"R{	c #65381B",
"S{	c #342525",
"T{	c #392727",
"U{	c #634849",
"V{	c #60484A",
"W{	c #5A4143",
"X{	c #603C31",
"Y{	c #6A3F27",
"Z{	c #683C22",
"`{	c #6B3C20",
" ]	c #6E3C1A",
".]	c #522B0C",
"+]	c #432615",
"@]	c #443132",
"#]	c #5D4648",
"$]	c #62474A",
"%]	c #614431",
"&]	c #DB9A52",
"*]	c #DD9A54",
"=]	c #7E5026",
"-]	c #B4622D",
";]	c #955024",
">]	c #82561B",
",]	c #765317",
"']	c #855C1A",
")]	c #8C611C",
"!]	c #866419",
"~]	c #806317",
"{]	c #785D14",
"]]	c #846319",
"^]	c #664E0F",
"/]	c #242005",
"(]	c #57391D",
"_]	c #E5A157",
":]	c #F4AA5C",
"<]	c #916233",
"[]	c #AE6229",
"}]	c #C57031",
"|]	c #734019",
"1]	c #5A4344",
"2]	c #150D0D",
"3]	c #3B2A2A",
"4]	c #3B2B2B",
"5]	c #694E4F",
"6]	c #5F4649",
"7]	c #5E4648",
"8]	c #563F41",
"9]	c #3D2B2C",
"0]	c #201516",
"a]	c #513A3B",
"b]	c #503833",
"c]	c #BB8245",
"d]	c #ECA55A",
"e]	c #8A5D30",
"f]	c #9C5825",
"g]	c #C06D31",
"h]	c #BF6C30",
"i]	c #C16D30",
"j]	c #C06C2F",
"k]	c #BB692E",
"l]	c #BA682E",
"m]	c #BD6B2F",
"n]	c #AF622A",
"o]	c #552F1A",
"p]	c #3E2C30",
"q]	c #A9723D",
"r]	c #F5A95C",
"s]	c #F8AC5F",
"t]	c #9F5723",
"u]	c #633718",
"v]	c #170F0F",
"w]	c #1A0F0F",
"x]	c #543E3E",
"y]	c #4A3536",
"z]	c #170F14",
"A]	c #936434",
"B]	c #F4AC5E",
"C]	c #A8773F",
"D]	c #965523",
"E]	c #7B441A",
"F]	c #4E3839",
"G]	c #422E2B",
"H]	c #BF8447",
"I]	c #C38849",
"J]	c #925221",
"K]	c #C27030",
"L]	c #5D3212",
"M]	c #251A1A",
"N]	c #64442E",
"O]	c #D89551",
"P]	c #CA8D4C",
"Q]	c #79471F",
"R]	c #BD6B2E",
"S]	c #985520",
"T]	c #4A322C",
"U]	c #674B4C",
"V]	c #614749",
"W]	c #5B3D27",
"X]	c #E5A056",
"Y]	c #D69450",
"Z]	c #7C461C",
"`]	c #653814",
" ^	c #2F1F1F",
".^	c #563E3A",
"+^	c #C48748",
"@^	c #8B5B2E",
"#^	c #A85E27",
"$^	c #975521",
"%^	c #4E3128",
"&^	c #34252A",
"*^	c #E19C55",
"=^	c #7F4B20",
"-^	c #423030",
";^	c #4D3739",
">^	c #9B6A3A",
",^	c #916232",
"'^	c #965322",
")^	c #935321",
"!^	c #4A2F27",
"~^	c #5F4647",
"{^	c #80562B",
"]^	c #E7A157",
"^^	c #804F24",
"/^	c #A35C27",
"(^	c #241003",
"_^	c #734E2A",
":^	c #A26F3A",
"<^	c #915020",
"[^	c #C77233",
"}^	c #C37031",
"|^	c #935221",
"1^	c #38231E",
"2^	c #3C2C2D",
"3^	c #5D3F28",
"4^	c #E8A258",
"5^	c #895629",
"6^	c #433032",
"7^	c #885E32",
"8^	c #FDB160",
"9^	c #EAA258",
"0^	c #A3713B",
"a^	c #894D1E",
"b^	c #35201C",
"c^	c #26191A",
"d^	c #2E1F20",
"e^	c #4D3838",
"f^	c #624949",
"g^	c #C38848",
"h^	c #E6A058",
"i^	c #905929",
"j^	c #B4662C",
"k^	c #402212",
"l^	c #010103",
"m^	c #4F3318",
"n^	c #B77E43",
"o^	c #D29250",
"p^	c #7F5229",
"q^	c #84481C",
"r^	c #BD6D2F",
"s^	c #7A441B",
"t^	c #503C3F",
"u^	c #9D6E3A",
"v^	c #F9AE60",
"w^	c #D2914F",
"x^	c #8A5021",
"y^	c #8D5020",
"z^	c #0F0501",
"A^	c #100A0A",
"B^	c #4F3A3E",
"C^	c #785331",
"D^	c #D59550",
"E^	c #F6AA5D",
"F^	c #653C1B",
"G^	c #AA6028",
"H^	c #38282B",
"I^	c #4F393D",
"J^	c #75512C",
"K^	c #EFA65A",
"L^	c #A3703B",
"M^	c #A95F26",
"N^	c #B4682D",
"O^	c #1C1313",
"P^	c #E59F56",
"Q^	c #FAB060",
"R^	c #9C6B38",
"S^	c #BF6D30",
"T^	c #200D03",
"U^	c #3D2C2E",
"V^	c #1E1417",
"W^	c #724D27",
"X^	c #875427",
"Y^	c #854A1E",
"Z^	c #2A1D1F",
"`^	c #69482C",
" /	c #C08747",
"./	c #EAA55A",
"+/	c #DB9853",
"@/	c #9D6C39",
"#/	c #764921",
"$/	c #965522",
"%/	c #A96029",
"&/	c #6A3A16",
"*/	c #1B0B02",
"=/	c #3D2C2C",
"-/	c #443030",
";/	c #261A1E",
">/	c #855A2E",
",/	c #BE8346",
"'/	c #4C280C",
")/	c #29180A",
"!/	c #C28648",
"~/	c #8E6132",
"{/	c #79461D",
"]/	c #9E5825",
"^/	c #AF642A",
"//	c #79441B",
"(/	c #351B14",
"_/	c #09070A",
":/	c #160D0D",
"</	c #060304",
"[/	c #966936",
"}/	c #EDA65A",
"|/	c #8C5C2F",
"1/	c #B8682B",
"2/	c #6D3C16",
"3/	c #4D2E12",
"4/	c #8D5C2E",
"5/	c #7F4E23",
"6/	c #8F4F20",
"7/	c #AE6228",
"8/	c #B8692D",
"9/	c #9D5925",
"0/	c #6B3A16",
"a/	c #391D09",
"b/	c #040101",
"c/	c #060405",
"d/	c #0A0504",
"e/	c #221406",
"f/	c #AE7940",
"g/	c #D39350",
"h/	c #894F21",
"i/	c #623413",
"j/	c #120601",
"k/	c #150701",
"l/	c #542B0E",
"m/	c #894B1E",
"n/	c #B0642B",
"o/	c #BF6E30",
"p/	c #522C0F",
"q/	c #331906",
"r/	c #422A13",
"s/	c #B27B42",
"t/	c #A26E39",
"u/	c #9B5825",
"v/	c #542D0F",
"w/	c #341A07",
"x/	c #4B270D",
"y/	c #592F11",
"z/	c #6E3C17",
"A/	c #7F471C",
"B/	c #8E5020",
"C/	c #945523",
"D/	c #8E5121",
"E/	c #80471C",
"F/	c #7D461B",
"G/	c #572E10",
"H/	c #3B1E08",
"I/	c #1E0D02",
"J/	c #482F15",
"K/	c #865C2F",
"L/	c #824D21",
"M/	c #3E2009",
"N/	c #0B0401",
"O/	c #190A02",
"P/	c #170802",
"Q/	c #3C250E",
"R/	c #3B1E09",
"                                                                                                                                                                                                        ",
"                                                                                                                                                                                                        ",
"                                                                                                                                                                                                        ",
"                                                                                                                                                                                                        ",
"                                                                  . . .                                                                                                                                 ",
"                                                                  . + @ # . .                                                                                                                           ",
"                                                                  $ % & * = - ; .                                                                                                                       ",
"                                                                  > , ' ) ) ! ~ { ] $                                                                                                                   ",
"                                                                  ^ / ) ( ( _ ) : < [ } | .                                                                                                             ",
"                                                                1 2 _ ( ( ( ( ( _ 3 3 4 5 6 7 8                                                                                                         ",
"                                                                9 0 a 3 ( ( ( ( ( ( b c d e f g h i .                                                                                                   ",
"                                                              . j k l m ( ' ) ) ( _ n o < ' ' _ p q r ] |                                                                                               ",
"                                                              s t u v w x y z A ) 3 B C m _ ( ( 3 ) b f D E F .                                                                                         ",
"                                                              G ! H I f % J K L M m N O ' 3 ( ( ( ( ) a ~ G g P .           Q R S                                                                       ",
"                                                            . T e ( _ ) ) p U V W X Y Z ~ ! ) ' ) ( ( `  ..._ +.@.#.E       $.%.&.*.=.                                                                  ",
"                                                            . 2 : ( ( ( ( ) ) ' : -.;.@ >.,.'.).!.~.) {.].2 ' 3 & ^./.> .   (._.:.<.[.}.                                                                ",
"                                                            |.1.~.) ( ( ( ( ( ( ' 2.w 3.4.~ @ 5.@ 6.{._ W 7.8.( ) 3 4.y 6 P 9.0.a.b.c.d.e.                                                              ",
"                                                          . f...g.h.3 ) _ ( ( ( 3 0 i.U 3 j.: < ..X k.4 l.x m.) ( ( ) ' e n.o.p.q.r.s.t.u.v.w.                                                          ",
"                                                          x.y.z.A.Z B.C._ 3 ) ( ~.g.D.E.) ( ( ) ) F.G.{ s ].H.b 3 3 ( ( ) ' I.J.K.L.M.t.N.O.P.                                                          ",
"                                                          D.Q.I ! u W w R.1.I ' _ x S.( ( ( ( ( ( ) ' {.v f.T.y.B.U.( ' ) ( V.W.X.Y.Z.`. +.+++@+                                                        ",
"                                                        | S.) _ ) #+e ).S.w L $+f %+u &+*+) ) _ ( ( ( _ =+W -+;+l.>+=+,+e ) ' '+)+!+~+{+]+ +^+/+(+                                                      ",
"                                                        _+H.' ( ( ( ( 3 ' :+<+[+}+|+1+2+3+4+5+6+7+) ( ) [ 8+: ' : f 7.D.9+d F.0+a+b+c+d+e+ + +f+g+h+                                                    ",
"                                                        ] H.' ( ( ( ) p i+j+k+l+m+n+o+p+q+r+s+t+u+v+w+x+y+z+A+( ) ~._ p B+C+D+E+F+G+H+I+J+K+ +L+M+N+                                                    ",
"                                                      . O+h.) ( ( ( n P+Q+R+S+T+U+V+W+X+Y+Z+`+ @.@+@@@#@$@[ ' ( ( ( ( 3 m.{.%@&@*@=@-@;@>@^+ + +]+,@'@                                                  ",
"                                                      > y )@( ( ( ( m !@~@{@]@G+^@/@(@_@q+:@t.^+]+t.O.<@[@}@|@1@#+( ( ( ( ) ) 2@3@4@5@6@d.^+ + +N.7@}.                                                  ",
"                                                      x.S.8@` #+( ( ) ) 9@0@a@b@c@d@e@f@g@h@i@N.j@ +j@k@N.l@m@n@o@p@) ( ( ( ( _ q@r@s@t@u@]+ + + +j@v@w@                                                ",
"                                                    x@y@R.z@A@V ! ) ) ( ) B@C@D@E@F@G@H@I@J@K@L@M@.+ + +L+N@O@P@Q@R@S@T@( ( ( U@V@W@e@X@Y@^+ + + +]+Z@`@                                                ",
"                                                    x.V ) Q. #.#+#@###: ' ) ) )@$#%#&#]@*#I@=#-#;#>#^+j@ + +j@]+,#'#)#!#_ ( ~#{#]#^#*#/#d+^+ + + + + +(#.                                               ",
"                                                    s _#) ) 8.4.-.:#5 <#[#4.) B@B.}#|#1#2#3#4#5#6#7#M.8#L+ + + +.+9#,@0#p ~.' a#b#c#*#d#e#^+ + + + +f#g#h#.                                             ",
"                                                  . i#F.) ( ( _ 3 : Q.'.D+j#4 f k#l#V.m#n#o#p#q#r#s#t#u#v# + + + +.+ +w#x#B.p y#z#A#s@B#C#f# + + + +.+D#E#. .                                           ",
"                                                  . X 4.( ( ( ( ( ( ' ' F#G.<#G#H#I#b J#K#L#M#I@q#N#O#P#Q#L+ + + + +^+R#S#;.X T#U#V#W#X#Y#t. + + + +f+Z#`#$ . .                                         ",
"                                                  . '.) ( ( ( ( ( ( ( ( 3 3 : ,  $J .$+$@$#$$$3#q#q#I@%$&$*$]+ + + + +=$-$;$>$,$'$p#p#)$!$8# + + + + +9#~$. . . .                                       ",
"                                                  {$).3 ( ( ( ( ( ( ( ( ( ( 3 t } n ~ ]$D.^$/$($p#q#q#_$:$<$O.^+ + + + +[$}$|$1$2$*#!+3$4$]+ + + + + +^+5$6$5 x.. .                                     ",
"                                                .  .` ) ( ( ( ( ( ( ( ( ( ( ) g /._ j.& 7$8$9$0$a$q#q#^@b$c$d$^+ + + + +=$e$f$g$h$*#i$j$k$N. + + + + +l$m$n$! S.o$.                                     ",
"                                                p$l#~.( ( ( ( ( ( ( ( ( ( _ F.i#q$) ( ) ) 3 r$s$t$I@q#q#a$u$v$>@]+ + + +^+R#w$x$-@a$y$z$A$N. + + + + +^+*$B$e I C$$ .                                   ",
"                                              . D$H.!.m._ ( ( ( ( ( ( ( ( 3 y 9+b _ ( ( ( ( E$F$G$p#q#q#H$d@I$J$K$L+ +L+ +L$M$)$3#a$N$O$ +L+ +P$ + + +j@Q$R$S$) < L 1 .                                 ",
"                                              8 h 5 T$+.A ' ) ( ( ( ( ( ( ( 7.R.U$( ( ( ( ( T@V$W$X$q#q#q#I@Y$Z$`$Z+.+]+ %.%+%c$d@e@@%#%j@ + + + + + +N.$%%%&%) 3 U. .x..                               ",
"                                              J *%m =%z@Z 4 C.: ) ) ( ( _ : { =%) ( ( ( ( ( ) -%;%>%q#q#q#,%*#'%)%!%~%{%]%^%/%(%_%:%<%[%t.f+ + + + + +}%K$|%1%& 3 3 b S.> .           2%.               ",
"                                            . 3%( 3 ) 4%5%6%z@/.H.b 7%) ~.*%8%m 9%) 0%) ( ( ) 6+a%2#^@5@4#*#b%c%d%e%f%g%h%i%j%k%l%m%n%o%d.p%q%e+ + + +L+ %r%s%T$u F.' / w 7 E       t%u%v%w%            ",
"                                            j l#j.3 ' 3 T@x%y%z%A%B%C%D%E%F%G%H%I%J%K%L%& 3 T@M%N%O%4#p#P%Q%R%S%T%U%V%W%X%Y%Z%Z%`% &.&+&@&#&$&%&]+ + +L+&&*&=&t Z A.-&-&z.1.k .   ;&>&,&'&)&            ",
"                                          . Z h.) !&~&{&x ]&^&/&(&_&:&<&[&}&|&1&2&3&4&5&6&7&8&K%q@9&0&a&b&c&d&e&f&g&h&i&j&k& &l&l&l&`%m&n&o&p&q&r&N@ +L+9#s&t&3 A -.7.u&v&F.w&H#x&y&K.z&A&B&            ",
"                                          x.t * C&D&E&F&d#G&=@H&I&J&K&L&L&b%I@M&N&O&P&Q&R&S&T&U&V&W&X&Y&Z&`& *.*+*@*#*$*%*&***l&l&l&l&l&l&`%=*-*;*>*8#}%`.,*'*) ( ' M%i#7 O+..)*!*~*{*]*^*/*            ",
"                                          J n v (*_*:*<*s@[*I@I@I@I@q#4#I@}*q#q#q#q#I@4#a$*#}*|*1*2*3*4*5*6*7*1 . . 8*9*0*a*b*Z%l&l&l&l&l&l&c*d*e*f*g*]+Z#h*i*) ( 3 * j*_#I#k*l*m*n*o*p*>@q*            ",
"                                        . 7.A r*s*t*u*v*w*x*p#H$q#q#q#q#q#5@q#q#q#q#q#q#q#q#y*z*A*B*C*D*E*+*F*x@x@x@G*H*I*J*K*l&l&l&l&l&l&l&l&L*l&M*N*O*P*Q*F.) ( _ -&]$R*S*T*U*4#c@V*W*R#X*            ",
"                                        Y*Z*' `* =P*.=+=@=#=$=%=&=*===q#q#q#q#q#q#q#q#q#q#*#-=;=>=,='=)=!=~={=. ]=^=/=(=_=:=c*l&l&l&l&l&l&l&l&l&c*'=<=[=}=|=2@) ) 4.1=2=3=W$4=3#H$5=6=t.7=8=.           ",
"                                      . c b ~.9=0=a=]+Z#-$b=c=d=e=f=g=*#H$q#q#q#q#q#q#q#h=i=j=k= &c*l=m=n=o=p=q=r=s=t=u=v=w=x=n&l&l&l&l&l&l&l&l&l&c*y=z=A=B=C=&%/ D=E=F=G=H=a$a$I=J=K=j@L=M=            ",
"                                      > y _ ( N=O=P=Q=N.^+L+a=R=S=T=U=V=W=N#4#V#q#q#5@4#X=Y=Z='=l&l&l&`= -.-+-@-#-$-%-&-*-=---;-x=`%l&l&l&l&l&l&l&l&c*>-,-'-)-!-~-{-]->%^-q#4#/-(-_-t.f+:-<-            ",
"                                      [-p ' ) ) : }-|-j@ + +N.]+Z#1-2-3-4-5-6-&=a$q#5@p#7-8-9-Z%l&l&l&l&x=0-a-b-c-d-e-f-g-h-i-j-k-l-m-n-l&l&l&l&l&l&l&Z%o-p-q-r-P%I@s@q#q#q#p#s-t->@l$.+u-v-            ",
"                                    . P :#+.A ' 9%4.w-u#x-L+ + + +^+L+y-z-A-B-C-D-h=W#E-F-G- &l&l&l&l&l&`%H-I-J-K-L-M-N-N-N-O-P-Q-R-S-T-`%l&l&l&l&l&l&n&U-V-W-a$^@I@5@!+4#X-Y-Z-`-L$ +=$ ;.             ",
"                                    .;+;@;#;k# #$;) ).%;m$.+ +&; + + +.+e+L=*;=;-;;;>;,;';);Z%l&l&l&l&!;~;{;];^;N-N-N-N-N-N-/;(;_;:;<;[;};l=l&l&l&l&l&l&`%|;1;4#q#q#q#p#2;3;4;5;.+ +L+K$6;              ",
"                                  . c {.3 4.5%9+5 =+7;8;9;0;.+L+ + + +P$ + +N.N.a;!$b;c;d;c*e;l&l&l&Z%f;g;h;i;N-N-N-N-N-N-N-j;k;_;N-l;m;n;o;l&l&l&l&l&l&'=p;q;r;5#q#*#s;t;u;v;^+ + +l$w;x;              ",
"                                  s y;3 ( ) ' : z;A;i#B;C;D;7@]+ + + + + + + + +j@]+E;F;G;L*l&l&l&'=H;I;J;K;L;N-N-N-N-N-N-N-M;N;O;N-N-P;Q;R;`%l&l&l&l&l&e;S;T;U;*#p#V;W;X;P$^+ + + +N.Y;Z;.             ",
"                                  D.:+3 ( ( ( ) ' ) p y;`; >.>+>=$ + + + + + + + +l$@>#>$>l&l&l&l&%>&>*>=>->;>N-N-N-N-N-N-N->>,>'>N-N-)>r=!>`=l&l&l&l&l&l&`%~>{>d@]>^>/>^+L+ + + +l$(>_>Z;.             ",
"                                x@/.) ( ( ( ( ( ( ) 3 3 I q$:><>^*^+ + + + + + + +[>}>|>`%l&l&l&`%1>2>. . 3>4>N-N-N-N-N-N-)>5>6>'>N-N-N-7>8>9>Z%l&l&l&l&l&n-0>a>b>c>d>.+N. + + +N.]+e>f>1 .             ",
"                              x@T.< ' ( ( ( ( ( ( ( ( ( ) ' : g>h>i>]+ + + + + +K+ %j>U-n&l&l&l&>-k>l>. m>n>o>N-N-N-N-N-N-o>p>q>N-N-N-N-o>m;r> &l&l&l&l&l&s>t>u>v>a=j@ + + + + +K+w>x>y>h .             ",
"                              z>[#' ( ( ( ( ( ( ( ( ( ( ( ) m +#A>B>C> +N. + + +8#D>E>'=l&l&l&l& &F>G>x@H>O-N-N-N-N-N-N-N-_;k;I>N-N-N-N-N-J>K>L>l&l&l&l&l&>-M>N>O>^+ + + + + +]+P>Q>R>S>% .             ",
"                            E S.{.) ( ( ( ( ( ( ( ( ( ( ( ) , W T>>$U>!$J+.+ + +]+V>W>X>l&l&l&l& &Y>Z>`> ,.,N-N-N-N-N-N-N-+,@,#,N-N-N-N-N-$,%,&,l&l&l&l&l&m&*,=,N. + + +&;}%c.{+-,;,> u ;+|             ",
"                            .;g.' ~.) ( ( ( ( ( ( ( ( ( 3 * k#>,3 _ / ,,'#9#', +]+),!,Z%~,l&l&l&`%{,],^,/,N-N-N-N-N-N-N-N-(,_,M-N-N-N-N-:,<,[,},l&l&l&l&l&s>|,1,^+ + + +N.`.2,3,4,G.P 5,y E             ",
"                          $ 6,D.O 7,I 3 ( ( ( ( ( ( ( ( : T$O+/ ) ( ) 8,9,0,1-]+]+a,b,%>l&l&l&l& &c,d,o>N-N-N-N-N-N-N-N-)>6>e,N-N-N-N-N-o>f,g,X>l&l&l&l&l&h,i,j,l$ + +.+k,l,m,n,~.^.o,o$7.>+.           ",
"                          p,g.* % 5 ,.q,p _ ) ) ( ( ( ) ##G#).3 ( ( ( ~#E$r,s,t,u,v,w,x,l=C*y,z,A,B,C,D,N-N-N-N-N-N-N-'>E,F,/,N-N-N-N-N-G,H,I,`%l&l&l&J,e;K,L,M,l$^+L+N,O,P,$;3 ) 6.Q,R,u&s .           ",
"                        . S,I ) 3 -+>,T,U,V,q$I ) ) ) ) -& .( _ ( ( ( ( 8.) I.W,X,Y,Z,x=`, '.'+'@'#'$')>N-N-N-N-N-N-N-+,%'&'N-N-N-N-N-N-*'='-'l&l&l&l&l&e;;'>'%&^+,'O,''B.)'3 ( ) !'~'=%{'. .           ",
"                      . ]'>,' ( ( ) ) & f V,h 9+y;U.' _#[--.)@( ( ( ( ( ( ( ( ^'/'('_':'<'['I*}'|'1'2'3'N-N-N-N-N-N-O;4'5'M-N-N-N-N-N-o>6'7'8'l&l&l&l&l&`%9'0'A$a'b'c'd'e'I ) ( ) y D+S$6.o,$           ",
"                      . S>U$) ( ( ( ( ) ) ) U.t L C % T.+ e ) ( ( ( ( ( _ I f'g'h'i'j'k'l'm'n'(;o'p'q'r'o>N-N-N-N-'>s'%'/;N-N-N-N-N-N-t'u'v'Z%l&l&l&l&l&`%w'x'y'z'A'B'C'^ W C.) 3 B+>.A _ g x@          ",
"                      ~'^.3 ( ( ( ( 1.:+: ) ) ~.I -.~'_+#;V F.( 3 ) 0%!.i*D'E'r-N#d@F'G'H'I'. J'K'L'M'N'O'N-N-N-N-&'P'Q'N-N-N-N-N-N-.,R'S''=l&l&l&l&l&Z%T'U'V'W'U@) ' ) X'Y'O+* ( Z'R.( F.5 .           ",
"                    | `'U$) ( ( ( :  ).)+)@)x%( #)U.$)~ , c >.'.< x%D@%)&)*)5@a$q#p#=)-);)>). . ,)')))!)~){)N-N-])R'5')>N-N-N-N-N-)>^)/)()_)l&l&l&l&l&s>:)<): ) ) ( ( ( 3 m v [)[#})C'3 X'p,.           ",
"                    |)i#l#' ) ( ( ( 1)2)3)4)5)6)7)8)9)0)a)b)~&c)d)e)f)g)h)i)5#q#q#I@j)k)l)m); . n)o)p)q)r)s)t)u)v)p>w)N-N-N-N-'>G,x)y)z)n-l&l&l&l&l&l&~,A)B)0%8.( ( ( ( ( ) C)'.[-D)1.~.Z*E)            ",
"                  x@,.T$>+N 8@( 3 3 F.F)G)y$H)I)J)K)L)M)N)O)P)Q)R)S)T)*#a$q#q#q#q#q#b$U)V)W)X)F*x@Y)Z)`) !.!+!@!#!$!N-N-'>%!&!*!=!-!;! &l&l&l&l&l&l& &>!,!'!x%8.( ( ( ( ( ( _ !.@.; 2 : H.1             ",
"                  ; 4 {.-.:#5.)!6.S$) i+!!~!{!E-]!}*^!/!M#h)(!5@N#I@q#q#q#q#5@5@q#4#s@_!:!<![!}!|!1!2!3!4!5!6!7!8!9!0!a!b!c!d!e!f!g!`%l&l&l&l&l&l&c*=*h!g*i!7,8.( ( ( ( ( ( ) I >.j!7 % 2 |).           ",
"                . #;*%' 3 U$* S>X + B.l#k!l!m!n!o!L&s@p!q!p#d@H$q#q#q#q#4#r!a$*#W#s!t!u!v!w!x!y!z!O'A!B! &=*`%C!D!E!F!G!H!I!J!'= &Z%l&l&l&l&l&l&l&K!L!M!N!O!P!) ( ( ( ( ( ( ) 4.D.B+B V,T.8 .           ",
"                ] ~ ) ( ( ( ) ) ! ~  .+#Q!(#R!S!T!U!(@V!W!f@p#^-X!&=3#I@2;-@Y!Z!`! ~.~Y#+~@~#~$~%~&~*~:'`%l&l&l&_) &=~-~c*m&;~l&l&l&l&l&l&l&l&l&`%j%>~,~'~)~!~2@' ) 8.8.) ( U$G.#;U.~.) 1.~~.           ",
"              . y@: ) ( ( ( ( ( _ 3 e ^.{ {~]~^~k,y-/~(~_~:~<~[~}~|~1~2~3~4~5~6~7~d.>@N.%&8~9~0~a~b~c~l&l&l&l&l&l&l&l&e;l&l&l&l&l&l&l&l&l&l&l&c*d~e~f~g~N.h~i~C&z;F.b {.e a @$i.2 ' ) 3 m  >.           ",
"              . O+j~: 3 ) ( ( ( ( ( ) & T$+ P!k~l~N.^+m~n~P*o~p~q~r~s~t~+>u~X+l$^+^+N. +l$v~w~.&x~'=Z%l&l&l&l&l&l&l&l&l&l&l&l&l&l&l&l&l&l&l&`%y~z~A~>@j@ +N.B~C~D.i.^ - z.D~8+1 v l#_#F.S>E .           ",
"              E~:#5 r G.F.3 _ ( ( ( ' n G#).~.F~G~H~I~f#L+N.N.j@J~l$j@]+.+j@L+ +&; + + +f+K~L~M~f;`%l&l&l&l&l&l&l&l&l&l&l&l&l&l&l&l&l&l&e;c*N~O~P~Q~N@ + +]+R~S~T~u +;l -&:# $5 >.,.U,y@9 .             ",
"            $ ..!.m B.v&- S>I 3 _ _ :+v 7.( ) ) S$U~V~{+9#l$N. + + + + + + + + + + + + + +j@W~X~Y~Z~ &l&l&l&l&l&l&l&l&l&l&l&l&l&l&l&l&c*x=`~ {.{+{^+ + + +N.i>@{x%3 ) ' ( 5,v&m : * W #{                ",
"            7 f 3 ) ) A ${%{]$g.I b O+X X'3 ( ( ) 7%&{*{={-{I~.+N. + + + + + + + + + +L+e+=$;{>{,{'{){!{c*c*l&l&l&l&l&l&l&l&l&l&l&c*m&Z~~{{{]{^{/{({N. + +j@({_{:{) ( 3 Z*} +;3 I [ o$                  ",
"          . W I _ ( ( ) ( ).V,J k.D T.U ' ( ( ( ( ( _ C@<{[{}{a'|{({1{L+L+ +L+L+L+N.=$`+2{3{4{5{6{7{8{9{0{a{y=`%L*L*c*c*c*L*L*'=Z%b{c{d{e{f{3#g{h{i>j@ + +K+i{j{T>( ) ^.+ =+: !.l k{                    ",
"        . l{6.) ( ( ( ( ( ' 3 4%m{x@>.##e ) ) ( ( ( ( _ ) ' n{o{p{q{r{s{O.P*,#t{ @7@u{v{w{x{y{z{p#e@X#A{B{C{D{E{9'p;F{G{H{I{J{K{L{M{N{O{P{3#r!n*Q{`-.+ + +N.`.R{t&3 U.r v&:+a l#P .                     ",
"      . $ S{F.j.3 ) ( ( ( ( ( ' ..8+=+h  .u F._ ' ) ( ( ) U.y@T{U{V{W{X{Y{Z{`{ ].]+]@]#]$]%]&]*#p#*]=] @8#-];]>],]'])]!]~]{]]]^]/](]_]H@4#q#q#:]<][]]+ + + +}]|]1]!./.2]M :+*%3].                       ",
"        . 9 k#=%).( ' ) ( ( ) l#~'q$8.U 4 8+T...j~: ' m.F.4]T.##3 3 ) 5]6+6]7]8]9]0]v a]b]c]0&s@d]e]f]f+L+.+=$g]h]i]j]k]l]m]n]o]5%p]q]r]^@q#s]I@a+t]l$ + +7=Z#u]O=5,]  >C v]w]o$                        ",
"            . 8 {'@ -.b 3 3 b k.7.I _ ' ) b -.D i#T x]< C+J _#' ( ( ( ( 0%) ) 3 U$m y]z]A]M#*#B]C]D]P$N. + + +L+L+N.N.N.^+P$E]F]3 T>G]H]W#q#q#I@I]J]]+ + +N.K]L]1 Y*M]5.- 1 .                           ",
"                  . _+Z +;p 6.+ M%) ( ( ( ) ' ( ^.5,i#D$> q !.3 ) ( ( ( ( ( ( ( ( 3 6+N]O]3#/-P]Q]R]j@ + + + + + + + +N.L+S]T]U]( 3 V]W]X]a$q#a$Y]Z]f+ + + +P$`]|)D :+V,i#. .                           ",
"                      . 8 J o  .b ) 3 _ ( ( ( ) )@U.Z  ^@.z@D ~ 4.) ) ( ( ( ( ( _ U$.^+^a$[*{!@^#^.+ + + + + + + + +N..+$^%^$;) ( C=T@&^|~a$q#I@*^=^`.L+ +L+Z#6;D+[#-^9 .                               ",
"                            . 9 >.B.U ( ' ) ( j.z;y.T.* U$* S>j#+ =%^.: ' 3 ( C=_ ;^>^L&3#P&,^'^}%L+ + + + + + + +.+`.)^!^~^) ( ( ~.u %{{^|*q#I@]^^^O.N. +c./^(^j#Z x.                                  ",
"                                . 8 } R._#e ~.( C+c *%) ) ) ) F#u })} :#-.4.~.U$H%_^]^e@L&:^<^[^N. + + +&; + + +N.}^|^1^&{' ) ( ) I 9+2^3^{!p#4#4^5^I~N. + +s+Z;x@x@                                    ",
"                                      . Q,S,>,u T.p ~._ ( ( ( ) ' & ).2 i#l. #6^7^W!8^9^0^B~J+N. + + + + + + +l$Q=a^b^c^d^e^f^( a f 5 U.1$g^a$4#h^i^J+ +l$j^k^l^.                                       ",
"                                          . i _+T.u _#b 3 3 ) ) ( ) 3 3 )'&^m^n^s!3#o^p^q^r^N. + + + + + +N.l$Q$s^% &%C);+9+5 V,6.y@S.V.t^u^v^a$w^x^ + +8#y^z^.                                         ",
"                                                x.o$A^L , ##^.( ' _ 3 C=B^C^D^3#E^X#F^G^^+.+ + + + + + +^+`+w>0=H^M%T@) ) e j~V,#.8 D.+;I^J^K^==L^M^8#^+N^6;                                            ",
"                                                      . x.9 O^O 2.{.K%@]}&P^Q^H+R^S=d>.+ + + + + + + +]+S^B~T^U^8.' ( 8._ 3 ~.b ,.[ 5%v V^W^K^G&X^P*j@N.Y^                                              ",
"                                                            . . u&Z^`^ /./+/@/#/$/`+l$ + + + + + +N.Z#%/&/*/. Z >,I#e^=/-/5,e^..[-).f -/;/>/L&,/!$Z+Z++>'/                                              ",
"                                                                )/u!!/U*~/{/]/O@l$N. + + + +L+.+E;^///(/_/. . $ 1 8 k{. . . | x@| - :/E </[/}/|/1/N@Q$2/                                                ",
"                                                              f>3/4/5/6/7/9#]+N. + + +7=^+^+8/9/0/a/b/c/d/. . . . . . . . . . . . . .   e/f/g/h/Y++>i/j/                                                ",
"                                                              k/l/m/n/S^ +L+=$]+c.L+.+o/7@|-p/q/.     . . .                             r/s/t/#^u/v/                                                    ",
"                                                                  w/x/y/z/A/B/C/D/E/F/G/H/I/                                            J/K/L/&.M/                                                      ",
"                                                                          N/O/  P/                                                      (.Q/X*R/                                                        ",
"                                                                                                                                          .                                                             ",
"                                                                                                                                                                                                        ",
"                                                                                                                                                                                                        ",
"                                                                                                                                                                                                        ",
"                                                                                                                                                                                                        ",
"                                                                                                                                                                                                        "};
