/* XPM */
static char * indmerry_xpm[] = {
"75 75 2036 2",
"  	c None",
". 	c #555451",
"+ 	c #2D2D2A",
"@ 	c #161817",
"# 	c #181918",
"$ 	c #515453",
"% 	c #404142",
"& 	c #29292A",
"* 	c #0F0E0C",
"= 	c #474A4A",
"- 	c #AA977B",
"; 	c #040202",
"> 	c #171616",
", 	c #3C3731",
"' 	c #423B34",
") 	c #424241",
"! 	c #72726B",
"~ 	c #8F8776",
"{ 	c #83725F",
"] 	c #4C4E4E",
"^ 	c #000000",
"/ 	c #494541",
"( 	c #58534D",
"_ 	c #5B5A56",
": 	c #6A6965",
"< 	c #6A655B",
"[ 	c #5C5349",
"} 	c #888C8C",
"| 	c #4A4C4C",
"1 	c #0D0B08",
"2 	c #5B5B5D",
"3 	c #646463",
"4 	c #504F4B",
"5 	c #595752",
"6 	c #776C5D",
"7 	c #8A765D",
"8 	c #383938",
"9 	c #626468",
"0 	c #67696C",
"a 	c #282B2D",
"b 	c #4E493F",
"c 	c #8F816E",
"d 	c #998469",
"e 	c #656564",
"f 	c #515254",
"g 	c #535456",
"h 	c #464646",
"i 	c #5A5C5E",
"j 	c #5D6063",
"k 	c #3B3D3D",
"l 	c #58503F",
"m 	c #897D68",
"n 	c #928979",
"o 	c #5A5B58",
"p 	c #7A7D81",
"q 	c #8D8F92",
"r 	c #78797A",
"s 	c #50514F",
"t 	c #353738",
"u 	c #373731",
"v 	c #5B533C",
"w 	c #837760",
"x 	c #A29887",
"y 	c #555654",
"z 	c #4D4D49",
"A 	c #433E34",
"B 	c #5C5547",
"C 	c #898374",
"D 	c #9B9D9A",
"E 	c #636663",
"F 	c #464948",
"G 	c #70726C",
"H 	c #777268",
"I 	c #626460",
"J 	c #919187",
"K 	c #A5A49F",
"L 	c #78776F",
"M 	c #A1A198",
"N 	c #AEAFAB",
"O 	c #ACA38D",
"P 	c #AA9D84",
"Q 	c #918064",
"R 	c #665337",
"S 	c #5F4E36",
"T 	c #706351",
"U 	c #7B6E5B",
"V 	c #5D5144",
"W 	c #A89B84",
"X 	c #A19075",
"Y 	c #8C7455",
"Z 	c #6C5538",
"` 	c #543F24",
" .	c #544229",
"..	c #625036",
"+.	c #4D4439",
"@.	c #A99C87",
"#.	c #A1927A",
"$.	c #8C765A",
"%.	c #6D573C",
"&.	c #574225",
"*.	c #5D482D",
"=.	c #5F492E",
"-.	c #382E24",
";.	c #837D6F",
">.	c #716C60",
",.	c #433A2E",
"'.	c #3C3732",
").	c #5C5750",
"!.	c #7B786F",
"~.	c #5B5751",
"{.	c #D1CAB7",
"].	c #CCC5B2",
"^.	c #DDDACE",
"/.	c #CDCAC3",
"(.	c #8E8A84",
"_.	c #514436",
":.	c #6D5C48",
"<.	c #867763",
"[.	c #B9AA9A",
"}.	c #A39883",
"|.	c #DFD5C0",
"1.	c #D3C5AA",
"2.	c #D3C2A6",
"3.	c #BBAD90",
"4.	c #CABA98",
"5.	c #D5C39E",
"6.	c #B29F82",
"7.	c #BAA582",
"8.	c #C9B48E",
"9.	c #B9A382",
"0.	c #AF9A75",
"a.	c #B9A47E",
"b.	c #CEB68D",
"c.	c #C6AE85",
"d.	c #B69B7A",
"e.	c #B99E75",
"f.	c #C1AA84",
"g.	c #8F7D64",
"h.	c #B49D75",
"i.	c #C2AB87",
"j.	c #CEBA94",
"k.	c #CBB791",
"l.	c #D2BC8F",
"m.	c #C8B185",
"n.	c #CCB589",
"o.	c #BFA97A",
"p.	c #C0A881",
"q.	c #CCB281",
"r.	c #C9B081",
"s.	c #D4BC8C",
"t.	c #C3B08F",
"u.	c #CFBC9B",
"v.	c #C8B698",
"w.	c #918370",
"x.	c #7D6D55",
"y.	c #B59B6E",
"z.	c #B89E73",
"A.	c #B7A17D",
"B.	c #BCA276",
"C.	c #CCB28B",
"D.	c #B39D7B",
"E.	c #CAB184",
"F.	c #C2AA7C",
"G.	c #A99571",
"H.	c #C1AB80",
"I.	c #BFA77C",
"J.	c #BDA780",
"K.	c #B7A37D",
"L.	c #B29D77",
"M.	c #C0AB81",
"N.	c #C1AA86",
"O.	c #AF9C80",
"P.	c #B8A27A",
"Q.	c #C3AD8A",
"R.	c #C7AE7F",
"S.	c #A08B67",
"T.	c #9C8768",
"U.	c #BFAB8A",
"V.	c #C1AD8B",
"W.	c #C2B190",
"X.	c #B9AA8B",
"Y.	c #C2B397",
"Z.	c #D2C4AE",
"`.	c #B4A589",
" +	c #D2C7B2",
".+	c #B4A791",
"++	c #C8BAA1",
"@+	c #CDC0AB",
"#+	c #B8A98C",
"$+	c #CEC2AB",
"%+	c #C2B6A2",
"&+	c #BDAF95",
"*+	c #C3B69E",
"=+	c #A19787",
"-+	c #806B4E",
";+	c #A0875D",
">+	c #9C8C6B",
",+	c #94896F",
"'+	c #B8AD97",
")+	c #DAD0BF",
"!+	c #A1988B",
"~+	c #D6CEBD",
"{+	c #E3DDCE",
"]+	c #BCB7AC",
"^+	c #B8AF9D",
"/+	c #D9D1C1",
"(+	c #DDD8CB",
"_+	c #B2AC9C",
":+	c #B1AA99",
"<+	c #E1DBCC",
"[+	c #D5CEC1",
"}+	c #AAA599",
"|+	c #A8A08A",
"1+	c #C6BCA5",
"2+	c #C2B79B",
"3+	c #A8A18C",
"4+	c #B5AF9B",
"5+	c #B1AFA0",
"6+	c #B8B5A9",
"7+	c #CBC8BE",
"8+	c #AAA89A",
"9+	c #CFCEC2",
"0+	c #B0AFA1",
"a+	c #C1C0B4",
"b+	c #C7C6BB",
"c+	c #B0AFA2",
"d+	c #CAC9BC",
"e+	c #BFBEB2",
"f+	c #B6B5A7",
"g+	c #BEBDAF",
"h+	c #B1AE9F",
"i+	c #9B9380",
"j+	c #999482",
"k+	c #97978B",
"l+	c #A1A296",
"m+	c #B7BAAE",
"n+	c #D4D7CD",
"o+	c #B5B8AE",
"p+	c #D1D3CB",
"q+	c #DEE0DA",
"r+	c #CBCBC2",
"s+	c #C0C0B6",
"t+	c #D4D2CB",
"u+	c #D6D7CE",
"v+	c #BABCB0",
"w+	c #BBBCB1",
"x+	c #D5D6CE",
"y+	c #CBCAC0",
"z+	c #B7B6A8",
"A+	c #B2B3A4",
"B+	c #BEBBAA",
"C+	c #B6B4A5",
"D+	c #BBB9AA",
"E+	c #B4B5A9",
"F+	c #B6B8AB",
"G+	c #BDC0B5",
"H+	c #C0C2B9",
"I+	c #BEC1B6",
"J+	c #BBBDB1",
"K+	c #BDBFB1",
"L+	c #BBBCAC",
"M+	c #C1C3B7",
"N+	c #BFC0B2",
"O+	c #C3C4B7",
"P+	c #C1C2B3",
"Q+	c #BDBEAD",
"R+	c #B8B8A7",
"S+	c #B8B7A5",
"T+	c #BABAA9",
"U+	c #BCBDB0",
"V+	c #B9BAAC",
"W+	c #BEBEB0",
"X+	c #C0C0B0",
"Y+	c #C6C6B6",
"Z+	c #C4C4B4",
"`+	c #C6C4B5",
" @	c #C4C2B2",
".@	c #C4C1B1",
"+@	c #C2BDAE",
"@@	c #BEBCA9",
"#@	c #C2C2B1",
"$@	c #C4C4B5",
"%@	c #BCBBAA",
"&@	c #B8B6A4",
"*@	c #BFBCAB",
"=@	c #C0C1B0",
"-@	c #BAB8A6",
";@	c #B6B4A3",
">@	c #BDBEB0",
",@	c #B6B5A9",
"'@	c #B9B9AD",
")@	c #BFC0B3",
"!@	c #C1C3B6",
"~@	c #C8CAC0",
"{@	c #D0D1C9",
"]@	c #C1C3B8",
"^@	c #C3C5B9",
"/@	c #C5C7BC",
"(@	c #C4C5B9",
"_@	c #C6C7BC",
":@	c #C3C5B6",
"<@	c #C4C5B5",
"[@	c #C0BFAF",
"}@	c #C1C0AF",
"|@	c #C7C7B9",
"1@	c #C3C5B8",
"2@	c #C2C4B5",
"3@	c #C5C5B8",
"4@	c #C7C7BA",
"5@	c #C7C6B7",
"6@	c #C8C8B9",
"7@	c #C9C8B9",
"8@	c #C8C6B7",
"9@	c #CAC7B8",
"0@	c #CECDC2",
"a@	c #C5C3B6",
"b@	c #C4C2B1",
"c@	c #C8C8B8",
"d@	c #C7C7B7",
"e@	c #C1C2B0",
"f@	c #C1C2B2",
"g@	c #B9B9A7",
"h@	c #B7B7A7",
"i@	c #C1C2B4",
"j@	c #BAB9AA",
"k@	c #C2C3B5",
"l@	c #D2D4CB",
"m@	c #E6E6E4",
"n@	c #BEC1B4",
"o@	c #C2C4B7",
"p@	c #C9CBBF",
"q@	c #C8C9BC",
"r@	c #C9CAC0",
"s@	c #C7C9BF",
"t@	c #C9CABE",
"u@	c #C5C4B7",
"v@	c #CBCABC",
"w@	c #CDCCC1",
"x@	c #CBCABE",
"y@	c #C7C8BB",
"z@	c #C7C9BC",
"A@	c #C7C8BA",
"B@	c #C6C5B7",
"C@	c #C8C7B8",
"D@	c #C7C4B6",
"E@	c #C7C4B5",
"F@	c #CFCCC2",
"G@	c #DCDCD9",
"H@	c #C8C8BF",
"I@	c #C3C2B4",
"J@	c #CAC9BB",
"K@	c #C1C1AF",
"L@	c #C3C4B4",
"M@	c #C6C7BA",
"N@	c #C0BEAE",
"O@	c #BAB7A4",
"P@	c #B8B8A9",
"Q@	c #CCCDC3",
"R@	c #DEDFDC",
"S@	c #E7E7E4",
"T@	c #C4C6B9",
"U@	c #C6C8BB",
"V@	c #CBCCC1",
"W@	c #C9CABD",
"X@	c #CCCABC",
"Y@	c #CBC9BC",
"Z@	c #D0CCBC",
"`@	c #C8C2AE",
" #	c #C8C4B0",
".#	c #CDCBBB",
"+#	c #CCCABD",
"@#	c #CACABC",
"##	c #C9CABC",
"$#	c #C8C8BA",
"%#	c #C6C5B6",
"&#	c #C5C4B4",
"*#	c #C6C4B4",
"=#	c #C8C7BA",
"-#	c #CCCAC0",
";#	c #D9D8D4",
">#	c #D5D5D1",
",#	c #C4C4BA",
"'#	c #C3C3B5",
")#	c #C6C6B8",
"!#	c #C0C1B1",
"~#	c #C1C2B1",
"{#	c #C6C7B9",
"]#	c #C4C5B8",
"^#	c #BBBBA9",
"/#	c #BAB6A2",
"(#	c #BAB9A7",
"_#	c #BCBCAC",
":#	c #C5C6BA",
"<#	c #CFCFC7",
"[#	c #DDDDD8",
"}#	c #DBDBD6",
"|#	c #C8CABF",
"1#	c #CACBBE",
"2#	c #CCCCBD",
"3#	c #CFC8B1",
"4#	c #DBCFB0",
"5#	c #D4C5A1",
"6#	c #D2C19B",
"7#	c #DACBA4",
"8#	c #D9CDAB",
"9#	c #CCC6AE",
"0#	c #C4C4B6",
"a#	c #C8C8BC",
"b#	c #C3C4B5",
"c#	c #C5C5B7",
"d#	c #C5C6BB",
"e#	c #D4D5CD",
"f#	c #DBDBD8",
"g#	c #DEDEDC",
"h#	c #D4D4D1",
"i#	c #C7C8BE",
"j#	c #C4C5B7",
"k#	c #C3C3B4",
"l#	c #C2C3B4",
"m#	c #B8B7A6",
"n#	c #B9B5A2",
"o#	c #C0C0B4",
"p#	c #A9AAA0",
"q#	c #A89576",
"r#	c #AB9979",
"s#	c #BCBBAC",
"t#	c #BBBBAB",
"u#	c #BEBFAF",
"v#	c #BFBEB0",
"w#	c #C0C2B8",
"x#	c #C4C6BC",
"y#	c #E8E7E6",
"z#	c #CDCDC3",
"A#	c #C8C6B6",
"B#	c #D5CBAA",
"C#	c #DDCCA8",
"D#	c #DECBA9",
"E#	c #C8B391",
"F#	c #D3C19F",
"G#	c #E1D1AC",
"H#	c #DFD1AA",
"I#	c #D6CBA7",
"J#	c #CAC3AB",
"K#	c #C3C4B8",
"L#	c #C5C5B9",
"M#	c #CDCDC6",
"N#	c #D3D4D0",
"O#	c #D7D7D4",
"P#	c #CCCDC7",
"Q#	c #C0C0B7",
"R#	c #D4D4CF",
"S#	c #DCDCD8",
"T#	c #CBCBC1",
"U#	c #C1C1B3",
"V#	c #BFC1B0",
"W#	c #C5C5B6",
"X#	c #C9C9BB",
"Y#	c #C0BFB0",
"Z#	c #B8B5A3",
"`#	c #B8B4A4",
" $	c #928777",
".$	c #967F6D",
"+$	c #9B7963",
"@$	c #B6B6A5",
"#$	c #B9BAA8",
"$$	c #C0C0AF",
"%$	c #C1C1B2",
"&$	c #C2C2B4",
"*$	c #D9D8D3",
"=$	c #DBD6D2",
"-$	c #BA9D8B",
";$	c #BD9A83",
">$	c #BD9881",
",$	c #BA9481",
"'$	c #B08875",
")$	c #B38C77",
"!$	c #B99780",
"~$	c #BFA28B",
"{$	c #C7B198",
"]$	c #C4BAA3",
"^$	c #BDBEB3",
"/$	c #CECFC8",
"($	c #DDDDDB",
"_$	c #CECFCB",
":$	c #BDBBAD",
"<$	c #C2C2B3",
"[$	c #BEBFAE",
"}$	c #B6B6A7",
"|$	c #BABBB1",
"1$	c #BEBEAF",
"2$	c #BEBBAC",
"3$	c #BDBCAB",
"4$	c #9A8C73",
"5$	c #ADA591",
"6$	c #C0AFA5",
"7$	c #BB918A",
"8$	c #AF7263",
"9$	c #B7B5A3",
"0$	c #B9B8A7",
"a$	c #C0C1B3",
"b$	c #C5C3B1",
"c$	c #D3CCB1",
"d$	c #D0C9A7",
"e$	c #D1C8A9",
"f$	c #D4CAB7",
"g$	c #D6CDBA",
"h$	c #D2C7B7",
"i$	c #D0C8B5",
"j$	c #B7AD99",
"k$	c #C7BAA6",
"l$	c #CBBCA4",
"m$	c #CAB89A",
"n$	c #C9B498",
"o$	c #BCA28B",
"p$	c #B5A193",
"q$	c #C8C9C3",
"r$	c #D6D6D4",
"s$	c #C2C3B9",
"t$	c #BFBFB1",
"u$	c #C6C5B4",
"v$	c #BDBDAC",
"w$	c #BBBBAA",
"x$	c #C3C4B6",
"y$	c #BFBFAF",
"z$	c #BCBAAA",
"A$	c #C0C0B1",
"B$	c #BAB9A8",
"C$	c #B7B6A5",
"D$	c #BDBEB1",
"E$	c #C4B596",
"F$	c #A89A85",
"G$	c #998C80",
"H$	c #BEAFA0",
"I$	c #CDC4A8",
"J$	c #C19B82",
"K$	c #B6695E",
"L$	c #B66E63",
"M$	c #B2B1A0",
"N$	c #C0C1B4",
"O$	c #BEBFB0",
"P$	c #BAB7A5",
"Q$	c #CEC7B5",
"R$	c #D9D6CC",
"S$	c #BEBEBC",
"T$	c #CCCECC",
"U$	c #DEDEDB",
"V$	c #E8E9E5",
"W$	c #DDDEDB",
"X$	c #D6D6D3",
"Y$	c #D5D6D1",
"Z$	c #D3D0C5",
"`$	c #D0C8B2",
" %	c #CFC3A3",
".%	c #CEC6A7",
"+%	c #C9C1A5",
"@%	c #C2BBA9",
"#%	c #C3C4B3",
"$%	c #C2C3B6",
"%%	c #C0C0B2",
"&%	c #BFBEAF",
"*%	c #BEBDAC",
"=%	c #B7B4A2",
"-%	c #B9B7A7",
";%	c #C7C7BD",
">%	c #B5AC9B",
",%	c #978E7B",
"'%	c #CEC3B4",
")%	c #B97468",
"!%	c #CBB496",
"~%	c #CFB69D",
"{%	c #BB7E6F",
"]%	c #B05D50",
"^%	c #B0AF9E",
"/%	c #BAB9A9",
"(%	c #BFBFB0",
"_%	c #BFC0B1",
":%	c #C1C3B4",
"<%	c #CFCEC6",
"[%	c #DCDAD8",
"}%	c #979897",
"|%	c #707070",
"1%	c #909191",
"2%	c #CBC7C2",
"3%	c #E5E5E2",
"4%	c #B5B6B6",
"5%	c #828384",
"6%	c #7E7F7F",
"7%	c #BFC0BF",
"8%	c #E3E4E3",
"9%	c #D1CFC8",
"0%	c #C4BCA5",
"a%	c #CAC3AD",
"b%	c #C4BBA1",
"c%	c #C5BCA2",
"d%	c #BFBBA6",
"e%	c #C1C0B0",
"f%	c #B9B7A5",
"g%	c #BEBEAE",
"h%	c #C0C1B2",
"i%	c #C1C0B3",
"j%	c #C3C1B3",
"k%	c #BBB9A7",
"l%	c #B7B6A4",
"m%	c #B4A992",
"n%	c #95877B",
"o%	c #B79684",
"p%	c #CDC0A0",
"q%	c #C69680",
"r%	c #C29177",
"s%	c #CDB99C",
"t%	c #BE8A75",
"u%	c #B4675C",
"v%	c #B77A6F",
"w%	c #B3B2A1",
"x%	c #B4B19E",
"y%	c #BBBAA8",
"z%	c #C8C9BB",
"A%	c #C8C7C0",
"B%	c #BDBFBD",
"C%	c #747373",
"D%	c #616262",
"E%	c #83827F",
"F%	c #D8D7D4",
"G%	c #BABABA",
"H%	c #818182",
"I%	c #636464",
"J%	c #5A5B5B",
"K%	c #ABACAC",
"L%	c #D8D9D8",
"M%	c #CBCCC7",
"N%	c #C4C4B7",
"O%	c #C4C3B4",
"P%	c #BEBDAD",
"Q%	c #B6B5A4",
"R%	c #BDBCAC",
"S%	c #B5B3A0",
"T%	c #BABAAA",
"U%	c #C0C0B3",
"V%	c #BDBCAD",
"W%	c #B7B4A1",
"X%	c #BAA78C",
"Y%	c #AF5145",
"Z%	c #CBA98D",
"`%	c #CFBE9E",
" &	c #BC6E5E",
".&	c #C9AB88",
"+&	c #C4A481",
"@&	c #A95E47",
"#&	c #A13B34",
"$&	c #B4B3A1",
"%&	c #B5B19E",
"&&	c #BCBAA8",
"*&	c #C2C3B8",
"=&	c #B0B1B0",
"-&	c #646464",
";&	c #656567",
">&	c #B6B5B0",
",&	c #E0E1DE",
"'&	c #979797",
")&	c #686867",
"!&	c #686869",
"~&	c #B3B4B3",
"{&	c #D6D7D3",
"]&	c #C5C6BC",
"^&	c #CBCBC0",
"/&	c #C9C9BE",
"(&	c #C6C7BB",
"_&	c #BBBAAA",
":&	c #B7B39F",
"<&	c #B9B8A6",
"[&	c #BDBDAE",
"}&	c #B6B4A2",
"|&	c #B8B5A1",
"1&	c #C7BFA7",
"2&	c #C89E7E",
"3&	c #B96046",
"4&	c #D2C39D",
"5&	c #C18D6E",
"6&	c #B17B5A",
"7&	c #C0AE85",
"8&	c #AC7451",
"9&	c #A6594C",
"0&	c #B9B7A6",
"a&	c #B6B4A1",
"b&	c #C1C0B1",
"c&	c #C2C2B2",
"d&	c #C5C6B8",
"e&	c #D1D2D0",
"f&	c #A1A2A0",
"g&	c #B5B5B2",
"h&	c #BFBFBB",
"i&	c #E3E3E1",
"j&	c #A6A6A5",
"k&	c #646664",
"l&	c #585958",
"m&	c #A2A3A2",
"n&	c #C9CAC7",
"o&	c #CCCCC0",
"p&	c #CBCBBD",
"q&	c #C3C3B6",
"r&	c #B6B29F",
"s&	c #BBBAA9",
"t&	c #BABAA8",
"u&	c #B5B2A0",
"v&	c #B4B09E",
"w&	c #B3AE9A",
"x&	c #BAB7A2",
"y&	c #C8BB9C",
"z&	c #B8634B",
"A&	c #C29A73",
"B&	c #C2AB83",
"C&	c #A84733",
"D&	c #B9996E",
"E&	c #B1946A",
"F&	c #9A573E",
"G&	c #9E524A",
"H&	c #B5B6A4",
"I&	c #B4B3A0",
"J&	c #B8B7A4",
"K&	c #C1C1B4",
"L&	c #D8D8D3",
"M&	c #D7D7D7",
"N&	c #C1C1BC",
"O&	c #828380",
"P&	c #C5C6C6",
"Q&	c #CFD0CE",
"R&	c #B7B7B7",
"S&	c #B8B9B6",
"T&	c #C8CAC5",
"U&	c #C5C7BE",
"V&	c #CBCBBE",
"W&	c #C6C6B7",
"X&	c #C8C8BB",
"Y&	c #B5B29F",
"Z&	c #B8B5A2",
"`&	c #B4AF9C",
" *	c #B5B3A1",
".*	c #AFAB96",
"+*	c #B1AE99",
"@*	c #B9B39D",
"#*	c #B89473",
"$*	c #AA4732",
"%*	c #C4AC80",
"&*	c #AB7351",
"**	c #9D5233",
"=*	c #B5A171",
"-*	c #9F6A45",
";*	c #904839",
">*	c #B4B6A3",
",*	c #B2B19D",
"'*	c #BEBDAE",
")*	c #CCCDC8",
"!*	c #D6D7D4",
"~*	c #CACBC8",
"{*	c #828381",
"]*	c #C4C6C3",
"^*	c #E2E2E0",
"/*	c #DAD9D8",
"(*	c #D1D2CE",
"_*	c #C5C6BD",
":*	c #BBBDAF",
"<*	c #C1C3B5",
"[*	c #C2C2B5",
"}*	c #B4B09D",
"|*	c #B2AC99",
"1*	c #AEAA96",
"2*	c #ACA792",
"3*	c #B3A590",
"4*	c #9F5635",
"5*	c #A6724D",
"6*	c #B69E6F",
"7*	c #91311C",
"8*	c #A27E52",
"9*	c #A58D5E",
"0*	c #8C4930",
"a*	c #88392E",
"b*	c #B0AE99",
"c*	c #B0AD98",
"d*	c #B4B39F",
"e*	c #B5B3A2",
"f*	c #BCBBAD",
"g*	c #D2D3D0",
"h*	c #C2C3BB",
"i*	c #D2D4D2",
"j*	c #B6B8B6",
"k*	c #CFCFCC",
"l*	c #D0D0CE",
"m*	c #D2D2D0",
"n*	c #BDBDB6",
"o*	c #B4B4A6",
"p*	c #BEBFB1",
"q*	c #BABBAA",
"r*	c #BBBAAB",
"s*	c #B6B19D",
"t*	c #B2AD9A",
"u*	c #B3B09D",
"v*	c #B1AC98",
"w*	c #B0AA97",
"x*	c #AFAA98",
"y*	c #B2AD9C",
"z*	c #AFAA95",
"A*	c #A6A28B",
"B*	c #AAA591",
"C*	c #B1AA96",
"D*	c #9F876E",
"E*	c #882D04",
"F*	c #A68A58",
"G*	c #987548",
"H*	c #81321A",
"I*	c #A28D5A",
"J*	c #8D623C",
"K*	c #885847",
"L*	c #ABA993",
"M*	c #ADAA93",
"N*	c #B2B099",
"O*	c #B3B09A",
"P*	c #C4C4BC",
"Q*	c #C9CAC3",
"R*	c #CCCDCB",
"S*	c #CBCCC9",
"T*	c #C4C3C2",
"U*	c #BEBFBE",
"V*	c #D2D2D1",
"W*	c #C0C0B8",
"X*	c #B2B09F",
"Y*	c #B9B9A8",
"Z*	c #B6B5A5",
"`*	c #B1AC99",
" =	c #ADA794",
".=	c #ABA692",
"+=	c #ADA996",
"@=	c #AEA996",
"#=	c #A8A38C",
"$=	c #A39E85",
"%=	c #AAA791",
"&=	c #A99F8B",
"*=	c #805432",
"==	c #7C4423",
"-=	c #968652",
";=	c #77361B",
">=	c #855F38",
",=	c #94824F",
"'=	c #73331A",
")=	c #896557",
"!=	c #A5A491",
"~=	c #ACA995",
"{=	c #B2AE99",
"]=	c #B1AC96",
"^=	c #D3D5D0",
"/=	c #BCBDB5",
"(=	c #D2D2CF",
"_=	c #D0D0CC",
":=	c #C0C0BD",
"<=	c #C4C5C3",
"[=	c #D0D1CF",
"}=	c #C5C6C1",
"|=	c #B2AEA0",
"1=	c #B4B19F",
"2=	c #B4B2A0",
"3=	c #B3B09E",
"4=	c #B3AF9E",
"5=	c #B2B09D",
"6=	c #AEA995",
"7=	c #ACA794",
"8=	c #ABA793",
"9=	c #ADA893",
"0=	c #ABA590",
"a=	c #AAA38F",
"b=	c #A9A390",
"c=	c #ACA895",
"d=	c #AAA691",
"e=	c #A39E87",
"f=	c #A49E88",
"g=	c #AAA590",
"h=	c #998C77",
"i=	c #651800",
"j=	c #7B5E31",
"k=	c #716A3C",
"l=	c #64190C",
"m=	c #856D3D",
"n=	c #7F6241",
"o=	c #6F382D",
"p=	c #ABA894",
"q=	c #AEAA97",
"r=	c #B0AC99",
"s=	c #AFAC98",
"t=	c #B2AF9D",
"u=	c #BEBCB1",
"v=	c #CFCFCB",
"w=	c #B2B1A7",
"x=	c #CECFCC",
"y=	c #CECDCA",
"z=	c #C0C2BE",
"A=	c #B3B4AF",
"B=	c #B9BAB6",
"C=	c #B9B9B4",
"D=	c #C7C8C4",
"E=	c #B7B6AD",
"F=	c #A6A18E",
"G=	c #AEA893",
"H=	c #B0AA96",
"I=	c #AEA997",
"J=	c #AEA895",
"K=	c #A9A48F",
"L=	c #A9A491",
"M=	c #A9A38F",
"N=	c #A7A18C",
"O=	c #A8A28C",
"P=	c #AAA490",
"Q=	c #ACA793",
"R=	c #A7A38E",
"S=	c #A19C87",
"T=	c #A6A18D",
"U=	c #A6A08E",
"V=	c #867868",
"W=	c #5E3D2A",
"X=	c #73673B",
"Y=	c #62461C",
"Z=	c #5C290D",
"`=	c #7D6C3A",
" -	c #693A2B",
".-	c #71453E",
"+-	c #ACAA96",
"@-	c #ADA994",
"#-	c #C5C5BD",
"$-	c #B6B0A6",
"%-	c #B3AFA1",
"&-	c #D4D4D0",
"*-	c #CACBC6",
"=-	c #C0C1BC",
"--	c #C3C4C2",
";-	c #A9A59C",
">-	c #B9B8B2",
",-	c #BFC0BC",
"'-	c #ADAA9F",
")-	c #A6A08C",
"!-	c #A6A28C",
"~-	c #A6A18C",
"{-	c #A8A08D",
"]-	c #A6A08A",
"^-	c #A7A18B",
"/-	c #A9A391",
"(-	c #A9A490",
"_-	c #A39F89",
":-	c #A19C86",
"<-	c #A8A492",
"[-	c #9D9E8F",
"}-	c #7A7F6D",
"|-	c #837767",
"1-	c #7D795C",
"2-	c #705C55",
"3-	c #6C573C",
"4-	c #716D3C",
"5-	c #602F21",
"6-	c #B7B6AA",
"7-	c #B1AF9F",
"8-	c #ACA894",
"9-	c #ABA794",
"0-	c #B9B8AC",
"a-	c #D0D0CA",
"b-	c #9B9785",
"c-	c #B6B3A8",
"d-	c #CACCC8",
"e-	c #C4C4C0",
"f-	c #C0C2BD",
"g-	c #BABBB7",
"h-	c #B4B4B2",
"i-	c #A3A199",
"j-	c #9F9B8A",
"k-	c #B9B8AD",
"l-	c #BABBB2",
"m-	c #A6A294",
"n-	c #A49E89",
"o-	c #A7A28D",
"p-	c #A7A08D",
"q-	c #A69F8A",
"r-	c #A49E87",
"s-	c #A59F89",
"t-	c #A5A086",
"u-	c #A59F88",
"v-	c #A7A38F",
"w-	c #A4A18C",
"x-	c #9E9A84",
"y-	c #A09C87",
"z-	c #A09E8A",
"A-	c #7D8A74",
"B-	c #386A4A",
"C-	c #BBBCB7",
"D-	c #979280",
"E-	c #716B4E",
"F-	c #78665D",
"G-	c #AEAA98",
"H-	c #B8B5A6",
"I-	c #C4C3BA",
"J-	c #B9B7AE",
"K-	c #A29B88",
"L-	c #AEAB99",
"M-	c #CED0CA",
"N-	c #C2C3BD",
"O-	c #B1B1AD",
"P-	c #BBBCBA",
"Q-	c #B0AFA9",
"R-	c #9F9C88",
"S-	c #A1A08D",
"T-	c #B9BBB4",
"U-	c #B7B8B1",
"V-	c #9C9886",
"W-	c #A19B87",
"X-	c #A39E86",
"Y-	c #A29E86",
"Z-	c #A49F8B",
"`-	c #A39F8A",
" ;	c #A4A186",
".;	c #A39F86",
"+;	c #A4A089",
"@;	c #A5A08A",
"#;	c #A6A08D",
"$;	c #A29C8A",
"%;	c #9E9984",
"&;	c #A3A08C",
"*;	c #A09A85",
"=;	c #7A7C61",
"-;	c #436854",
";;	c #989180",
">;	c #6E604C",
",;	c #BBB9AC",
"';	c #CCCDC6",
");	c #A9A798",
"!;	c #A5A08B",
"~;	c #BEBEB5",
"{;	c #C7C8C3",
"];	c #BFC0BB",
"^;	c #BBBDB8",
"/;	c #B0B1AB",
"(;	c #9F9D8A",
"_;	c #979176",
":;	c #A8A696",
"<;	c #BABCB4",
"[;	c #B0B1A7",
"};	c #98937E",
"|;	c #9D9883",
"1;	c #A19D87",
"2;	c #A39F87",
"3;	c #A29D87",
"4;	c #A4A086",
"5;	c #A5A186",
"6;	c #A5A088",
"7;	c #A6A28D",
"8;	c #A5A18E",
"9;	c #A09D88",
"0;	c #9E9B86",
"a;	c #A6A392",
"b;	c #8D8A7C",
"c;	c #38432B",
"d;	c #56705C",
"e;	c #8F9E90",
"f;	c #ABAA9E",
"g;	c #BFC0B6",
"h;	c #999480",
"i;	c #9C9581",
"j;	c #A3A190",
"k;	c #C1C2BD",
"l;	c #C2C4BF",
"m;	c #C0C1B9",
"n;	c #BBBCB5",
"o;	c #B2B3AE",
"p;	c #9E9C8B",
"q;	c #979278",
"r;	c #9B957D",
"s;	c #A7A595",
"t;	c #B5B7AF",
"u;	c #ADADA2",
"v;	c #979380",
"w;	c #9F9B85",
"x;	c #A39E88",
"y;	c #A4A087",
"z;	c #A7A38D",
"A;	c #A8A491",
"B;	c #A5A18F",
"C;	c #9F9D88",
"D;	c #A09E8B",
"E;	c #9B9889",
"F;	c #706F64",
"G;	c #1E1900",
"H;	c #7E7F73",
"I;	c #CCCFC9",
"J;	c #C3C5C0",
"K;	c #959592",
"L;	c #4F4D48",
"M;	c #B1B2AC",
"N;	c #625433",
"O;	c #A9A89B",
"P;	c #B2B1A5",
"Q;	c #9A9681",
"R;	c #928B70",
"S;	c #918D72",
"T;	c #9E9B87",
"U;	c #AFB0A6",
"V;	c #BBBAB3",
"W;	c #BDBEB9",
"X;	c #AFB0A9",
"Y;	c #9A9784",
"Z;	c #948F73",
"`;	c #98937A",
" >	c #99947C",
".>	c #A09D8D",
"+>	c #B0B0A9",
"@>	c #B1B1A8",
"#>	c #999682",
"$>	c #9F9C8A",
"%>	c #9F9B88",
"&>	c #A4A08D",
"*>	c #9E9C89",
"=>	c #A6A390",
"->	c #8C887A",
";>	c #49443F",
">>	c #2B2820",
",>	c #454038",
"'>	c #766E65",
")>	c #A29D96",
"!>	c #C1C3C0",
"~>	c #8F908B",
"{>	c #B9BAB2",
"]>	c #AFB0AB",
"^>	c #B0A48E",
"/>	c #734F3B",
"(>	c #A09282",
"_>	c #ACAB9D",
":>	c #99947E",
"<>	c #8B866E",
"[>	c #837E63",
"}>	c #838368",
"|>	c #8E8971",
"1>	c #91917A",
"2>	c #97947F",
"3>	c #928E76",
"4>	c #908A70",
"5>	c #928A6F",
"6>	c #948D72",
"7>	c #958F74",
"8>	c #938D72",
"9>	c #9A9583",
"0>	c #ACACA3",
"a>	c #B2B3AB",
"b>	c #B4B5AE",
"c>	c #B0B0A6",
"d>	c #9D9981",
"e>	c #A49F88",
"f>	c #A5A492",
"g>	c #9E9D8A",
"h>	c #9C9A88",
"i>	c #A09E8D",
"j>	c #908776",
"k>	c #685847",
"l>	c #524739",
"m>	c #544839",
"n>	c #635845",
"o>	c #8D8778",
"p>	c #98968C",
"q>	c #C2C4BD",
"r>	c #C1C2BC",
"s>	c #C4C3BE",
"t>	c #BCB19A",
"u>	c #8F6456",
"v>	c #967D6B",
"w>	c #937E66",
"x>	c #A29F8E",
"y>	c #928E7B",
"z>	c #999686",
"A>	c #9E9D8E",
"B>	c #9D9A8C",
"C>	c #979482",
"D>	c #837A5C",
"E>	c #818061",
"F>	c #858469",
"G>	c #8B8568",
"H>	c #90896B",
"I>	c #928A70",
"J>	c #90886D",
"K>	c #979381",
"L>	c #B6B6AD",
"M>	c #ADAEA7",
"N>	c #A2A199",
"O>	c #94907A",
"P>	c #9F9B84",
"Q>	c #A6A28F",
"R>	c #A2A18B",
"S>	c #999683",
"T>	c #7E7768",
"U>	c #5F5548",
"V>	c #554D42",
"W>	c #574E40",
"X>	c #655845",
"Y>	c #696052",
"Z>	c #838270",
"`>	c #B5B8B0",
" ,	c #ACAEA5",
".,	c #999990",
"+,	c #B3B5AF",
"@,	c #BFB59D",
"#,	c #6F6766",
"$,	c #897A75",
"%,	c #AA977C",
"&,	c #7B6956",
"*,	c #6B584C",
"=,	c #452E21",
"-,	c #2B1205",
";,	c #625953",
">,	c #B0ACA9",
",,	c #9FA09A",
"',	c #A89A83",
"),	c #9B8666",
"!,	c #837550",
"~,	c #7C7B5A",
"{,	c #828160",
"],	c #888568",
"^,	c #89866C",
"/,	c #8D8871",
"(,	c #A3A196",
"_,	c #A8A99F",
":,	c #8C8979",
"<,	c #948E78",
"[,	c #9B9782",
"},	c #A29D88",
"|,	c #9D9984",
"1,	c #999580",
"2,	c #A4A28E",
"3,	c #898575",
"4,	c #5B5245",
"5,	c #514A3F",
"6,	c #4D463B",
"7,	c #453C2F",
"8,	c #493F32",
"9,	c #544C3C",
"0,	c #7F7C69",
"a,	c #898A7C",
"b,	c #ACAEA4",
"c,	c #ABABA7",
"d,	c #BEBFBD",
"e,	c #C2BEB4",
"f,	c #736E68",
"g,	c #7D7B7A",
"h,	c #837868",
"i,	c #524237",
"j,	c #523F34",
"k,	c #34231A",
"l,	c #2B1911",
"m,	c #4D433D",
"n,	c #B5B4AD",
"o,	c #AFA299",
"p,	c #BA9787",
"q,	c #B27A69",
"r,	c #ABA090",
"s,	c #9B8168",
"t,	c #745E3E",
"u,	c #615B3F",
"v,	c #6F6545",
"w,	c #797354",
"x,	c #837C5C",
"y,	c #868063",
"z,	c #8C8973",
"A,	c #999680",
"B,	c #8A856F",
"C,	c #959078",
"D,	c #9C9882",
"E,	c #9F9C85",
"F,	c #999884",
"G,	c #95937E",
"H,	c #9E9B89",
"I,	c #736F61",
"J,	c #382B1C",
"K,	c #453B30",
"L,	c #3D332A",
"M,	c #362E23",
"N,	c #2E261A",
"O,	c #544F3F",
"P,	c #9E9C92",
"Q,	c #AAABA3",
"R,	c #C1C2BB",
"S,	c #CACAC7",
"T,	c #CACAC8",
"U,	c #E9EAE9",
"V,	c #D0D2D1",
"W,	c #A2A29D",
"X,	c #91918F",
"Y,	c #757372",
"Z,	c #362218",
"`,	c #453A32",
" '	c #322726",
".'	c #0D0000",
"+'	c #6E6B66",
"@'	c #B5B5B1",
"#'	c #BABCB6",
"$'	c #ADACA6",
"%'	c #B19B8D",
"&'	c #B17A63",
"*'	c #A06E5B",
"='	c #9D8A7A",
"-'	c #968F80",
";'	c #837462",
">'	c #574739",
",'	c #614125",
"''	c #6F4B25",
")'	c #665233",
"!'	c #796640",
"~'	c #7A724F",
"{'	c #7D7757",
"]'	c #857F5F",
"^'	c #8B846C",
"/'	c #908C74",
"('	c #9A967F",
"_'	c #9B9982",
":'	c #969580",
"<'	c #989680",
"['	c #8E8B79",
"}'	c #595549",
"|'	c #180000",
"1'	c #2C2015",
"2'	c #2A241C",
"3'	c #45423B",
"4'	c #67645C",
"5'	c #726F65",
"6'	c #8E8F89",
"7'	c #C6C7C3",
"8'	c #C1BEB7",
"9'	c #B3B3AC",
"0'	c #EAEAE9",
"a'	c #DFE0DF",
"b'	c #BFC2C2",
"c'	c #9C9E9D",
"d'	c #888A88",
"e'	c #999A95",
"f'	c #6B6660",
"g'	c #716F6B",
"h'	c #63605E",
"i'	c #5E5D5A",
"j'	c #979893",
"k'	c #C9C9C4",
"l'	c #A8A8A3",
"m'	c #A6998E",
"n'	c #8D623F",
"o'	c #896544",
"p'	c #86786C",
"q'	c #93948D",
"r'	c #80807A",
"s'	c #9E927E",
"t'	c #7B6C59",
"u'	c #4D3E27",
"v'	c #704B19",
"w'	c #794C08",
"x'	c #5D3C0E",
"y'	c #6E5029",
"z'	c #6E6546",
"A'	c #726B4D",
"B'	c #716D55",
"C'	c #7F785C",
"D'	c #857F67",
"E'	c #908B71",
"F'	c #948F77",
"G'	c #948F76",
"H'	c #9B9781",
"I'	c #85816E",
"J'	c #5E5746",
"K'	c #4E473B",
"L'	c #504C45",
"M'	c #494842",
"N'	c #50514A",
"O'	c #6B6B64",
"P'	c #7E7F77",
"Q'	c #787A73",
"R'	c #9D9B96",
"S'	c #A59D90",
"T'	c #8C8A83",
"U'	c #E3E5E4",
"V'	c #DBDDDD",
"W'	c #BABEBF",
"X'	c #858A8C",
"Y'	c #4F5255",
"Z'	c #61645F",
"`'	c #999C98",
" )	c #9D9F98",
".)	c #8A8C88",
"+)	c #9C9E99",
"@)	c #91938E",
"#)	c #959894",
"$)	c #BBBCB8",
"%)	c #C3C2BD",
"&)	c #B5B4AB",
"*)	c #ADACA1",
"=)	c #A5A394",
"-)	c #94886B",
";)	c #816C4B",
">)	c #6F6F67",
",)	c #81817A",
"')	c #989992",
"))	c #C8CAC6",
"!)	c #AE9E85",
"~)	c #846E4F",
"{)	c #4B3500",
"])	c #817056",
"^)	c #9B8975",
"/)	c #7A6C5C",
"()	c #695130",
"_)	c #685B41",
":)	c #6B6249",
"<)	c #564F3F",
"[)	c #665E44",
"})	c #777055",
"|)	c #81795C",
"1)	c #89856A",
"2)	c #8D886F",
"3)	c #97937D",
"4)	c #817C66",
"5)	c #7F7966",
"6)	c #888579",
"7)	c #717069",
"8)	c #615F5B",
"9)	c #7A7A75",
"0)	c #797A76",
"a)	c #7D7E77",
"b)	c #8E8C82",
"c)	c #696152",
"d)	c #807560",
"e)	c #888683",
"f)	c #CACECE",
"g)	c #BBBFC0",
"h)	c #95999B",
"i)	c #767A7B",
"j)	c #696D6B",
"k)	c #7A807B",
"l)	c #989A97",
"m)	c #ACAFA9",
"n)	c #C8C9C5",
"o)	c #A3A49F",
"p)	c #9B9C9A",
"q)	c #9D9C93",
"r)	c #AEAB9B",
"s)	c #C0BCAB",
"t)	c #BFB9A6",
"u)	c #A29982",
"v)	c #847862",
"w)	c #A7A494",
"x)	c #9A998E",
"y)	c #8E8F85",
"z)	c #C4C5C0",
"A)	c #BDBFBA",
"B)	c #A1A39E",
"C)	c #B4B5B1",
"D)	c #A7A8A1",
"E)	c #B9AB96",
"F)	c #706754",
"G)	c #99978E",
"H)	c #B5B7B0",
"I)	c #6B614D",
"J)	c #554730",
"K)	c #625543",
"L)	c #443025",
"M)	c #4E3F32",
"N)	c #6E6448",
"O)	c #787157",
"P)	c #787962",
"Q)	c #7B7964",
"R)	c #86826F",
"S)	c #858172",
"T)	c #A0A096",
"U)	c #9FA098",
"V)	c #73736A",
"W)	c #74726C",
"X)	c #9E9D97",
"Y)	c #A19D96",
"Z)	c #797870",
"`)	c #817A69",
" !	c #868277",
".!	c #696558",
"+!	c #A2A7A7",
"@!	c #797C7C",
"#!	c #777C79",
"$!	c #848986",
"%!	c #8F928F",
"&!	c #9C9E9B",
"*!	c #D4D6D4",
"=!	c #8E8F8B",
"-!	c #878682",
";!	c #A6A59E",
">!	c #BEBDB2",
",!	c #C5C3B5",
"'!	c #BAB6A6",
")!	c #A9A593",
"!!	c #AFAC97",
"~!	c #BBB8A6",
"{!	c #BDBEAE",
"]!	c #B6B7AF",
"^!	c #A4A59E",
"/!	c #7B7870",
"(!	c #8E8E86",
"_!	c #9D9E98",
":!	c #BFB7AB",
"<!	c #BCB6AA",
"[!	c #A7A59A",
"}!	c #9D9E97",
"|!	c #959794",
"1!	c #86857C",
"2!	c #716C61",
"3!	c #4E4639",
"4!	c #504539",
"5!	c #493428",
"6!	c #57493B",
"7!	c #70674D",
"8!	c #817D6B",
"9!	c #747062",
"0!	c #62624F",
"a!	c #6F6852",
"b!	c #A0A095",
"c!	c #BDC0BA",
"d!	c #A0A098",
"e!	c #7E7667",
"f!	c #928E82",
"g!	c #878477",
"h!	c #62502F",
"i!	c #403C30",
"j!	c #746B5D",
"k!	c #878781",
"l!	c #8B8E8B",
"m!	c #838482",
"n!	c #8E918F",
"o!	c #959896",
"p!	c #CCCFCD",
"q!	c #8B8D8A",
"r!	c #7E7F78",
"s!	c #9D9C8F",
"t!	c #A2A193",
"u!	c #A1A298",
"v!	c #AEAEA7",
"w!	c #BEBDB3",
"x!	c #C5C4BA",
"y!	c #B6B8B1",
"z!	c #B6B7AC",
"A!	c #BABAB0",
"B!	c #BEBEB7",
"C!	c #BDBBB2",
"D!	c #BDBEB5",
"E!	c #B1B3AD",
"F!	c #ADA290",
"G!	c #9C947F",
"H!	c #9B9A8F",
"I!	c #8D8B84",
"J!	c #796E5D",
"K!	c #545653",
"L!	c #484339",
"M!	c #6E6556",
"N!	c #837A61",
"O!	c #827F71",
"P!	c #727062",
"Q!	c #54513E",
"R!	c #656049",
"S!	c #9B9B93",
"T!	c #B9BBB8",
"U!	c #AAA49B",
"V!	c #75644C",
"W!	c #675D4D",
"X!	c #7F7B70",
"Y!	c #5C4F3A",
"Z!	c #524C40",
"`!	c #43433E",
" ~	c #81837F",
".~	c #9C9D9A",
"+~	c #D3D4D3",
"@~	c #D0D3D2",
"#~	c #CFD2D1",
"$~	c #A8AAAA",
"%~	c #ADB0AC",
"&~	c #B9BAB0",
"*~	c #ACAC9E",
"=~	c #9E9C8D",
"-~	c #A29E8F",
";~	c #AEA99A",
">~	c #B1AE9C",
",~	c #A4A293",
"'~	c #A9A99B",
")~	c #B0AE9F",
"!~	c #ABAB9F",
"~~	c #AFAEA1",
"{~	c #B2B1A4",
"]~	c #B4B6AB",
"^~	c #B4A492",
"/~	c #A59986",
"(~	c #9A998F",
"_~	c #989D97",
":~	c #989C97",
"<~	c #9A9B96",
"[~	c #9FA19B",
"}~	c #9E9F99",
"|~	c #787A77",
"1~	c #3B3B38",
"2~	c #908E83",
"3~	c #968E6F",
"4~	c #7E7969",
"5~	c #545447",
"6~	c #69604A",
"7~	c #7B7256",
"8~	c #9D9D94",
"9~	c #B2B0AC",
"0~	c #978F83",
"a~	c #5B4A26",
"b~	c #5D5951",
"c~	c #737672",
"d~	c #383834",
"e~	c #40413D",
"f~	c #4C4E4B",
"g~	c #CED1D0",
"h~	c #C7CAC8",
"i~	c #BEC1C0",
"j~	c #BEC0BC",
"k~	c #ADAFAB",
"l~	c #939593",
"m~	c #8E8F8C",
"n~	c #9F9F97",
"o~	c #A8A89E",
"p~	c #9A9B94",
"q~	c #A5A6A0",
"r~	c #ABAEA7",
"s~	c #A9AAA5",
"t~	c #A9A9A3",
"u~	c #A3A4A0",
"v~	c #A5A6A1",
"w~	c #A5A7A3",
"x~	c #A1A3A1",
"y~	c #9A9C9A",
"z~	c #9B9E99",
"A~	c #9FA29C",
"B~	c #989B97",
"C~	c #7D807C",
"D~	c #5C5C55",
"E~	c #5D5C55",
"F~	c #484948",
"G~	c #797975",
"H~	c #84837B",
"I~	c #8D8568",
"J~	c #787464",
"K~	c #69634E",
"L~	c #8F8C7A",
"M~	c #A4A396",
"N~	c #A6A6A0",
"O~	c #A6A6A1",
"P~	c #807F79",
"Q~	c #2A2621",
"R~	c #535450",
"S~	c #737470",
"T~	c #353330",
"U~	c #44433C",
"V~	c #6A6964",
"W~	c #9E9E99",
"X~	c #CDCFCD",
"Y~	c #A7A8A8",
"Z~	c #787B7A",
"`~	c #A0A3A1",
" {	c #BCBFBC",
".{	c #B6B9B8",
"+{	c #AFB3B1",
"@{	c #919393",
"#{	c #67686A",
"${	c #6F7373",
"%{	c #777E7C",
"&{	c #797A79",
"*{	c #7B7E7A",
"={	c #7C7F7F",
"-{	c #7E827F",
";{	c #7E807F",
">{	c #7C7D7C",
",{	c #7E807E",
"'{	c #797A78",
"){	c #727472",
"!{	c #8A8C8B",
"~{	c #959793",
"{{	c #76726A",
"]{	c #3E2D16",
"^{	c #3B3630",
"/{	c #464641",
"({	c #504D44",
"_{	c #81837C",
":{	c #747471",
"<{	c #7E796F",
"[{	c #9D9988",
"}{	c #A2A198",
"|{	c #B5B6B1",
"1{	c #B4B7B4",
"2{	c #A3A4A2",
"3{	c #8A8A87",
"4{	c #5F5F5C",
"5{	c #333331",
"6{	c #333330",
"7{	c #585957",
"8{	c #6F6F6B",
"9{	c #564A34",
"0{	c #726249",
"a{	c #767163",
"b{	c #C7CAC6",
"c{	c #999B98",
"d{	c #686A65",
"e{	c #393834",
"f{	c #969999",
"g{	c #B2B6B4",
"h{	c #ADB0AD",
"i{	c #696B69",
"j{	c #15110E",
"k{	c #31302D",
"l{	c #36312E",
"m{	c #393430",
"n{	c #373432",
"o{	c #34332E",
"p{	c #2E2F2E",
"q{	c #39352F",
"r{	c #3F362D",
"s{	c #33271C",
"t{	c #585956",
"u{	c #919490",
"v{	c #8C8C86",
"w{	c #62584D",
"x{	c #3D2D16",
"y{	c #312E2A",
"z{	c #3C3B38",
"A{	c #484139",
"B{	c #74736D",
"C{	c #86857F",
"D{	c #8D8D8B",
"E{	c #B0B1AC",
"F{	c #A2A49E",
"G{	c #7F817F",
"H{	c #5B5C5B",
"I{	c #464644",
"J{	c #3D3E3B",
"K{	c #353533",
"L{	c #262825",
"M{	c #515452",
"N{	c #747068",
"O{	c #725D43",
"P{	c #6F5D44",
"Q{	c #6D634E",
"R{	c #949592",
"S{	c #464642",
"T{	c #666760",
"U{	c #30312C",
"V{	c #2C2C2C",
"W{	c #9B9F9F",
"X{	c #ABB0AF",
"Y{	c #9B9F9D",
"Z{	c #7F817C",
"`{	c #3B3829",
" ]	c #190900",
".]	c #241B13",
"+]	c #271D14",
"@]	c #251D15",
"#]	c #1E1A14",
"$]	c #131211",
"%]	c #231D13",
"&]	c #281A07",
"*]	c #494A47",
"=]	c #838582",
"-]	c #949891",
";]	c #747166",
">]	c #4A3920",
",]	c #392C1A",
"']	c #3B3733",
")]	c #514D47",
"!]	c #3A3329",
"~]	c #565653",
"{]	c #777877",
"]]	c #5E5F5B",
"^]	c #4B4C49",
"/]	c #3F3F3D",
"(]	c #353532",
"_]	c #2F302E",
":]	c #2A2C2B",
"<]	c #3F3B30",
"[]	c #504430",
"}]	c #615645",
"|]	c #6F6350",
"1]	c #685432",
"2]	c #655947",
"3]	c #6E6F6A",
"4]	c #73736F",
"5]	c #70716B",
"6]	c #7A7B77",
"7]	c #6A6A68",
"8]	c #5B5D5E",
"9]	c #969898",
"0]	c #A2A4A4",
"a]	c #898B89",
"b]	c #70706B",
"c]	c #1D0F07",
"d]	c #1F1607",
"e]	c #23190E",
"f]	c #241A0D",
"g]	c #1D1302",
"h]	c #322B24",
"i]	c #575652",
"j]	c #7C7F7A",
"k]	c #929691",
"l]	c #77766E",
"m]	c #4E4434",
"n]	c #372916",
"o]	c #2D2519",
"p]	c #555550",
"q]	c #6B6C68",
"r]	c #292825",
"s]	c #3A3A38",
"t]	c #4E4E4C",
"u]	c #434341",
"v]	c #30312E",
"w]	c #2B2C2A",
"x]	c #2C2D2C",
"y]	c #363531",
"z]	c #413B2F",
"A]	c #534731",
"B]	c #5E4C34",
"C]	c #624D33",
"D]	c #624D31",
"E]	c #6D604A",
"F]	c #7E7763",
"G]	c #9D9F9D",
"H]	c #969795",
"I]	c #878987",
"J]	c #9EA0A0",
"K]	c #ACAEAF",
"L]	c #9B9C9B",
"M]	c #7F817E",
"N]	c #3C3A36",
"O]	c #35342F",
"P]	c #454340",
"Q]	c #535453",
"R]	c #626361",
"S]	c #696968",
"T]	c #666664",
"U]	c #666864",
"V]	c #3A3833",
"W]	c #241D14",
"X]	c #29261F",
"Y]	c #3C3C37",
"Z]	c #5D5E5B",
"`]	c #656663",
" ^	c #242422",
".^	c #2D2D2C",
"+^	c #2A2B29",
"@^	c #2B2E2C",
"#^	c #2E302E",
"$^	c #3D372E",
"%^	c #493E2E",
"&^	c #52432E",
"*^	c #5A472D",
"=^	c #5C4B31",
"-^	c #5B472A",
";^	c #5C482F",
">^	c #5D4C36",
",^	c #AAACA9",
"'^	c #818381",
")^	c #7D7E7A",
"!^	c #ACADA8",
"~^	c #909291",
"{^	c #717371",
"]^	c #6E706E",
"^^	c #717271",
"/^	c #757776",
"(^	c #7B7D7C",
"_^	c #7D7F80",
":^	c #646665",
"<^	c #555551",
"[^	c #2B2924",
"}^	c #373530",
"|^	c #33302C",
"1^	c #4C4C4A",
"2^	c #616260",
"3^	c #424443",
"4^	c #212324",
"5^	c #292928",
"6^	c #38322A",
"7^	c #43392C",
"8^	c #4D3E2C",
"9^	c #52422C",
"0^	c #57442C",
"a^	c #5A472B",
"b^	c #634C2C",
"c^	c #574224",
"d^	c #655A49",
"e^	c #6D6455",
"f^	c #8E908E",
"g^	c #71716E",
"h^	c #8B8A83",
"i^	c #A4A49C",
"j^	c #8E8F87",
"k^	c #767876",
"l^	c #7D7E7E",
"m^	c #808180",
"n^	c #7C7F80",
"o^	c #777977",
"p^	c #6C6E6F",
"q^	c #5A5B5C",
"r^	c #444544",
"s^	c #262624",
"t^	c #2E2B28",
"u^	c #363430",
"v^	c #373632",
"w^	c #242221",
"x^	c #505150",
"y^	c #2F281D",
"z^	c #3A3025",
"A^	c #423523",
"B^	c #473926",
"C^	c #504029",
"D^	c #564228",
"E^	c #554328",
"F^	c #554228",
"G^	c #503D24",
"H^	c #503C22",
"I^	c #4E381B",
"J^	c #BFBFBD",
"K^	c #8D8E8C",
"L^	c #666763",
"M^	c #8C8B82",
"N^	c #828174",
"O^	c #535452",
"P^	c #565657",
"Q^	c #5A5A5A",
"R^	c #56595A",
"S^	c #4E504E",
"T^	c #3F4244",
"U^	c #1E1F1D",
"V^	c #222323",
"W^	c #292827",
"X^	c #302E2A",
"Y^	c #2F2A22",
"Z^	c #302D2A",
"`^	c #585754",
" /	c #656159",
"./	c #3E2E12",
"+/	c #493922",
"@/	c #4F3D21",
"#/	c #4C3B22",
"$/	c #4F3E25",
"%/	c #4C381D",
"&/	c #4B3922",
"*/	c #4C3A22",
"=/	c #47351D",
"-/	c #402E1A",
";/	c #A2A3A0",
">/	c #6F716D",
",/	c #686357",
"'/	c #757061",
")/	c #3B3932",
"!/	c #1F1912",
"~/	c #17110B",
"{/	c #130E03",
"]/	c #100904",
"^/	c #191510",
"//	c #26221E",
"(/	c #2B2721",
"_/	c #2E2821",
":/	c #342A22",
"</	c #372C20",
"[/	c #3C2E1D",
"}/	c #463B2F",
"|/	c #564D42",
"1/	c #5A4E3C",
"2/	c #4B391C",
"3/	c #4A3A1E",
"4/	c #4C3C21",
"5/	c #49381F",
"6/	c #47371F",
"7/	c #554A3B",
"8/	c #473723",
"9/	c #45341C",
"0/	c #8A8C87",
"a/	c #5E594E",
"b/	c #5A4E39",
"c/	c #514837",
"d/	c #3F3225",
"e/	c #362B1F",
"f/	c #30261C",
"g/	c #2E251D",
"h/	c #2E251B",
"i/	c #33271D",
"j/	c #342A1F",
"k/	c #382B1D",
"l/	c #3F2D1E",
"m/	c #402F1E",
"n/	c #44341F",
"o/	c #47351B",
"p/	c #453212",
"q/	c #473417",
"r/	c #4A381F",
"s/	c #45351C",
"t/	c #44351E",
"u/	c #48361D",
"v/	c #43331E",
"w/	c #645E53",
"x/	c #565047",
"y/	c #574834",
"z/	c #4C3E2C",
"A/	c #453524",
"B/	c #3C2E20",
"C/	c #372A1B",
"D/	c #35291B",
"E/	c #34291C",
"F/	c #37291A",
"G/	c #3B2C1D",
"H/	c #3E2D1E",
"I/	c #412F1C",
"J/	c #43321C",
"K/	c #43331D",
"L/	c #40301B",
"M/	c #3C2E19",
"N/	c #3D2F1B",
"O/	c #36281C",
"P/	c #747572",
"Q/	c #474339",
"R/	c #52493D",
"S/	c #493D2F",
"T/	c #413627",
"U/	c #3F3221",
"V/	c #3C2F20",
"W/	c #3A2F22",
"X/	c #41392F",
"Y/	c #443829",
"Z/	c #3B2E1E",
"`/	c #392A19",
" (	c #3C2B1B",
".(	c #42331D",
"+(	c #49361D",
"@(	c #5C5C57",
"#(	c #484740",
"$(	c #494439",
"%(	c #4D4127",
"&(	c #433828",
"*(	c #4A4133",
"=(	c #636059",
"-(	c #655C4C",
";(	c #433827",
"                                                                                                                                                      ",
"                                                                                                                                                      ",
"                                                                                                                                                      ",
"                                                            . + @ # $                                                                                 ",
"                                                              % & * =         -                                                                       ",
"                                                                ; > , ' ) ! ~ {                                                                       ",
"                                                                ] ^ / ( _ : < [                                                                       ",
"                                                              } | 1 2 3 4 5 6 7                                                                       ",
"                                                              8 ^ ^ 9 0 a b c d                                                                       ",
"                                                            e f g h i j k l m n                                                                       ",
"                                                            o p q r s t u v w x                                                                       ",
"                                                                      y z A B C                                                                       ",
"                                                                        D E F G                                                                       ",
"                                                                          H I J                                                                       ",
"                                                                          K L M   N                                                                   ",
"                                                                    O P Q R S T U V                                                                   ",
"                                                                    W X Y Z `  ...+.                                                                  ",
"                                                                    @.#.$.%.&.*.=.-.                                                                  ",
"                                                                      ;.>.,.'.).!.~.                                                                  ",
"                                                                {.].^./.(._.:.<.[.}.|.1.2.3.4.5.6.7.8.9.0.a.b.c.d.e.f.g.h.                            ",
"                                          i.j.k.l.m.n.o.p.q.r.s.k.t.u.v.w.x.y.z.A.B.C.D.E.F.G.H.I.J.K.L.M.N.O.P.Q.R.S.T.U.                            ",
"                                          V.W.X.Y.Z.`. +.+++@+#+$+%+&+*+=+-+;+>+,+'+)+!+~+{+]+^+/+(+_+:+<+[+}+|+1+2+3+                                ",
"                                            4+5+6+7+8+9+0+a+b+c+d+e+f+g+h+i+j+k+l+m+n+o+p+q+r+s+t+u+v+w+x+y+z+A+B+C+D+                                ",
"                                          E+F+G+H+I+J+K+L+M+N+O+P+Q+R+S+T+U+U+V+W+P+X+Y+Z+`+ @.@+@@@#@$@%@&@*@=@-@;@>@                                ",
"                                        ,@'@)@!@~@{@]@)@^@/@(@_@:@<@[@}@|@_@1@2@3@4@5@6@7@8@9@0@a@b@c@d@e@X+5@f@g@h@i@                                ",
"                                          j@k@(@l@m@n@o@p@q@r@s@t@u@`+v@w@x@y@z@A@B@C@8@D@E@F@G@H@I@J@Z+K@L@M@N@O@T+                                  ",
"                                          P@2@Q@R@S@T@U@V@W@X@Y@Z@`@ #.#+#@###$#%#&#`+*#=#-#;#>#,#'#)#!#~#{#]#^#/#g+                                  ",
"                                        (#_#:#<#>#[#}#|#1#2#3#4#5#6#7#8#9#0#a#)#b#c#3@d#e#f#g#h#i#j#b#X+k#d+l#m#n#o#      p#        q#r#              ",
"                                      s#t#u#~#v#w#x#y#z#A#B#C#D#E#F#G#H#I#J#K#c#L#M#N#O#P#Q#R#S#T#U#f@V#W#X#Y#Z#`#               $.$+$                ",
"                                      @$#$$$%$&$_@%#*$=$-$;$>$,$'$)$!$~${$]$^$/$($_$:$<$<$[$}$|$M+U#1$!#{#|@2$Z#3$          4$5$6$7$8$                ",
"                                      9$0$1$a$b$c$d$e$f$g$h$i$j$k$l$m$n$o$p$q$r$s$t$0#q@u$v$w$x$x$y$z$A$$#$@B$C$D$    E$F$G$H$I$J$K$L$                ",
"                                      M$m#1$N$O$P$Q$R$m@S$T$O#U$V$W$X$Y$Z$`$ %.%+%@%#%{#Y#%@v$$%%%^#(#&%0#*%=%-%;%  >%,%'%)%!%~%{%]%                  ",
"                                    ^%M$/%(%_%:%$%<%[%}%|%1%2%3%4%5%6%7%8%9%0%a%b%c%d%e%*%f%g%h%s#S+/%i%j%k%l%-%m%n%o%p%q%r%s%t%u%v%                  ",
"                                    w%x%y%f@P+:@z%A%B%C%D%E%F%G%H%I%J%K%L%M%d#A@N%O%5@P%m#Q%v#R%&@S%T%U%V%Z#W%k%X%Y%Z%`% &.&+&@&#&                    ",
"                                    $&%&&&&$%$k#W@*&=&-&;&>&,&'&)&)&!&~&{&]&^&/&(&t@{#_&:&<&[&B$}&}&t#1$m#x%|&1&2&3&4&5&6&7&8&9&                      ",
"                                    0&a&B$h%b&c&d&K#e&f&g&h&i&j&k&l&m&n&q$i#o&z%)#p&q&-@r&s&t&9$u&}&w$T+v&w&x&y&z&A&B&C&D&E&F&G&                      ",
"                                    H&I&J&g%y$(%A$K&L&M&N&O&P&Q&R&S&T&U&$%V&q@)#W&X&t$W%Y&s&Z&x%`&=%0$ *.*+*@*#*$*%*&***=*-*;*                        ",
"                                    >*,*Y&B$_&_&s&'*)*!*~*{*]*^*/*(*_*:*<*z%:@%$'#[*-@%&x%l%}*w&|*u&u&1*2*+*3*4*5*6*7*8*9*0*a*                        ",
"                                    $&b*c*d*a&a&e*f*g*h*i*j*k*l*m*n*o*T%p*<*u#q*(%r*s*t*}*u*v*w*x*y*z*A*B*C*D*E*F*G*H*I*J*K*                          ",
"                                      L*M*N*O*w&x%P*N#Q*R*S*T*U*V*W*X*}&Y*q*m#Z*B$Y&`*1*t*w* =.=+=@=#=$=%=&=*===-=;=>=,='=)=                          ",
"                                      !=~=+*{=]=Z#^=/=(=O#_=:=<=[=}=|=@=1=2=3=4=5=6=7=8=9=0=a=b=c=d=e=f=g=h=i=j=k=l=m=n=o=                            ",
"                                      p=q=r=s=t=u=v=w=x=y=z=A=B=C=D=E=F=G=H=I=J=2*K=L=M=M=N=O=P=Q=R=S=T=U=V=W=X=Y=Z=`= -.-                            ",
"                                      +-r=r=@-=%#-$-%-N#&-*-=---;->-,-'-)-B*L=M=N=!-~-{-]-]-^-/-(-_-:-<-[-}-|-1-2-3-4-5-                              ",
"                                      6-7-8-9-0-a-b-c-d-e-f-g-h-i-j-k-l-m-n-o-p-q-)-r-s-t-u-u-v-w-x-y-z-A-B-    C-D-E-F-                              ",
"                                          G-H-I-J-K-L-_$M-N-O-P-Q-R-S-T-U-V-W-X-Y-Z-`- ;.;+;@;#;$;%;&;*;=;-;    ;;>;                                  ",
"                                            ,;';);:-!;~;q${;];^;/;(;_;:;<;[;};|;1;2;3;4;5;6;7;8;9;0;a;b;c;d;e;    4                                   ",
"                                              f;g;h;i;j;k;l;m;n;o;p;q;r;s;t;u;v;w;3;e=x;y;z;A;B;C;D;E;F;G;H;I;J;K;L;M;                                ",
"                    N;                        O;P;Q;R;S;T;U;V;W;X;Y;Z;`; >.>+>@>#>$>%>2;]-(-d=&>*>=>->;>>>,>'>)>!>~>{>]>                              ",
"                  ^>/>(>                        _>:><>[>}>|>1>2>3>4>5>6>7>8>9>0>a>b>c>d>e>P=f>g>h>i>j>k>l>m>n>o>p>C-q>r>s>                            ",
"                t>  u>v>w>                        x>y>z>A>B>C><>D>E>F>G>H>I>J>K>L>M>N>O>P>Q>R>0;C;S>T>U>V>W>X>Y>Z>`> ,.,+,                            ",
"                @,#,$,%,&,*,=,-,;,        >,          ,,        ',),!,~,{,],^,/,(,_,:,<,[,},|,1,2,3,4,5,6,7,8,9,0,a,b,c,d,                            ",
"                e,f,g,h,i,j,k,l,m,      n,o,p,q,                r,s,t,u,v,w,x,y,z,A,B,C,D,E,F,G,H,I,J,K,L,M,N,O,P,Q,R,S,T,                            ",
"              U,V,W,X,Y,Z,`, '.'+'@'  #'$'%'&'*'='              -';'>',''')'!'~'{']'^'/'('_':'<'['}'|'1'2'3'4'5'6'7'8'9'                              ",
"            0'a'b'c'd'e'f'g'h'i'j'k'O#B=l'm'n'o'p'q'r'          s't'u'v'w'x'y'z'A'B'C'D'E'F'G'H'I'J'K'L'M'N'O'P'Q'R'S'T'                              ",
"          U'V'W'X'Y'Z'`' ).)+)@)#)$)%)&)*)=)-);)>),)')))        !)~){)])^)/)()_):)<)[)})|)1)2)3)4)5)6)7)8)9)0)a)b)c)d)e)                              ",
"          f)g)h)i)j)k)l)m)  n)o).)p)q)r)s)t)u)v)w)x)y)z)A)B)C)D)E)#.F)G)H)q'I)J)K)L)M)N)O)P)Q)R)S)T)U)V)W)X)Y)Z)`) !.!                                ",
"            +!@!#!$!%!&!    *!z==!-!;!>!,!'!)!A;!!~!{!]!^!/!(!_!:!<![!}!|!1!2!3!4!5!6!7!8!9!0!a!b!c!d!e!f!g!h!i!j!k!O&                                ",
"              l!m!n!o!      *!p!q!r!s!t!u!v!w!x!y!z!A!l-B!C!D!E!F!G!v;H!I!J!;.b)K!L!M!N!O!P!Q!R!S!T!U!V!W!X!Y!Z!`! ~.~                                ",
"                          +~@~#~$~%~&~*~=~-~;~>~,~'~Q%)~!~~~{~]~^~/~(~_~:~<~[~}~|~1~2~3~4~5~6~7~8~9~0~a~b~c~d~e~f~O&                                  ",
"                          g~#~p!h~i~j~k~l~m~n~o~p~q~r~s~t~u~v~w~x~y~z~A~B~C~D~E~F~G~H~I~J~K~L~M~N~O~P~Q~R~S~T~U~V~W~                                  ",
"                          X~Y~Z~`~ {.{+{@{#{${%{&{*{={-{;{>{,{'{){!{~{{{]{^{/{({_{:{<{[{}{|{1{2{3{4{5{6{7{8{9{0{a{                                    ",
"                          b{c{d{e{f{g{h{y~i{j{k{l{m{n{o{p{q{r{s{t{u{v{w{x{y{z{A{B{C{D{E{F{G{H{I{J{K{L{M{N{O{P{Q{R{                                    ",
"                            S{T{U{V{W{X{Y{Z{`{ ].]+]@]#]$]%]&]*]=]-];]>],]'])]!]~]m~{]]]^]/](]_]:]<][]}]|]1]2]3]                                      ",
"                            4]5]6]7]8]9]0]a]b]c]d]e]f]g].'h]i]j]k]l]m]n]o]p]q]r]s]t]u]v]w]x]y]z]A]B]C]D]E]F]                                          ",
"                                G]H]I]J]K]L]M]e N]O]P]Q]R]S]T]Z{U]V]W]X]Y]Z]`] ^.^+^@^#^$^%^&^*^=^-^;^>^                                              ",
"                                  ,^'^)^l'!^~^;{{^]^^^/^(^_^:^<^V][^}^|^1^2^3^4^5^6^7^8^9^0^a^b^c^d^e^                                                ",
"                                    f^g^h^i^j^k^l^m^n^o^p^q^r^s^t^u^v^w^x^`]y^z^A^B^C^D^E^F^G^H^I^                                                    ",
"                                    J^K^L^M^N^O^P^Q^R^S^T^U^U^V^W^X^Y^Z^`^ /./+/@/#/$/%/&/*/=/-/                                                      ",
"                                      ;/>/,/'/)/!/~/{/]/^///(/_/:/</[/}/|/1/2/3/4/5/6/7/8/9/                                                          ",
"                                        0/a/b/c/d/e/f/g/h/i/j/k/l/m/n/o/p/q/r/s/t/u/v/w/                                                              ",
"                                          Z{x/y/z/A/B/</C/D/E/F/G/H/I/J/K/L/M/N/O/                                                                    ",
"                                            P/Q/R/S/T/U/V/W/X/Y/Z/`/ ([/.(+(                                                                          ",
"                                                @(#($(%(&(*(=(-(;(                                                                                    ",
"                                                                                                                                                      ",
"                                                                                                                                                      "};
