/* XPM */
static char * merry_9_xpm[] = {
"90 90 751 2",
"  	c None",
". 	c #271A1A",
"+ 	c #533C3C",
"@ 	c #3F2D2D",
"# 	c #070603",
"$ 	c #635E3F",
"% 	c #000000",
"& 	c #3F2C2C",
"* 	c #6D5050",
"= 	c #6C4F4F",
"- 	c #5E4444",
"; 	c #504D32",
"> 	c #7B7650",
", 	c #FAF0A6",
"' 	c #D7CF8F",
") 	c #7D7851",
"! 	c #634848",
"~ 	c #3D2B2B",
"{ 	c #605C3D",
"] 	c #B0A973",
"^ 	c #FBF1A7",
"/ 	c #9E9767",
"( 	c #B0A974",
"_ 	c #F7EDA4",
": 	c #E7DE99",
"< 	c #A6A06D",
"[ 	c #3A3723",
"} 	c #6D4F4F",
"| 	c #453131",
"1 	c #908A5E",
"2 	c #CEC688",
"3 	c #F6EDA3",
"4 	c #BFB77E",
"5 	c #E0D895",
"6 	c #F9EFA6",
"7 	c #F2E8A1",
"8 	c #C4BC81",
"9 	c #8E885D",
"0 	c #19180D",
"a 	c #543C3C",
"b 	c #654949",
"c 	c #1E1C10",
"d 	c #686342",
"e 	c #DDD492",
"f 	c #2A2718",
"g 	c #EFE69F",
"h 	c #F9F0A6",
"i 	c #EBE19C",
"j 	c #D7CE8E",
"k 	c #B3AB75",
"l 	c #817C54",
"m 	c #18120E",
"n 	c #5C4343",
"o 	c #1B1111",
"p 	c #1A180D",
"q 	c #0C0B05",
"r 	c #716C48",
"s 	c #A49D6B",
"t 	c #D2C98A",
"u 	c #EAE09B",
"v 	c #FBF1A6",
"w 	c #F7EEA4",
"x 	c #49462D",
"y 	c #514E33",
"z 	c #FDF2A8",
"A 	c #F5EBA3",
"B 	c #E1D895",
"C 	c #C9C185",
"D 	c #C6BE83",
"E 	c #C7BF83",
"F 	c #C5BD82",
"G 	c #CCC487",
"H 	c #F6ECA3",
"I 	c #FCF2A7",
"J 	c #F8EFA5",
"K 	c #948D60",
"L 	c #BAB37A",
"M 	c #B7B078",
"N 	c #E4DB97",
"O 	c #7C7650",
"P 	c #F4EAA2",
"Q 	c #F0E69F",
"R 	c #958F61",
"S 	c #010100",
"T 	c #392828",
"U 	c #443131",
"V 	c #4F3939",
"W 	c #5A4141",
"X 	c #50393A",
"Y 	c #827D55",
"Z 	c #EDE49E",
"` 	c #857E57",
" .	c #533B3C",
"..	c #5D4444",
"+.	c #473333",
"@.	c #493434",
"#.	c #594040",
"$.	c #443030",
"%.	c #271B1B",
"&.	c #5F4545",
"*.	c #503939",
"=.	c #5B4242",
"-.	c #614747",
";.	c #422F2F",
">.	c #312223",
",.	c #433030",
"'.	c #422F30",
").	c #473233",
"!.	c #2D1F1F",
"~.	c #686444",
"{.	c #E1D896",
"].	c #857D57",
"^.	c #543D3D",
"/.	c #443032",
"(.	c #422E2F",
"_.	c #322223",
":.	c #2E1F20",
"<.	c #483333",
"[.	c #322323",
"}.	c #6A4E4E",
"|.	c #4C3636",
"1.	c #342424",
"2.	c #6D4F50",
"3.	c #392928",
"4.	c #694D4D",
"5.	c #181109",
"6.	c #403807",
"7.	c #413A08",
"8.	c #423A08",
"9.	c #221E02",
"0.	c #4C4431",
"a.	c #D9D08F",
"b.	c #F9EFA5",
"c.	c #D2C98B",
"d.	c #504934",
"e.	c #211713",
"f.	c #2E2804",
"g.	c #413908",
"h.	c #3E3607",
"i.	c #231E02",
"j.	c #382727",
"k.	c #6E5151",
"l.	c #231B0E",
"m.	c #393206",
"n.	c #383106",
"o.	c #0B0604",
"p.	c #241B17",
"q.	c #ABA371",
"r.	c #EFE59E",
"s.	c #B1A975",
"t.	c #2E251E",
"u.	c #211C05",
"v.	c #2C2604",
"w.	c #312221",
"x.	c #261A1A",
"y.	c #624747",
"z.	c #463232",
"A.	c #292401",
"B.	c #433B08",
"C.	c #3F3807",
"D.	c #1E1905",
"E.	c #372527",
"F.	c #716B49",
"G.	c #D4CB8C",
"H.	c #DBD292",
"I.	c #666141",
"J.	c #553C3E",
"K.	c #2D1E1F",
"L.	c #332C04",
"M.	c #3F3707",
"N.	c #0D0C00",
"O.	c #211A0B",
"P.	c #1E1B00",
"Q.	c #503A3A",
"R.	c #463531",
"S.	c #8D875C",
"T.	c #E0D695",
"U.	c #DED493",
"V.	c #8B855B",
"W.	c #4A3A34",
"X.	c #352623",
"Y.	c #342D05",
"Z.	c #3A3206",
"`.	c #352526",
" +	c #4A3535",
".+	c #251A16",
"++	c #161400",
"@+	c #644949",
"#+	c #3D2C2B",
"$+	c #746D4C",
"%+	c #DAD090",
"&+	c #EDE49D",
"*+	c #EFE59F",
"=+	c #D6CC8E",
"-+	c #817B54",
";+	c #382329",
">+	c #352525",
",+	c #664B4B",
"'+	c #3E2C2C",
")+	c #342E05",
"!+	c #312B05",
"~+	c #241F02",
"{+	c #3B3406",
"]+	c #2C1F1C",
"^+	c #6B4F4F",
"/+	c #624848",
"(+	c #513B3A",
"_+	c #514934",
":+	c #AEA673",
"<+	c #CCC387",
"[+	c #E6DC99",
"}+	c #D0C78A",
"|+	c #ADA572",
"1+	c #595439",
"2+	c #4B3636",
"3+	c #493535",
"4+	c #191600",
"5+	c #0D0707",
"6+	c #070404",
"7+	c #050302",
"8+	c #292402",
"9+	c #281A1A",
"0+	c #6B4E4E",
"a+	c #6A4D4D",
"b+	c #25171A",
"c+	c #4F373A",
"d+	c #57443E",
"e+	c #544F35",
"f+	c #7A734F",
"g+	c #827A54",
"h+	c #878058",
"i+	c #867F58",
"j+	c #817A54",
"k+	c #7A7350",
"l+	c #524E34",
"m+	c #4E3D37",
"n+	c #4A3435",
"o+	c #3F2C2D",
"p+	c #281B1B",
"q+	c #2F2904",
"r+	c #282203",
"s+	c #272203",
"t+	c #2B2117",
"u+	c #6E5050",
"v+	c #523B3B",
"w+	c #201515",
"x+	c #3E3707",
"y+	c #020200",
"z+	c #332D05",
"A+	c #473232",
"B+	c #634747",
"C+	c #684C4C",
"D+	c #020300",
"E+	c #100E01",
"F+	c #403808",
"G+	c #252003",
"H+	c #231717",
"I+	c #563E3E",
"J+	c #573F3F",
"K+	c #362625",
"L+	c #3A3306",
"M+	c #2D2804",
"N+	c #040300",
"O+	c #433A08",
"P+	c #2B2604",
"Q+	c #110E01",
"R+	c #1B1702",
"S+	c #1F1A02",
"T+	c #413907",
"U+	c #231D09",
"V+	c #2F1F1F",
"W+	c #674B4B",
"X+	c #4E3838",
"Y+	c #322C04",
"Z+	c #181401",
"`+	c #1B1701",
" @	c #1C1802",
".@	c #262203",
"+@	c #201C02",
"@@	c #3B2A2A",
"#@	c #1F1313",
"$@	c #604646",
"%@	c #1D1A00",
"&@	c #242003",
"*@	c #373005",
"=@	c #262103",
"-@	c #141101",
";@	c #3D3507",
">@	c #362F06",
",@	c #3D3607",
"'@	c #191501",
")@	c #302A03",
"!@	c #6F5151",
"~@	c #573E3E",
"{@	c #553C3D",
"]@	c #573D3E",
"^@	c #1D0D12",
"/@	c #1E150F",
"(@	c #352E05",
"_@	c #363005",
":@	c #322C05",
"<@	c #302A04",
"[@	c #1D1802",
"}@	c #1A1601",
"|@	c #332424",
"1@	c #533A3C",
"2@	c #594A43",
"3@	c #6D6E57",
"4@	c #969676",
"5@	c #AEAE8B",
"6@	c #CACAA0",
"7@	c #D1D1A6",
"8@	c #D0D0A6",
"9@	c #CDCDA3",
"0@	c #B0B08C",
"a@	c #909072",
"b@	c #6E6755",
"c@	c #300F1F",
"d@	c #180E0F",
"e@	c #362F04",
"f@	c #302904",
"g@	c #0F0C01",
"h@	c #332C05",
"i@	c #322B05",
"j@	c #2D2704",
"k@	c #352E00",
"l@	c #393726",
"m@	c #8C8C6F",
"n@	c #C8C89F",
"o@	c #FAFAC7",
"p@	c #FEFECA",
"q@	c #FFFFCB",
"r@	c #FDFDC9",
"s@	c #E8E8B9",
"t@	c #9C9C7C",
"u@	c #282510",
"v@	c #3E3605",
"w@	c #403908",
"x@	c #1D1902",
"y@	c #312A04",
"z@	c #292303",
"A@	c #161301",
"B@	c #050400",
"C@	c #221D02",
"D@	c #352F05",
"E@	c #211D02",
"F@	c #23200C",
"G@	c #B1B18D",
"H@	c #F5F5C3",
"I@	c #FFFFCC",
"J@	c #E6E6B7",
"K@	c #87876A",
"L@	c #3B3306",
"M@	c #171401",
"N@	c #1F1B02",
"O@	c #3C3407",
"P@	c #2B2504",
"Q@	c #33311D",
"R@	c #A8A885",
"S@	c #F1F1C0",
"T@	c #F7F7C5",
"U@	c #9B9B7B",
"V@	c #221B00",
"W@	c #1E1A02",
"X@	c #443C08",
"Y@	c #241F03",
"Z@	c #2C2704",
"`@	c #161201",
" #	c #585743",
".#	c #D6D6AB",
"+#	c #54533E",
"@#	c #373006",
"##	c #282303",
"$#	c #3C3507",
"%#	c #1C1702",
"&#	c #151101",
"*#	c #2A2503",
"=#	c #373001",
"-#	c #565541",
";#	c #EDEDBD",
">#	c #616049",
",#	c #3F3806",
"'#	c #2B2603",
")#	c #322B04",
"!#	c #1E1902",
"~#	c #3B3304",
"{#	c #8D8D70",
"]#	c #F8F8C5",
"^#	c #FDFDCA",
"/#	c #5F5E48",
"(#	c #64644D",
"_#	c #B3B38E",
":#	c #A4A496",
"<#	c #BCBCB5",
"[#	c #9E9E84",
"}#	c #F5F5C4",
"|#	c #9D9D91",
"1#	c #B8B8B1",
"2#	c #8B8B74",
"3#	c #DADAAE",
"4#	c #535341",
"5#	c #393306",
"6#	c #170E0F",
"7#	c #373004",
"8#	c #1F1F14",
"9#	c #EBEBBB",
"0#	c #BBBB95",
"a#	c #A2A2A3",
"b#	c #CACACA",
"c#	c #A2A2A2",
"d#	c #ECECEC",
"e#	c #8C8C77",
"f#	c #E4E4B6",
"g#	c #A0A0A2",
"h#	c #DDDDDD",
"i#	c #989898",
"j#	c #CCCCCC",
"k#	c #75756C",
"l#	c #D9D9AD",
"m#	c #3B3B2E",
"n#	c #363006",
"o#	c #1D1901",
"p#	c #4D3737",
"q#	c #342425",
"r#	c #3B3407",
"s#	c #373106",
"t#	c #F6F6C4",
"u#	c #8C8C88",
"v#	c #9B9B9B",
"w#	c #BABABA",
"x#	c #ADADAC",
"y#	c #B5B58E",
"z#	c #F2F2F2",
"A#	c #030303",
"B#	c #C1C1C1",
"C#	c #A7A783",
"D#	c #E2E2B4",
"E#	c #35321E",
"F#	c #252100",
"G#	c #3C2A2A",
"H#	c #694C4C",
"I#	c #292014",
"J#	c #474736",
"K#	c #BFBF97",
"L#	c #CECECE",
"M#	c #010000",
"N#	c #ADADAD",
"O#	c #A8A8A7",
"P#	c #B6B68F",
"Q#	c #E9E9E9",
"R#	c #111111",
"S#	c #898989",
"T#	c #A9A9A6",
"U#	c #9D9D7D",
"V#	c #322C02",
"W#	c #5E4545",
"X#	c #141200",
"Y#	c #2A2404",
"Z#	c #CACAA1",
"`#	c #86867B",
" $	c #717171",
".$	c #B0B0B0",
"+$	c #A7A7A6",
"@$	c #EAEAE7",
"#$	c #131313",
"$$	c #9D9D9E",
"%$	c #F8F8C6",
"&$	c #4D4D3B",
"*$	c #352524",
"=$	c #5C4242",
"-$	c #3D2C2C",
";$	c #352523",
">$	c #211D00",
",$	c #2D2701",
"'$	c #271D14",
")$	c #595846",
"!$	c #FBFBC8",
"~$	c #FFFFCE",
"{$	c #747474",
"]$	c #393838",
"^$	c #E5E5E5",
"/$	c #828279",
"($	c #D2D2A7",
"_$	c #C6C6C6",
":$	c #8F8F8F",
"<$	c #010101",
"[$	c #717170",
"}$	c #BEBE98",
"|$	c #ACAC89",
"1$	c #1E1315",
"2$	c #201D00",
"3$	c #262100",
"4$	c #292012",
"5$	c #473334",
"6$	c #362626",
"7$	c #372727",
"8$	c #412E2E",
"9$	c #B2B28D",
"0$	c #767674",
"a$	c #383838",
"b$	c #030202",
"c$	c #D5D5D4",
"d$	c #C4C49B",
"e$	c #8D8D81",
"f$	c #E3E3E3",
"g$	c #171717",
"h$	c #686867",
"i$	c #BEBE97",
"j$	c #F2F2C1",
"k$	c #3F2B2D",
"l$	c #664A4A",
"m$	c #553E3E",
"n$	c #614646",
"o$	c #120B0B",
"p$	c #584040",
"q$	c #5D4243",
"r$	c #D2D2A8",
"s$	c #76766B",
"t$	c #6D6D6D",
"u$	c #40403F",
"v$	c #686767",
"w$	c #D0D0D0",
"x$	c #98987B",
"y$	c #95958F",
"z$	c #B8B8B8",
"A$	c #373734",
"B$	c #4B4B4B",
"C$	c #6C6C6D",
"D$	c #C7C79E",
"E$	c #FFFFCD",
"F$	c #736D5A",
"G$	c #332323",
"H$	c #241818",
"I$	c #513A3A",
"J$	c #493234",
"K$	c #9A9A81",
"L$	c #80807C",
"M$	c #AAAAA7",
"N$	c #8B8B71",
"O$	c #E0E0B2",
"P$	c #87877B",
"Q$	c #A2A29B",
"R$	c #6F6F63",
"S$	c #BABA97",
"T$	c #929374",
"U$	c #392727",
"V$	c #040202",
"W$	c #312222",
"X$	c #4C4439",
"Y$	c #EAEABA",
"Z$	c #CFCFA5",
"`$	c #BBBC95",
" %	c #2B1D1D",
".%	c #74735B",
"+%	c #A6A684",
"@%	c #959576",
"#%	c #E7E7B8",
"$%	c #525240",
"%%	c #DBDBAE",
"&%	c #2A1D1D",
"*%	c #060303",
"=%	c #583F3F",
"-%	c #432F2F",
";%	c #8C8B6E",
">%	c #828266",
",%	c #D3D3A8",
"'%	c #4B4B3A",
")%	c #DDDDB0",
"!%	c #2A1C1C",
"~%	c #302121",
"{%	c #2C1E1E",
"]%	c #909073",
"^%	c #D0D0A5",
"/%	c #E1E1B3",
"(%	c #483434",
"_%	c #706F57",
":%	c #A5A582",
"<%	c #5D4343",
"[%	c #727159",
"}%	c #A3A381",
"|%	c #291B1B",
"1%	c #64634E",
"2%	c #FCFCC8",
"3%	c #C2C29A",
"4%	c #644849",
"5%	c #110909",
"6%	c #2E1E1E",
"7%	c #3F2F2D",
"8%	c #979879",
"9%	c #4B3535",
"0%	c #593F40",
"a%	c #CBCCA2",
"b%	c #6C6554",
"c%	c #73715B",
"d%	c #1E000E",
"e%	c #160C0C",
"f%	c #402D2D",
"g%	c #030101",
"h%	c #3A2828",
"i%	c #3A2929",
"j%	c #FCFCC9",
"k%	c #DCDCAF",
"l%	c #4C3336",
"m%	c #211616",
"n%	c #3C2929",
"o%	c #969677",
"p%	c #F7F7C4",
"q%	c #E3E3B4",
"r%	c #B7B791",
"s%	c #8E8E70",
"t%	c #1F1F18",
"u%	c #AEAE8A",
"v%	c #D3D3A7",
"w%	c #9A9A7A",
"x%	c #654A4A",
"y%	c #2E2020",
"z%	c #513B3B",
"A%	c #453232",
"B%	c #251919",
"C%	c #594141",
"D%	c #432D2F",
"E%	c #DADAAD",
"F%	c #E9E9B9",
"G%	c #858569",
"H%	c #F9F9C6",
"I%	c #87876B",
"J%	c #808064",
"K%	c #F0F0BF",
"L%	c #B1B18C",
"M%	c #5A5A46",
"N%	c #ECECBC",
"O%	c #848468",
"P%	c #412B2E",
"Q%	c #6C6C55",
"R%	c #F9F9C7",
"S%	c #919173",
"T%	c #B9B993",
"U%	c #ABAB88",
"V%	c #555542",
"W%	c #D8D8AB",
"X%	c #9F9F7E",
"Y%	c #717159",
"Z%	c #D4D4A9",
"`%	c #EFEFBE",
" &	c #78785E",
".&	c #63634E",
"+&	c #261919",
"@&	c #2F2020",
"#&	c #402E2E",
"$&	c #52393A",
"%&	c #B9B994",
"&&	c #A4A482",
"*&	c #63634D",
"=&	c #CFCFA4",
"-&	c #C9C9A0",
";&	c #B4B48E",
">&	c #5C5C48",
",&	c #EEEEBD",
"'&	c #A7A784",
")&	c #73735A",
"!&	c #C0C098",
"~&	c #C1C199",
"{&	c #A5A583",
"]&	c #5F5F4A",
"^&	c #DFDFB1",
"/&	c #BDBD96",
"(&	c #583C3F",
"_&	c #39392C",
":&	c #F6F6C3",
"<&	c #C2C299",
"[&	c #949474",
"}&	c #939374",
"|&	c #989878",
"1&	c #C6C69D",
"2&	c #EEEEBE",
"3&	c #A6A683",
"4&	c #D6D6AA",
"5&	c #3C302B",
"6&	c #553D3D",
"7&	c #221717",
"8&	c #5E5C49",
"9&	c #545342",
"0&	c #362525",
"a&	c #3C2B2B",
"b&	c #6D6D56",
"c&	c #76765D",
"d&	c #020101",
"e&	c #120A0A",
"f&	c #686451",
"g&	c #E3E3B5",
"h&	c #75755C",
"i&	c #231818",
"j&	c #523C3C",
"k&	c #4C4339",
"l&	c #F4F4C2",
"m&	c #686752",
"n&	c #624847",
"o&	c #4F3838",
"p&	c #473132",
"q&	c #C5C69D",
"r&	c #473C35",
"s&	c #070303",
"t&	c #5A5B47",
"u&	c #63624E",
"v&	c #573E3F",
"w&	c #180F0F",
"x&	c #221616",
"y&	c #483234",
"z&	c #585344",
"A&	c #D5D5A9",
"B&	c #463332",
"C&	c #322222",
"D&	c #291C1C",
"E&	c #4C3737",
"F&	c #3A1A26",
"G&	c #473534",
"H&	c #76735D",
"I&	c #79775F",
"J&	c #7D7863",
"K&	c #7A7860",
"L&	c #7A7761",
"M&	c #3B3A2E",
"N&	c #391725",
"O&	c #563C3D",
"P&	c #160D0D",
"Q&	c #090404",
"R&	c #3B2929",
"S&	c #271919",
"T&	c #0E0707",
"U&	c #211515",
"V&	c #463131",
"W&	c #372626",
"X&	c #160E0E",
"Y&	c #684B4B",
"Z&	c #2F2121",
"`&	c #170E0E",
" *	c #130A0A",
".*	c #1A1010",
"+*	c #190F0F",
"@*	c #1D1313",
"#*	c #2D1E1E",
"$*	c #1A1111",
"%*	c #493333",
"&*	c #302222",
"**	c #2B1E1E",
"=*	c #382828",
"-*	c #6F5252",
";*	c #412F2F",
">*	c #0C0707",
",*	c #261818",
"'*	c #1C1212",
"                                                                                                                                                                                    ",
"                                                                                                                                                                                    ",
"                                                                                                                                                                                    ",
"                                                                                                                                                                                    ",
"                                                                                                                                                                                    ",
"                                                                                        . + @                                                                                       ",
"                                                      # $ %                           & * = * -                             % % ;                                                   ",
"                                                      > , ' ) %                       ! = = = * ~                       % { ] ^ /                                                   ",
"                                                    % ( , , _ : < [                   * = = = } |                   % 1 2 3 , , 4 %                                                 ",
"                                                    % 5 , , , , 6 7 8 9 0             a = = = b %             c d ( : , , , , , e %                                                 ",
"                                                    f g , , , , , , , h i j k l % % % m a * n o p q % % r s t u v , , , , , , , w x                                                 ",
"                                                    y , , , , , , , , , , , , ^ z A B C D E F D C G H z I , , , , , , , , , , , J K                                                 ",
"                                                    9 , , , , , , , , , , , , , , , , , , , , , , , , , , , , , , , , , , , , , , L                                                 ",
"                                                    M , , , , , , , , , , , , , , , , , , , , , , , , , , , , , , , , , , , , , , N                                                 ",
"                                                  % O P , , , , , , , , , , , , , , , , , , , , , , , , , , , , , , , , , , , , Q R S                                               ",
"                                  % % T U V W T n n X Y Z , , , , , , , , , , , , , , , , , , , , , , , , , , , , , , , , , , P `  .n ..+.@.#.| $.% %                               ",
"                                %.&.*.=.= -.;.>.,.'.).!.~.{., , , , , , , , , , , , , , , , , , , , , , , , , , , , , , , , i ].% ^./.(._.:.<.= = [.}.|.%                           ",
"                                1.2.3.}.4.5.6.7.8.8.6.9.[.0.a.b., , , , , , , , , , , , , , , , , , , , , , , , , , , , b.c.d.| e.f.g.8.8.h.i.;.* j.k.! %                           ",
"                                1.} ~ + l.m.8.8.8.8.8.8.n.o.p.q.7 , , , , , , , , , , , , , , , , , , , , , , , , , , r.s.t.T u.6.8.8.8.8.8.8.v.w.x.}.y.%                           ",
"                                1.= z.A.B.8.8.8.8.8.8.8.8.C.D.E.F.G., , , , , , , , , , , , , , , , , , , , , , , , H.I.J.K.L.B.8.8.8.8.8.8.8.8.M.N.! ! %                           ",
"                                ~ &.O.B.8.8.8.8.8.8.8.8.8.8.g.P.Q.R.S.T.b., , , , , , , , , , , , , , , , , , b.U.V.W.n X.Y.8.8.8.8.8.8.8.8.8.8.8.Z.`.! %                           ",
"                                 +.+6.8.8.8.8.8.8.8.8.8.8.8.8.8.++@+!.#+$+%+&+b., , , , , , , , , , , , b.*+=+-+;+>+,+'+)+8.8.8.8.8.8.8.8.8.8.8.8.8.!+;.%                           ",
"                                '+~+8.8.8.8.8.8.8.8.8.8.8.8.8.8.{+]+'+^+/+(+_+:+<+[+r.A _ b.b._ A Q [+}+|+1+2+/+= 3++ 4+B.8.8.8.8.8.8.8.8.8.8.8.8.8.h.5+6+                          ",
"                                7+h.8.8.8.8.8.8.8.8.8.8.8.8.8.8.8.8+9+0+= = a+b+c+d+e+f+g+h+i+j+k+l+m+n+o+n = = = 2+p+q+8.8.8.8.8.8.8.8.8.8.8.8.8.8.8.r+%                           ",
"                                s+8.8.8.8.8.8.8.8.8.8.8.8.8.8.8.8.M.t+}.= = u+!.} = v++ u+u+k.u+}.w+u+= +.! = = = v+S x+8.8.8.8.8.8.8.8.8.8.8.8.8.8.8.h.y+                          ",
"                                z+8.8.8.8.8.8.8.8.8.8.8.8.8.8.8.8.8.Y.,.= = u+!.* = =.;.= = = = @+A+= = <.B+= = C+D+Z.8.8.8.8.8.8.8.8.8.8.8.8.8.8.8.8.B.E+                          ",
"                              % 8.8.8.8.8.8.M.F+8.8.8.8.8.8.8.8.8.8.8.G+n = * !.} = u+H+0+= = = 2+W = = I+J+= a+K+L+8.8.8.8.8.8.8.8.8.8.8.x+8.8.8.8.8.8.M+                          ",
"                              N+O+8.8.8.8.P+Q+R+S+T+8.8.8.8.8.8.8.8.8.7.U+! C+>+* = * V+a+= = = 3+W+= = - X+= +.Y+8.8.8.8.8.8.8.8.8.8.n.Z+`+ @n.8.8.8.8.q+                          ",
"                              .@8.8.8.8.P+z+B.B.L++@x+8.8.8.8.8.8.8.8.8.h._.C+@@* = = | &.= = u+#@C+= = $@X+&.%@8.8.8.8.8.8.8.8.8.8.z+&@g.O+C. @h.8.8.8.*@                          ",
"                              =@8.8.8.B.-@8.;@>@{+,@'@g.8.8.8.8.8.8.8.8.8.)@| @@} = !@$@@ ~@{@]@^@W !@* $@2+/@C.8.8.8.8.8.8.8.8.8.n.S+8.(@(@8.m.q+8.8.8._@                          ",
"                              =@8.8.8.:@f.8.L+<@=@R+z+[@F+8.8.8.8.8.8.8.8.B.}@|@1@2@3@4@5@6@7@8@9@0@a@b@c@d@e@8.8.8.8.8.8.8.8.8.n.}@f.'@M+f@8.g.g@B.8.8.m.                          ",
"                              =@8.8.8.h@:@8.8.8.8.M.-@i@j@8.8.8.8.8.8.8.8.k@l@m@n@o@p@q@q@q@q@q@q@q@q@r@s@t@u@v@8.8.8.8.8.8.8.w@x@y@z@8.8.8.8.8.A@B.8.8._@                          ",
"                              B@8.8.8.w@C@8.8.8.8.8.D@q+E@{+8.8.8.8.8.m.F@G@H@I@q@q@q@q@q@q@q@q@q@q@q@q@q@I@J@K@L@8.8.8.8.8.8.G+*@M@8.8.8.8.8.h.9.8.8.8.f@                          ",
"                                :@8.8.B.N@8.8.8.8.8.O@P@L+=@8.8.8.h.Q@R@S@I@q@q@q@q@q@q@q@q@q@q@q@q@q@q@q@q@q@T@U@V@g.8.8.8.6.W@X@S+g.8.8.8.8.z+q+8.8.B.Q+                          ",
"                                Y@8.8.8.Z@(@8.8.8.8.x@O@B.`@8.8.M. #s@q@q@q@q@q@q@q@q@q@q@q@q@q@q@q@q@q@q@q@q@q@I@.#+#w@8.8.@#!+8.##_@8.8.8.w@ @x+8.8.$#                            ",
"                                %#g.8.8.8.&#*#$#$#x@f.8.8.G+8.=#-#s@q@q@q@q@q@q@q@q@q@q@q@q@q@q@q@q@q@q@q@q@q@q@q@q@;#>#,#8.'#$#8.M.x@)#$#_@!#f.8.8.8.L+                            ",
"                                % ,@8.8.8.8.L+j@j@m.8.8.8.G+~#{#]#p@r@q@q@q@q@q@q@q@q@q@q@q@q@q@q@q@q@q@q@q@q@q@q@^#r@T@/#{+j@$#8.8.8.q+j@f.M.8.8.8.8.G+                            ",
"                                  E@8.8.8.8.8.8.8.8.8.8.8.s+(#T@_#:#<#[#}#q@q@q@q@q@q@q@q@q@q@q@q@q@q@q@q@q@q@q@7@|#1#2#3#4#f.5#8.8.8.8.8.8.8.8.8.8.$#%                             ",
"                                  6#7#8.8.8.8.8.8.8.8.8.B.8#9#0#a#b#c#d#e#q@q@q@q@q@q@q@q@q@q@q@q@q@q@q@q@q@q@f#g#h#i#j#k#l#m#n#8.8.8.8.8.8.8.8.8.8.o#                              ",
"                                  p#q#r#8.8.8.8.8.8.8.8.s#U@t#u#v#% % w#x#H@q@q@q@q@q@q@q@q@q@q@q@q@q@q@q@q@q@y#z#A#% % B#C#D#E#B.8.8.8.8.8.8.8.8.F#G#                              ",
"                                  X+H#I#g.8.8.8.8.8.8.g.J#S@K#L#% M#M#N#O#}#q@q@q@q@q@q@q@q@q@q@q@q@q@q@q@q@q@P#Q#R#% % S#T#T@U#V#8.8.8.8.8.8.8.*@<.n                               ",
"                                  X+= W#X#g.8.8.8.8.8.Y#Z#q@`# $M#M#% .$+$}#q@q@q@q@q@q@q@q@q@q@q@q@q@q@q@q@q@P#@$#$% % % $$9@%$&$O@8.8.8.8.8.(@*$^+=$                              ",
"                                  X+= v+-$;$>$<@h@,$'$)$!$~${$]$M#M#% ^$/$q@q@q@q@q@q@q@q@q@q@q@q@q@q@q@q@q@q@($_$:$<$% M#[$}$q@|$1$2$:@h@3$4$5$6$* n                               ",
"                                  ~ 0+7$4.* ^+8$| - C+9$q@~$0$a$M#b$:$c$d$q@q@q@q@q@q@q@q@q@q@q@q@q@q@q@q@q@q@^#e$f$g$M#% h$i$q@j$k$l$m$>+! u+* @ n$I+                              ",
"                                  o$C+G#= = = v+p$= q$r$q@~$s$t$u$v$w$x$p@q@q@q@q@q@q@q@q@q@q@q@q@q@q@q@q@q@q@q@J@y$z$A$B$C$D$q@E$F$= = G$k.= = Q.n @@%                             ",
"                                  H$I$;.= = = v+p$= J$9#q@q@9#K$L$M$N$r@q@q@q@q@q@p@q@q@q@q@q@q@q@q@q@q@q@q@q@q@q@O$P$Q$R$S$p@q@I@T$= = U$u+= = *.#.>+V$                            ",
"                                   +W$;.= = = v+p$* X$t#q@q@q@I@p@o@I@q@q@q@q@q@q@q@T@n@p@q@q@p@Y$Z$I@q@q@q@q@q@q@q@r@o@q@q@q@q@q@`$= =  %k.= = Q.T v+V$                            ",
"                                  X+j.& = = = v+p$* .%I@q@q@q@q@q@q@q@q@q@q@q@q@q@q@E$+%@%r@q@#%$%%%I@q@q@q@q@q@q@q@q@q@q@q@q@q@q@9@#.= &%k.= = Q.*%@+b$                            ",
"                                  w+=%-%= = = v+p$u+;%I@q@q@q@q@q@q@q@q@q@q@q@q@q@q@q@q@_#>%,%'%;#q@q@q@q@q@q@q@q@q@q@q@q@q@q@q@q@)%Q.= !%k.= = Q.~%=.%                             ",
"                                  {%}.~ = = = v+p$0+]%I@q@q@q@q@q@q@q@q@q@q@q@q@q@q@q@q@q@^%$%p@q@q@q@q@q@q@q@q@q@q@q@q@q@q@q@q@q@/%Q.= !%k.= = Q.+.=$%                             ",
"                                  (%= >+* = = v+p$@+_%E$q@q@q@q@q@q@q@q@q@q@q@q@q@q@q@q@q@t#:%q@q@q@q@q@q@q@q@q@q@q@q@q@q@q@q@q@q@/%Q.= !%k.= = Q.J+<%%                             ",
"                                  X+= % H#= = v+p$k.[%E$q@q@q@q@q@q@q@q@q@q@q@q@q@q@q@q@q@!$}%q@q@q@q@q@q@q@q@q@q@q@q@q@q@q@q@q@q@7@Q.= |%k.= = ~ n 0+V$                            ",
"                                  p$= V$+ = = v+p$u+1%I@q@q@q@q@q@q@q@q@q@q@q@q@q@q@q@q@q@2%}%q@q@q@q@q@q@q@q@q@q@q@q@q@q@q@q@q@q@3%4%= 9+k.= 4.5%=$u+V$                            ",
"                                  X+= 6%@ = = v+#.* 7%;#q@q@q@q@q@q@q@q@q@q@q@q@q@q@q@q@q@r@}%q@q@q@q@q@q@q@q@q@q@q@q@q@q@q@q@q@I@8%= = 9+k.= W+% n u+V$                            ",
"                                  X+= 9%G$= = v+p$= 0%a%q@q@q@q@q@q@q@q@q@q@q@q@q@q@q@q@q@p@}%q@q@q@q@q@q@q@q@q@q@q@q@q@q@q@q@q@E$b%= = 9+k.= + H+=$u+V$                            ",
"                                  X+= |.j.= = v+p$= }.c%E$q@q@q@q@q@q@q@q@q@q@q@q@q@q@q@q@p@}%q@q@q@q@q@q@q@q@q@q@q@q@q@q@q@q@q@!$d%= 0+e%u+} f%,.n @+g%                            ",
"                                  ,.= h%+ v+= v+p$= * i%;#q@q@j%p@q@q@q@q@q@q@q@q@q@q@q@q@q@:%q@q@q@q@q@q@q@q@q@q@q@q@q@q@q@q@q@k%l%= a+j.} } H$V |.n                               ",
"                                  m%} n%=.@.= v+I+= = -.o%I@p%q%p@q@q@q@q@q@q@q@q@q@I@S@r%s%t%u%v%q@q@q@q@q@q@q@q@q@q@q@E$($q@q@w%@+= a+h%* x%y%z%A%^.                              ",
"                                    9%-%0+B%a+C%U = = = D%E%F%G%q@q@q@q@q@q@q@q@q@H%I%J%9@o@o@K%L%M%9@p@q@q@q@q@q@q@q@q@N%O%q@)%P%= = a+z.= 8$..Q.1.{%                              ",
"                                    % '+= z%I+! ;.= = = x%Q%R%S%T%p@^#q@q@q@q@p%U%V%W%E$q@q@q@q@q@H%X%Y%Z%q@q@q@q@q@q@`% &/%2%.&^+= = }.z.4.+&= *.V$                                ",
"                                    % z.= ,+@&W+#&= = = = $&%&I@&&*&K#6@=&-&;&>&=&j%q@q@q@q@q@q@q@q@I@,&'&)&D$9@!&~&{&]&^&I@/&(&= = = -.+.p$|.= v+%                                 ",
"                                      !%* * W$x%H+* = = = !@_&#%I@:&<&[&}&|&1&E$q@q@q@q@q@q@q@q@q@q@q@q@q@2&U%}&}&3&4&~$q@F%5&* = = = |.=.G#-.= v+%                                 ",
"                                      % C+= 6&I$@ a+= = = k.7&8&S@q@q@q@q@q@q@q@q@q@q@q@q@q@q@q@q@q@q@q@q@q@q@q@q@q@q@q@S@9&V = = = * @&-  %= = 0&                                  ",
"                                        a&= ^++&8$W = = = k.!.! b&t#q@q@q@q@q@q@q@q@q@q@q@q@q@q@q@q@q@q@q@q@q@q@q@q@q@R%c&'+I$= = = * &%| J+= ..d&                                  ",
"                                        % &.= X+e&W = = = k.!.* @+f&g&q@q@q@q@q@q@q@q@q@q@q@q@q@q@q@q@q@q@q@q@q@q@q@H@h&&.6&Q.= = = * i&6$u+}.p+                                    ",
"                                           %0+* +&j&= = = k.!.* = W+k&6@q@q@q@q@q@q@q@q@q@q@q@q@q@q@q@q@q@q@q@q@q@l&m&n&= 6&V = = = C+5%=%= o&                                      ",
"                                            @.} <%~%= = = k.H$0+= = 0+p&{&o@q@q@q@q@q@q@q@q@q@q@q@q@q@q@q@q@q@!$q&r&n$= = X+I+= = * + @@* ! %                                       ",
"                                            s&y.k.b$~ = = } '+W+= = = = =.t&^&o@q@q@q@q@q@q@q@q@q@q@q@q@q@q@k%u&v&= = = u+w&}.= = ^.% V * !.                                        ",
"                                              B%0+x&I$V = =  +W = = = = l$'+y&z&w%0#A&,&p@q@q@q@q@q@r@S@Z#O%B&| = = = = u+C&= = @+D&7$l$E&%                                         ",
"                                                (%C%2+x.W+= b {%* = = = H#,.= u+=.&%l%F&G&H&I&J&K&L&M&N&O&0+= ;.= = = = J+9%= = >+I$@&$@P&                                          ",
"                                                Q&=.;.-.j.4.* W$W+= = = a+;.= = = j&p$= = }.,.* * * W$k.= = = ,.= = = = 8$n$} I+U =$X+'+                                            ",
"                                                  @@D&C+#.R&=  +<%= = = 4.$.= = = v+p$= = C+,.= = }.. u+= = a+;.= = = * S&* I+T * A%*.d&                                            ",
"                                                    T&/+= I$~ @+j.* = = = U&* = = v+6&= = 4.,.= = a+G#* = = p#6&= = = #.V&I+W&}.= #&X&                                              ",
"                                                      W&* * V W&+&x%= = = j.k.= = n z.= = C+,.= = W++.= = = $.- = = = W$@ >+0+= W %                                                 ",
"                                                        |.= * =.y%T H#= = T 4.= = * 1.= = Y&,.= = I$I+= = * Z&b = u+^.d&|.* = ! `&                                                  ",
"                                                        % -.= = * T  *3+@+@.J+= = * .** = H#,.= = X+$@= = 0+H$0+^.9+6+b = = = ~%                                                    ",
"                                                          `&y.= = n i%=.W$o ,.C+* * T * * C+,.= } ,.$@* }.C%+*@* +..f%} = 0+G#                                                      ",
"                                                            V$$.0+* >+@+* x%% #*!.@&$*%*<.%*&*2+%*P&**!.m%Z&a a+*  %b = - H+                                                        ",
"                                                                x.$@&.6$* = X+#.k.Y&8$+.n I+=*n ..H+@+k.-*m%}.= n #&0+U %                                                           ",
"                                                                  % + w+a+= W @.= = p$X+= a+,.= W+. * = 4.H$* = |.| 9+                                                              ",
"                                                                      % I+= 0+p+y.= ! 6$= 4.,.= @+|.= * [.- * W+x.M#                                                                ",
"                                                                          C&- -.C&0+u+H+0+H#,.= V =%= z%U C+;*>*                                                                    ",
"                                                                              x.6+W = -%p$W+,.4.,*4.u+$*'*%                                                                         ",
"                                                                                  % +.z%H$Y&,.+ ~%#.,*                                                                              ",
"                                                                                      % e&I$@@T %                                                                                   ",
"                                                                                            %                                                                                       ",
"                                                                                                                                                                                    ",
"                                                                                                                                                                                    ",
"                                                                                                                                                                                    ",
"                                                                                                                                                                                    "};
