/* XPM */
static char * merry_13_xpm[] = {
"90 90 751 2",
"  	c None",
". 	c #050400",
"+ 	c #262103",
"@ 	c #262203",
"# 	c #040300",
"$ 	c #000000",
"% 	c #1C1702",
"& 	c #241F03",
"* 	c #322C05",
"= 	c #423A08",
"- 	c #433A08",
"; 	c #332D05",
"> 	c #272203",
", 	c #050302",
"' 	c #3E2C2C",
") 	c #4A3535",
"! 	c #3D2B2B",
"~ 	c #342424",
"{ 	c #271B1B",
"] 	c #211616",
"^ 	c #433030",
"/ 	c #4E3838",
"( 	c #584040",
"_ 	c #483434",
": 	c #2C1E1E",
"< 	c #201515",
"[ 	c #241818",
"} 	c #120B0B",
"| 	c #4D3737",
"1 	c #170E0F",
"2 	c #211D02",
"3 	c #3D3607",
"4 	c #413908",
"5 	c #3E3607",
"6 	c #241F02",
"7 	c #251A16",
"8 	c #5F4545",
"9 	c #6C4F4F",
"0 	c #6D4F4F",
"a 	c #6D4F50",
"b 	c #4B3535",
"c 	c #6A4E4E",
"d 	c #583F3F",
"e 	c #382727",
"f 	c #312222",
"g 	c #513A3A",
"h 	c #684C4C",
"i 	c #6B4E4E",
"j 	c #694C4C",
"k 	c #342425",
"l 	c #373004",
"m 	c #403807",
"n 	c #211A0B",
"o 	c #463232",
"p 	c #392928",
"q 	c #503939",
"r 	c #2A1C1C",
"s 	c #432F2F",
"t 	c #3C2929",
"u 	c #3A2828",
"v 	c #4C3636",
"w 	c #2E1E1E",
"x 	c #040202",
"y 	c #352525",
"z 	c #3F2C2C",
"A 	c #422F2F",
"B 	c #3C2A2A",
"C 	c #372727",
"D 	c #523B3B",
"E 	c #5E4545",
"F 	c #292014",
"G 	c #3B3407",
"H 	c #433B08",
"I 	c #403908",
"J 	c #332C05",
"K 	c #292401",
"L 	c #533C3C",
"M 	c #5B4242",
"N 	c #392828",
"O 	c #3C2B2B",
"P 	c #6D5050",
"Q 	c #332323",
"R 	c #3F2D2D",
"S 	c #694D4D",
"T 	c #3D2C2C",
"U 	c #141200",
"V 	c #2C2704",
"W 	c #1F1B02",
"X 	c #221D02",
"Y 	c #2E2804",
"Z 	c #141101",
"` 	c #2B2604",
" .	c #231B0E",
"..	c #443131",
"+.	c #2B1D1D",
"@.	c #664B4B",
"#.	c #513B3B",
"$.	c #251919",
"%.	c #493434",
"&.	c #352523",
"*.	c #151101",
"=.	c #352E05",
"-.	c #393206",
";.	c #181109",
">.	c #614747",
",.	c #4F3939",
"'.	c #070303",
").	c #6B4F4F",
"!.	c #553D3D",
"~.	c #2F2020",
"{.	c #563E3E",
"].	c #6A4D4D",
"^.	c #211D00",
"/.	c #3A3306",
"(.	c #2A2503",
"_.	c #3D3507",
":.	c #110E01",
"<.	c #3F3707",
"[.	c #5A4141",
"}.	c #624747",
"|.	c #261919",
"1.	c #654A4A",
"2.	c #674B4B",
"3.	c #634848",
"4.	c #594141",
"5.	c #412E2E",
"6.	c #302A04",
"7.	c #2D2704",
"8.	c #3C3507",
"9.	c #362F06",
"0.	c #1B1702",
"a.	c #403808",
"b.	c #413A08",
"c.	c #312223",
"d.	c #090404",
"e.	c #6E5151",
"f.	c #5D4343",
"g.	c #120A0A",
"h.	c #231717",
"i.	c #402E2E",
"j.	c #594040",
"k.	c #453131",
"l.	c #3B3406",
"m.	c #1F1A02",
"n.	c #5C4343",
"o.	c #3B2A2A",
"p.	c #221616",
"q.	c #030202",
"r.	c #302121",
"s.	c #523C3C",
"t.	c #6E5050",
"u.	c #644949",
"v.	c #5E4444",
"w.	c #2D2701",
"x.	c #1D1902",
"y.	c #201C02",
"z.	c #413907",
"A.	c #422F30",
"B.	c #0E0707",
"C.	c #291C1C",
"D.	c #4B3636",
"E.	c #593F40",
"F.	c #3F2F2D",
"G.	c #64634E",
"H.	c #727159",
"I.	c #706F57",
"J.	c #909073",
"K.	c #8C8B6E",
"L.	c #74735B",
"M.	c #4C4439",
"N.	c #493234",
"O.	c #5D4243",
"P.	c #271D14",
"Q.	c #3C3407",
"R.	c #352F05",
"S.	c #191501",
"T.	c #3E3707",
"U.	c #473233",
"V.	c #50393A",
"W.	c #7C7650",
"X.	c #B7B078",
"Y.	c #8E885D",
"Z.	c #514E33",
"`.	c #2A2718",
" +	c #372626",
".+	c #624848",
"++	c #261A1A",
"@+	c #3A2929",
"#+	c #73715B",
"$+	c #CBCCA2",
"%+	c #EDEDBD",
"&+	c #FFFFCC",
"*+	c #FFFFCD",
"=+	c #F6F6C4",
"-+	c #EBEBBB",
";+	c #D2D2A8",
">+	c #B2B28D",
",+	c #595846",
"'+	c #2A2404",
")+	c #2B2504",
"!+	c #2F2904",
"~+	c #322B05",
"{+	c #1D1802",
"]+	c #221E02",
"^+	c #2D1F1F",
"/+	c #827D55",
"(+	c #F4EAA2",
"_+	c #FAF0A6",
":+	c #EFE69F",
"<+	c #E0D895",
"[+	c #B0A974",
"}+	c #7B7650",
"|+	c #070603",
"1+	c #432D2F",
"2+	c #969677",
"3+	c #FFFFCB",
"4+	c #FBFBC8",
"5+	c #CACAA1",
"6+	c #474736",
"7+	c #373106",
"8+	c #383106",
"9+	c #322323",
"0+	c #686444",
"a+	c #EDE49E",
"b+	c #635E3F",
"c+	c #170E0E",
"d+	c #3B2929",
"e+	c #6F5151",
"f+	c #52393A",
"g+	c #6C6C55",
"h+	c #DADAAD",
"i+	c #FFFFCE",
"j+	c #F1F1C0",
"k+	c #9B9B7B",
"l+	c #1F1F14",
"m+	c #252003",
"n+	c #161201",
"o+	c #3F3807",
"p+	c #0B0604",
"q+	c #4C4431",
"r+	c #E1D896",
"s+	c #D7CF8F",
"t+	c #654949",
"u+	c #221717",
"v+	c #39392C",
"w+	c #B9B994",
"x+	c #F9F9C7",
"y+	c #E9E9B9",
"z+	c #F7F7C4",
"A+	c #76766B",
"B+	c #767674",
"C+	c #747474",
"D+	c #86867B",
"E+	c #BFBF97",
"F+	c #64644D",
"G+	c #3B3304",
"H+	c #1E1905",
"I+	c #241B17",
"J+	c #D9D08F",
"K+	c #F7EDA4",
"L+	c #7D7851",
"M+	c #443030",
"N+	c #5E5C49",
"O+	c #E7E7B8",
"P+	c #919173",
"Q+	c #858569",
"R+	c #E3E3B4",
"S+	c #FCFCC9",
"T+	c #9A9A81",
"U+	c #6D6D6D",
"V+	c #383838",
"W+	c #393838",
"X+	c #717171",
"Y+	c #CECECE",
"Z+	c #8C8C88",
"`+	c #BBBB95",
" @	c #F7F7C5",
".@	c #8D8D70",
"+@	c #373001",
"@@	c #1E1B00",
"#@	c #372527",
"$@	c #ABA371",
"%@	c #F9EFA5",
"&@	c #E7DE99",
"*@	c #2E2020",
"=@	c #6D6D56",
"-@	c #A4A482",
";@	c #B9B993",
">@	c #FEFECA",
",@	c #80807C",
"'@	c #40403F",
")@	c #010000",
"!@	c #9B9B9B",
"~@	c #A2A2A3",
"{@	c #B3B38E",
"]@	c #F8F8C5",
"^@	c #565541",
"/@	c #161400",
"(@	c #503A3A",
"_@	c #716B49",
":@	c #F2E8A1",
"<@	c #F9EFA6",
"[@	c #A6A06D",
"}@	c #604646",
"|@	c #686451",
"1@	c #F6F6C3",
"2@	c #63634D",
"3@	c #FAFAC7",
"4@	c #AAAAA7",
"5@	c #686767",
"6@	c #CACACA",
"7@	c #A4A496",
"8@	c #E8E8B9",
"9@	c #585743",
"0@	c #292402",
"a@	c #2C1F1C",
"b@	c #463531",
"c@	c #D4CB8C",
"d@	c #3A3723",
"e@	c #130A0A",
"f@	c #4C4339",
"g@	c #E3E3B5",
"h@	c #C2C299",
"i@	c #FDFDCA",
"j@	c #8B8B71",
"k@	c #D0D0D0",
"l@	c #8F8F8F",
"m@	c #A2A2A2",
"n@	c #BCBCB5",
"o@	c #FDFDC9",
"p@	c #33311D",
"q@	c #342D05",
"r@	c #2B2117",
"s@	c #281A1A",
"t@	c #8D875C",
"u@	c #C4BC81",
"v@	c #362626",
"w@	c #493535",
"x@	c #473132",
"y@	c #CACAA0",
"z@	c #949474",
"A@	c #98987B",
"B@	c #D5D5D4",
"C@	c #E5E5E5",
"D@	c #B0B0B0",
"E@	c #ADADAD",
"F@	c #BABABA",
"G@	c #ECECEC",
"H@	c #9E9E84",
"I@	c #A8A885",
"J@	c #3D2C2B",
"K@	c #E0D695",
"L@	c #F9F0A6",
"M@	c #664A4A",
"N@	c #A5A583",
"O@	c #939374",
"P@	c #CFCFA4",
"Q@	c #C4C49B",
"R@	c #828279",
"S@	c #A7A7A6",
"T@	c #A8A8A7",
"U@	c #ADADAC",
"V@	c #8C8C77",
"W@	c #F5F5C4",
"X@	c #23200C",
"Y@	c #231D09",
"Z@	c #746D4C",
"`@	c #EBE19C",
" #	c #19180D",
".#	c #322222",
"+#	c #1B1111",
"@#	c #211515",
"##	c #5A5B47",
"$#	c #989878",
"%#	c #C9C9A0",
"&#	c #F5F5C3",
"*#	c #B1B18D",
"=#	c #352E00",
"-#	c #302A03",
";#	c #322223",
">#	c #513B3A",
",#	c #DAD090",
"'#	c #D7CE8E",
")#	c #573F3F",
"!#	c #483234",
"~#	c #DFDFB1",
"{#	c #C6C69D",
"]#	c #B4B48E",
"^#	c #393726",
"/#	c #1A1601",
"(#	c #514934",
"_#	c #EDE49D",
":#	c #B3AB75",
"<#	c #281B1B",
"[#	c #2D1E1E",
"}#	c #585344",
"|#	c #5C5C48",
"1#	c #8C8C6F",
"2#	c #332424",
"3#	c #25171A",
"4#	c #AEA673",
"5#	c #FBF1A7",
"6#	c #817C54",
"7#	c #070404",
"8#	c #9A9A7A",
"9#	c #ABAB88",
"0#	c #C8C89F",
"a#	c #533A3C",
"b#	c #4F373A",
"c#	c #CCC387",
"d#	c #FDF2A8",
"e#	c #684B4B",
"f#	c #2A1D1D",
"g#	c #555542",
"h#	c #F9F9C6",
"i#	c #594A43",
"j#	c #57443E",
"k#	c #E6DC99",
"l#	c #F5EBA3",
"m#	c #473333",
"n#	c #1A1111",
"o#	c #1A1010",
"p#	c #4C3336",
"q#	c #D5D5A9",
"r#	c #D8D8AB",
"s#	c #87876B",
"t#	c #6D6E57",
"u#	c #544F35",
"v#	c #EFE59E",
"w#	c #E1D895",
"x#	c #493333",
"y#	c #3A1A26",
"z#	c #EEEEBD",
"A#	c #808064",
"B#	c #A6A684",
"C#	c #969676",
"D#	c #2F1F1F",
"E#	c #7A734F",
"F#	c #C9C185",
"G#	c #18120E",
"H#	c #543C3C",
"I#	c #483333",
"J#	c #473534",
"K#	c #CDCDA3",
"L#	c #B7B791",
"M#	c #959576",
"N#	c #AEAE8B",
"O#	c #827A54",
"P#	c #C6BE83",
"Q#	c #271A1A",
"R#	c #76735D",
"S#	c #8E8E70",
"T#	c #FCFCC8",
"U#	c #D0D0A5",
"V#	c #828266",
"W#	c #573E3E",
"X#	c #878058",
"Y#	c #C7BF83",
"Z#	c #382828",
"`#	c #302222",
" $	c #79775F",
".$	c #1F1F18",
"+$	c #A5A582",
"@$	c #A3A381",
"#$	c #525240",
"$$	c #D3D3A8",
"%$	c #D1D1A6",
"&$	c #553C3D",
"*$	c #867F58",
"=$	c #C5BD82",
"-$	c #7D7863",
";$	c #F0F0BF",
">$	c #AEAE8A",
",$	c #4B4B3A",
"'$	c #D0D0A6",
")$	c #573D3E",
"!$	c #817A54",
"~$	c #261818",
"{$	c #5D4444",
"]$	c #7A7860",
"^$	c #B1B18C",
"/$	c #D3D3A7",
"($	c #EAEABA",
"_$	c #1D0D12",
":$	c #1F1313",
"<$	c #7A7350",
"[$	c #1A180D",
"}$	c #160D0D",
"|$	c #7A7761",
"1$	c #5A5A46",
"2$	c #DBDBAE",
"3$	c #CFCFA5",
"4$	c #B0B08C",
"5$	c #473232",
"6$	c #524E34",
"7$	c #F0E69F",
"8$	c #CCC487",
"9$	c #0C0B05",
"0$	c #2B1E1E",
"a$	c #3B3A2E",
"b$	c #9F9F7E",
"c$	c #909072",
"d$	c #4E3D37",
"e$	c #F6ECA3",
"f$	c #391725",
"g$	c #717159",
"h$	c #6E6755",
"i$	c #4A3435",
"j$	c #D0C78A",
"k$	c #1C1212",
"l$	c #6F5252",
"m$	c #563C3D",
"n$	c #A7A784",
"o$	c #D4D4A9",
"p$	c #300F1F",
"q$	c #3F2C2D",
"r$	c #ADA572",
"s$	c #FCF2A7",
"t$	c #716C48",
"u$	c #2F2121",
"v$	c #848468",
"w$	c #EEEEBE",
"x$	c #73735A",
"y$	c #9C9C7C",
"z$	c #180E0F",
"A$	c #634747",
"B$	c #595439",
"C$	c #EFE59F",
"D$	c #A49D6B",
"E$	c #412F2F",
"F$	c #190F0F",
"G$	c #463332",
"H$	c #DCDCAF",
"I$	c #C7C79E",
"J$	c #E6E6B7",
"K$	c #282510",
"L$	c #362F04",
"M$	c #1E150F",
"N$	c #D6CC8E",
"O$	c #D2C98A",
"P$	c #0C0707",
"Q$	c #1D1313",
"R$	c #63624E",
"S$	c #D2D2A7",
"T$	c #B6B68F",
"U$	c #B5B58E",
"V$	c #E4E4B6",
"W$	c #87876A",
"X$	c #3E3605",
"Y$	c #1D1A00",
"Z$	c #817B54",
"`$	c #EAE09B",
" %	c #1E1C10",
".%	c #543D3D",
"+%	c #573E3F",
"@%	c #C5C69D",
"#%	c #C0C098",
"$%	c #8D8D81",
"%%	c #C6C6C6",
"&%	c #EAEAE7",
"*%	c #E9E9E9",
"=%	c #F2F2F2",
"-%	c #A0A0A2",
";%	c #3B3306",
">%	c #322C04",
",%	c #362625",
"'%	c #382329",
")%	c #DED493",
"!%	c #FBF1A6",
"~%	c #686342",
"{%	c #473C35",
"]%	c #F4F4C2",
"^%	c #A6A683",
"/%	c #C1C199",
"(%	c #E0E0B2",
"_%	c #95958F",
":%	c #E3E3E3",
"<%	c #131313",
"[%	c #111111",
"}%	c #030303",
"|%	c #DDDDDD",
"1%	c #9D9D91",
"2%	c #D6D6AB",
"3%	c #221B00",
"4%	c #020300",
"5%	c #8B855B",
"6%	c #402D2D",
"7%	c #614646",
"8%	c #686752",
"9%	c #D6D6AA",
"0%	c #87877B",
"a%	c #B8B8B8",
"b%	c #171717",
"c%	c #010101",
"d%	c #989898",
"e%	c #B8B8B1",
"f%	c #54533E",
"g%	c #3A3206",
"h%	c #010100",
"i%	c #4A3A34",
"j%	c #DBD292",
"k%	c #020101",
"l%	c #624847",
"m%	c #75755C",
"n%	c #5F5F4A",
"o%	c #EFEFBE",
"p%	c #A2A29B",
"q%	c #373734",
"r%	c #CCCCCC",
"s%	c #8B8B74",
"t%	c #616049",
"u%	c #191600",
"v%	c #666141",
"w%	c #908A5E",
"x%	c #463131",
"y%	c #271919",
"z%	c #76765D",
"A%	c #78785E",
"B%	c #ECECBC",
"C%	c #6F6F63",
"D%	c #4B4B4B",
"E%	c #898989",
"F%	c #C1C1C1",
"G%	c #75756C",
"H%	c #DADAAE",
"I%	c #5F5E48",
"J%	c #3F3806",
"K%	c #342E05",
"L%	c #352623",
"M%	c #553C3E",
"N%	c #B1A975",
"O%	c #CEC688",
"P%	c #180F0F",
"Q%	c #545342",
"R%	c #E1E1B3",
"S%	c #BABA97",
"T%	c #6C6C6D",
"U%	c #686867",
"V%	c #717170",
"W%	c #9D9D9E",
"X%	c #A9A9A6",
"Y%	c #A7A783",
"Z%	c #D9D9AD",
"`%	c #535341",
" &	c #2D1E1F",
".&	c #2E251E",
"+&	c #D2C98B",
"@&	c #F6EDA3",
"#&	c #605C3D",
"$&	c #3C302B",
"%&	c #BDBD96",
"&&	c #BEBE97",
"*&	c #BEBE98",
"=&	c #E2E2B4",
"-&	c #3B3B2E",
";&	c #2B2603",
">&	c #373006",
",&	c #332C04",
"'&	c #504934",
")&	c #B0A973",
"!&	c #583C3F",
"~&	c #63634E",
"{&	c #DDDDB0",
"]&	c #F8F8C6",
"^&	c #9D9D7D",
"/&	c #35321E",
"(&	c #363006",
"_&	c #393306",
":&	c #312B05",
"<&	c #1E1A02",
"[&	c #211C05",
"}&	c #857D57",
"|&	c #412B2E",
"1&	c #F2F2C1",
"2&	c #ACAC89",
"3&	c #4D4D3B",
"4&	c #322C02",
"5&	c #443C08",
"6&	c #373005",
"7&	c #211713",
"8&	c #857E57",
"9&	c #F8EFA5",
"0&	c #F7EEA4",
"a&	c #DDD492",
"b&	c #BFB77E",
"c&	c #9E9767",
"d&	c #504D32",
"e&	c #453232",
"f&	c #5C4242",
"g&	c #1E000E",
"h&	c #6C6554",
"i&	c #979879",
"j&	c #C2C29A",
"k&	c #BBBC95",
"l&	c #929374",
"m&	c #736D5A",
"n&	c #3F2B2D",
"o&	c #1E1315",
"p&	c #282303",
"q&	c #171401",
"r&	c #312A04",
"s&	c #533B3C",
"t&	c #958F61",
"u&	c #E4DB97",
"v&	c #BAB37A",
"w&	c #948D60",
"x&	c #49462D",
"y&	c #160E0E",
"z&	c #644849",
"A&	c #201D00",
"B&	c #363005",
"C&	c #292303",
"D&	c #443032",
"E&	c #110909",
"F&	c #231818",
"G&	c #553E3E",
"H&	c #322B04",
"I&	c #242003",
"J&	c #422E2F",
"K&	c #4C3737",
"L&	c #160C0C",
"M&	c #291B1B",
"N&	c #392727",
"O&	c #2D2804",
"P&	c #181401",
"Q&	c #262100",
"R&	c #302904",
"S&	c #1B1701",
"T&	c #2E1F20",
"U&	c #4F3838",
"V&	c #292012",
"W&	c #1E1902",
"X&	c #1C1802",
"Y&	c #231E02",
"Z&	c #473334",
"`&	c #2C2604",
" *	c #362525",
".*	c #352524",
"+*	c #161301",
"@*	c #0F0C01",
"#*	c #312221",
"$*	c #060303",
"%*	c #252100",
"&*	c #0D0C00",
"**	c #1D1901",
"=*	c #352526",
"-*	c #030101",
";*	c #282203",
">*	c #0D0707",
",*	c #100E01",
"'*	c #020200",
"                                                                                                                                                                                    ",
"                                                                                                                                                                                    ",
"                                                                                                                                                                                    ",
"                                                                                                                                                                                    ",
"                                                                                                                                                                                    ",
"                                                                                                                                                                                    ",
"                                                                                                                                                                                    ",
"                                                                                                                                                                                    ",
"                                                                                                                                                                                    ",
"                                                                                                                                                                                    ",
"                                                                                                                                                                                    ",
"                                                                                                                                                                                    ",
"                                                                                                                                                                                    ",
"                                                                                                                                                                                    ",
"                                                                                                                                                                                    ",
"                                                                                                                  . + + + @ # $                                                     ",
"                                                                                                          $ % & * = = = = = - = ; > , ' ) ! ~ ~ ~ {                                 ",
"                                                                ] ^ / / / ( / _ : < / ) [ } ! / / / | 1 2 3 4 = = = = = = = = = = = 5 6 7 8 9 0 a 8 $                               ",
"                                                          $ $ b 0 9 9 9 9 9 9 9 c d e f g h i 9 9 j k l = = = = = = = = = = = = = = = = m n o ! p q $                               ",
"                                                      $ r o ' s t u v b w x $ y ! s z A A B C D E F G = = = = = H I J * H = = = = = = = = H K L c M N                               ",
"                                                  $ O h P 9 9 i M L e Q R L j P 9 9 9 9 9 9 S T U 4 = = = = = V W X * Y Z ` = = = = = = = = H  .S 9 ..                              ",
"                                                +.8 9 9 P @.#.$.%.D 9 9 9 9 9 9 9 9 9 9 9 9 P &.4 = = = = = *.=.= = = = = ; ` = = = = = = = = -.;.>.,.                              ",
"                                            '.%.i 9 ).!.f ~.{.].9 9 9 9 9 9 9 9 9 9 9 9 9 9 ).^.= = = = = /.(.= = = = /._.H :.<.= = = = = = = = m A [.                              ",
"                                          $.}.0 P / |.g 1.2.3.4.D D D D D D D D D D D D D D 5.6.= = = = = 7.8.= = = = 6.9.H 0.a.= = = = = = = = b.c.N                               ",
"                                      d._ i e.f.|.g.5.R h.i.A ..{.( ( ( j.( ( ( ( ( ( ( ( ( k.J = = = = = 7.8.= = = = + l./.m.= = = = = = = = = = ^ n.                              ",
"                                    o.M 4.p.q.r.s.[.[.].P 9 9 9 9 9 9 9 P t.e.u.i t.P P 9 9 v.w.= = = = = -.x.= = = <.0.3 y.z.= = = = = = = = = = A.n.$                             ",
"                                  B.C.A D.g ! 9 9 9 9 9 9 9 9 9 9 P c E.F.G.H.I.J.K.L.M.N.O.h P.= = = = = = Y x.Q.R.Z ; S.T.= = = = = = = = = = m U.V.W.X.Y.Z.`.$ $                 ",
"                                 +.+h >.++,.9 9 9 9 9 9 9 9 9 9 >.@+#+$+%+&+*+*+&+&+&+=+-+;+>+,+'+4 = = = = = Q.)+!+~+{+4 = = = = = = = = = = = ]+^+/+(+_+_+_+:+<+[+}+|+            ",
"                            $ v P 9 j.e 2.9 9 9 9 9 9 9 9 9 1.1+2+%+*+3+3+3+3+3+3+3+3+3+3+3+3+4+5+6+7+H = = = H /.2 7.a.= = = = = = = = = = = 8+9+0+a+_+_+_+_+_+_+_+_+b+            ",
"                          c+>.9 P g d+S 9 9 0 e.e.e.e.e.e+f+g+h+&+3+3+3+3+3+3+3+3+3+3+3+3+i+i+i+3+j+k+l+> m+m+n++ l.= = = = = = = = = = = = o+p+q+r+_+_+_+_+_+_+_+_+s+$             ",
"                        x }.9 P ,.! 9 P t+) ' [ ^+^+^+u+v+w+x+y+z+3+3+3+3+3+3+3+3+3+3+3+-+A+B+C+D+E+=+-+F+G+= = = = = = = = = = = = = = = 4 H+I+J+_+_+_+_+_+_+_+_+K+L+              ",
"                        M+9 9 M  +u.) f : [.2.i P P 3.N+O+&+P+Q+R+S+3+3+3+3+3+3+3+3+3+&+T+U+V+W+X+Y+Z+`+ @.@+@= = = = = = = = = = = = = = @@#@$@%@_+_+_+_+_+_+_+_+&@$               ",
"                      ++i 9 P *@|.e f.2.P 9 9 9 9 u.=@j+&+-@;@3+>@>@3+3+3+3+3+3+3+3+3+>@,@'@)@)@)@$ !@~@{@]@^@<.= = = = = = = = = = = l./@(@_@:@_+_+_+_+_+_+_+_+<@[@                ",
"                    $ }@P n.N N 1.P 9 9 9 9 9 9 2.|@=+3+1@2@>@3+3+3+3+3+3+3+3+3+3+3+3+3@4@5@q.)@)@)@$ 6@7@>@8@9@5 = = = = = = = = <.0@a@u.b@c@_+_+_+_+_+_+_+_+_+:@d@                ",
"                    L 8 y @+e@j 9 9 9 9 9 9 9 i f@g@3+3+h@E+i@3+3+3+3+3+3+3+3+3+3+3+3+&+j@k@l@$ $ )@$ m@n@o@3+8@p@= = = = = = = q@r@s@' ^+t@_+_+_+_+_+_+_+_+_+_+u@                  ",
"                  $ < v@u.M w@9 9 9 9 9 9 9 9 x@y@3+3+3+z@y@3+3+3+3+3+3+3+3+3+3+3+3+3+3+o@A@B@C@D@E@F@G@H@3+3+3+I@-.= = = = b.m+^ c i ).J@K@_+_+_+_+_+_+_+_+_+L@Y.                  ",
"                  {.].P P f u.9 9 9 S ].j M@M N@3+3+3+3+O@P@3+3+3+3+3+3+3+3+3+3+3+3+3+3+3+>@Q@R@S@T@U@V@W@3+3+3+j+X@= = = 5 Y@n.9 9 9 .+Z@%@_+_+_+_+_+_+_+_+_+`@ #                  ",
"                .#9 9 9 1.+#%.N e @#M+A ^ ' ##3@3+3+3+3+$#%#3+3+3+3+3+3+3+3+3+3+3+3+3+3+3+3+3+3+W@W@&#3+3+3+3+3+&+*#=#H -#;#3.9 9 9 9 >#,#_+_+_+_+_+_+_+_+_+_+'#                    ",
"                v.i [./ $ ^ )#S e.P 9 9 9 !#~#3+3+3+3+3+{#]#3+3+3+3+3+3+3+3+3+3+3+3+3+3+3+3+3+3+3+3+3+3+3+3+3+3+3+&#^#/#k.h h P t.t.].(#_#_+_+_+_+_+_+_+_+_+_+:#                    ",
"              ++>.<#%.j.[#h 9 9 9 9 9 9 t.}#3@3+3+3+3+3+*+|#z+3+3+3+3+3+3+3+3+3+3+3+3+3+3+3+3+3+3+3+3+3+3+3+3+3+3+&+1#2#o.o.y ^+^+^+3#4#%@_+_+_+_+_+_+_+_+_+5#6#                    ",
"              7#.#}.9 e.^+P 9 9 9 9 9 9 M 8#3+3+3+3+3+3+3+P@9#3+3+3+3+3+3+3+3+3+3+3+3+3+3+3+3+3+3+3+3+3+3+3+3+3+3+3+0#a#0 P P 0 P 0 b#c#_+_+_+_+_+_+_+_+_+_+d#$                     ",
"            $ [.i 9 9 e#~.P P P n.D D s.f#`+3+3+3+3+3+3+3+S+g#h#3+3+3+3+3+3+3+3+3+3+3+3+>@3+3+3+3+3+3+3+3+3+3+3+3+3+3@i#9 9 9 9 9 9 j#k#_+_+_+_+_+_+_+_+_+_+l#$                     ",
"            m#9 t.3.( 5.n#N o#~ o !.( ( p#q#3+3+3+3+3+3+3+3+r#s#&+3+3+3+3+3+3+3+3+3+*+ @3+3+3+3+3+3+3+3+3+3+3+3+3+3+>@t#e+9 P t.M D u#v#_+_+_+_+_+_+_+_+_+_+w#$                     ",
"          $ #.s h.v@/ m#x#P P 9 9 9 9 9 y#z#3+3+3+3+3+3+3+3+*+A#j+3+3+3+3+3+3+3+3+3+B#0#3+3+3+3+3+3+3+3+3+3+3+3+3+3+3+C#}@k.D#h.A L E#l#_+_+_+_+_+_+_+_+_+_+F#G#H#P 3.z             ",
"          g.[ ( i 9 9 n.I#P 9 9 9 9 9 9 J#>@3+3+3+3+3+3+3+3+3+K#L#3+3+3+3+3+3+3+3+{@M#>@3+3+3+3+3+3+3+3+3+3+3+3+3+3+3+N#R 8 ].i 9 t.O#K+_+_+_+_+_+_+_+_+_+_+P#H#9 9 9 P Q#          ",
"          g e#2.j S ].{.x#h j e#h S h c R#3+3+3+3+3+3+3+3+3+3+3@S#3+>@>@o@T#4+=+U#V#o@3+3+3+3+3+3+3+3+3+3+3+3+3+3+3+3+y@W#9 9 9 9 t.X#%@_+_+_+_+_+_+_+_+_+_+Y#P 9 9 9 9 L           ",
"        $ o.^ ^ ^ ^ ^ Z#`#^ ^ ^ ^ ^ ^ ^  $3+3+3+3+3+3+3+3+3+3+3@.$+$@$@$@$@$@$+$#$$$3+3+3+3+3+3+3+3+3+3+3+3+3+3+3+3+3+%$&$9 9 9 9 e.*$%@_+_+_+_+_+_+_+_+_+_+=$n.9 9 9 P R           ",
"          N L S 9 9 9 n.D.9 9 9 9 9 9 P -$3+3+3+3+3+3+3+3+3+3+;$>$3+3+3+3+3+3+3+>@,$O+>@3+3+3+3+3+3+3+3+3+3+3+3+3+3+3+'$)$t.9 9 9 t.!$K+_+_+_+_+_+_+_+_+_+_+P#+#t+0 P v.            ",
"          $ r.~$,.u.2.{$x#0 9 9 9 9 9 P ]$3+3+3+3+3+3+3+3+3+3+^$/$3+3+3+3+3+3+3+3+%+#$($3+3+3+3+3+3+3+3+3+3+3+3+3+3+3+K#_$:$w@D.u.c <$l#_+_+_+_+_+_+_+_+_+_+F#[$$ k.!               ",
"            j.S d v Q#h.}$^ / g 2.].c P |$3+3+3+3+3+3+3+3+3+h#1$3+3+3+3+3+3+3+3+3+3+2$3$3+3+3+3+3+3+3+3+3+3+3+3+3+3+3+4$[.h 2.[.5$< 6$7$_+_+_+_+_+_+_+_+_+_+8$9$                    ",
"            ~$t.9 9 P u.0$}@}@{.m#B Q#f a$o@3+3+3+3+3+3+3+&+b$K#3+3+3+3+3+3+3+3+3+3+&+&+3+3+3+3+3+3+3+3+3+3+3+3+3+3+3+c$e+9 9 9 9 t.d$k#_+_+_+_+_+_+_+_+_+_+e$$                     ",
"              n##.P 9 e.^+P 9 9 9 P t.e.f$j+3+3+3+3+3+3+3+z#g$>@3+3+3+3+3+3+3+3+3+3+3+3+3+3+3+3+3+3+3+3+3+3+3+3+3+3+o@h$P 9 9 9 9 9 i$j$_+_+_+_+_+_+_+_+_+_+d#$                     ",
"              k$..9+S l$] c 9 9 9 9 9 9 m$5+3+3+3+3+3+3+3+n$o$3+3+3+3+3+3+3+3+3+3+3+3+3+3+3+3+3+3+3+3+3+3+3+3+3+3+3+8@p$}@}@v.{.I#m#q$r$%@_+_+_+_+_+_+_+_+_+s$t$                    ",
"              $ h v.[ ] u$4.i P 9 9 9 9 i v$3+3+3+3+3+3+w$x$3+3+3+3+3+3+3+3+3+3+3+3+3+3+3+3+3+3+3+3+3+3+3+3+3+3+3+&+y$z$D./ / )#A$3.n.B$C$_+_+_+_+_+_+_+_+_+_+D$                    ",
"                E$P P c H#F$[ u$M+| ].9 9 G$H$3+3+3+3+3+9#I$3+3+3+3+3+3+3+3+3+3+3+3+3+3+3+3+3+3+3+3+3+3+3+3+3+3+3+J$K$L$M$8 9 9 9 9 9 D.N$_+_+_+_+_+_+_+_+_+_+O$                    ",
"                P$2.9 9 ].Q$i t+v.!.A ^ A k.R$4+3+3+3+3+O@K#3+3+3+3+3+3+3+3+3+3+3+3+3+3+3+3+i@S$T$T$U$V$3+3+3+3+ @W$X$= o+Y$m#].9 9 9 .+Z$%@_+_+_+_+_+_+_+_+_+`$ %                  ",
"                  ++v n.P ) .%9 9 9 9 9 9 9 +%@%3+3+3+3+O@#%3+3+3+3+3+3+3+3+3+3+3+3+3+3+3+J$$%%%&%*%=%-%%$3+3+&+k+;%= = = = >%,%h 9 9 9 '%)%_+_+_+_+_+_+_+_+_+!%~%                  ",
"                  )@k.i.+.{$s@t.9 9 9 9 9 9 9 {%]%3+3+3+^%/%3+3+3+3+3+3+3+3+3+3+3+3+3+3+(%_%:%l@<%[%}%|%1%i@3+2%3%= = = = = = /.4%D D.w@y 5%_+_+_+_+_+_+_+_+_+_+[+                  ",
"                    s@i t+6%7#.%9 9 9 9 9 9 9 7%8%&#3+3+9%N@3+3+3+3+3+3+3+3+3+3+3+3+3+o@0%a%b%c%$ $ $ d%e%o@%+f%4 = = = = = = = g%h%<#L @.i%j%_+_+_+_+_+_+_+_+_+&@$                 ",
"                      ..9 0 t+k%f j.P 9 9 9 9 9 l%m%x+3+i+n%o%3+3+3+3+3+3+3+3+3+3+3+3+3@p%q%)@$ $ $ $ r%s% @t%I = = = = = = = = = T.!+u%' n.v%v#_+_+_+_+_+_+_+_+_+w%                ",
"                      $ v.9 9 v R x%y%5.)#t.t.9 9 8 z%j+3+~#A%B%*+3+3+3+3+3+3+3+3+3+3+3+C%D%$ )@$ E%F%G%H%I%J%= = = = = = = = = = = = H K%L%M%N%%@_+_+_+_+_+_+_+_+O%$               ",
"                        h.i 9 P y {.P 7%b .#P%/ !.!.' Q%y+&+R%v$S$3+3+3+3+3+3+3+3+3+3+3+S%T%U%V%W%X%Y%Z%`%l.= = = = = = = = = = = = = = = q@ &.&+&_+_+_+_+_+_+_+_+@&#&              ",
"                          B 9 9 i  +{.0 9 9 c {.,.(@g ,.$&%&T#3+3+3+3+3+3+3+3+3+3+3+3+3+>@I$&&*&K# @=&-&Y 7.;&>&m = = = = = = = = = = = = = ,&N '&`@_+_+_+_+_+_+_+_+)&$             ",
"                            r.3.9 c N {.9 9 9 9 9 9 9 9 P !&~&{&3+3+3+3+3+3+3+3+3+3+3+3+3+3+3+3+]&^&/&(&_&8.8.:&<&m+I = = = = = = = = = = = H [&k.}&(+_+_+_+_+_+_+_+5#$             ",
"                              c+[.9 P ..y u.9 9 9 9 9 9 9 9 ).|&8#H$4+*+&+3+3+3+3+3+3+3+&+*+1&2&3&4&H = = = = = 5&6&x.8+= = = = = = = = = = = m 7&$ 8&7$_+_+9&0&a&b&c&d&            ",
"                                $ i.e&f&g C..%P 9 9 9 9 9 9 9 9 u.p#g&h&i&j&%$R%R%{&K#k&l&m&n&o&Q.= = = = = <.p&m.q&r&/#8+= = = = = = = = = = = Y .%s&t&u&v&w&x&$ $                 ",
"                                  y&q / ~.C $ L h P P P 9 9 9 9 9 9 9 9 9 z&(@(@(@(@j.9 9 9 M@A&= = = = = = x.B&4 = C&Y m.; = = = = = = = = = = 4 D&n.h%                            ",
"                                    k%' }@M@,.o.E&F&f#~.v >.c ].].].i 9 9 9 9 9 9 9 9 9 9 9 G&* = = = = = !+H&= = = = S.= I&8+= = = = = = = = = = J&{$                              ",
"                                        }$K&P P d v@k.v.M m#o o u e L&s@s@s@M&r r r f#+.N&Q y J = = = = = 7.8.= = = = O&=.4 P&= = = = = = = = = = ;#m#                              ",
"                                          $ ^+3.9 t.)#+.B ( S 9 P 0 t.e.e.e.e.e.e.e.e.e.t.e.3.Q&= = = = = Y B&= = = = R&=.- S&T.= = = = = = = = 5 T&%.                              ",
"                                              $ U&c 9 9 >.v |.5.1.0 0 9 9 9 9 9 9 9 9 9 9 9 t.V&= = = = = <.W&I = = = = = o+X&= = = = = = = = = Y&I#j.                              ",
"                                                  <#{$9 9 9 9 {$*@[ 6%L 2.S 9 9 9 9 9 9 9 9 P Z&=.= = = = = Y X&; 5 = 4 -.X&8+= = = = = = = = `&A 9 k.                              ",
"                                                    k% *D D q (@#.,.^ h.$ E&! (@(@(@(@(@q (@R v@.*6&= = = = = T.!+]++*@*!+5 = = = = = = = = <.#*P 9 M+                              ",
"                                                        $ $ x ~ e&v n.f&n.f&n.)#m#r.$*N j.n.7%P ).I#%*= = = = = = = H H = = = = = = = = = g%&*++e 9+$                               ",
"                                                              : .%n.u.t.t.t.i f.f&M u.D y o.{.n.f&n.B **8.= = = = = = = = = = = = = = 5 :&=*3.c e.c $                               ",
"                                                                    -*x x x x $ $ $ q.x x $             $ m+/.8.H = = = = = = = H 5 ;*>*A 3.3.}.3.v                                 ",
"                                                                                                                :.R&B&-.B&6&!+O&,*'*$ 7#$ $ $ $ $ $                                 ",
"                                                                                                                                                                                    ",
"                                                                                                                                                                                    ",
"                                                                                                                                                                                    ",
"                                                                                                                                                                                    ",
"                                                                                                                                                                                    ",
"                                                                                                                                                                                    ",
"                                                                                                                                                                                    ",
"                                                                                                                                                                                    ",
"                                                                                                                                                                                    ",
"                                                                                                                                                                                    ",
"                                                                                                                                                                                    ",
"                                                                                                                                                                                    ",
"                                                                                                                                                                                    "};
