/* XPM */
static char * merry_1_xpm[] = {
"90 90 751 2",
"  	c None",
". 	c #000000",
"+ 	c #392828",
"@ 	c #3B2A2A",
"# 	c #513A3A",
"$ 	c #120A0A",
"% 	c #261818",
"& 	c #594040",
"* 	c #302121",
"= 	c #533C3C",
"- 	c #433030",
"; 	c #684B4B",
"> 	c #241818",
", 	c #513B3B",
"' 	c #473333",
") 	c #1C1212",
"! 	c #1A1111",
"~ 	c #6E5050",
"{ 	c #694D4D",
"] 	c #674B4B",
"^ 	c #584040",
"/ 	c #432F2F",
"( 	c #6C4F4F",
"_ 	c #5A4141",
": 	c #070404",
"< 	c #261A1A",
"[ 	c #0C0707",
"} 	c #412F2F",
"| 	c #684C4C",
"1 	c #443131",
"2 	c #583F3F",
"3 	c #4F3939",
"4 	c #694C4C",
"5 	c #6B4E4E",
"6 	c #231717",
"7 	c #322222",
"8 	c #614747",
"9 	c #5E4444",
"0 	c #010000",
"a 	c #6D5050",
"b 	c #322323",
"c 	c #4C3636",
"d 	c #644949",
"e 	c #362626",
"f 	c #634848",
"g 	c #624747",
"h 	c #281B1B",
"i 	c #563E3E",
"j 	c #281A1A",
"k 	c #453131",
"l 	c #271A1A",
"m 	c #6A4D4D",
"n 	c #4E3838",
"o 	c #493434",
"p 	c #201515",
"q 	c #402E2E",
"r 	c #5C4343",
"s 	c #6A4E4E",
"t 	c #211616",
"u 	c #6F5252",
"v 	c #6E5151",
"w 	c #5D4444",
"x 	c #382828",
"y 	c #412E2E",
"z 	c #5F4545",
"A 	c #604646",
"B 	c #654949",
"C 	c #2B1D1D",
"D 	c #543C3C",
"E 	c #2F2121",
"F 	c #2D1F1F",
"G 	c #2B1E1E",
"H 	c #160D0D",
"I 	c #493333",
"J 	c #4B3636",
"K 	c #302222",
"L 	c #483333",
"M 	c #2F2020",
"N 	c #2D1E1E",
"O 	c #654A4A",
"P 	c #352525",
"Q 	c #443030",
"R 	c #040202",
"S 	c #3C2A2A",
"T 	c #6D4F4F",
"U 	c #402D2D",
"V 	c #4A3535",
"W 	c #1D1313",
"X 	c #190F0F",
"Y 	c #594141",
"Z 	c #1B1111",
"` 	c #312222",
" .	c #5B4242",
"..	c #3A2929",
"+.	c #170E0E",
"@.	c #543D3D",
"#.	c #1A1010",
"$.	c #573F3F",
"%.	c #493535",
"&.	c #130A0A",
"*.	c #020101",
"=.	c #342424",
"-.	c #2E2020",
";.	c #3F2D2D",
">.	c #463232",
",.	c #382727",
"'.	c #261919",
").	c #372626",
"!.	c #160E0E",
"~.	c #463131",
"{.	c #553D3D",
"].	c #4D3737",
"^.	c #523B3B",
"/.	c #211515",
"(.	c #3D2B2B",
"_.	c #624848",
":.	c #0E0707",
"<.	c #503939",
"[.	c #453232",
"}.	c #271919",
"|.	c #422F2F",
"1.	c #5D4343",
"2.	c #3B2929",
"3.	c #291C1C",
"4.	c #3E2C2C",
"5.	c #5C4242",
"6.	c #614646",
"7.	c #523C3C",
"8.	c #090404",
"9.	c #4B3535",
"0.	c #563C3D",
"a.	c #391725",
"b.	c #3B3A2E",
"c.	c #7A7761",
"d.	c #7A7860",
"e.	c #7D7863",
"f.	c #79775F",
"g.	c #76735D",
"h.	c #473534",
"i.	c #3A1A26",
"j.	c #4C3336",
"k.	c #2A1D1D",
"l.	c #2C1E1E",
"m.	c #483434",
"n.	c #4C3737",
"o.	c #664A4A",
"p.	c #372727",
"q.	c #463332",
"r.	c #848468",
"s.	c #CACAA1",
"t.	c #F1F1C0",
"u.	c #FDFDC9",
"v.	c #FFFFCB",
"w.	c #FEFECA",
"x.	c #EEEEBD",
"y.	c #D5D5A9",
"z.	c #BBBB95",
"A.	c #9A9A7A",
"B.	c #585344",
"C.	c #483234",
"D.	c #221616",
"E.	c #251919",
"F.	c #180F0F",
"G.	c #573E3F",
"H.	c #63624E",
"I.	c #DCDCAF",
"J.	c #FAFAC7",
"K.	c #DFDFB1",
"L.	c #5A5B47",
"M.	c #030202",
"N.	c #070303",
"O.	c #473C35",
"P.	c #C5C69D",
"Q.	c #FBFBC8",
"R.	c #A5A583",
"S.	c #473132",
"T.	c #4F3838",
"U.	c #110909",
"V.	c #624847",
"W.	c #686752",
"X.	c #F4F4C2",
"Y.	c #CACAA0",
"Z.	c #4C4339",
"`.	c #231818",
" +	c #503A3A",
".+	c #75755C",
"++	c #F5F5C3",
"@+	c #E3E3B5",
"#+	c #686451",
"$+	c #76765D",
"%+	c #F9F9C7",
"&+	c #F6F6C4",
"*+	c #6D6D56",
"=+	c #6B4F4F",
"-+	c #3C2B2B",
";+	c #362525",
">+	c #545342",
",+	c #5E5C49",
"'+	c #221717",
")+	c #3C302B",
"!+	c #E9E9B9",
"~+	c #FFFFCE",
"{+	c #D6D6AA",
"]+	c #A6A683",
"^+	c #939374",
"/+	c #ABAB88",
"(+	c #EEEEBE",
"_+	c #FFFFCD",
":+	c #C6C69D",
"<+	c #989878",
"[+	c #949474",
"}+	c #C2C299",
"|+	c #F6F6C3",
"1+	c #FFFFCC",
"2+	c #E7E7B8",
"3+	c #39392C",
"4+	c #6F5151",
"5+	c #2A1C1C",
"6+	c #583C3F",
"7+	c #BDBD96",
"8+	c #5F5F4A",
"9+	c #C1C199",
"0+	c #C0C098",
"a+	c #CDCDA3",
"b+	c #C7C79E",
"c+	c #73735A",
"d+	c #A7A784",
"e+	c #FCFCC9",
"f+	c #CFCFA4",
"g+	c #5C5C48",
"h+	c #B4B48E",
"i+	c #C9C9A0",
"j+	c #BFBF97",
"k+	c #63634D",
"l+	c #A4A482",
"m+	c #B9B994",
"n+	c #52393A",
"o+	c #664B4B",
"p+	c #63634E",
"q+	c #FCFCC8",
"r+	c #E1E1B3",
"s+	c #78785E",
"t+	c #EFEFBE",
"u+	c #D4D4A9",
"v+	c #717159",
"w+	c #9F9F7E",
"x+	c #F9F9C6",
"y+	c #D8D8AB",
"z+	c #555542",
"A+	c #F7F7C4",
"B+	c #FDFDCA",
"C+	c #B9B993",
"D+	c #919173",
"E+	c #6C6C55",
"F+	c #412B2E",
"G+	c #DDDDB0",
"H+	c #ECECBC",
"I+	c #5A5A46",
"J+	c #B1B18C",
"K+	c #F0F0BF",
"L+	c #808064",
"M+	c #87876B",
"N+	c #858569",
"O+	c #DADAAD",
"P+	c #432D2F",
"Q+	c #3A2828",
"R+	c #D2D2A7",
"S+	c #D3D3A7",
"T+	c #AEAE8A",
"U+	c #1F1F18",
"V+	c #8E8E70",
"W+	c #B7B791",
"X+	c #E3E3B4",
"Y+	c #969677",
"Z+	c #3C2929",
"`+	c #A5A582",
" @	c #EDEDBD",
".@	c #030101",
"+@	c #160C0C",
"@@	c #1E000E",
"#@	c #A3A381",
"$@	c #73715B",
"%@	c #6C6554",
"&@	c #CBCCA2",
"*@	c #593F40",
"=@	c #332323",
"-@	c #979879",
";@	c #3F2F2D",
">@	c #2E1E1E",
",@	c #644849",
"'@	c #C2C29A",
")@	c #64634E",
"!@	c #291B1B",
"~@	c #D1D1A6",
"{@	c #727159",
"]@	c #706F57",
"^@	c #525240",
"/@	c #D0D0A5",
"(@	c #909073",
"_@	c #4B4B3A",
":@	c #D3D3A8",
"<@	c #828266",
"[@	c #B3B38E",
"}@	c #8C8B6E",
"|@	c #060303",
"1@	c #DBDBAE",
"2@	c #959576",
"3@	c #A6A684",
"4@	c #74735B",
"5@	c #3F2C2C",
"6@	c #BBBC95",
"7@	c #CFCFA5",
"8@	c #EAEABA",
"9@	c #C8C89F",
"0@	c #F7F7C5",
"a@	c #4C4439",
"b@	c #392727",
"c@	c #929374",
"d@	c #BABA97",
"e@	c #6F6F63",
"f@	c #A2A29B",
"g@	c #87877B",
"h@	c #E0E0B2",
"i@	c #8B8B71",
"j@	c #AAAAA7",
"k@	c #80807C",
"l@	c #9A9A81",
"m@	c #EBEBBB",
"n@	c #493234",
"o@	c #736D5A",
"p@	c #6C6C6D",
"q@	c #4B4B4B",
"r@	c #373734",
"s@	c #B8B8B8",
"t@	c #95958F",
"u@	c #E6E6B7",
"v@	c #98987B",
"w@	c #D0D0D0",
"x@	c #686767",
"y@	c #40403F",
"z@	c #6D6D6D",
"A@	c #76766B",
"B@	c #D2D2A8",
"C@	c #5D4243",
"D@	c #120B0B",
"E@	c #553E3E",
"F@	c #3F2B2D",
"G@	c #F2F2C1",
"H@	c #BEBE97",
"I@	c #686867",
"J@	c #171717",
"K@	c #E3E3E3",
"L@	c #8D8D81",
"M@	c #C4C49B",
"N@	c #D5D5D4",
"O@	c #8F8F8F",
"P@	c #383838",
"Q@	c #767674",
"R@	c #B2B28D",
"S@	c #473334",
"T@	c #292012",
"U@	c #262100",
"V@	c #332C05",
"W@	c #322C05",
"X@	c #201D00",
"Y@	c #1E1315",
"Z@	c #ACAC89",
"`@	c #BEBE98",
" #	c #717170",
".#	c #010101",
"+#	c #C6C6C6",
"@#	c #828279",
"##	c #E5E5E5",
"$#	c #393838",
"%#	c #747474",
"&#	c #595846",
"*#	c #271D14",
"=#	c #2D2701",
"-#	c #302A04",
";#	c #211D00",
">#	c #352523",
",#	c #3D2C2C",
"'#	c #352524",
")#	c #352E05",
"!#	c #423A08",
"~#	c #3C3407",
"{#	c #4D4D3B",
"]#	c #F8F8C6",
"^#	c #9D9D9E",
"/#	c #131313",
"(#	c #EAEAE7",
"_#	c #B6B68F",
":#	c #F5F5C4",
"<#	c #A7A7A6",
"[#	c #B0B0B0",
"}#	c #717171",
"|#	c #86867B",
"1#	c #2A2404",
"2#	c #413908",
"3#	c #141200",
"4#	c #5E4545",
"5#	c #373005",
"6#	c #322C02",
"7#	c #9D9D7D",
"8#	c #A9A9A6",
"9#	c #898989",
"0#	c #111111",
"a#	c #E9E9E9",
"b#	c #A8A8A7",
"c#	c #ADADAD",
"d#	c #CECECE",
"e#	c #474736",
"f#	c #292014",
"g#	c #252100",
"h#	c #433B08",
"i#	c #35321E",
"j#	c #E2E2B4",
"k#	c #A7A783",
"l#	c #C1C1C1",
"m#	c #030303",
"n#	c #F2F2F2",
"o#	c #B5B58E",
"p#	c #ADADAC",
"q#	c #BABABA",
"r#	c #9B9B9B",
"s#	c #8C8C88",
"t#	c #9B9B7B",
"u#	c #373106",
"v#	c #3B3407",
"w#	c #342425",
"x#	c #1D1901",
"y#	c #363006",
"z#	c #3B3B2E",
"A#	c #D9D9AD",
"B#	c #75756C",
"C#	c #CCCCCC",
"D#	c #989898",
"E#	c #DDDDDD",
"F#	c #A0A0A2",
"G#	c #E4E4B6",
"H#	c #8C8C77",
"I#	c #ECECEC",
"J#	c #A2A2A2",
"K#	c #CACACA",
"L#	c #A2A2A3",
"M#	c #1F1F14",
"N#	c #373004",
"O#	c #170E0F",
"P#	c #3C3507",
"Q#	c #393306",
"R#	c #2E2804",
"S#	c #535341",
"T#	c #DADAAE",
"U#	c #8B8B74",
"V#	c #B8B8B1",
"W#	c #9D9D91",
"X#	c #9E9E84",
"Y#	c #BCBCB5",
"Z#	c #A4A496",
"`#	c #64644D",
" $	c #272203",
".$	c #211D02",
"+$	c #252003",
"@$	c #3F3707",
"#$	c #2D2704",
"$$	c #2F2904",
"%$	c #3B3406",
"&$	c #5F5E48",
"*$	c #F8F8C5",
"=$	c #8D8D70",
"-$	c #3B3304",
";$	c #393206",
">$	c #3A3306",
",$	c #3D3607",
"'$	c #1E1902",
")$	c #363005",
"!$	c #322B04",
"~$	c #1D1902",
"{$	c #2B2603",
"]$	c #3F3806",
"^$	c #616049",
"/$	c #E8E8B9",
"($	c #565541",
"_$	c #373001",
":$	c #2A2503",
"<$	c #151101",
"[$	c #1C1702",
"}$	c #3E3707",
"|$	c #1C1802",
"1$	c #403908",
"2$	c #282303",
"3$	c #312B05",
"4$	c #373006",
"5$	c #54533E",
"6$	c #D6D6AB",
"7$	c #585743",
"8$	c #161201",
"9$	c #2C2704",
"0$	c #241F03",
"a$	c #110E01",
"b$	c #332D05",
"c$	c #1F1A02",
"d$	c #443C08",
"e$	c #1E1A02",
"f$	c #403807",
"g$	c #221B00",
"h$	c #A8A885",
"i$	c #33311D",
"j$	c #3E3607",
"k$	c #262103",
"l$	c #2B2504",
"m$	c #1F1B02",
"n$	c #302904",
"o$	c #221E02",
"p$	c #171401",
"q$	c #3B3306",
"r$	c #87876A",
"s$	c #B1B18D",
"t$	c #23200C",
"u$	c #352F05",
"v$	c #221D02",
"w$	c #050400",
"x$	c #161301",
"y$	c #292303",
"z$	c #312A04",
"A$	c #3E3605",
"B$	c #282510",
"C$	c #9C9C7C",
"D$	c #8C8C6F",
"E$	c #393726",
"F$	c #352E00",
"G$	c #322B05",
"H$	c #141101",
"I$	c #0F0C01",
"J$	c #2D2804",
"K$	c #191501",
"L$	c #1A1601",
"M$	c #383106",
"N$	c #362F04",
"O$	c #180E0F",
"P$	c #300F1F",
"Q$	c #6E6755",
"R$	c #909072",
"S$	c #B0B08C",
"T$	c #D0D0A6",
"U$	c #AEAE8B",
"V$	c #969676",
"W$	c #6D6E57",
"X$	c #594A43",
"Y$	c #533A3C",
"Z$	c #332424",
"`$	c #403808",
" %	c #1D1802",
".%	c #1B1702",
"+%	c #3F3807",
"@%	c #1E150F",
"#%	c #1D0D12",
"$%	c #573D3E",
"%%	c #553C3D",
"&%	c #573E3E",
"*%	c #302A03",
"=%	c #362F06",
"-%	c #3D3507",
";%	c #433A08",
">%	c #242003",
",%	c #1D1A00",
"'%	c #1F1313",
")%	c #322223",
"!%	c #201C02",
"~%	c #2B2604",
"{%	c #262203",
"]%	c #1B1701",
"^%	c #181401",
"/%	c #322C04",
"(%	c #2F1F1F",
"_%	c #231D09",
":%	c #413A08",
"<%	c #413907",
"[%	c #040300",
"}%	c #362625",
"|%	c #100E01",
"1%	c #3A3206",
"2%	c #020300",
"3%	c #634747",
"4%	c #473232",
"5%	c #342D05",
"6%	c #020200",
"7%	c #010100",
"8%	c #2B2117",
"9%	c #282203",
"0%	c #3F2C2D",
"a%	c #4A3435",
"b%	c #4E3D37",
"c%	c #524E34",
"d%	c #7A7350",
"e%	c #817A54",
"f%	c #867F58",
"g%	c #878058",
"h%	c #827A54",
"i%	c #7A734F",
"j%	c #544F35",
"k%	c #57443E",
"l%	c #4F373A",
"m%	c #25171A",
"n%	c #292402",
"o%	c #050302",
"p%	c #0D0707",
"q%	c #191600",
"r%	c #595439",
"s%	c #ADA572",
"t%	c #D0C78A",
"u%	c #E6DC99",
"v%	c #F0E69F",
"w%	c #F5EBA3",
"x%	c #F7EDA4",
"y%	c #F9EFA5",
"z%	c #EFE59E",
"A%	c #CCC387",
"B%	c #AEA673",
"C%	c #514934",
"D%	c #513B3A",
"E%	c #2C1F1C",
"F%	c #241F02",
"G%	c #342E05",
"H%	c #382329",
"I%	c #817B54",
"J%	c #D6CC8E",
"K%	c #EFE59F",
"L%	c #FAF0A6",
"M%	c #EDE49D",
"N%	c #DAD090",
"O%	c #746D4C",
"P%	c #3D2C2B",
"Q%	c #161400",
"R%	c #251A16",
"S%	c #352526",
"T%	c #352623",
"U%	c #4A3A34",
"V%	c #8B855B",
"W%	c #DED493",
"X%	c #E0D695",
"Y%	c #8D875C",
"Z%	c #463531",
"`%	c #1E1B00",
" &	c #211A0B",
".&	c #0D0C00",
"+&	c #332C04",
"@&	c #2D1E1F",
"#&	c #553C3E",
"$&	c #666141",
"%&	c #DBD292",
"&&	c #D4CB8C",
"*&	c #716B49",
"=&	c #372527",
"-&	c #1E1905",
";&	c #292401",
">&	c #312221",
",&	c #2C2604",
"'&	c #211C05",
")&	c #2E251E",
"!&	c #B1A975",
"~&	c #F2E8A1",
"{&	c #ABA371",
"]&	c #241B17",
"^&	c #0B0604",
"/&	c #231B0E",
"(&	c #231E02",
"_&	c #211713",
":&	c #504934",
"<&	c #D2C98B",
"[&	c #D9D08F",
"}&	c #4C4431",
"|&	c #181109",
"1&	c #392928",
"2&	c #6D4F50",
"3&	c #2E1F20",
"4&	c #422E2F",
"5&	c #443032",
"6&	c #857D57",
"7&	c #EBE19C",
"8&	c #E1D896",
"9&	c #686444",
"0&	c #473233",
"a&	c #422F30",
"b&	c #312223",
"c&	c #271B1B",
"d&	c #533B3C",
"e&	c #857E57",
"f&	c #F4EAA2",
"g&	c #EDE49E",
"h&	c #827D55",
"i&	c #50393A",
"j&	c #958F61",
"k&	c #7C7650",
"l&	c #E4DB97",
"m&	c #B7B078",
"n&	c #BAB37A",
"o&	c #8E885D",
"p&	c #948D60",
"q&	c #F8EFA5",
"r&	c #FCF2A7",
"s&	c #FDF2A8",
"t&	c #F6ECA3",
"u&	c #CCC487",
"v&	c #C9C185",
"w&	c #C6BE83",
"x&	c #C5BD82",
"y&	c #C7BF83",
"z&	c #E1D895",
"A&	c #FBF1A7",
"B&	c #514E33",
"C&	c #49462D",
"D&	c #F7EEA4",
"E&	c #FBF1A6",
"F&	c #EAE09B",
"G&	c #D2C98A",
"H&	c #A49D6B",
"I&	c #716C48",
"J&	c #0C0B05",
"K&	c #1A180D",
"L&	c #18120E",
"M&	c #817C54",
"N&	c #B3AB75",
"O&	c #D7CE8E",
"P&	c #F9F0A6",
"Q&	c #EFE69F",
"R&	c #2A2718",
"S&	c #DDD492",
"T&	c #E7DE99",
"U&	c #B0A974",
"V&	c #686342",
"W&	c #1E1C10",
"X&	c #19180D",
"Y&	c #C4BC81",
"Z&	c #F9EFA6",
"`&	c #E0D895",
" *	c #BFB77E",
".*	c #F6EDA3",
"+*	c #CEC688",
"@*	c #908A5E",
"#*	c #3A3723",
"$*	c #A6A06D",
"%*	c #9E9767",
"&*	c #B0A973",
"**	c #605C3D",
"=*	c #7D7851",
"-*	c #D7CF8F",
";*	c #7B7650",
">*	c #504D32",
",*	c #635E3F",
"'*	c #070603",
"                                                                                                                                                                                    ",
"                                                                                                                                                                                    ",
"                                                                                                                                                                                    ",
"                                                                                                                                                                                    ",
"                                                                                      .                                                                                             ",
"                                                                                  . + @ # $ .                                                                                       ",
"                                                                              % & * = - ; > , ' .                                                                                   ",
"                                                                        . ) ! ~ { % { - ] ^ / ( _ : <                                                                               ",
"                                                                    [ } | 1 , ( 2 3 ( - 4 5 6 ~ 5 7 8 9 7                                                                           ",
"                                                                0 < ] a 9 b a ( c d ( - { ( e f ( g h 5 ( i .                                                                       ",
"                                                              j k c ( a > { ( a l ] ( - m ( n ^ ( ( o _ ( m p = .                                                                   ",
"                                                          . 1 5 q r ( s t u v d 6 w r x i r ' y ; v & n ( a e z A <                                                                 ",
"                                                        6 9 ( B C a m D E t F G H I J K I L I ! M F N . O a d P a 5 Q R                                                             ",
"                                                      S 5 ( T U w V W X Y s a A - T ( - | a a + a a | - Z `  ...r ( ( g +.                                                          ",
"                                                    * ( ( ( B : j @.5 > 5 ( ( A n ( ( - 4 ( a #.a ( ( $.o d %.&.+ a ( ( 8 .                                                         ",
"                                                  +.f ( a c *.@.~ ( B E a ( ( i # ( ( - ; ( ( =.a ( ( { + ( ( 4 + -. .a ( c                                                         ",
"                                                . _ ( 5 P ;.` ( ( ( 9 Q ( ( ( ' ] ( ( - | ( ( >.r ( ( v ,.( ( ( O '.).3 a a ).                                                      ",
"                                              !.q ( s ).i ~.& ( ( ( {.].( ( a S m ( ( - { ( ( {.^.( ( a /.( ( ( a ,.d (.# ( _.:.                                                    ",
"                                            *.<.[.a + i a }.a ( ( ( |.m ( ( ~ l s ( ( - | ( ( ^ ^.( ( ( Q { ( ( ( 1.V ( 2.& | 3.@                                                   ",
"                                            4.n 5.1 i T 6.y ( ( ( ( - ( ( ( v ` a a a - s ( ( ^ 7.( ( ( |.m ( ( ( ] ` a { ,.8 |. .8.                                                ",
"                                          H A M # P ( ( 9.$.( ( ( ( |.( 5 0.a.b.c.d.e.f.g.h.i.j.k. .~ ( - 4 ( ( ( a l.B ( ] < J Y m.                                                ",
"                                        . n.o.p.3.d ( ( 7 ~ ( ( ( ( k q.r.s.t.u.v.v.v.v.v.w.x.y.z.A.B.C.4.o.( ( ( ( _ V ( ( 3 # D.5 E.                                              ",
"                                        F a 3 . @.( ( s F.~ ( ( ( G.H.I.v.v.v.v.v.v.v.v.v.v.v.v.v.v.J.K.L. .( ( ( ( ] 4.T ( ( (.M.v g N.                                            ",
"                                      . f a @ = a ( ( i n ( ( 6.O.P.Q.v.v.v.v.v.v.v.v.v.v.v.v.v.v.v.v.v.J.R.S.5 ( ( 5 > v ( ( ( * 1.T o                                             ",
"                                      T.( 2 U.| ( ( ( 3 {.( V.W.X.v.v.v.v.v.v.v.v.v.v.v.v.v.v.v.v.v.v.v.v.v.Y.Z.] ( a F v ( ( ( 7.'.a 5 C                                           ",
"                                    h s ~ e `.a ( ( (  +{.z .+++v.v.v.v.v.v.v.v.v.v.v.v.v.v.v.v.v.v.v.v.v.v.v.@+#+d a F v ( ( ( _ $ n ( z .                                         ",
"                                  *.w ( $.k k.a ( ( ( # 4.$+%+v.v.v.v.v.v.v.v.v.v.v.v.v.v.v.v.v.v.v.v.v.v.v.v.v.&+*+f F v ( ( ( _ y '.=+( -+                                        ",
"                                  ;+( ( C 9 M a ( ( ( 3 >+t.v.v.v.v.v.v.v.v.v.v.v.v.v.v.v.v.v.v.v.v.v.v.v.v.v.v.v.t.,+'+v ( ( ( m ;.# {.( | .                                       ",
"                                . ^.( 8 S  .c ( ( ( a )+!+v.~+{+]+^+^+/+(+v.v.v.v.v.v.v.v.v.v.v.v.v._+:+<+^+[+}+|+1+2+3+4+( ( ( a 6 O ` a a 5+                                      ",
"                                . ^.( c ^ ' 8 ( ( ( 6+7+1+K.8+R.9+0+a+b+c+d+x.1+v.v.v.v.v.v.v.v.e+f+g+h+i+f+Y.j+k+l+1+m+n+( ( ( ( q ] M o+( >..                                     ",
"                                R <.( '.{ >.s ( ( =+p+q+r+s+t+v.v.v.v.v.v.u+v+w+x+v.v.v.v.v._+y+z+/+A+v.v.v.v.B+w.C+D+%+E+O ( ( ( |.f i , ( 4..                                     ",
"                              l.=. +w y ( >.m ( ( F+G+v.r.H+v.v.v.v.v.v.v.v.w.a+I+J+K+J.J.a+L+M+x+v.v.v.v.v.v.v.v.v.N+!+O+P+( ( ( 1 Y m E.5 / 9.                                    ",
"                              @.[., -.O a Q+m ( d A.v.v.R+_+v.v.v.v.v.v.v.v.v.v.v.S+T+U+V+W+t.1+v.v.v.v.v.v.v.v.v.w.X+A+1+Y+8 ( ( i ^.( o  .Z+T t                                   ",
"                              r c 3 > T T ,.m ( j.I.v.v.v.v.v.v.v.v.v.v.v.v.v.v.v.v.v.`+v.v.v.v.v.v.v.v.v.v.v.v.v.w.e+v.v. @..a ( ^ ^.( ^.= Q+( -                                   ",
"                            .@d r - U T ~ +@5 ( @@Q.v.v.v.v.v.v.v.v.v.v.v.v.v.v.v.v.v.#@w.v.v.v.v.v.v.v.v.v.v.v.v.v.v.v.v._+$@s ( ^ ^.( ( ,.c ( n                                   ",
"                            R ~ 5.6 = ( v j ( ( %@_+v.v.v.v.v.v.v.v.v.v.v.v.v.v.v.v.v.#@w.v.v.v.v.v.v.v.v.v.v.v.v.v.v.v.v.v.&@*@( ^ ^.( ( =@9.( n                                   ",
"                            R ~ r . ] ( v j ( ( -@1+v.v.v.v.v.v.v.v.v.v.v.v.v.v.v.v.v.#@u.v.v.v.v.v.v.v.v.v.v.v.v.v.v.v.v.v. @;@a & ^.( ( ;.>@( n                                   ",
"                            R ~ 5.U.{ ( v j ( ,@'@v.v.v.v.v.v.v.v.v.v.v.v.v.v.v.v.v.v.#@q+v.v.v.v.v.v.v.v.v.v.v.v.v.v.v.v.v.1+)@~ ^ ^.( ( = R ( ^                                   ",
"                            R 5 r (.( ( v !@(  +~@v.v.v.v.v.v.v.v.v.v.v.v.v.v.v.v.v.v.#@Q.v.v.v.v.v.v.v.v.v.v.v.v.v.v.v.v.v._+{@v ^ ^.( ( 4 . ( n                                   ",
"                            . 1.$. +( ( v 5+(  +r+v.v.v.v.v.v.v.v.v.v.v.v.v.v.v.v.v.v.`+&+v.v.v.v.v.v.v.v.v.v.v.v.v.v.v.v.v._+]@d ^ ^.( ( a P ( m.                                  ",
"                            . 5.'  +( ( v 5+(  +r+v.v.v.v.v.v.v.v.v.v.v.v.v.v.v.v.v.w.^@/@v.v.v.v.v.v.v.v.v.v.v.v.v.v.v.v.v.1+(@5 ^ ^.( ( ( (.s l.                                  ",
"                            .  .*  +( ( v 5+(  +G+v.v.v.v.v.v.v.v.v.v.v.v.v.v.v.v. @_@:@<@[@v.v.v.v.v.v.v.v.v.v.v.v.v.v.v.v.1+}@~ ^ ^.( ( ( / 2 p                                   ",
"                            M.d |@ +( ( v k.( & a+v.v.v.v.v.v.v.v.v.v.v.v.v.v.1+1@^@2+v.u.2@3@_+v.v.v.v.v.v.v.v.v.v.v.v.v.v.1+4@a ^ ^.( ( ( 5@,.n                                   ",
"                            R ^.+  +( ( v C ( ( 6@v.v.v.v.v.J.u.v.v.v.v.v.v.v.1+7@8@w.v.v.w.9@0@v.v.v.v.v.v.v.1+J.w.1+v.v.v.&+a@a ^ ^.( ( ( |.` V                                   ",
"                            R P & <.( ( ~ b@( ( c@1+v.w.d@e@f@g@h@v.v.v.v.v.v.v.v.v.v.v.v.v.v.v.w.v.v.v.v.v.u.i@j@k@l@m@v.v.m@n@( ^ ^.( ( ( |.# >                                   ",
"                            . @ r  +( ( v =@( ( o@_+v.b+p@q@r@s@t@u@v.v.v.v.v.v.v.v.v.v.v.v.v.v.v.v.v.v.v.w.v@w@x@y@z@A@~+v.B@C@( ^ ^.( ( ( S | D@                                  ",
"                              i 6.;.a ~ f P E@o.F@G@v.H@I@. 0 J@K@L@B+v.v.v.v.v.v.v.v.v.v.v.v.v.v.v.v.v.v.M@N@O@M.0 P@Q@~+v.R@| 9 k y =+a { p.5 (.                                  ",
"                              r a e S@T@U@V@W@X@Y@Z@v.`@ #0 . .#O@+#R+v.v.v.v.v.v.v.v.v.v.v.v.v.v.v.v.v.v.@###. 0 0 $#%#~+Q.&#*#=#V@-#;#>#,#^.( n                                   ",
"                              5.=+'#)#!#!#!#!#!#~#{#]#a+^#. . . /#(#_#v.v.v.v.v.v.v.v.v.v.v.v.v.v.v.v.v.:#<#[#. 0 0 }#|#v.s.1#!#!#!#!#!#2#3#4#( n                                   ",
"                              r L 5#!#!#!#!#!#!#!#6#7#0@8#9#. . 0#a#_#v.v.v.v.v.v.v.v.v.v.v.v.v.v.v.v.v.:#b#c#0 0 . d#j+t.e#2#!#!#!#!#!#!#2#f#4 n                                   ",
"                              S g#!#!#!#!#!#!#!#!#h#i#j#k#l#. . m#n#o#v.v.v.v.v.v.v.v.v.v.v.v.v.v.v.v.v.++p#q#. . r#s#&+t#u#!#!#!#!#!#!#!#!#v#w#].                                  ",
"                              x#!#!#!#!#!#!#!#!#!#!#y#z#A#B#C#D#E#F#G#v.v.v.v.v.v.v.v.v.v.v.v.v.v.v.v.v.v.H#I#J#K#L#z.m@M#h#!#!#!#!#!#!#!#!#!#N#O#                                  ",
"                            . P#!#!#!#!#!#!#!#!#!#!#Q#R#S#T#U#V#W#~@v.v.v.v.v.v.v.v.v.v.v.v.v.v.v.v.v.v.v.:#X#Y#Z#[@0@`# $!#!#!#!#!#!#!#!#!#!#!#.$                                  ",
"                            +$!#!#!#!#@$R##$$$!#!#!#P##$%$&$0@u.B+v.v.v.v.v.v.v.v.v.v.v.v.v.v.v.v.v.v.v.v.v.v.u.w.*$=$-$+$!#!#!#;$#$#$>$!#!#!#!#,$.                                 ",
"                            >$!#!#!#R#'$)$P#!$~$@$!#P#{$!#]$^$ @v.v.v.v.v.v.v.v.v.v.v.v.v.v.v.v.v.v.v.v.v.v.v.v./$($_$!#+$!#!#R#~$P#P#:$<$!#!#!#2#[$                                ",
"                            P#!#!#}$|$1$!#!#!#)$2$!#3$4$!#!#1$5$6$1+v.v.v.v.v.v.v.v.v.v.v.v.v.v.v.v.v.v.v.v.v./$7$@$!#!#8$h#~#~$!#!#!#!#)#9$!#!#!#0$                                ",
"                          a$h#!#!#$$b$!#!#!#!#2#c$d$e$f$!#!#!#2#g$t#0@v.v.v.v.v.v.v.v.v.v.v.v.v.v.v.v.v.1+t.h$i$j$!#!#!#k$>$l$~#!#!#!#!#!#m$h#!#!#W@                                ",
"                          n$!#!#!#o$j$!#!#!#!#!#p$5#+$!#!#!#!#!#!#q$r$u@1+v.v.v.v.v.v.v.v.v.v.v.v.v.1+++s$t$;$!#!#!#!#!#%$.$$$u$!#!#!#!#!#v$1$!#!#!#w$                              ",
"                          )$!#!#h#x$!#!#!#!#!#y$z$~$1$!#!#!#!#!#!#!#A$B$C$/$u.v.v.v.v.v.v.v.v.w.J.9@D$E$F$!#!#!#!#!#!#!#!##$G$H$@$!#!#!#!#W@V@!#!#!#k$                              ",
"                          ;$!#!#h#I$2#!#n$J$K$R#L$M$!#!#!#!#!#!#!#!#!#N$O$P$Q$R$S$a+T$~@Y.U$V$W$X$Y$Z$L$h#!#!#!#!#!#!#!#!#`$ %b$.%k$-#>$!#R#W@!#!#!#k$                              ",
"                          )$!#!#!#$$;$!#)#)#!#c$M$!#!#!#!#!#!#!#!#!#+%@%J A a 4+_ #%$%%%&%;.A 4+( T @ k *%!#!#!#!#!#!#!#!#!#2#K$,$%$=%-%!#H$h#!#!#!#k$                              ",
"                          5#!#!#!#j$|$+%;%2#>%b$!#!#!#!#!#!#!#!#!#!#,%z n A ( ( | '%~ ( ( z k ( ( a @ | )%j$!#!#!#!#!#!#!#!#!#}$!%>$h#h#b$~%!#!#!#!#{%                              ",
"                          $$!#!#!#!#M$|$]%^%M$!#!#!#!#!#!#!#!#!#!#/%' ( n 9 ( ( ] %.( ( ( m (%a ( a P | f _%:%!#!#!#!#!#!#!#!#!#<%c$.%a$~%!#!#!#!#;%[%                              ",
"                          J$!#!#!#!#!#!#}$!#!#!#!#!#!#!#!#!#!#!#>$}%m ( $.i ( ( _ J ( ( ( 5 6 ~ ( T F a ( r +$!#!#!#!#!#!#!#!#!#!#!#`$@$!#!#!#!#!#!#.                               ",
"                          |%h#!#!#!#!#!#!#!#!#!#!#!#!#!#!#!#!#1%2%| ( ( 3%L ( ( 4%d ( ( ( ( |. .( a F ~ ( ( - 5%!#!#!#!#!#!#!#!#!#!#!#!#!#!#!#!#!#b$                                ",
"                          6%j$!#!#!#!#!#!#!#!#!#!#!#!#!#!#!#}$7%^.( ( ( f ' ( ~ p s ~ v ~ ~ = ^.( T F ~ ( ( s 8%@$!#!#!#!#!#!#!#!#!#!#!#!#!#!#!#!# $                                ",
"                          . 9%!#!#!#!#!#!#!#!#!#!#!#!#!#!#!#$$h J ( ( ( r 0%a%b%c%d%e%f%g%h%i%j%k%l%m%m ( ( 5 j n%!#!#!#!#!#!#!#!#!#!#!#!#!#!#!#j$o%                                ",
"                          : p%j$!#!#!#!#!#!#!#!#!#!#!#!#!#h#q%= %.( _.J r%s%t%u%v%w%x%y%y%x%w%z%u%A%B%C%D%_.=+4.E%%$!#!#!#!#!#!#!#!#!#!#!#!#!#!#F%4.                                ",
"                          . |.3$!#!#!#!#!#!#!#!#!#!#!#!#!#G%4.o+P H%I%J%K%y%L%L%L%L%L%L%L%L%L%L%L%L%y%M%N%O%P%F d Q%!#!#!#!#!#!#!#!#!#!#!#!#!#f$R%V                                 ",
"                          . f S%1%!#!#!#!#!#!#!#!#!#!#!#5%T%r U%V%W%y%L%L%L%L%L%L%L%L%L%L%L%L%L%L%L%L%L%L%y%X%Y%Z% +`%2#!#!#!#!#!#!#!#!#!#!#h# &z (.                                ",
"                          . f f .&@$!#!#!#!#!#!#!#!#h#+&@&#&$&%&L%L%L%L%L%L%L%L%L%L%L%L%L%L%L%L%L%L%L%L%L%L%L%L%&&*&=&-&+%!#!#!#!#!#!#!#!#h#;&>.( =.                                ",
"                          . g s < >&,&!#!#!#!#!#!#f$'&+ )&!&z%L%L%L%L%L%L%L%L%L%L%L%L%L%L%L%L%L%L%L%L%L%L%L%L%L%L%~&{&]&^&M$!#!#!#!#!#!#;$/&= (.T =.                                ",
"                          . f v ,.a |.(&j$!#!#2#R#_&k :&<&y%L%L%L%L%L%L%L%L%L%L%L%L%L%L%L%L%L%L%L%L%L%L%L%L%L%L%L%L%y%[&}&b o$f$!#!#:%f$|&{ s 1&2&=.                                ",
"                          . c s b ( ( L 3&)%4&5&@.. 6&7&L%L%L%L%L%L%L%L%L%L%L%L%L%L%L%L%L%L%L%L%L%L%L%L%L%L%L%L%L%L%L%L%8&9&F 0&a&- b&|.8 (  .<.z c&                                ",
"                              . . Q k & o ' w r d&e&f&L%L%L%L%L%L%L%L%L%L%L%L%L%L%L%L%L%L%L%L%L%L%L%L%L%L%L%L%L%L%L%L%L%L%g&h&i&r r + _ 3 1 + . .                                   ",
"                                              7%j&v%L%L%L%L%L%L%L%L%L%L%L%L%L%L%L%L%L%L%L%L%L%L%L%L%L%L%L%L%L%L%L%L%L%L%L%L%f&k&.                                                   ",
"                                                l&L%L%L%L%L%L%L%L%L%L%L%L%L%L%L%L%L%L%L%L%L%L%L%L%L%L%L%L%L%L%L%L%L%L%L%L%L%L%m&                                                    ",
"                                                n&L%L%L%L%L%L%L%L%L%L%L%L%L%L%L%L%L%L%L%L%L%L%L%L%L%L%L%L%L%L%L%L%L%L%L%L%L%L%o&                                                    ",
"                                                p&q&L%L%L%L%L%L%L%L%L%L%L%r&s&t&u&v&w&x&y&w&v&z&w%s&A&L%L%L%L%L%L%L%L%L%L%L%L%B&                                                    ",
"                                                C&D&L%L%L%L%L%L%L%E&F&G&H&I&. . J&K&Z r a D L&. . . M&N&O&7&P&L%L%L%L%L%L%L%Q&R&                                                    ",
"                                                . S&L%L%L%L%L%T&U&V&W&            . B ( ( ( D             X&o&Y&~&Z&L%L%L%L%`&.                                                     ",
"                                                .  *L%L%.*+*@*.                   k T ( ( ( a                   #*$*T&x%L%L%U&.                                                     ",
"                                                  %*A&&***.                       (.a ( ( ( f                       . =*-*L%;*                                                      ",
"                                                  >*. .                             9 a ( a 5@                          . ,*'*                                                      ",
"                                                                                      ;.= l                                                                                         ",
"                                                                                                                                                                                    ",
"                                                                                                                                                                                    ",
"                                                                                                                                                                                    ",
"                                                                                                                                                                                    ",
"                                                                                                                                                                                    "};
