/* XPM */
static char * merry_15_xpm[] = {
"90 90 953 2",
"  	c None",
". 	c #170E0E",
"+ 	c #271A1A",
"@ 	c #412E2E",
"# 	c #473232",
"$ 	c #5B4242",
"% 	c #5D4343",
"& 	c #604646",
"* 	c #503A3A",
"= 	c #503939",
"- 	c #3F2D2D",
"; 	c #241818",
"> 	c #2D1F1F",
", 	c #422F2F",
"' 	c #120A0A",
") 	c #2D1E1E",
"! 	c #453131",
"~ 	c #332424",
"{ 	c #372727",
"] 	c #594040",
"^ 	c #614747",
"/ 	c #6B4E4E",
"( 	c #694D4D",
"_ 	c #6C4F4F",
": 	c #664B4B",
"< 	c #5E4444",
"[ 	c #3C2A2A",
"} 	c #523B3B",
"| 	c #533C3C",
"1 	c #5A4141",
"2 	c #4B3636",
"3 	c #4E3838",
"4 	c #3B2929",
"5 	c #342424",
"6 	c #281B1B",
"7 	c #583F3F",
"8 	c #674B4B",
"9 	c #483333",
"0 	c #4D3737",
"a 	c #5C4343",
"b 	c #5D4444",
"c 	c #573F3F",
"d 	c #553D3D",
"e 	c #473333",
"f 	c #493535",
"g 	c #422E2E",
"h 	c #6E5151",
"i 	c #644848",
"j 	c #664A4A",
"k 	c #594141",
"l 	c #402E2E",
"m 	c #180F0F",
"n 	c #3B2A2A",
"o 	c #2F2121",
"p 	c #433030",
"q 	c #634848",
"r 	c #6D5050",
"s 	c #513B3B",
"t 	c #362626",
"u 	c #3D2B2B",
"v 	c #4D3838",
"w 	c #563E3E",
"x 	c #493434",
"y 	c #4F3838",
"z 	c #291C1C",
"A 	c #402D2D",
"B 	c #5F4545",
"C 	c #6B4F4F",
"D 	c #2C1F1F",
"E 	c #000000",
"F 	c #100909",
"G 	c #443131",
"H 	c #654A4A",
"I 	c #513A3A",
"J 	c #4A3434",
"K 	c #674C4C",
"L 	c #5C4242",
"M 	c #584040",
"N 	c #4E3939",
"O 	c #6A4D4D",
"P 	c #624747",
"Q 	c #543D3D",
"R 	c #483434",
"S 	c #1A1010",
"T 	c #644949",
"U 	c #443030",
"V 	c #1E1414",
"W 	c #211616",
"X 	c #453030",
"Y 	c #624848",
"Z 	c #110909",
"` 	c #3A2929",
" .	c #684C4C",
"..	c #604545",
"+.	c #5B4141",
"@.	c #614646",
"#.	c #4F3939",
"$.	c #392828",
"%.	c #352525",
"&.	c #553E3E",
"*.	c #302121",
"=.	c #332323",
"-.	c #4A3535",
";.	c #543C3C",
">.	c #3D2A2A",
",.	c #322222",
"'.	c #5E4545",
").	c #694C4C",
"!.	c #654949",
"~.	c #463232",
"{.	c #4C3636",
"].	c #4C3737",
"^.	c #3C2929",
"/.	c #432F2F",
"(.	c #493333",
"_.	c #6A4E4E",
":.	c #6D4F4F",
"<.	c #1C1111",
"[.	c #231717",
"}.	c #392929",
"|.	c #644948",
"1.	c #644B49",
"2.	c #634A48",
"3.	c #67544D",
"4.	c #68574E",
"5.	c #65504B",
"6.	c #413A30",
"7.	c #4D3C38",
"8.	c #1B1111",
"9.	c #1D1313",
"0.	c #412F2F",
"a.	c #5F4645",
"b.	c #5C5346",
"c.	c #595244",
"d.	c #8D886F",
"e.	c #999678",
"f.	c #A6A583",
"g.	c #BEBD97",
"h.	c #C1C099",
"i.	c #C7C79E",
"j.	c #CCCCA2",
"k.	c #BDBC96",
"l.	c #A9A986",
"m.	c #9C987B",
"n.	c #645D4D",
"o.	c #706255",
"p.	c #5C4543",
"q.	c #110A0A",
"r.	c #563F3F",
"s.	c #523C3C",
"t.	c #736758",
"u.	c #848067",
"v.	c #D7D6AA",
"w.	c #DDDDB0",
"x.	c #EEEEBD",
"y.	c #FFFFCB",
"z.	c #F5F5C3",
"A.	c #F9F9C6",
"B.	c #FEFECA",
"C.	c #F9F9C7",
"D.	c #EDEDBE",
"E.	c #D9D9AD",
"F.	c #DBDBAE",
"G.	c #D8D7AB",
"H.	c #ACAB88",
"I.	c #9D997C",
"J.	c #51423C",
"K.	c #6B524F",
"L.	c #6C5050",
"M.	c #5A4242",
"N.	c #6C4E4E",
"O.	c #483234",
"P.	c #86846A",
"Q.	c #B7B791",
"R.	c #F1F1C0",
"S.	c #FBFBC8",
"T.	c #E4E4B5",
"U.	c #D9D9AC",
"V.	c #939374",
"W.	c #B6B690",
"X.	c #CFCFA4",
"Y.	c #FCFCC9",
"Z.	c #F4F4C3",
"`.	c #CBCAA2",
" +	c #A4A282",
".+	c #6D6052",
"++	c #5E4544",
"@+	c #3A2828",
"#+	c #1C1212",
"$+	c #0C0707",
"%+	c #4B2F35",
"&+	c #A4A081",
"*+	c #D6D6AA",
"=+	c #F8F8C5",
"-+	c #B0B08B",
";+	c #B9B992",
">+	c #DCDCAE",
",+	c #EAEABA",
"'+	c #EBEBBB",
")+	c #D6D6A9",
"!+	c #F7F7C4",
"~+	c #FFFFCC",
"{+	c #EDEDBD",
"]+	c #DBDAAE",
"^+	c #7D7B62",
"/+	c #6D5C51",
"(+	c #271B1B",
"_+	c #281C1C",
":+	c #644B4A",
"<+	c #64584C",
"[+	c #B7B490",
"}+	c #F2F2C0",
"|+	c #D0D0A5",
"1+	c #A4A481",
"2+	c #C9C99F",
"3+	c #ECECBC",
"4+	c #FBFBC7",
"5+	c #FDFDC9",
"6+	c #FDFDCA",
"7+	c #8C8C6F",
"8+	c #6A5C50",
"9+	c #634949",
"0+	c #3E2C2C",
"a+	c #614947",
"b+	c #6F6B56",
"c+	c #C5C49C",
"d+	c #FEFECB",
"e+	c #E7E7B8",
"f+	c #B2B28D",
"g+	c #C8C89F",
"h+	c #F0F0BF",
"i+	c #EEEDBF",
"j+	c #989879",
"k+	c #7C6E5F",
"l+	c #3E2B2B",
"m+	c #6E5251",
"n+	c #79705E",
"o+	c #C6C59D",
"p+	c #E1E1B4",
"q+	c #AEAE89",
"r+	c #ECECBB",
"s+	c #F0F0C0",
"t+	c #9F9F7E",
"u+	c #746558",
"v+	c #3E2D2C",
"w+	c #5B4342",
"x+	c #5D4443",
"y+	c #473233",
"z+	c #594241",
"A+	c #776F5D",
"B+	c #F7F7C5",
"C+	c #AEAE8A",
"D+	c #EEEEBF",
"E+	c #848368",
"F+	c #614B47",
"G+	c #493731",
"H+	c #382C1A",
"I+	c #2F2A04",
"J+	c #3A3113",
"K+	c #332B0F",
"L+	c #372C1B",
"M+	c #312811",
"N+	c #1D1808",
"O+	c #634747",
"P+	c #3C342D",
"Q+	c #BFBF98",
"R+	c #B5B590",
"S+	c #E3E3B5",
"T+	c #E2E2B4",
"U+	c #6F6555",
"V+	c #382C1C",
"W+	c #332D04",
"X+	c #423A08",
"Y+	c #413908",
"Z+	c #3F3707",
"`+	c #3B3406",
" @	c #3B3507",
".@	c #262103",
"+@	c #382727",
"@@	c #352424",
"#@	c #2F2020",
"$@	c #553A3C",
"%@	c #B0AD8A",
"&@	c #FCFCC8",
"*@	c #D5D5A9",
"=@	c #ABAB87",
"-@	c #CFCEA4",
";@	c #736257",
">@	c #423226",
",@	c #383106",
"'@	c #403808",
")@	c #2E2804",
"!@	c #282303",
"~@	c #918A71",
"{@	c #CBCBA2",
"]@	c #BDBD96",
"^@	c #E9E9BA",
"/@	c #AAA887",
"(@	c #52443B",
"_@	c #342C09",
":@	c #3D3507",
"<@	c #352E05",
"[@	c #252003",
"}@	c #66524C",
"|@	c #A2A280",
"1@	c #929273",
"2@	c #E6E6B7",
"3@	c #F8F8C7",
"4@	c #DDDDB1",
"5@	c #D7D7AE",
"6@	c #FFFFCE",
"7@	c #CFCFA5",
"8@	c #494735",
"9@	c #3C3507",
"0@	c #393206",
"a@	c #655C4D",
"b@	c #DCDCAF",
"c@	c #E1E1B3",
"d@	c #C4C49B",
"e@	c #F6F6C4",
"f@	c #F5F5C5",
"g@	c #A9A992",
"h@	c #848476",
"i@	c #70706A",
"j@	c #B6B69B",
"k@	c #989777",
"l@	c #332D05",
"m@	c #2F2904",
"n@	c #312B04",
"o@	c #2D2704",
"p@	c #403908",
"q@	c #262203",
"r@	c #3F2C2C",
"s@	c #463131",
"t@	c #644A49",
"u@	c #5F5B4A",
"v@	c #F3F3C1",
"w@	c #A7A784",
"x@	c #F7F7C6",
"y@	c #BBBBA8",
"z@	c #7B7B79",
"A@	c #464645",
"B@	c #3D3D3D",
"C@	c #646464",
"D@	c #B8B89C",
"E@	c #A3A381",
"F@	c #413C1D",
"G@	c #332C05",
"H@	c #342D05",
"I@	c #3D3607",
"J@	c #373006",
"K@	c #030200",
"L@	c #362525",
"M@	c #644849",
"N@	c #ACA988",
"O@	c #ACAC88",
"P@	c #828266",
"Q@	c #AEAEA6",
"R@	c #7A7979",
"S@	c #171616",
"T@	c #191818",
"U@	c #4E4E4E",
"V@	c #82827A",
"W@	c #CDCDA4",
"X@	c #585539",
"Y@	c #2D2804",
"Z@	c #3E3707",
"`@	c #3A3306",
" #	c #302A05",
".#	c #433A08",
"+#	c #5C4643",
"@#	c #B9B993",
"##	c #F4F4C2",
"$#	c #C3C39C",
"%#	c #C4C49C",
"&#	c #858569",
"*#	c #CDCDA2",
"=#	c #DFDFB1",
"-#	c #EFEFBE",
";#	c #B4B4A9",
">#	c #8F8F8F",
",#	c #262626",
"'#	c #010000",
")#	c #393939",
"!#	c #B6B6B6",
"~#	c #CECEAF",
"{#	c #D8D8AC",
"]#	c #434331",
"^#	c #3D3609",
"/#	c #352F05",
"(#	c #272203",
"_#	c #3C3407",
":#	c #2A2503",
"<#	c #67574D",
"[#	c #BBBB94",
"}#	c #B4B48F",
"|#	c #FAFAC7",
"1#	c #ADAD89",
"2#	c #CFCFC1",
"3#	c #B9B9B9",
"4#	c #818180",
"5#	c #95958B",
"6#	c #DBDBAF",
"7#	c #929172",
"8#	c #292303",
"9#	c #3E3607",
"0#	c #110D02",
"a#	c #2A1D1D",
"b#	c #433131",
"c#	c #64554B",
"d#	c #DADAAD",
"e#	c #ACAC89",
"f#	c #B4B48E",
"g#	c #EDEDBC",
"h#	c #A1A188",
"i#	c #C3C3C2",
"j#	c #8C8C8C",
"k#	c #818181",
"l#	c #A6A69F",
"m#	c #9C9C7A",
"n#	c #352E06",
"o#	c #403807",
"p#	c #322C05",
"q#	c #312B05",
"r#	c #3A3207",
"s#	c #3B3306",
"t#	c #2B2018",
"u#	c #6C6052",
"v#	c #D4D4A8",
"w#	c #D3D3A7",
"x#	c #A0A07E",
"y#	c #C9C9A0",
"z#	c #E9E9B9",
"A#	c #F2F2C1",
"B#	c #ECECBD",
"C#	c #E4E4BA",
"D#	c #A9A9A7",
"E#	c #ACACAC",
"F#	c #8E8E8E",
"G#	c #464646",
"H#	c #B7B7B7",
"I#	c #B1B1A3",
"J#	c #99997A",
"K#	c #4C4626",
"L#	c #1C1802",
"M#	c #373005",
"N#	c #302A04",
"O#	c #2B2604",
"P#	c #2C2604",
"Q#	c #211D02",
"R#	c #27200B",
"S#	c #685B4F",
"T#	c #B5B58F",
"U#	c #BFBF97",
"V#	c #8C8C6E",
"W#	c #A1A17F",
"X#	c #E3E3BC",
"Y#	c #ACACAA",
"Z#	c #BBBBBA",
"`#	c #CBCBCB",
" $	c #B2B2AD",
".$	c #C5C5AB",
"+$	c #949473",
"@$	c #3D360B",
"#$	c #2B2603",
"$$	c #272103",
"%$	c #38300D",
"&$	c #4A3635",
"*$	c #322323",
"=$	c #5A5345",
"-$	c #AAAA87",
";$	c #C5C59C",
">$	c #E3E3B4",
",$	c #E4E4BC",
"'$	c #939381",
")$	c #C8C8B5",
"!$	c #C7C7A9",
"~$	c #939272",
"{$	c #383206",
"]$	c #383109",
"^$	c #473331",
"/$	c #50453C",
"($	c #D8D8AB",
"_$	c #F3F3C2",
":$	c #F8F8C6",
"<$	c #7E7E62",
"[$	c #433C14",
"}$	c #3E3606",
"|$	c #3D2E27",
"1$	c #443031",
"2$	c #4E3A39",
"3$	c #C0BF98",
"4$	c #A0A07F",
"5$	c #EEEDBD",
"6$	c #717055",
"7$	c #3F380B",
"8$	c #47352F",
"9$	c #2B1E1E",
"0$	c #69504D",
"a$	c #C1C199",
"b$	c #CBCBA1",
"c$	c #6A684B",
"d$	c #362F0A",
"e$	c #4D3836",
"f$	c #533B3B",
"g$	c #654849",
"h$	c #7A755F",
"i$	c #F0F0BE",
"j$	c #D2D2A8",
"k$	c #E8E8BA",
"l$	c #373008",
"m$	c #332C07",
"n$	c #523C3B",
"o$	c #7D7461",
"p$	c #8B8A6C",
"q$	c #413909",
"r$	c #413A08",
"s$	c #3D350E",
"t$	c #543D3C",
"u$	c #56423F",
"v$	c #C2C19A",
"w$	c #DEDEB0",
"x$	c #4E4C33",
"y$	c #3F3806",
"z$	c #41390C",
"A$	c #3B2C24",
"B$	c #A7A484",
"C$	c #908F72",
"D$	c #343121",
"E$	c #372E11",
"F$	c #362F07",
"G$	c #3F3708",
"H$	c #3E3608",
"I$	c #3F3807",
"J$	c #42390E",
"K$	c #43322A",
"L$	c #3E2C2D",
"M$	c #150C0C",
"N$	c #462E31",
"O$	c #D5D4A9",
"P$	c #7A745F",
"Q$	c #352625",
"R$	c #4A3634",
"S$	c #473530",
"T$	c #34281E",
"U$	c #3C2F22",
"V$	c #392E1C",
"W$	c #332C0B",
"X$	c #3C340B",
"Y$	c #3E350D",
"Z$	c #43322C",
"`$	c #5E4344",
" %	c #574F42",
".%	c #E2E2B5",
"+%	c #AAA686",
"@%	c #664B4A",
"#%	c #57403F",
"$%	c #2A1E18",
"%%	c #2C2215",
"&%	c #372D19",
"*%	c #332C08",
"=%	c #342D0B",
"-%	c #2E2806",
";%	c #272205",
">%	c #342C17",
",%	c #30261C",
"'%	c #31231F",
")%	c #4F3C38",
"!%	c #58443F",
"~%	c #231818",
"{%	c #2B1D1D",
"]%	c #715D55",
"^%	c #DADAB2",
"/%	c #DFDFB3",
"(%	c #F5F5C4",
"_%	c #BABA94",
":%	c #695E51",
"<%	c #514337",
"[%	c #3C2D29",
"}%	c #5E573C",
"|%	c #77714D",
"1%	c #615A3F",
"2%	c #847E57",
"3%	c #989265",
"4%	c #989164",
"5%	c #8D865C",
"6%	c #868157",
"7%	c #251818",
"8%	c #372626",
"9%	c #847766",
"0%	c #B3B39E",
"a%	c #A4A49E",
"b%	c #A8A8A5",
"c%	c #C0C0BA",
"d%	c #BDBDB1",
"e%	c #CACAA6",
"f%	c #E5E5B6",
"g%	c #CECEA4",
"h%	c #878369",
"i%	c #684B4B",
"j%	c #664C4B",
"k%	c #6C6447",
"l%	c #8A805B",
"m%	c #A79F6E",
"n%	c #C6BD83",
"o%	c #CFC789",
"p%	c #E7DD99",
"q%	c #EBE29C",
"r%	c #F2E9A1",
"s%	c #F3E9A1",
"t%	c #ECE29C",
"u%	c #B7B078",
"v%	c #7B7650",
"w%	c #1E1313",
"x%	c #3C2B2B",
"y%	c #6E5050",
"z%	c #888069",
"A%	c #DEDEB1",
"B%	c #9F9F84",
"C%	c #73736D",
"D%	c #6E6E6D",
"E%	c #565656",
"F%	c #A1A1A1",
"G%	c #ABABAB",
"H%	c #E1E1DA",
"I%	c #BCBC9C",
"J%	c #E0E0B2",
"K%	c #A19E7F",
"L%	c #614946",
"M%	c #6D5C4B",
"N%	c #736A4D",
"O%	c #B8AE7A",
"P%	c #D3CA8C",
"Q%	c #F0E79F",
"R%	c #F7EDA4",
"S%	c #FAF0A6",
"T%	c #847E56",
"U%	c #8F886F",
"V%	c #DFDFB2",
"W%	c #F6F6C3",
"X%	c #E5E5B7",
"Y%	c #8E8E7B",
"Z%	c #0E0E0D",
"`%	c #040404",
" &	c #1D1D1D",
".&	c #101010",
"+&	c #A9A9A8",
"@&	c #E4E4DF",
"#&	c #C2C2A1",
"$&	c #B2AF8C",
"%&	c #756C4D",
"&&	c #827A55",
"*&	c #D3C98B",
"=&	c #E3DA97",
"-&	c #F9EFA5",
";&	c #E3DA96",
">&	c #635F3F",
",&	c #8D866E",
"'&	c #D2D2A7",
")&	c #9E9E86",
"!&	c #5C5C5C",
"~&	c #181717",
"{&	c #010101",
"]&	c #090909",
"^&	c #B2B2B2",
"/&	c #B8B8B0",
"(&	c #EFEFBF",
"_&	c #AFAD8B",
":&	c #583E3F",
"<&	c #5D4743",
"[&	c #9A8F67",
"}&	c #C8BF84",
"|&	c #F5EBA2",
"1&	c #F4EAA2",
"2&	c #D6CF8E",
"3&	c #5F5B3C",
"4&	c #261A1A",
"5&	c #887E69",
"6&	c #B8B992",
"7&	c #E7E7B9",
"8&	c #9A9A83",
"9&	c #727272",
"0&	c #2E2E2E",
"a&	c #484848",
"b&	c #414141",
"c&	c #C3C3C3",
"d&	c #BDBDAE",
"e&	c #CACAA1",
"f&	c #9E9B7C",
"g&	c #221216",
"h&	c #563F3E",
"i&	c #60563F",
"j&	c #ABA270",
"k&	c #E8DE9A",
"l&	c #E4DB97",
"m&	c #9E9768",
"n&	c #261919",
"o&	c #7C6D5F",
"p&	c #848268",
"q&	c #DEDDB2",
"r&	c #B7B7A1",
"s&	c #9D9D9B",
"t&	c #A5A5A5",
"u&	c #838383",
"v&	c #B0B0B0",
"w&	c #ACACA8",
"x&	c #C2C2A8",
"y&	c #B5B38F",
"z&	c #827A65",
"A&	c #7A6E51",
"B&	c #BBB37C",
"C&	c #F2E8A1",
"D&	c #F8EEA4",
"E&	c #F8EEA5",
"F&	c #CCC487",
"G&	c #48452D",
"H&	c #251919",
"I&	c #6B554F",
"J&	c #463533",
"K&	c #AEAD8A",
"L&	c #F1F1C1",
"M&	c #CDCDAB",
"N&	c #B2B297",
"O&	c #89897F",
"P&	c #AFAF9E",
"Q&	c #BDBDA0",
"R&	c #A6A684",
"S&	c #8B886D",
"T&	c #594742",
"U&	c #807556",
"V&	c #C0B87F",
"W&	c #F9EFA6",
"X&	c #F6ECA3",
"Y&	c #E6DC98",
"Z&	c #DAD291",
"`&	c #A29B6A",
" *	c #4A462E",
".*	c #3F2E2A",
"+*	c #2A2211",
"@*	c #484631",
"#*	c #838264",
"$*	c #8F8F71",
"%*	c #C2C29A",
"&*	c #A5A584",
"**	c #BDBD97",
"=*	c #D2D1A7",
"-*	c #C6C69D",
";*	c #8A8969",
">*	c #767559",
",*	c #49462C",
"'*	c #45422C",
")*	c #312222",
"!*	c #6D504F",
"~*	c #7D7254",
"{*	c #C2B980",
"]*	c #F6ECA4",
"^*	c #D8D08F",
"/*	c #C9C184",
"(*	c #6F6A47",
"_*	c #7C7750",
":*	c #1F1414",
"<*	c #563D3D",
"[*	c #403224",
"}*	c #3D3506",
"|*	c #3E3712",
"1*	c #3E3A1E",
"2*	c #35311A",
"3*	c #413E28",
"4*	c #474325",
"5*	c #4A4627",
"6*	c #4F4B2E",
"7*	c #474323",
"8*	c #484221",
"9*	c #383105",
"0*	c #423B0D",
"a*	c #413907",
"b*	c #342523",
"c*	c #74694F",
"d*	c #BDB57D",
"e*	c #D2C98A",
"f*	c #A9A26F",
"g*	c #7B764F",
"h*	c #3E2F23",
"i*	c #373105",
"j*	c #504336",
"k*	c #B0A974",
"l*	c #F5EBA3",
"m*	c #EEE49E",
"n*	c #DCD392",
"o*	c #958F62",
"p*	c #918B5E",
"q*	c #1F1515",
"r*	c #4C3833",
"s*	c #322B06",
"t*	c #3A3407",
"u*	c #362920",
"v*	c #A3996D",
"w*	c #EDE39E",
"x*	c #FBF1A7",
"y*	c #DDD492",
"z*	c #C2BA80",
"A*	c #706B48",
"B*	c #191010",
"C*	c #4E3839",
"D*	c #3D2F24",
"E*	c #392E1B",
"F*	c #634847",
"G*	c #4B3536",
"H*	c #887E5B",
"I*	c #D9CF90",
"J*	c #FBF0A7",
"K*	c #CFC688",
"L*	c #898459",
"M*	c #3C2B2A",
"N*	c #352B15",
"O*	c #3C3406",
"P*	c #382E18",
"Q*	c #5C4342",
"R*	c #5B4C3F",
"S*	c #ABA370",
"T*	c #F1E7A0",
"U*	c #EDE49D",
"V*	c #C6BE83",
"W*	c #221616",
"X*	c #614847",
"Y*	c #392F17",
"Z*	c #322B04",
"`*	c #211C02",
" =	c #362F05",
".=	c #3F3808",
"+=	c #70654B",
"@=	c #DFD694",
"#=	c #D8CF8F",
"$=	c #ADA672",
"%=	c #573E3E",
"&=	c #3B2E20",
"*=	c #1F1B02",
"==	c #302907",
"-=	c #67504A",
";=	c #AEA574",
">=	c #D6CE8E",
",=	c #A0966A",
"'=	c #302221",
")=	c #322719",
"!=	c #2C2504",
"~=	c #2C2603",
"{=	c #241F02",
"]=	c #363006",
"^=	c #524239",
"/=	c #CAC285",
"(=	c #D5CD8D",
"_=	c #A69A6F",
":=	c #211A0A",
"<=	c #2A2504",
"[=	c #393106",
"}=	c #312619",
"|=	c #453232",
"1=	c #90885F",
"2=	c #E9DF9B",
"3=	c #9C9367",
"4=	c #0F0C01",
"5=	c #342E05",
"6=	c #312A05",
"7=	c #2F280A",
"8=	c #4C3736",
"9=	c #5A4640",
"0=	c #D9D190",
"a=	c #ACA571",
"b=	c #2B1E1D",
"c=	c #362F06",
"d=	c #483531",
"e=	c #6D5F4B",
"f=	c #D9D091",
"g=	c #B6AF78",
"h=	c #0F0E06",
"i=	c #040402",
"j=	c #5F4444",
"k=	c #2A2403",
"l=	c #363005",
"m=	c #322B05",
"n=	c #39310C",
"o=	c #3E2C2A",
"p=	c #605540",
"q=	c #DBD291",
"r=	c #FCF1A7",
"s=	c #C9C084",
"t=	c #2C2704",
"u=	c #191502",
"v=	c #3B3407",
"w=	c #39300B",
"x=	c #968C64",
"y=	c #E8DE99",
"z=	c #D1C98A",
"A=	c #595538",
"B=	c #0F0D01",
"C=	c #433B08",
"D=	c #32261F",
"E=	c #E5DB97",
"F=	c #A09968",
"G=	c #2F2804",
"H=	c #30290B",
"I=	c #40342A",
"J=	c #ADA572",
"K=	c #504137",
"L=	c #C9C085",
"M=	c #E9E09A",
"N=	c #6D6846",
"O=	c #261D11",
"P=	c #514B34",
"Q=	c #CCC387",
"R=	c #A7A16E",
"S=	c #595438",
"T=	c #312A04",
"U=	c #3D350F",
"V=	c #4E3936",
"W=	c #5C523D",
"X=	c #C9C185",
"Y=	c #E7DE99",
"Z=	c #999364",
"`=	c #43322B",
" -	c #645345",
".-	c #D4CB8C",
"+-	c #BCB47C",
"@-	c #0D0B01",
"#-	c #3F360B",
"$-	c #382A21",
"%-	c #5B553A",
"&-	c #C8C084",
"*-	c #F1E8A0",
"=-	c #9D9767",
"--	c #161203",
";-	c #1F1610",
">-	c #352D12",
",-	c #393013",
"'-	c #352D10",
")-	c #372C16",
"!-	c #28210A",
"~-	c #362821",
"{-	c #938D60",
"]-	c #B9B279",
"^-	c #D3CB8B",
"/-	c #2D2B1B",
"(-	c #261C15",
"_-	c #5B4241",
":-	c #7B754F",
"<-	c #ECE39C",
"[-	c #ECE39D",
"}-	c #4B3535",
"|-	c #1F1D10",
"1-	c #D7CF8F",
"2-	c #938C5F",
"3-	c #817C54",
"4-	c #020201",
"                                                                                                                                                                                    ",
"                                                                                                                                                                                    ",
"                                                                                                                                                                                    ",
"                                                                                                                                                                                    ",
"                                                                                                                                                                                    ",
"                                                                                                                                                                                    ",
"                                                                                                                                                                                    ",
"                                                                                                                                                                                    ",
"                                                                                                                                                                                    ",
"                                                                                                                                                                                    ",
"                                                                                                                                                                                    ",
"                                                                  .                                                                                                                 ",
"                                                        + @ @ # $ % & * = - ; > , '                                                                                                 ",
"                                                ) ! ~ { ] ^ / ( _ _ _ _ _ : < [ } | 1 2 3 4 5                                                                                       ",
"                                            6 7 1 8 8 9 0 - a & ( b ] c d $ $ $ e f g h 8 i j k * l m                                                                               ",
"                                      n [ o p } q j _ r : s 5 t u 5 , v w 3 x * l y z A } B ^ / C 8 & t D E                                                                         ",
"                                  F G } 8 H d I J | a K 2 s @ L M N p d & C / O P q < Q R S [ v a 8 _ T U 5 U V                                                                     ",
"                              W 2 x - X L O _ / Y 3 Z n ` T  ./ C _ ..+.t 7 @._ _ _ _ _ @.#.@ 9 | [ & T q X +.% !                                                                   ",
"                              $.p @.& < %.&.& O @.*.w * = 0 C _ _ _ _ O ^ x * | r _ _ _ _ q < =.k d 0 -.;.M >.B P 0                                                                 ",
"                            E , | e P O T y 2 e ,.'.C ( 8 | x / C _ _ _ _ ).j 2 f h _ _ _ _ _ B - a B !.2 | 2 J Y P v                                                               ",
"                            ~.*.1 '.e q / B x ,.G r _ _ _ h 3 2 ( / _ _ _ _ / _ {.].h _ _ _ _ _ P p Q B ).$ Q ^./.% T |                                                             ",
"                            7 b 9 : B e 1 d (.q 3 ! r _._ _ _ 7 = )./ _ _ _ / _ r f 2 h :._ _ _ _ Y } | < _ _ Q n <.] P R                                                           ",
"                          [.j T d T _.c }.X ^ r r 3 v $ : _ _ _ c 3 |. .@.1.2.3.4.5.6.7.).8 O _ _ _ : M ;.< _ _ b I 8.b % z                                                         ",
"                          9.v _.1 /.& M p 0.P O _ _ ] ;.| : _ r a.b.c.d.e.f.g.h.i.j.k.l.m.n.o.p.H O _ 8 M ;.< _ _ / P u $ J ,                                                       ",
"                        q.e v r r ].%.9 q B e P O _ _ & r.s.c t.u.v.w.x.y.z.A.B.B.C.D.C.E.F.G.H.I.J.K.8 8 ] ;.< _ _ _ q ! /.- e                                                     ",
"                        2 q ~.8 L.M.[.# N._ B e P _._ _ B O.P.Q.R.S.y.y.y.y.y.y.T.U.V.W.V.X.z.Y.Z.`. +.+++ .M ;.< _ _ _ q /.@+/.#+                                                  ",
"                      $+| 8 =.B Y *.&.Q c / _ B e Y _./ %+&+*+=+y.y.y.y.y.y.y.X.-+;+>+,+'+)+!+y.y.~+{+]+^+/+K M ;.< _ _ _ T ! d c `                                                 ",
"                      *.i _ a (+_+a / ^ ;.^ _ _ B e :+<+[+}+S.y.y.y.y.y.y.y.|+1+2+3+B.y.y.4+5+y.y.y.y.6+D.7+8+9+M ;.< _ _ _ q 0+b & 0                                               ",
"                      6 = O K 2 #. ._ O Q 1 O _ _ a+b+c+y.d+y.y.y.y.y.y.y.e+f+g+h+y.y.y.y.y.y.y.y.y.y.y.~+i+j+k+ .M ;.< _ _ _ & -.H P 0                                             ",
"                      l+].q O ` [ / _ _  .e w C m+n+o+y.y.y.y.y.y.y.y.y.y.p+q+r+y.y.y.y.y.y.y.y.y.y.y.y.y.~+s+t+u+K M ;.< _ r I v+w+x+| y+                                          ",
"                      w x | ;.x -.R _ _ _  .[ z+A+o+y.y.y.y.y.y.y.y.y.y.B+C+)+B.y.y.y.y.y.y.y.y.y.y.y.y.y.y.y.D+E+F+8 M I r.G+H+I+J+K+L+M+N+                                        ",
"                    { $ O+* 3 $ j 0 ;._ _ r 8 P+Q+y.y.y.y.y.y.y.y.y.y.y.S.R+S+y.y.y.y.y.y.y.y.y.y.y.y.y.y.y.y.6+T+U+q T # V+W+X+X+X+Y+Y+Z+`+ @.@                                    ",
"                    +@8 q @@#@j _.< = T _ / $@%@&@y.y.y.y.y.y.y.y.y.y.y.*@=@B.y.y.y.y.y.y.y.y.y.y.y.y.y.y.y.y.y.B+-@;@q >@,@X+X+X+X+X+X+X+X+Y+'@)@!@                                ",
"                    $.8 / = 3 _._  .3 % _ / ~@T+6+y.y.y.y.y.y.y.y.y.y.~+{@]@B.y.y.y.y.y.y.y.y.y.y.y.y.y.y.y.B.y.y.^@/@(@_@X+X+X+X+X+X+X+X+X+X+X+Y+:@<@[@                            ",
"                    = _ O l+@ _ _ _ j x < }@|@=+y.y.y.y.y.y.y.y.y.y.y.'+1@2@y.y.y.y.y.y.y.y.y.y.y.y.y.y.y.3@4@5@6@~+7@8@'@X+X+X+X+X+'@Y+,@9@Y+X+X+X+X+0@.@                          ",
"                    #._  .# 0+B _ _ _ j x a@b@y.y.y.y.y.y.y.y.y.y.y.6+c@d@e@y.y.y.y.y.y.y.y.y.y.y.y.y.6+f@g@h@i@j@6@R.k@:@X+X+X+X+:@l@m@!@n@o@p@p@X+X+X+0@q@                        ",
"                    A ( ^ r@s@] _ _ _ _ t@u@T.y.y.y.y.y.y.y.y.y.y.S.v@w@*+y.y.y.y.y.y.y.y.y.y.y.y.y.y.x@y@z@A@B@C@D@&@E@F@X+X+X+Z+o@,@`+Y+'@G@o@H@I@X+X+X+J@K@                      ",
"                    !  .T -.a L@& _ _ _ M@N@A.y.y.y.y.y.y.d+y.Y.2@b@O@P@h+y.y.y.y.y.y.y.y.y.y.y.y.y.y.p+Q@R@S@T@U@V@W@{@X@X+X+X+:@Y@Z@X+X+X+X+`@ #,@X+X+X+.#l@                      ",
"                    - T : 0 T 1 } )._ _ +#@#y.y.y.y.y.5+##R.$#%#&#*#=#T+q+-#B.y.y.y.y.y.y.y.y.y.y.y.y.c@;#>#,#'#)#!#~#{#]#^#X+X+J@o@X+X+X+X+X+Y+/#(#Y+X+X+X+_#:#                    ",
"                    9.& Y 9 ).B -.N.:.O <#w.6+y.y.y.T+E.|@[#}#U.{+|#y.y.T+1#x.B.y.y.y.y.y.y.y.y.y.y.y.##2#3#E '#'#4#5#6#7#8#:@X+9@[@9#X+X+X+`@9@Y+m@`@X+X+X+Y+)@0#                  ",
"                    a#b#a ]. ._ } u / _.c#d#B.y.y.X.e#f#F.3+y.6+y.y.y.y.y.T+1#g#5+y.y.y.y.y.y.y.y.y.y.}+h#i#j#'#'#k#l#4@m#n#(#9@Z+ #J@`+o#p#q#r#p@ #s#X+X+X+X+:@t#{                 ",
"                    [ y $ , a _ / = 7 / u#v#y.y.w#x#y#x.y.y.y.y.y.y.y.y.y.y.T+1#z#R.A#|#B#6+y.y.y.y.y.y.C#D#E#F#G#H#I#X.J#K#0@L#M#)@N#L#O#P#`+Z+H@Q#Z+X+X+X+X+I@R#, @               ",
"                    6 9 g , 1 C / ] } ] S#6#d+z#T#U#3+y.y.y.y.y.y.y.y.y.y.y.y.T+V#R+W#l.R+^@B.y.y.y.y.y.C.X#Y#Z#`# $.$|#+$@$X+0@p##$m@$$P#p#m@m@[@9@Y+X+X+X+X+X+%$&$~.5             ",
"                      w 2 *$* O _ ( w 3 =$b@6+4@-$,+y.y.y.y.y.y.y.y.y.y.y.y.y.y.;${@>$T.z.e@y.y.y.y.y.y.y.C.,$'$)$!$Y.A#~$o#X+X+o#Y+_#,@9@0@{$s#Z+Y+X+X+X+X+X+X+]$^$ .! 5           ",
"                      G @.{ ].r _ _ ( w /$y#B+1+*@y.y.y.y.y.y.y.y.y.y.y.y.y.y.S.x#($y.y.y.y.y.y.y.y.y.y.y.y.B._$:$B.y.R.<$[$X+X+X+X+X+X+X+X+X+X+X+X+X+X+X+X+X+X+}$|$;.O 1$a#        ",
"                      , : 2 ].( _ _ _ ( 2$3$x@=@=#y.y.y.y.y.y.y.y.y.y.y.y.y.y.S.4$F.B.y.y.y.y.y.y.y.y.y.y.y.y.y.y.y.y.5$6$7$X+X+X+X+X+X+X+X+X+X+X+X+X+X+X+X+X+X+}$8$x s B o         ",
"                      9$B ^ ; &.r _ _ _ 0$H.,+a$^@B.y.y.y.y.y.y.y.y.y.y.y.y.y.v@b$'+B.y.y.y.y.y.y.y.y.y.y.y.y.y.y.y.B.7@c$X+X+X+X+X+X+X+X+X+X+X+X+X+X+X+X+X+X+X+d$e$( f$p           ",
"                        b q 0+a#M r _ _ g$h$i$j.j$d+y.y.y.y.y.y.y.y.y.y.y.y.y.~+k$B+y.y.y.y.y.y.y.y.y.y.y.y.y.y.y.y.Y.-+l$X+X+X+X+X+X+X+X+X+X+X+X+X+X+X+X+X+X+Y+m$n$ .v [.          ",
"                        = / w G t % _ _ _ o$S+B.##y.y.y.y.y.y.y.y.y.y.y.y.y.y.y.y.y.y.y.y.y.y.y.y.y.y.y.y.y.y.y.y.y.^@p$q$X+X+X+X+X+X+X+X+X+X+X+X+X+X+X+X+X+X+r$s$t$1 0.            ",
"                        ~./ 1 x M } 8 _ _ u$v$y.y.y.y.y.y.y.y.y.y.y.y.y.y.y.y.y.y.y.y.y.y.y.y.y.y.y.y.y.y.y.y.y.y.d+w$x$y$X+X+X+X+X+X+X+X+X+X+X+X+X+X+X+X+X+X+z$A$* 3               ",
"                        - T _.! 0 0 T / _ j B$-#y.y.y.y.y.y.y.y.y.y.y.y.y.y.y.y.y.y.y.y.y.y.y.y.y.y.y.y.y.y.y.y.y.h+C$D$E$F$G$H$I$X+Y+X+X+X+X+X+X+X+X+X+X+X+J$K$L$!                 ",
"                        M$$ _.a Q M v j / 8 N$O$d+y.y.y.y.y.y.y.y.y.y.y.y.y.y.y.y.y.y.y.y.y.y.y.y.y.y.y.y.y.y.y.B.E.P$Q$~.R$S$T$U$V$W$X$`@o#Y+X+X+r$r$Z+`@Y$Z$* c 8.                ",
"                          s@q q @+& % # !./ `$ %.%~+y.y.y.y.y.y.y.y.y.B.y.B.y.y.y.y.y.y.y.y.y.y.y.y.y.y.y.y.y.y.5++%+++.p q 8 @%j M.#%$%%%&%:#*%=%-%;%>%,%'%)%!%~%                  ",
"                          {%#.q k ~.( 1 A !._ ]%j+g#y.y.y.y.y.y.y.B.e@6#^%/%(%z.y.y.y.y.y.y.y.y.y.y.y.y.y.y.y.y._%:%_ r 1 A 8 :._ _ / 1 [ c R$<%[%}%|%1%2%3%4%5%6%                  ",
"                          E 7%0 c -.( :.;.8%: _ 9%g+v@y.y.y.y.y.y.(%0%a%b%c%d%e%f%y.y.y.y.y.y.y.y.y.y.y.y.y.y.g%h%( _ _ r c u i%:._  .j%- k%l%m%n%o%p%p%q%r%s%t%u%v%                ",
"                            w%x%* n x :.y%c @+: q z%A%!+y.y.y.y.C.B%C%D%E%F%G%H%I%f%y.y.y.y.y.y.y.y.y.y.y.y.J%K%x 3 < r _ :.c u !.L%M%N%O%P%s%Q%R%S%S%S%S%S%S%S%q%T%                ",
"                            *.R -.v A ] _ h c ` : b U%V%W%y.y.y.X%Y%G#Z%`% &.&+&@&#&v@y.y.y.y.y.y.y.y.y.y.>$$&7 & < L@+.j _ :.O.%&&&*&=&-&-&S%S%S%S%S%S%S%S%S%S%S%;&>&              ",
"                              d c r.{ -.)._ h c 4 : b ,&'&h+y.y.,+)&!&~&E E {&]&^&/&(&y.y.y.y.y.y.y.y.y.J%_&:&8 _ / @.0+| L <&[&}&t%|&S%S%S%S%S%S%S%S%S%S%S%S%S%S%1&2&3&            ",
"                              4&b q f$. Q / _ h c 4 : & 5&6&7&~+A.j.8&9&0&a&E b&c&d&f%y.y.y.y.y.y.y.y.e&f&g&] :._ _ _ j h&i&j&k&1&S%S%S%S%S%S%S%S%S%S%S%S%S%S%S%S%S%l&m&            ",
"                                n&!.H } *.B _ _ h c n : _ o&p&q&:$A.7@r&s&t&u&v&w&x&6+y.y.y.y.~+!+A#y&z&T ] ` Y _ _ :.y%A&B&C&D&S%S%S%S%S%S%S%S%S%S%S%S%S%S%S%S%S%S%E&F&G&          ",
"                                  H&!.!.r.N q _ _ h c u 8 _ I&J&K&g+L&X%M&N&O&P&Q&Y.&@B+:$A#T+{#R&S&T&r :.O B 2 8 :.h U&V&R%W&S%S%S%S%S%S%S%S%S%S%S%S%S%S%S%S%S%X&Y&Z&`& *          ",
"                                    ; & L #.#.q _ _ y%1 /.q & .*+*@*#*$*%*O@&***=*%#-*@#1@;*>*,*'*)*$ H _ _ q f$H !*~*{*-&S%S%S%S%S%S%S%S%S%S%S%S%S%S%S%S%E&]*^*/*(*_*              ",
"                                      :*<*= $.v q _ _ y%c x%[*W+'@Y+}*|*1*2*3*4*5*6*7*8*9*o#0*a*l$b*3 $ i _ _ c 0+c*d*E&S%S%S%S%S%S%S%S%S%S%S%S%S%S%S%E&Q%e*f*g*                    ",
"                                        :*| 9 )*#.q _ _ 8 h*,@X+X+X+X+X+Z@0@ #i*X+X+X+X+X+X+X+X+Z@8$B = c a _ y%j*k*l*W&S%S%S%S%S%S%S%S%S%S%S%S%S%S%m*n*o*p*                        ",
"                                          q*w e f$I Y r r*s*X+X+X+X+X+X+X+'@t*p#9#X+X+X+X+X+X+X+Z@u*P j < = k w v*w*-&S%S%S%S%S%S%S%S%S%S%S%S%S%x*y*z*A*                            ",
"                                            B*8%].1 G C*D*X+X+X+X+X+X+X+X+Y+Z@ #s#X+X+X+X+X+X+X+Z+E*F*_ ( q G*H*I*]*S%S%S%S%S%S%S%S%S%S%S%S%S%J*K*L*                                ",
"                                              ' 0++.@.M*N*o#X+X+X+X+I@`+G@M#O*0@(#Z+X+X+X+X+X+X+Y+P*Q*_ _  .R*S*T*S%S%S%S%S%S%S%S%S%S%S%S%-&U*V*E                                   ",
"                                                W*&.H X*Y*o#X+X+X+I@)@Z*N#l@`* =N#.=X+X+X+X+X+X+X+#$I _ _ q +=@=E&S%S%S%S%S%S%S%S%S%S%S%-&#=$=E                                     ",
"                                                  4&%=c &=a*X+X+Y+G@ =9#X+p@0@*=[@,@X+X+X+X+X+X+'@==R b / -=;=m*S%S%S%S%S%S%S%S%S%S%S%-&>=,='=/.                                    ",
"                                                    4&2 )=o#X+X+Y+!={$X+X+X+I$~={=]=X+X+X+X+X+X+Y+q#n&R M ^=/=S%S%S%S%S%S%S%S%S%S%S%-&(=_=q T T &.                                  ",
"                                                      M$:=`@X+X+`@<=p@X+X+X+X+P#8#[=Y+X+X+X+X+X+X+0@}=&.|=1=2=S%S%S%S%S%S%S%S%S%S%-&>=3=& _ _ _ T                                   ",
"                                                        4=0@X+X+Y+o@]=X+X+X+5=o@6=5=X+X+X+X+X+X+X+X+7=8=9=m%D&S%S%S%S%S%S%S%S%S%W&0=a=b=q _ _ _ K ,                                 ",
"                                                          8#o#X+Y+H@H@o#X+`@n@,@ #c=X+X+X+X+X+X+X+X+,@d=e=f=E&S%S%S%S%S%S%S%S%S%D&g=h=i=j=:._ _ ^ +                                 ",
"                                                          k=_#Y+X+9#{=l=X+Y+0@Z+m=,@X+X+X+X+X+X+X+X+n=o=p=q=S%S%S%S%S%S%S%S%S%r=s=E     /.Y 8 & #.                                  ",
"                                                            t=X+X+X+9@u=<@v=o#H@{=Z+X+X+X+X+X+X+X+X+w=$.x=y=S%S%S%S%S%S%S%S%S%z=A=          I                                       ",
"                                                            B=G@X+X+C=:@Z*)@)@.@9@Y+X+X+X+X+X+X+X+X+M#D=m&R%S%S%S%S%S%S%S%S%E=F=                                                    ",
"                                                              G=`+X+X+X+Y+'@I@'@X+X+X+X+X+X+X+X+X+X+H=I=J=1&S%S%S%S%S%S%S%1&e*(*                                                    ",
"                                                                /#9@X+X+X+X+X+X+X+X+X+X+X+X+X+X+X+Y+N*K=L=R%S%S%S%S%S%S%S%M=N=                                                      ",
"                                                                  l@`+X+X+X+X+X+X+X+X+X+X+X+X+X+X+_#O=P=Q=-&S%S%S%S%S%S%r%R=S=                                                      ",
"                                                                    T=J@X+X+X+X+X+X+X+X+X+X+X+X+X+U=V=W=X=S%S%S%S%S%S%-&Y=Z=                                                        ",
"                                                                      O#q#X+Y+X+X+X+X+X+X+X+X+X+J$`=}  -.-D&S%S%S%S%S%S%+-E                                                         ",
"                                                                        @-k=m=v=Z+X+X+X+X+X+Z+#-$-C*r.%-&-*-S%S%S%S%S%l&=-                                                          ",
"                                                                            --;->-,- =:@'-)-!-~-u e H&  {-]-l&-&S%S%-&^-/-                                                          ",
"                                                                              D | 2 ^$(-8=c _-= x #+        :->=<-S%[-p*                                                            ",
"                                                                                -.q 8 | e ( $ }-;             |-g=1-1&_*                                                            ",
"                                                                                  -.q C Q t @                   E 2-3-4-                                                            ",
"                                                                                    x Q * E                                                                                         ",
"                                                                                                                                                                                    ",
"                                                                                                                                                                                    ",
"                                                                                                                                                                                    "};
