/* XPM */
static char * monstro2b_xpm[] = {
"180 180 218 2",
"  	c None",
". 	c #C0D7C7",
"+ 	c #BBCBBC",
"@ 	c #B5C8B8",
"# 	c #C4D9C9",
"$ 	c #A6B4A0",
"% 	c #E9F2EC",
"& 	c #D4E6D9",
"* 	c #DEE3D3",
"= 	c #8C9A86",
"- 	c #E2F0E2",
"; 	c #9EAC98",
"> 	c #EFFDEF",
", 	c #DBE9DB",
"' 	c #BDD4C1",
") 	c #A8BBA9",
"! 	c #D8DECD",
"~ 	c #ABC0B0",
"{ 	c #F8FCFB",
"] 	c #C9DCCC",
"^ 	c #98A18E",
"/ 	c #B0C3B2",
"( 	c #DCEDDF",
"_ 	c #859283",
": 	c #E8FAED",
"< 	c #868176",
"[ 	c #CEE4D5",
"} 	c #E6FAEA",
"| 	c #80786B",
"1 	c #E3F3E7",
"2 	c #716A5E",
"3 	c #6A7C6F",
"4 	c #7A8A7B",
"5 	c #AC9C91",
"6 	c #615B50",
"7 	c #5C574C",
"8 	c #6C6659",
"9 	c #FFFFFF",
"0 	c #787063",
"a 	c #C4B1A6",
"b 	c #8DA995",
"c 	c #5AA28D",
"d 	c #71B6A4",
"e 	c #65AD9B",
"f 	c #545247",
"g 	c #93BFC0",
"h 	c #387E66",
"i 	c #19725C",
"j 	c #524C3F",
"k 	c #267360",
"l 	c #ADD1D2",
"m 	c #05715B",
"n 	c #E4F7E8",
"o 	c #498977",
"p 	c #35735B",
"q 	c #2D6E56",
"r 	c #414034",
"s 	c #636D64",
"t 	c #666053",
"u 	c #036753",
"v 	c #045845",
"w 	c #094635",
"x 	c #093D2F",
"y 	c #25634D",
"z 	c #124430",
"A 	c #264534",
"B 	c #21543F",
"C 	c #58635C",
"D 	c #47473E",
"E 	c #B1A196",
"F 	c #998D7E",
"G 	c #093121",
"H 	c #A6958A",
"I 	c #333228",
"J 	c #EA7152",
"K 	c #FF0100",
"L 	c #FF0000",
"M 	c #EC785F",
"N 	c #5D644E",
"O 	c #D9887B",
"P 	c #F86B62",
"Q 	c #FE2824",
"R 	c #FE2622",
"S 	c #EF4B42",
"T 	c #BD4332",
"U 	c #556C57",
"V 	c #FE1D09",
"W 	c #FE1D0C",
"X 	c #215E48",
"Y 	c #A6534D",
"Z 	c #FB7370",
"` 	c #EB302B",
" .	c #985645",
"..	c #296952",
"+.	c #F44F33",
"@.	c #F45033",
"#.	c #705F4C",
"$.	c #F9655C",
"%.	c #EB231F",
"&.	c #704030",
"*.	c #CE413C",
"=.	c #C8261D",
"-.	c #F53C34",
";.	c #F00D06",
">.	c #F11F16",
",.	c #F00F09",
"'.	c #0D3828",
").	c #C84B3B",
"!.	c #F44E33",
"~.	c #706854",
"{.	c #EB291E",
"].	c #EA0B05",
"^.	c #70382B",
"/.	c #FE1E0C",
"(.	c #D2BDAB",
"_.	c #986953",
":.	c #EA2520",
"<.	c #E8120A",
"[.	c #983226",
"}.	c #062616",
"|.	c #EC7B60",
"1.	c #B9A89D",
"2.	c #F9BEA8",
"3.	c #F2D5AE",
"4.	c #F9C4AF",
"5.	c #F2B196",
"6.	c #6B544A",
"7.	c #BC4A3B",
"8.	c #E8291E",
"9.	c #FC0503",
"0.	c #E7120A",
"a.	c #BC2A20",
"b.	c #563A2D",
"c.	c #46584E",
"d.	c #D8987E",
"e.	c #070604",
"f.	c #154D38",
"g.	c #FDDCC5",
"h.	c #FEECD3",
"i.	c #2D2B1F",
"j.	c #103E2B",
"k.	c #D18A6D",
"l.	c #C17F67",
"m.	c #64502A",
"n.	c #826236",
"o.	c #04170A",
"p.	c #997437",
"q.	c #A1813E",
"r.	c #71572B",
"s.	c #775A2B",
"t.	c #E6A083",
"u.	c #8F662A",
"v.	c #8C723E",
"w.	c #201D15",
"x.	c #866935",
"y.	c #745F37",
"z.	c #C8AD5B",
"A.	c #6B542A",
"B.	c #B0974E",
"C.	c #38382E",
"D.	c #513E1D",
"E.	c #4A391C",
"F.	c #D1BA72",
"G.	c #2A2418",
"H.	c #5C4827",
"I.	c #DFF7FE",
"J.	c #ADE1EE",
"K.	c #C1E9F4",
"L.	c #D6F3FA",
"M.	c #9CDEED",
"N.	c #7DD6E7",
"O.	c #140D08",
"P.	c #EDFAFF",
"Q.	c #8CDCEA",
"R.	c #94DDEB",
"S.	c #87D8E8",
"T.	c #CCF4FA",
"U.	c #E6F8FD",
"V.	c #CAEEF7",
"W.	c #B1E6F1",
"X.	c #83D7E8",
"Y.	c #67CEE3",
"Z.	c #5CCAE1",
"`.	c #6FD0E3",
" +	c #76D2E6",
".+	c #7EADD6",
"++	c #9FE2EF",
"@+	c #2FB5D7",
"#+	c #039BCD",
"$+	c #22170C",
"%+	c #4F94CC",
"&+	c #037BBE",
"*+	c #170400",
"=+	c #0396C9",
"-+	c #201005",
";+	c #452C13",
">+	c #0384C1",
",+	c #14A6D1",
"'+	c #1E130B",
")+	c #3984C4",
"!+	c #028FC6",
"~+	c #42BEDC",
"{+	c #19110A",
"]+	c #3CB7D9",
"^+	c #1E6CB9",
"/+	c #291608",
"(+	c #0149AC",
"_+	c #0253AF",
":+	c #4FC5DE",
"<+	c #015DB4",
"[+	c #03A0CE",
"}+	c #0269B7",
"|+	c #03A6D2",
"1+	c #23ADD5",
"2+	c #0371BC",
"3+	c #013EA6",
"4+	c #022F9D",
"5+	c #03ACD3",
"                                                                                                                                                                                                                                                                                                                                                                        ",
"                                                                                                                                                                                                                                                                                                                                                                        ",
"                                                                                                                                                                                                                                                                                                                                                                        ",
"                                                                                                                                                                                                                                                                                                                                                                        ",
"                                                                                                                                                                                                                                                                                                                                                                        ",
"                                                                                                                                                                                                                                                                                                                                                                        ",
"                                                                                                                              . + @                                                                                                   # + $                                                                                                                             ",
"                                                                                                                          % & @                                                                                                           * # $ =                                                                                                                       ",
"                                                                                                                      - % . $                                                                                                               & - + $ ;                                                                                                                   ",
"                                                                                                                  * > , ' )                                                                                                                     > ! ) ;                                                                                                                 ",
"                                                                                                                % % , ' ~                                                       ) -                                                               { , @ ; ;                                                                                                             ",
"                                                                                                            . % % * ] ;                                                         + -                                                               @ > - ' ^ ;                                                                                                           ",
"                                                                                                          ' - > * , $                                               /         { ) % @                                                               & % - + ^ ;                                                                                                         ",
"                                                                                                        @ * > , ( '                                                 ' ) * ! { % ; % @                                                                 * > , ~ = ;                                                                                                       ",
"                                                                                                      ; ! , % * ( $                                                 - _ > % % % ; > +                                                                   - : ! ; < ;                                                                                                     ",
"                                                                                                      ) * % , , [                                                   ) ) , % % : ; > /                                                                   ! } - + ^ | ;                                                                                                   ",
"                                                                                                    $ / * : * , #                                                   / # + % % : ~ % /                                                                   ] 1 : ! ; < _ ;                                                                                                 ",
"                                                                                                  ; ; @ * % * ( +                                                   / & ; % % % + % +                                                                     - > ! / ^ 2 ;                                                                                                 ",
"                                                                                                  ; ^ + * % * 1 $                                                   # ( _ 1 % % + - #                                                                     ] > , # 3 4 _                                                                                                 ",
"                                                                                                  ) = + * : * % ;                                                 * + - $ ' % % + ( #                                                                     ' : , ! 4 = 2 ^                                                                                               ",
"                                                                                                  ; _ / * % , % 5                                                 - # 1 ' ; % % ] - .                                                                     + : , ! _ = 6 ^                                                                                               ",
"                                                                                                ^ ; < ) * - % - +                                               * { ] ' / = ) ) / ' + ! ! ! *       |                                                     ] > & ] _ _ 7 =                                                                                               ",
"                                                                                                ; ; 8 ; ! * > * ]                                           ! $ ] ' * - { 9 9 9 9 { { { { > > : > > { % & , !                                             1 > ! / = < 7 =                                                                                               ",
"                                                                                                ; ^ 0 ^ + * 1 - 1 a                                       b c { 9 9 9 { > > > % % % % % % % % % % % % % % , ' & # !                                     & : 1 ! ; 3 8 7 =                                                                                               ",
"                                                                                                ^ $ | < $ ! * : - (                                   b d e e $ { : % % % % % % % % % % % % % % % % % % % % 1 ] + + [ ,                               ' 1 > ! + 3 | f 8 =                                                                                               ",
"                                                                                                  $ = 2 ; ~ * , > , ( @                           g d e e c h i ^ > % % % % % % % % % % % % % % % % % % % % % % [ + + + ] &                         & 1 > & ] = | f j <                                                                                                 ",
"                                                                                                  ^ ; | | $ / * , > - , !                     g g e e c k i i i i 4 : % % % % % % % % % % % % % % % % % % % % % % [ + + + + &                   ] , 1 1 ! ] < 3 f f 8 ^                                                                                                 ",
"                                                                                                    $ ^ 0 _ $ ) ! , % > - - ! !             l d e c h k i i i i i m @ % % % % % % % % % % % % % % % % % % % % 1 % % ] + + + @ ( @           # - % : , ] ) 4 | 7 f f _ 4                                                                                                 ",
"                                                                                                    $ ; _ < < $ $ ' * , % > 1 - 1 [ ' + 4 g e e c k k k i i i i i i _ > % % % % % % % % % % % % % % % % % % % % % % n ' @ @ @ @ & ; ] > > > > 1 * ] / = 4 f f f f _                                                                                                     ",
"                                                                                                      $ ; < 0 0 ^ ; $ ' ! * ( 1 : > > + ~ e e o k k k k o c e e c h p % % % % % % % % % % % % % % % % % % % % % % % % , @ @ @ @ @ & ; 1 , ! . ) ^ | = 0 f f f f _                                                                                                       ",
"                                                                                                        $ $ _ | | 2 < ^ ; ) @ ' ] ! / ) e e o k k k o e e e e e e c q % % % % % % % % % % % % % % % % % % % % % % % % % # @ @ @ @ @ & ^ ; ^ = 3 < f r f f j s = 3                                                                                                       ",
"                                                                                                          ; $ ^ < 0 0 8 2 | _ _ ^ = g e e o k k i c e e e e e e e h 3 > % % % % % % % % % % % % % % % % % % % % % % % % , @ @ @ @ @ @ + | 0 t f f f f j 8 _ =                                                                                                           ",
"                                                                                                              $ ; ^ < 0 8 t 2 2 2 b d e o q k k h e e e e e e e c u . % % % % % % % % % % % % % % % % % % % % % % % % 1 1 + @ + @ / / [ 4 t 7 7 f 7 0 _ =                                                                                                               ",
"                                                                                                                  = ; ; ^ _ | 0 2 g e c q k k k c e e e e e e e k ^ > % % % % % % % % % % % % % % % % % % % % % > % 1 ! # $ = _ b ~ @ / + f t 0 _ = =                                                                                                                   ",
"                                                                                                                        _ ; ^ $ g e e h q k k k c e e e e e e h = % % % % % % % % % % % % % % % % % % % % % % / _ p u u u v w w w x 4 @ & 4 _ =                                                                                                                         ",
"                                                                                                                                g e c q p k k k o e e e e e h i p > % % % % % % % % % % % % % % % % % % > ) y m m m m m u u w w w w x s + !                                                                                                                             ",
"                                                                                                                            c _ e e p k k k k k k o c c h i i i u ! % % % % % % % % % % % % % % % % 1 % 4 m m m m m u u u u w w w w x x 3 # x w z                                                                                                                       ",
"                                                                                                                    c c c h y b e c q k k k k k k k k i i i i i m ' % % % % % % % % % % % % % % % % % 3 m m m m m m m m u u w w w x w x x $ A x w w w w w                                                                                                               ",
"                                                                                                        e c c e c o h p p h r g e p k k k k k k k k k i i i i i m + % % % % % % % % % % % % % % % : _ m m m m m m m u u u u w w w x x x x B r x x x x x x w v v v v                                                                                                     ",
"                                                                                                      c p q p p p p p p p C _ d c q k k k k k k k i i i i i i i u # % % % % % % % % % % % % % % % ' u m m m m m m m m u u v w w w x x x x w D 7 x x x x x x w w w u                                                                                                     ",
"                                                                                                      d h p p p p p p h 2 E b e o k k k k k k k k k i i i i i i v 1 % % % % % % % % % % % % % % % 3 m m m m m m m m m m u v w w w x x x x w B F 8 G x x x x w w w u                                                                                                     ",
"                                                                                                        d h q q q h o F 5 H c e k k k k k k k k k k i i i i i m $ > % % % % % % % % % % % % % % * u m m m m m m m m u u u v w w x x x x x w v   < | I w w w w v u                                                                                                       ",
"                                                                                                          d d e c           d c k k k k k k k C 4 4 3 h h h 4 + > % % % % % % % % % % % % % % % ~ m m m m m m m m u u u u w w w x x x x x x v           x w v v                                                                                                         ",
"                                                                                                                            e c k k k k k k _ % > > > % % % > % % % % % % % % % % % % % % % % > 4 m m m m m m m m u u u u w w x x x x x x x v                                                                                                                           ",
"                                                                                                                            e o k p k k i p % % % % > & ] , { % % % % % % % % % % % % % % % % * i m m m m v v u m u u u v w w x x x x x x x v                                                                                                                           ",
"                                                                                                                            e h p k k k i + % % % J K L L L L K M % % % % % % % % % % % % % > ; m m m N O P Q R S T U u v w x x x x x x x x v                                                                                                                           ",
"                                                                                                                            d k k p p k 4 > % % V L L L L L L L L W % % % % % % % % % % % % > X m m Y Z L L L L L L `  .w x x x x x x x x x v                                                                                                                           ",
"                                                                                                                            e ..p p k p ( % % +.L L L L L L L L L L @.% % % % % % % % % % % , u m #.$.L L L L L L L L %.&.x x x x x x x x w w                                                                                                                           ",
"                                                                                                                            e X i y 4 , % % % L L L L L L L L L L L L % % % % % % % % % % % & u m *.L L L L L L L L L L =.x x x x x x x x w A                                                                                                                           ",
"                                                                                                                            ' ; . , > % % % % L L L L L L L L L L L L % % % % % % % % % % % , u m -.L L L L L L L L L L ;.x x x x x x x x v                                                                                                                             ",
"                                                                                                                            - ' [ n % % % % % L L L L L L L L L L L L % % % % % % % % % % % > ..m L L L L L L L L L L L L x x x x x x x x w                                                                                                                             ",
"                                                                                                                              ] + 1 % % % % % L L L L L L L L L L L L % % % % % % % % % % % > $ m >.L L L L L L L L L L ,.x x x x '.x '.x B                                                                                                                             ",
"                                                                                                                              , + # % % % % % L L L L L L L L L L L L % % % % % % % % % % % % & u ).L L L L L L L L L L =.x x x '.x '.'.v '.                                                                                                                            ",
"                                                                                                                              ' + + & % % { > @.L L L L L L L L L L !.% % % % % % % : : : % % : ^ ~.{.L L L L L L L L ].^.x x x x '.'.'.w                                                                                                                               ",
"                                                                                                                                + + + + ~ 4 X p V L L L L L L L L /.% > - [ . @ / (.(.a (.(./ + ! s _.:.L L L L L L <.[.x G 3 s }.'.'.w x                                                                                                                               ",
"                                                                                                                              C , ~ A B ..i k k 3 |.K L L L L K M ! a F 1.(.2.3.3.3.4.4.4.3.3.4.5.1.< 6.7.8.9.9.0.a.b.A 3 ) / / ; s A c.'.                                                                                                                              ",
"                                                                                                                            g _ _ B B B B X k k u * % % % % % + E 2.4.4.4.4.4.4.4.4.4.4.4.4.4.4.4.4.4.4.H A c.A A c.b / / ) ) ) ) ~ ] 4 }.D                                                                                                                             ",
"                                                                                                                          4 ~ c.z y B B B B B y i ) % % % 1 E 4.4.4.4.4.4.4.4.4.4.4.4.4.4.4.4.4.4.4.2.2.2.d.= + / @ ~ ~ ) ) ) ) ) ~ # e.G D @                                                                                                                           ",
"                                                                                                                          @ s c f.f.X B B B X B X 4 1 % - 5 3.4.g.h.3.4.4.4.4.4.4.4.4.4.4.4.4.4.4.4.2.2.2.d.d._ @ ~ ~ ) ) ) ) ) ) ! i.}.j.'.) _                                                                                                                         ",
"                                                                                                                        l 3 q o X z X B B B X B f.C ' ] E 3.4.h.h.g.4.4.4.4.4.4.4.4.4.4.4.4.4.4.2.2.2.2.2.d.k.l.^ / ~ ) ) ) ) ) ] < }.'.'.) ^ +                                                                                                                         ",
"                                                                                                                      ) _ p p h p f.z X B B B A B c.' ; 2.4.h.h.g.4.4.4.4.4.4.4.4.4.4.4.4.4.4.4.2.2.2.2.2.d.k.l.m.$ ~ ) ~ ) ) . = }.G j.A [ + . )                                                                                                                       ",
"                                                                                                                    = ~ q p p p p ..f.z y B B B B c.+ F 4.4.4.4.4.4.4.4.4.4.4.4.4.4.4.4.4.4.4.2.2.2.2.2.2.d.k.k.n.3 ; ~ ~ ~ ' ^ o.}.'.j.$ # . # + e.                                                                                                                    ",
"                                                                                                                  4 @ q p p p p p p B A _ y B B B C . l.2.4.4.4.4.4.4.4.4.4.4.4.4.4.4.4.4.4.2.2.2.2.2.2.2.d.k.k.p.f 4 _ = ~ = c.}.'.j.G + . . . [ 3                                                                                                                     ",
"                                                                                                                  + 3 q p p p p p p p w $ 4 X X B 4 ' l.2.4.4.4.4.4.4.4.4.4.4.4.4.4.4.4.4.4.2.2.2.2.2.2.2.k.k.k.q.r.4 4 / _ 4 I '.j.j.G . # . . # ' G                                                                                                                   ",
"                                                                                                                l 4 q q p p p p p p p y $ ; _ ..B ) + l.5.4.4.4.4.4.4.4.4.4.4.4.4.4.4.4.4.4.2.2.2.2.2.2.5.k.k.k.q.s.b ~ C s c.'.j.j.j.3 [ # . # # & 3 I                                                                                                                 ",
"                                                                                                                $ ..q q p p q p p p p / % $ = ^ s ! ] l.d.2.4.4.4.4.4.4.4.4.4.4.4.4.4.4.4.2.2.2.2.2.2.2.k.k.k.k.q.n.C C 3 c.'.z j.j.x @ . # # # # . / f.                                                                                                                ",
"                                                                                                              l p q q q q ..y p p p 4 { : : ) _ = 4 ; F d.t.2.4.4.4.4.4.4.4.4.4.4.4.4.4.4.4.2.2.2.2.2.d.k.k.k.k.u.v.C s 4 w.z z z G 3 ] # # # # # # . j.f.                                                                                                              ",
"                                                                                                              ; ..q q q q B ..p p p 4 { : ( : ) _ = ^ s t.d.d.5.2.4.4.2.2.2.2.2.2.2.2.2.2.2.2.2.2.5.k.k.k.k.k.l.x.n.3 $ b G j.j.4 ' [ # # # # ] # # ] B f.                                                                                                              ",
"                                                                                  # #       +               @ h q q q q y A q p p p c.{ : ( , @ [ 4 _ _ l.d.d.d.d.t.t.5.5.2.2.2.2.2.2.2.2.5.5.d.k.k.l.k.k.k.k.l.q.7 ' ] 7 G '.= [ # # # # # # @ # # [ c.z A                                                                                                             ",
"                                                                              * ( & , ~ % & [ ] + /       e ) ..q q q q X z p p p p C > : : ] ; & ~ # ^ 3 d.d.d.d.E H l.k.k.k.k.k.k.k.k.k.k.k.k.k.q.(.v.d.k.k.v.v.4 # + o.'.^ ] . # # # # # ] ; ] # # j.z f.z                                                                                                           ",
"                                                                        * , ] ( , & ] + & [ [ ' ~ @ _     ~ o q q q q q B B h p p p / > : : ( 3 ] [ $ # _ | t.t.1.3.p.y.k.k.k.k.k.k.k.k.k.k.k.k.k.v.h.(.n.k.p.q.3 b ; $ }.4 & . . # # # # # ] / ] # ' '.z z f.                                                                                                          ",
"                                    # , , ,                           % ( + - , , , ; ( [ [ [ / ~ ~ )     ~ y q q q q ..f.q ..p p q ! : : : n 4 . , ~ ] ; _ 2 | ! z.x.t.k.k.k.k.k.k.k.k.k.k.k.k.k.l.(.3.A.l.v.s 3 # _ _ e.( [ . . # # # # # . @ . # ] s z z f.f.                                                                                                        ",
"                                  - : n } n > ]     % ( &           % ( % ; - , & [ ) & [ [ + ~ ~ ~ $   ~ 3 q q q q q v 4 h q p p X - : : : : ^ $ c.) $ [ = _ j h.B.v.t.t.d.k.k.k.k.k.k.k.k.k.k.k.d.F g.n.i.3 s $ + $ A i.> [ . . . # # # # # [ ~ # # # G z z f.                                                                                                        ",
"                          @ + @ { : } n } n n n , ; % 1 1 % &       % ( , ~ ( , , + ! [ [ ] ~ ~ ~ /     ) X ..q C 3 3 & ] p q p C ] > : : : : + A A z $ / # = C h.B.i.C.m.v.l.l.k.k.k.k.k.k.l.l.v.D.C.h.n.C.3 ; [ _ 4 }.4 { [ . . # # # # # # & ) # # @ x z z z A                                                                                                       ",
"                      - > > } & $ ! : } n n n n 1 & ) : 1 1 1 ]   ! - ( ] # , , & ) - [ [ + ~ ~ @ s   b 4 ....3 % > > , @ h p = & : : : : : : & e.A A c.~ [ [ _ 3.(.i.C.r C.r r I i.I I I i.C.C.I I 7 g.s.D ~ # @ ^ G 4 $ > [ . . # # # ] # # ] ; & [ s z z z z f.                                                                                                      ",
"                    % : : } } } - + / > n n n n n 1 ] @ 1 1 - -   & ( ( @ & , & - $ & [ ] ~ ~ @ _     ~ ....# : : : : , ^ + - > : : : : : : : : D z z j.+ ; [ $ B.g.y.I r C.C.I r I r I r C.I i.r I a a y.= ] [ _ D 3 @ $ } [ . # # # # ] # # # ~ ' ] ^ z z z z z f.                                                                                                    ",
"                  { : : : } } } : - [ $ > n n n n n ( ~ % 1 - - ] & ( ( ~ - , & - ; & [ + ~ / ^     $ b = - : : : : : & ) > : : : : > { { { > - _ j.z z 4 [ $ / E.F.! D 8 6 r f j j I D j j C.f 7 A.g.v.m.; # ) 3 A # ) ~ : [ . # # # # # # # # / ) # + x z z z z f.f.                                                                                                  ",
"                > # 1 : : } } } } } n , $ : n n n 1 1 ( $ 1 - - , ; - ( ) - , & [ ) [ [ / ~ ~       ! > > : : : : : n # # : : : : - _ C p c.; - ) j.z z }.] ' $ i.x.d.3.< 7 | 0 | 0 7 | 0 2 0 7 2 ! B.v.I ^ . = }.$ . b ' : [ . # # # # # # # ] _ b # ] '.z z z z z 4                         1                                                                         ",
"                9 , ' % } } } } } } } } - $ : n n 1 1 n @ % - - - ; - ( / , & & . + [ ' ~ @ s       , : : : : : : : ( @ 1 : : : > _ p q ......~ / G z z c.[ . + i.w.v.B.(.3.E 0 < 0 F 0 F 2 < 1.3.B.v.I C.^ _ $ C ] + _ ! } [ # # # # ] # # # & B 3 # [ A z z z z G & ;                       9                                                                         ",
"                { 9 > ] n > } } } } } n n ( ) : 1 1 1 1 ( + - - ( + , ( + ] & & + . [ / ~ ;       ; ) > : : : : : : & @ > : : > , p q q ......B . = 3 s ' , . . r G.C.A.q.B.F.(.3.3.3.3.3.(.(.l.p.x.I C.r f # s ~ . @ 4 1 } [ # # # # # # # # + G z . ] c.z z z A $ ] ]                     % 9                                                                         ",
"                - 9 9 9 9 , ] > } } } n n n ! + n 1 1 1 : ; : ( ( , . ( ] . & & @ ] . ~ + 3       b 3 > : : : : : > & ) > : : , y q q ........y _ ^ & [ . ( , . r D i.r i.r.x.q.q.B.q.q.q.p.x.s.H.w.C.r C.4 ) s [ . ) 4 { } [ # # # ] # # # ] 3 j.w ) ] + 3 }._ ] ] # , 4                   { 9                                                                         ",
"                  - { 9 9 9 % + - : } n n n : + - 1 1 1 1 ] & - ( - + ( [ / & & ~ [ @ ~ $       4 _ v , : : : : : } [ / : : { _ q q q k q ....y f.4 ] . . & : , r 6 j w.I C.I w.i.C.D.D.I w.G.r r i.I I j 4 C ) . . $ = > : ] # # # # # # # ' x j.f._ # . [ ] [ # # # # !                 1 9 I.                                                                        ",
"                      * { 9 9 9 ] ] : n n n n : ; % 1 1 - % + ( ( - $ - 1 ^ , & ~ [ / ~ _       ; p ..s ! > : : : - + ! : : & X q q q q ......y f.s ] # . [ } - 8 0 j D D i.w.I C.C.i.C.C.I I C.C.I j f 6 t A ] . # $ / > : ] # # # # # # # $ j.j.f.s ' . . . # # # # # &             # - 9 9 J.                                                                        ",
"                          ] - 9 9 % + : } n n n - # 1 1 - 1 $ % ( ( , , , [ & & & + ~ @ _       % C ....X & : : : & $ { : > $ q q q q q q ......f.c.[ # # # : : H 0 < t 6 j f C.r I C.r r C.r f D t j 7 < f b # . . ) @ : : # # # # ] # # # $ j.j.z c./ # . . # # # # # ] /       ] { 9 9 9 K.g                                                                         ",
"                                , 9 { ' ( } n n n ) - - - - & - ( ( , , & & & [ [ / ~ + 6     ) { $ ....X , : : : [ @ > : > p q q q q q q k y ..B '.[ # # # } 1 H 0 5 5 2 < 8 f 7 7 t j 7 6 t j t 2 | < 5 2 ' . . ' ; ] : : # # # ] ] # # # @ '.j.j.x ; . . # . # # # # # ,     ( 9 9 9 L.M.N.g                                                                         ",
"                O.O.                - 9 % # : 1 1 % / n - - ( ( ( ( , , & & & [ # / ~ +       , : / q ..X & : : n & @ : : + y ..q q k y ) @ ] s w 4 + ] ] # 1 , < F 5 5 | H 5 F 8 < 0 t 6 0 < 8 | F F 5 6 F ' . . ' = , : : # # ] # ] # # # # j.j.j.z _ ' . . # . 1 ] # # [ $ % 9 P.K.Q.g R.S.T.                                                                        ",
"                            ~           { , ] n 1 1 ( 1 - - ( ( ( , , , & & & [ + ~ ~ +       > : / q ..y ] > : , + * : > 4 q ..q q 3 ( : : : ( ' & @ ] ] # - # 5 5 F F E F E < F 5 1.< < E H F F < 5 F | H / . . + = 1 } n # # ] ] ] # # # ] D j.j.f.C @ . . . . L.l # # # U.9 V.N.g       ~ J.K.                                                                      ",
"                            K.            > , & 1 1 1 - - - ( ( ( , , ( ( ( , , @ ~ ~ + f   ; > } ~ q ....+ : : [ ; { : > 4 ....y $ > > : : : : , ] ) ] ] ] - $ E E 0 E 5 F F E E < F E E < < 5 F < 5 F H F ; # # + 4 { } n # ] ] ] ] # # # ] c.j.j.j.D $ # . . [ U.J.# . L.{ W.X.g                                                                                     ",
"                            # g             % % 1 1 1 - - ( ( ( ( - ] ; 4 c.A c.4 / ~ / 4   @ : > _ ....../ : n ] @ > : : ~ ..X ! > > + > : : : ( ] b [ ] ] ( ^ 1.H F E E H F E E H F E E < H E < F F < 5 0 | [ # + _ { } n # ] ] ] ] # # # ] 3 j.j.j.j.^ ' . . & P.M.# L.9 W.S.                                                                                        ",
"                  ]         ! J.              { % 1 1 - - - ( ( - ; v X X B B z G D / ~ =   - } > B ......3 { , [ # : : : , y , : > _ X + : : : ( [ = & ] ] [ 5 F F E H H H F E 5 H F E E H F H 5 E 2 E 5 | 7 # # @ ; { } } ] ] ] ] ] # # # . ' G j.j.f._ / . . U.P.Y.K.9 V.X.]                                                                                         ",
"                  , l       - U.g               > 1 1 - - ( ( ( ( c.X X X B B j.'.G = ~ ;   { } ] B ......v > ] / - : : : : > I.: & u ..^ > : : - [ = & ] ] ' E 2 1.E < H E 5 H F 1.1.< < E H < E E < F 5 < j @ # @ + > : 1 ] ] ] ] ] ] # # . [ C '.x z C ) # . { P.Y.M.V.S.] &                                                                                         ",
"                    L.l g l { U.Q.g             % } - - - ( ( ( , B X X B B f.'.'.'.C / @ ^ > : ~ y ....y v - [ b > : : : : : U.I.% 4 ~ % : : : 1 [ ; [ ] ] ) F H 5 1.F H E 1.| 1.E 1.| 5 E F F E F E < H H t ; # @ + > : 1 ] ] ] ] ] ] # # . [ c.j.'.j.A ; + L.9 P.Z.`.S.] # #                                                                                         ",
"                    { M.K.N.S.    _               { 1 - - ( ( - ) X X B f.B f.'.'.G A ~ / ~ : > ; y y y y X / ] + : : : : : : U.P.: > : : : : : n ] ) ] ] & < E E F H E F 1.5 5 H E H 5 F 1.F H E < E E 0 5 t 3 [ @ # > : 1 ] ] ] ] ] ] # # . [ A j.j.'.z = l 9 9 L.Z.S.] . # &                                                                                         ",
"                    ( { N.Q.                      % % - - ( ( 1 _ B _ + . / c.G G '.C ~ ; ] } > $ y y y y X D + % } : : : : : U.{ : : : : : : : n ] / # ] . F E E F H 1.F 5 F 1.F 5 F 1.H < E E < 5 5 5 | H 8 r . ~ ! > : 1 ] ] ] ] ] ] # # # ] }.j.'.'.z 3 % 9 U. +S.# . . . ,                                                                                         ",
"                    # 9 K.g                       ! > - ( ( ( ( 1 1 - & [ & . ; C 3 / ) = - } : ~ X y y y B z 3 > } } : : : : : { W.> : : : : : 1 # @ # [ $ < 1.1.| 5 E 1.| 1.E 1.0 1.E E < 1.E F H 5 F H < t 7 $ $ , > : - ] ] ] ] ] ] ] # # [ j.j.x '.'.4 9 {  +X.# . . . . ] ]                                                                                       ",
"                    ; 9 9 g                         > 1 - ( ( ( , , & & & [ / ~ @ / ) ) _ { } : ) X y y y f.x + : } : } : : : I.{ X.I.: : : : : n # @ . [ t 0 1.F H H E 1.0 1.E H < 1.E H F E 1.< F E F 1.2 f 2 _ $ % > : - ] ] ] ] ] ] ] # # [ D j.j.'.'.+ 9 W.`.# . . . . . . !                                                                                       ",
"                    ' 9 U..+                        % L.( ( ( ( , & & & [ # ~ ~ ~ ) ) ) 3 1 } } , f.X y X z G > } } : } : : : I.{ X.Q.V.: : : : n # @ ' ) 2 0 5 F 1.F E F H 5 1.< 5 H 1.< 1.F E F H 5 F 5 0 D t 6 ) % > : - ] ] ] ] ] ] ] # # # }.j.j.'.G , P.Z.J.. . . . . . . &                                                                                       ",
"                    [ 9 M.g                         ! U.K.- & $ - & & & & @ ~ ~ ~ ) ) / s @ : } { 4 X X f.z ^ > } : } : : : : U.P.++X.N.V.: : : n # + ] 4 0 2 < E E F H H 1.F H 5 1.F H 5 E 5 | E E < H 5 8 t f 6 4 % > : - ] ] ] ] ] ] ] # ] ; '.j.j.'.j.P.K.X.; . . . . . . . ]                                                                                       ",
"                      { M.S.                          { J.! B X b ( & & ] / ~ ~ ~ ) ~ @ c.$ } } > _ X B z '.] : } : } : : : : I.L.L.{ M.M.: : : n # + + t 8 0 F E E F H E E F 5 E E H < E E H < E E F F F t t t 6 7 % > : - ] ] ] ] ] ] ] # [ C z j.j.'.o 9  +g b + . . . . . . [                                                                                       ",
"                      - W.R.                          P.M.c.X X B ( & & ' @ @ $ ^ = 4 b j.; : } > 4 X f.z c.{ } } } : } : : : P.V.: U.L.N.: : : 1 # + = 7 t 0 < 1.5 H H E 1.< H E 1.F F E E F 5 5 1.F H | f 8 8 6 I % > : - ] ] ] ] ] ] ] ] ' '.z j.j.'.; U..+4 b $ # . . . . . [ $                                                                                     ",
"                      ] I.S.                          [ b X X B B & & , $ 3 j.}.G G G G z = : } > 3 B j.z / > } } } : : : : : P.V.: : { X.L.: : 1 # + C 2 2 2 F E F 1.< 1.F 1.< 1.F E E F 1.F 1.< H H 5 6 t 8 8 7 I % > : - ] ] ] ] ] ] ] ] b z z j.j.G + K.c B ; b @ . . . . . ] #                                                                                     ",
"                        % S.                          = h X X B ; , & @ }.G G G G G G G j.C > } { 3 f.j.'.- : } } : } : : : : : L.: : U.K.K.: : n ] + f t 2 2 H < E E 1.| E E E | H E E F F E E F F E F t f 2 8 7 w.% > : - ] ] ] ] ] ] ] [ _ z z j.j.G & M.}.z 4 b $ # . . . . . +                                                                                     ",
"                        ( W.g                         c o X X w ] & 1 3 '.G G G G G G }.j.G - } : ) z j._ { } } } } : : : : : : L.: : } L.J.: : 1 ] + 8 6 2 0 | H E E H < 1.E E | 1.E E < H E 1.< F 1.0 6 6 8 2 7 i.% > : 1 ] ] ] ] ] ] ] ] ~ z z z j.G % e '.j.A ; b + . . . . . #                                                                                     ",
"                          L.R.                          h X X 3 1 ( 4 G G G G G G G G }.j.f.$ : : ( j.G * > } } } } : : : : : : : : : : U.M.> : 1 ] @ 8 6 0 6 < F 1.E F F 1.1.F H 5 E E H F E E F F F 2 f 2 7 t t i.- > : } ] ] ] ] ] ] ] ] . x z j.j.B L.k '.'.f._ b $ . . . . . ]                                                                                     ",
"                          1  +        .         K.      g f.f.' & & o.'.G G G G G G G }.j.f.s > 1 # _ C { : } } } : : : : : : : : : : : : V.: : - ] / 8 t 7 8 0 F 1.H E 5 H E H 1.F E F 1.F E 5 5 1.t t t 8 2 D 8 i.! > : n ] ] ] ] ] ] ] ] [ C z z j.s & o.'.'.j.A ; b + . . . # #                                                                                     ",
"                          1 K.      . 9                 d f.$ - & ~ }.G G G G G G G G }.z z 4 : # . ) + { - > : } : : : : : : : : : : : : U.V.: ( ] ) 8 6 t 0 8 5 | H E E F F E E F H H E 1.F F E H t f 2 8 t f 8 I + > : : ] ] ] ] ] ] ] ] [ 3 z z j.b ) G '.'.'.f.4 b $ . . . # @               (                                                                     ",
"                            I.        9 %               h ; - , ' / I G G G }.}.}.G G }.z '.= # ' . ~ % _ w ^ > } : : : : : : : : : : : : I.V.: ( ] ; t t 6 2 2 H 0 1.E E F 5 E E 1.0 1.E E F F E 0 7 8 2 8 7 2 f I @ > : : ] ] ] ] ] ] ] ] [ 4 z z '.+ 3 '.'.'.'.j.A ; b + . . . )             g g               ( ]                                                   ",
"                            % S.      V.9               p - ( ' @ @ + _ 4 ; ) ) b 3 }.}.z G = # . ] _ s X X B ) > : : : : : : : : : : : : : { I., ] _ t 2 8 t 2 6 H H E 1.F < E E 5 < H E E H F F 2 6 t t 2 6 2 t i.^ { : : [ ] ] ] ] ] ] ] ] ) x z }.& w '.'.'.'.'.f.4 b $ # ' . $                               U.,                                                   ",
"                              K.        % (             4 , ' @ @ @ / @ @ ~ ~ ) ) / ; c.z }./ ' . ~ o X X X X v ! : : : : : : : : : : : : : P.U., [ 4 2 8 2 7 t 6 H < E H H F 1.E F 1.< E H H H 0 6 8 2 7 t t 8 t G.7 { : : & ] ] ] ] ] ] ] ] [ z z B ] G j.'.'.'.'.j.A ; b + . ' $ /                 )           , 1                                                   ",
"                              ( g       [ 9             '.+ + @ @ @ / / ~ ~ ~ ) ) ) ) b G c.[ ' [ 4 o B X X X y 4 > : : : : : : : : : } : : U.U.[ [ 3 2 8 8 7 2 2 | 5 F F E E < H H 5 H H F E | f t 8 8 2 D 2 8 t i.G.{ : : 1 # ] # ] ] ] ] ] ] _ z _ ; '.j.'.'.'.'.'.f.3 ; $ # @ ; /                             & P.                & g                               ",
"                                l         > 1           }.) @ @ @ / / / ~ ~ ~ ) ) ) ) b $ . ' ' @ o y X b q y y ) > : : : : : : : : : : } : I.P.] [ 6 2 8 2 j 8 2 8 F < H E E 5 < E E E | E F 2 7 t 8 8 2 7 t 8 6 I G.* : : : ] # # # ] ] ] ] # ' G _ B j.j.'.'.'.'.'.'.A ; b ) ; $                               1 P.              1 U.g                               ",
"                                K.        1 9           }.@ @ @ @ / / / ~ ~ ~ ) ) ) ) ; + ' ' # 4 o B c 9 o y s % : : : : : : : : : } : } } } I.] ] f t 8 t 2 t 8 2 2 < F E 5 F F E 5 5 H | 8 2 f 7 2 8 t 8 f 2 7 I I / > : : [ # # ] # ] # # # [ 4 z z j.j.j.'.'.'.'.'.z s ; b b )                               1 ,               g g                                 ",
"                                  J.      [ 9 {         _ ' @ @ @ @ / / ~ ~ ~ ) ) ) ) ) / ' ' ' o ..B b 9 h C % : : : : : : : : : : } } } : : : ] ] 7 7 t 6 2 f 2 2 8 8 2 1.E < E F 5 F F 7 2 8 t 8 f t 7 8 8 7 r I I 7 9 , @ + ] # # # # ( [ # # ' G z j.j.j.'.'.'.'.'.'.j.b b b @                               U.                                                    ",
"                                            { 9 {       / + @ @ @ + / / ~ ~ ~ ) ~ ) ) / / ' ] 4 o B X ~ { v * : : : : : : : : : } } } : } : : 1 . # j 7 f 2 8 8 7 8 7 2 8 | F 5 E F H t 8 2 7 7 8 8 2 D t 8 8 6 r I I e.$ f.X B / # # # # V.J.# # [ ^ x z j.j.'.'.'.'.'.'.z C ; b #                               &                                                     ",
"                                            & 9 9 #       ' @ @ + s ; / ~ ~ ) ] & ) ) ) ; ] + o ..X w ( [ + : : : : : : : : : : : } : } } } } 1 # + i.t 6 t 8 8 6 f 2 8 8 6 f 0 | 0 D 8 8 8 6 f 8 8 8 6 f 8 8 7 r I i.I h y X X c.& # # # # ] # # # ] ; D G j.'.'.'.'.'.'.'.z _ b ]                               ]                         #                           ",
"                                            ] I.9 {     1 @ @ + C G '.@ ~ ~ ) % & ) ) ) _ , 4 o X X o { & > : : : : : : : : : : : : } } } } } , . @ C.t 8 f 8 8 7 t t 8 8 7 6 2 8 6 8 f 8 8 7 8 8 2 f 8 7 t t 7 I G.G.I A o X X f.) # # # # # # # # # ] ] ~ G j.'.'.'.G G '.j.D ; +                               ,                         g                           ",
"                                              { K.U.#   U.' + ; G G G ; ~ ~ ) P.@ ) ) / ) ^ _ 3 B B . 9 : > n : : : : : : : > / > } } L.} } } & . ) C.t t 7 6 f 8 8 f 8 8 6 8 7 2 f 2 6 8 8 7 8 7 7 6 t t f f 6 i.I w.i.G.o B X B c.] # # [ ) ] # # # # . # + ; ^ ; $ ) ~ C '.z 4 ]                             & &                                                     ",
"                                              1 J.S.{   ! . + ; G G G _ / ~ ~ P.) / 4 s C ^ { > > P.9 P.: @ - : : : : : : : % / : } I.{ L.} : [ ] = I t t 7 j 2 t 8 8 7 f 2 8 6 D 8 8 8 j f 8 t 8 D 8 t t 6 j 7 i.i.i.i.i.y X f.@ w 3 [ . # ) ] # ] . # # . . . . ' ' ' ' # c.'.B _                   % [       ( &                                                     ",
"                                              U.P.@+U.% ~ L.@ $ }.G G b ~ ~ l U.4 r G G o.1 : } : U.9 U.> @ > : : : : : : : @ % } : P.U.} } : # [ C i.6 = = f t 8 8 t 8 7 8 8 6 f 8 t 8 f f 8 t 6 f 7 t 6 f j C ) G.i.G.i.i.p f.{ o x ^ ] . ] ) # % ( . # . . @ # ' ' ' ' ' + s A }.                  I.g       > &                                                     ",
"                                              # { S.l 9 { { @ + }.G C./ ~ ) ( # o.G G G $ > } : L.{ 9 I.@ - : : : : : : } > @ : } L.{ I.} } n # ] I G.j & # f t t t 7 8 7 t t 7 8 7 t t 7 7 7 t 7 t f t = U._ c._ w.i.i.w.G.h w U.b z '.; ] ] ; ] [ 9 [ . . . # $ # ' ' ' ' ' U.[ & <                 g         9 (                                                     ",
"                                                9 V.#+L.9 9 [ . C }.) / ~ ~ V.+ }.G G w.% } : U.I.9 { : / > : : : : : : : , ] } } U.{ } } } - ' . G.G.I - [ 7 7 t t f t 8 f 8 j t f 8 f t t j 8 D 6 6 D @ L.4 i.$+i.i.i.w.i.B X # . f.j.'.D + ] / ' L.P.. . . . @ + ' ' ' ' ' V.P.' , D                       ( U.,                                                     ",
"                          1                     { 9 @+%+P.U.P.@ ; c.+ ~ ' P.++. }.G }.) > } I.{ { 9 P./ % : : : : : : } : ; > } } { I.} } } & . @ w.G.i.% & j j 7 D 8 6 t f j t 6 t D f 6 6 7 D 7 6 6 f 7 s j G.i.w.i.w.i.G.G...b > X z j.j.D ] ; [ . P.L.. . . # ; # ' ' ' ' ' L.L.' ,                       P.W.%                                                     ",
"                            l         ] (       - 9 J.&+.+K.9 P.[ @ / ~ L.K.R.+ }.G D > } : I.9 9 { ( / : : : : : : } : - + } : I.9 I.} } } [ . ) w.i.*+U.& r t 7 7 6 6 t f t f 6 t f j t 6 j t D 6 6 j 6 D D G.i.w.w.G.i.w.i.y v U.~ f.j.j.j._ ] ~ . [ 9 [ . . . [ ; ] ' ' ' ' . { [ ] +           ]         { M.P.                            # L.                    ",
"                                      [ 9       L.9 9 .+=+J.V.9 9 { . l I.Z.W.] A }.+ > } : 9 9 U.U.~ > : : : : : : : } / % } I.{ { n } } } # ' ; i.i.-+P.( r t 6 6 r t j 6 6 j t j 6 7 7 6 j 7 7 f D 7 7 f G.i.G.G.w.i.G.G.w.A f.# V.s z j.j.'.' $ & . P.{ . . . . # $ . ' ' ' ' V.{ . ] +     ;+  U.      [ U.K.{                           # {                       ",
"              & (                       & %       9 9 l =+Y.l 9 K.9 9 9 V.Y.J.9 o s { } : U.{ P.I.( + : : : : : : : : , ) > I.9 9 P.n } } 1 ' ] 3 G.i.w.{ ( r 7 7 j 6 f f 7 7 f r 7 7 7 j r 7 7 7 j j f 7 r G.i.w.G.G.G.i.i.i.w.X ; K.[ '.j.j.j.) # ) . V.9 I.. . . ' + + ' ' ' ' . { { l [ /       , !     ( K.L.9                           { +                       ",
"                { %                       P.(     { 9 % >+Z.g U.,+l 9 9 L. +K.9 }.] : } I.9 P.U.L./ > : : : : : : : ( / 1 n { 9 9 I.} } } ( ' & I w.i.A P.V.f f 6 j 7 7 D 6 6 j f f 7 7 D j 7 7 j f D 7 f r G.w.w.G.i.w.'++ 3 w.B p P.V.b z '.'._ ] ) & . { 9 V.. . . # ~ ] ' ' ' ' L.9 { . , $     & &     { W.{ 9                         % (                         ",
"                  % %                     & 9 ]   % 9 % )+%+% 9 =+!+Y.9 P.J.I.U._ { } : { 9 L.++% ] } : : : : : : : [ ) : I.9 9 9 L.} } } ] ' ' *+w.i.4 P.L.^ D D 7 7 7 7 r j 7 7 D 6 f f 7 j 7 D f 7 r j I G.w.w.G.G.w.}.P.C G.w.f.[ J.% w j.j.s [ # ) # % 9 9 [ . . . # ; & ' ' ' [ 9 9 U.. & $     %   ' U.{ 9 9 .                     1 P.                          ",
"                    P.(                     9 {   - { { g l U.9 =+!+>+L.9 I.{ # - } : U.9 9 J.W.U.> : : : : : : : & l % L.{ 9 9 9 L.} } n . ' ) w.G.'+@ U.L.% r j f 7 f j D 7 f f f C.j f f D D f f 7 C.j G.G.G.G.G.G.G.; % I i.w.B b U.K.+ j.'.'.] . ~ & [ 9 K.P.. . . . ] $ [ ' ' ' P.9 9 I.. & )   { ] - W.V.L.9 %                   1 9 @                           ",
"                      { P.                  % 9 { L.9 J.P.L.{ V.,+!+!+l 9 9 { + > : I.{ { I.N.U.P.: : : : : : : 1 % U.: U.9 I.{ { : } } ( ' ' b i.w.w.& P.K.{ C D 7 f 7 D f j f f D j 7 C ; j D f f f D w.G.G.w.G.w.w.c.{ ] $+G.G.A s { N.{ p '.G @ . ] ) [ P.U.V.I.' . . . ] $ [ ' ' L.9 9 9 U.l [ / K.{ { K.~+V.9 %                 % 9 #                             ",
"                        > { &               & 9 K.{ P.l { 9 % .+=+!+&+`.9 W.g > : I.{ L.V.L.S.{ : : : I.: : : : L.{ L.P.9 9 K.K.P.} } } [ ' # 3 $+G.C.P.{ X.9 ) f D f D f 7 D f 7 D f r ] . j j f f D D G.G.w.G.G.G.{+( 9 b w.G.G.G.q > `.L.& x j.; . . + ] ( 9 J.K.1 . . . . . / ] ' & 9 P.{ 9 P.# K.L.W.K.U.]+V.I.{         [     % 9 (                               ",
"                          > 9 % ]             > L.J.9 J..+9 { )+!+J.^+@+L.%+% : U.{ 9 K.I.L.M.P.: : : P.: : : L.{ 9 { 9 P.W. +U.P.} } } . ' ] e.( I s 9 I.Z.{ % r 7 I 7 f f j D r f f D { + j f D D r G.G.w.w.G.G.w.# 9 { A G.G.w.3 y P.S.K.9 b '.c.[ . ] $ 1 { W. +U.V.. . . # [ + ] # 9 { J.S.P.{ U.N.N.]+I..+ +J.9 ~     1 &   % P.{                                 ",
"                            { { L.% !         , { N.V.9 g V.I.U.)+P.^+=+&+# : : P.{ P.K.V.I.V.U.: : U.U.: : I.{ Q.9 P.P.K.`.Z.9 P.} } L.' ' ~ b - $+g 9 I.Z.L.9 c.j j j f j f D r f j 3 { = f j j D G.G.G.w.w.G./+) 9 9 [ w.G.G.e.] _ % M.K.9 { C }.] . . ] ) { I. +W.9 L.' . . V.' # [ 9 9 S.~+V.9 9 I.Z.!+K.S.!+X.L., ; > { + { U.L.#                                 ",
"                              { K.Q.I.P.[ { [ # 9 ++ +I.9 .+]+J.L.% (+_+$ > : P.9 V.W.J.Y.L.P.P.: I.{ : : I.{ ++K.{ W.9 :+!+S.9 U.} : L.' # 4 % . {+# 9 P. +++9 _ r 7 D f j f D j j j ; { 3 D f D w.G.w.i.w.G.w.3 { 9 9 $ G.G.w.w.@ U.{ J.V.9 9 ( }.# . . . ' [ 9 S.`.K.9 I.. . . U.@ ] 9 { 9 P.{ V.I.P.9 K.J.U.&+,+J.P.{ 9 9 9 L.++-                                   ",
"                              ] { X.N.++W. +U.U.9 K.X.X.P.{ .+#+:+U._+_ > : P.9 l Y.I.`.#+.+U.{ L.{ 9 L.I.9 K.N.{ R.P.{ )+!+M.9 U.} I.( ' ' # P.~ e.1 9 9 X.S.9 % b I r f f r f f D D % V.j C.I w.G.G.G.w.G.G.o.( { { { '.w.G.G.w.4 { { P.K.{ 9 9 . ] . # # . & 9 P.@+`.L.9 P.# . ] { ( 9 V.I.9 g .+<+[+.+P.9 9 J.}+X.{ U.U.{ ++N.1                                     ",
"                                1 V.`.:+R.Q.@+K.9 W.`.S.S.P.{ %+%+{ _ > : P.9 J.!+S.U.#+[+)+V.P.9 { U.9 9 I.Q.P.M.M.P.% .+:+{ 9 P.I.9 [ . I.P.K.$ A { 9 { V.Y.U.9 + G.G.G.i.r r r C.~ U.K.I G.w.w.G.G.G.w.w.$+/ 9 J.{ @ '+G.w.w.G.c.P.J.9 U.V.{ 9 9 & . . % . # { 9 J..+Y.P.9 { & l P.J.K.K.V.I.{ l K.l .+J.P.J.{ L.{ P.X.P.R.N.L.                                      ",
"          U.{ ]                   { .+|+@+ +X.%+9 W.:+S.S.Q.{ P.% U.{ : P.9 9 K.,+S.W.#+#+>+U.K.9 L.W.9 9 W.U.L.=+L.W.{ { { { V.9 9 9 L.{ {  +V.$ _ 9 9 V.9 K.U.9 - w.G.w.w.G.G.G.4 9 K.K.c.G.w.w.G.G.G.w.e.) 9 K.X.9 4 w.f 3 {+G.w.{ R.U.9 W.W.9 9 { [ ' P.[ # U.9 L.L.1+X.9 9 9 { U.U.9 9 9 { K.K.l 9 9 { P.V.K.{ P.S.X.R.N.V.%                                       ",
"            [ { % ]               & L.}+[+2+]+[+V.{ X.~+Q.X.++9 9 l U.P.9 L.L.P.]+=+K.1+!+2+V.K.9 K.K.9 I.U.I.:+!+L.J.9 P.U.S.L.9 9 9 9 I.I.:+U.& - 9 9 R.9 { L.P.9 c.G.w.w.G.G.3 { 9 .+V.4 G.w.G.w.G.G.c.! 9 P.:+V.{ c.G.C P.D w.e.U.V.K.9 L.@+V.9 { P.] 1 1 & P.9 K.9 L.X.K.P.{ 9 9 9 9 9 U.M.M.S.Y.:+@+@+,+W.9 P.N.X.X.X.R.9                                         ",
"                ( { - . _           % l _+&+<+_+K.9 P. +]+Q.S.W.9 K.I.U.U.:+Z.K.P.S.L.%+<+}+l { .+X.{ M.,+S.Y.=+)+I.Y.V.W.`.`.{ 9 J.P.R.L.9 .+L.9 9 9 K.:+P.U.X.V.9 ~ '+G.$+G.C { 9 9 J.{ ^ G.w.G.G.w.O.] 9 9 9  +U.U.[ e.3 @ & i.e.L.V.:+L.L.#+Z.U.M.9 9 K.9 L.9 { W.S.K.P.J.U. +I.I.9 P.{ U.J.]+,+[+[+[+%+L.9 I.N.X.X.S.N.V.P.                        @ &             ",
"                    % 9 9 P.P.9 > 1 % U.K.K.L.U.9 9 9 P.`.,+N.X.K.V.S.P.L.%+&+^+{ P.{ %+_+[+%+J.=+I.L.N.Z.!+=+!+J.K.1+.+`.^+S.9 L.Y.N.]+W.{ >+K.9 9 P.M.>+W.U.M. +U.% A A ) e.& { 9 9 S.9 @ w.c.[ e.w.b 9 9 9 9 U.{  +{ ) ] # K.& ' { .+l I.{ %+l M.V.L.9 L.9 9 9 { Q.~+)+S.V.J.K.]+R.9 K.]+#+=+=+<+<+(+l { 9 K.N.X.X.X.X.X.9 (                   [ % % !               ",
"                      ] U.V.U.U.P.9 9 9 9 9 9 9 9 P.K.J.X.X.,+ +R.X.Z.M.9 U.++Z.%+.+P.,+}+2+#+,+M.S.,+#+=+J.K.L.P..+P..+=+}+K.9 Q.1+]+!+J.V.>+J.9 9 J.1+2+M.U. +,+I.9 ~ ' 1 _ 9 M.L.9 { 9 9 ~ [ K.e.4 { { W.X.I.I.{ :+.+P.{ K.V. +{ R. +L.{ I.K.U.{ 9 Y.V.9 U.9 9 V.N.Y..+L.[+J.9 U.J.P.K.2+2+}+_+3+g U.9 { J.N.N. + +X.X.W.{ &       ] ( P.* P.{ 9 % .                 ",
"                          V. +N.N.S.V.P.{ 9 9 9 9 9 9 { L.J.S.=+1+ +X.1+.+P.9 L.M.]+L.=+[+<+=+[+=+=+.+.+L.g !+&+2+}+U.I.%+.+9 P.:+#+!+>+.+%+=+Z.P.J.Y.>+&+.+P. +%+{ 9 9 P.{ 9 L.Z.R.9 P.9 9 9 L.K.( { 9 I.Z.S..+R.{ )+,+.+I.S.Z.Y..+I.{ P.J.J.% 1 l 9 K. +K.9 U.{ M. +W.9 .+&+=+.+L.{ 9 ( .+(+%+g % P.9 9 9 9 { { P.K.N.X.L.P.9 9 9 { U.V.L.W.J.L.&                     ",
"                            & S.X.`.:+Z. +R.M.M.R.S.R.J.V.P.{ L.K..+ +S.Y.@+V.9 9 U.W.S.]+#+}+#+]+`.P.{ S.)+}+^+%+1+V.{ P.9 I.S.2+}+2+&+&+}+}+1+N.L.J.>+2+l U.K.%+K.I.U.9 V.9 M.,+]+M.R.P.9 9 S.V.U.K.9 9 `.1+S.U.I.&+>+>+)+U.V.`.1+.+U.R.S.]+R.K.4+] { `.N.V.{ I. +K.9 L.N.:+>+2+}+g .+L.l U.U.K.W.I.J.R.R.S.N.X.:+~+S.N.{ J.I.J.:+]+Y.X.R.U.(                         ",
"                              U.M.N. +~+[+#+#+#+[+|+|+|+[+[+1+]+.+J.L.U.M.M.]+.+L.9 9 9 { V.S.^+&+1+ +9 V.W.M.I.V.V.V.{ L.K. +X. +:+1+=+=+,+@+R.L.9 9 .+>+U.P.K.L.U.K.{ U.M.S.L.)+>+>+Z.9 9 U.Z.N.Z..+U.{ M.M.V.9 K.>+2+(+V.%+J.U..+^+:+.+=+=+}+_+_+%+9 K. + +U.P.P.{ V.]+Z.Q.N.[+`.J.V.K.R.X.J.P.V.N.X.X.X.X.S.1+[+ +S.J.U.:+,+[+,+Y.S.V.1                             ",
"                                % J.X.Q.S.N.`.Z.1+#+2+2+&+>+|+[+[+&+}+.+l J. +>+[+Y.J.V.U.9 9 { V.K.J.L.{ 9 { 9 { { L.P.{  +`.Y.:+.+M.K.P.9 P.L.J.W.P.9 U.9 K.S.9 9 9 9 K.Z.Y.J.J.K.L.U.9 K.`.Y.]+>+&+K.9 9 U.9 9 V.&+=+l U.^+_+)+K.{ J.,+!+>+!+}+<+V.U..+)+N.V.{ { R.K.X.]+>+)+>+2+_+)+Z.S.L.I.M.N.X.X.X.S.X.]+#+Y.S.S.V.J.=+&+)+Z. +L.&                               ",
"                                  { K.N.S.S.S.S.R.S.N.N.`.%+<+!+|+|+!+}+.+S.>+}+[+[+#+@+Z.`.J.V.L.U.P.P.P.P.U.I.V.++R.{ 9 W. +N.N.X.`.:+[+=+!+]+N. +Y.R.K.9 l V.U.K.{ 9  +`.)+l 9 U.U.9 K.,+Z.]+>+!+>+R.P.9 9 P.L.9 L.{ 9 .+=+=+!+!+]+M.J.M.1+&+]+K.9 W.N.J.U.9 9 W.K.Y.S.Q.~+!+=+2+^+X.L.9 L.Y.Y.`.S.X.Q.Y.[+[+~+Q.Q.Z.9 .+_+&+>+%+1 ; ] & +                           ",
"                                  % 9 K.X.S.S.S.S.S.S.Q.Q.S.Z.!+&+!+[+[+=+% % .+&+|+[+=+[+#+,+]+:+Z.Z.Y.`. + +N.X.N.N.{ I.{ R.S. +]+,+@+:+~+@+,+#+`.N.Z. +Q.{ 9 L.:+V.U.Z.!+!+.+J.l P.P.)+=+!+>+!+}+)+J.{ { M. +{ 9 9 W.P.K.l J.V.U.9 9 9 { { 9 9 9 { V.{ 9 9 9 9 Q.V.1+1+ +Q.S..+.+R.V.L.++Z.#+:+Q.S.X.@+[+[+,+Q.Q.`.K.9 l .+l l I.U.{ [                 . > %         ",
"                                  , 9 9 M.X.S.S.S.Q.`.]+,+[+[+[+[+=+<+}+%+{ 9 { & )+[+#+&+#+[+#+#+#+#+#+#+#+#+#+,+1+:+9 U.L.P.Z.Y. +X.Z.!+#+[+#+#+=+:+]+Z.X.:+V.]+~+1+%+!+!+=+<+)+l { )+!+>+!+>+.+V.{ V.S.`. +P.I.K.S.Y.{ { U.J..+%+%+%+R.L.J.{ 9 U.P.9 9 9 9 { J. +P.J.L.L.,+`.K.J.R.S.N.@+#+:+Q.Q.:+[+[+[+#+X.`.:+.+9 9 9 9 { I.W.K.l l [ [ # & U.% { { 1 #           ",
"                                V.9 9 9 W.Q.Q.R.N.Y.!+2+2+|+[+[+[+[+2+g P.J.S.S.M.V..+2+[+&+&+=+[+[+[+[+[+#+#+#+#+#+.+9 P.S.9 P.%+&+!+#+@+J.>+[+[+#+>+]+@+:+Z.}+=+!+&+>+=+>+_+<+%+.+%+>+!+!+2+& V.K.Q.Y.:+Y.K.S.`.X.X.N.Z.|+>+2+2+@+`.R.K.V.K.R.U.9 9 P.K.M..+1+S.R.9 L.K..+#+[+Z.S.Y.@+[+>+Z.`.Z.,+[+[+[+=+`. +[+.+{ 9 9 K.R.X.N.J.9 9 9 9 P.L.L.9 % [                 ",
"                  , ! ! ! * - % { U.V.R.Z.:+]+,+[+#+#+=+!+>+[+[+!+.+( { R.X.X.X.W.{ L.l ^+>+&+_+<+}+&+&+>+#+[+[+[+=+J.9 P.N.K.9 { .+}+<+_+U.J.3+&+=+[+&+%+!+.+( 9 1 J.[ g _+!+!+&+&+>+l l K.l ^+=+]+1+Z.Q.Z.1+=+=+,+,+.+g 2+g K.U.L.K.l M.J.V.9 9 { J.#+[+|+#+ +X.K.++Q.U.,+,+:+]+#+!+>+}+[+|+[+|+|+[+#+.+K.R.1+.+{ 9 U.Q.S.S.R. +`.++R.S. +Q.V.% &                     ",
"                  1 , - % P.P.K.R.Z.Y.`.1+|+.+#+#+#+[+#+>+_+%+l % 9 { R.S.X.N.Q.M.U.{ R.L.l )+(+_+_+<+!+!+>+>+>+>+l 9 9 U. +N.W.{ 9 L.M..+L.P.K.l )+%+.+g [ l .+_+3+3+g & V.l l l %+>+%+g )+_+=+]+:+S.K.!+!+!+!+!+!+)+( [ 9 U.K.`.]+X.K.{ 9 { U.J.@+[+|+#+>+`.S.X.N.X.R.{ %+&+2+<+<+<+<+<+}+}+2+2+2+[+.+9 W.]+S.{ 1 J.X.Q.X.`.@+#+S.X.S.N.K.{ &                         ",
"                            ^   & U.L.l )+2+l U.K.J.S.J.K.P.9 9 9 { ++X.S.S. +1+]+R.R.R.N.K.{ [ %+_+_+_+<+>+!+,+K.9 9 9 V.N.X. +S.K.P.9 9 9 V.W.{ U..+)+>+<+_+_+_+_+_+<+2+>+)+%+1 % l l .+(+}+%+l V.& [ l l & % > % U.9 U.++ +M.V.P.{ L.J..+1+=+!+>+&+<+!+X.Q.S.S.S.N.V.{ .+#+!+&+_+_+^+^+_+&+#+[+|+,+L.R.Y.l 9 l  +Q.N.]+[+|+>+ +S.X.X.I.{                             ",
"                                    $ ] P.K.%+%+V.9 9 9 { L.L.U.9 K.N.X.X.X.S.X.1+#+ +S.X.N.++{ 9 % l %+^+^+.+U.9 9 9 { S.X.X.Q.]+S.X.R.U.9 P. +X.V.{ l ^+>+)+<+_+<+<+2+2+^+%+`.`.]+=+>+^+2+>+.+)+2+,+:+1+#+,+%+.+ +S.R.W.L.V.l .+:+X.J.K.L.U.% & .+!+[+[+,+]+:+:+N.W.9 9 { P.L.K.L.U.P.P.U.K.%+>+>+!+:+[+%+{ ] .+N.]+[+[+[+2+`.Q.S.X.U.%                               ",
"                                          , U.V.K.9 9 9 P.K.N.N.R.L.{ L.K.Q.N.N.S.:+#+Z.Q.X.X.Q.L.9 9 9 9 { 9 9 9 9 U.R.R.Q.S.X. +1+S.S.N.V.9 J.X.N.R.V.P.V.M.N. +Z.Z.Z.`.N.:+1+#+!+!+,+@+~+:+:+]+#+=+`.K.L.V.V.L.U.L.L.V.V.V.W.K.L.L.U.9 9 P.9 9 9 U.l #+#+[+`.S.S.S.W.K.V.U.9 9 9 9 9 9 9 9 % (+^+.+=+%+I.% )+|+[+[+|+!+&+N.Q.X.M.P.&                                 ",
"                                    ! % - * % { { U.V.K. +]+#+=+#+[+.+K.L.U.U.U.V.J.Y.[+]+ +Q.S.N.R.K.P.9 9 9 9 9 9 U.K.`.:+`.X.Q.~+1+ +Q.X.J.P.R.X.X.N.X.++K.L.U.U.P.P.I.L.L.V.K.W.++R.S.N.N.N.S.S. +S.J.V.I.L.W.N.`. +X.X.S.S.X.X.X.N.N.X. +V.9 L.K.U.{ l Y.`. +N.Q.S.S.S.N.Q.K.U.9 9 9 9 9 9 l .+l l % [ !+|+[+|+[+2+>+Q.S.N.J.{ #                                   ",
"                  & U.U.% % U.K.W.J.J.J.M.Q.N.N. +N.X.S.S.S.Q. +Y.:+]+1+#+=+,+@+Y.M.,+[+|+2+]+S.S.S.X.1+:+J.K.I.P.P.P.9 9 I.R.~+1+#+[+[+1+ +Q.S.L.J.`. + + + +X.X.N.S.M.K.K.S. +X.X.X.X.X.X.S. +N.J.L.L.K.K.M. +#+#+:+ +S.++J.J.M.S.N.N.N.N. +U.{ ,+#+#+R.U.{ K..+]+1+S.Q.S.S.S.S.S.Q.V.P.9 9 9 9 .+_+<+)+[+|+|+#+&+_+>+#+[+@+Z.P.]                                     ",
"                  / K.        ) L.# # & U.! U.L.L.V.Q.N.N.S.R.J.W.++S.Q.X.Z.,+#+=+&+2+}+&+=+!+,+ +Q.S.Q.N. +`.1+#+[+1+.+K.U.{ U.R. +~+,+[+[+1+X.N.J.V.:+[+[+[+[+,+1+~+Z.Z.`. +`.:+:+~+]+]+]+@+J.K.S. +S.X.R.l l K.K.L.U.{ 9 { U.U.U.{ { P.U.U.{ 9 U.:+[+}+}+%+.+K.I.L.M.Y.`. + +Y.~+:+N.X.M.L.9 9 { )+}+&+}+<+<+<+<+&+)+]+ +++I.9 (                 J.                  ",
"                                              P.9 9 9 P.P.{ 9 9 U.R. +N.W.V.V.J.S.,+#+[+[+!+&+_+_+,+]+Z.`. +Q.M.S.Z.,+[+#+#+@+.+J.K.I.K.l ]+[+#+ +S.`.[+[+[+#+#+%+V.9 9 V.1+#+#+#+#+[+|+|+[+[+=+<+2+&+!+!+&+<+!+!+,+.+P.J.]+]+~+:+:+J.{ 9 9 { K.K.V.{ l !+5+5+|+[+[+:+J.K.J.J.V.:+[+]+N.S.S.N.++P.9 1 _+<+_+>+]+X.X.Q.S.Q.W.K.J.J.1 ,                                   ",
"                            W.l                 1 9 9 9 9 { J..+#+#+@+l l .+.+M.9 9 K..+@+.+J.V.1 % U.J.J.V.J. +,+@+,+=+=+#+#+#+=+!+=+1+Z.:+|+[+[+ +Q.1+=+:+J.J.J.Z.:+l { P..+#+#+#+>+&+>+>+!+=+!+2+^+l . [ V.L.V.W.L.W.`.X.X.X.X.N. +R.P.9 P.%+<+<+)+l l _+}+2+_+_+<+}+}+<+<+<+)+`.Q.S.S.S.S.S.S.U.9 l <+#+[+|+:+`.`.N.N.X.Q.Q.L.{ [                                   ",
"                      , &                       [ 9 9 { J.[+]+.+R.M.S.J.W.J.L.9 9 9 9 9 { U.K.l J.R.,+#+=+[+X.K.V.K.J.V.L.I.U.L.K.J.K.1+[+!+>+[+,+%+%+.+J.J.1+>+[+#+!+=+]+K.K.L.U.U.{ M.=+=+}+_+<+_+%+%+^+<+(+!+=+#+Z. + +Q.S.S.S.S.S.S.Q.9 9 U.[+|+=+2+<+2+&+&+&+&+>+>+%+:+`.X.R.S.S.S.S.S.S.S.S.Q.{ 9 S.#+|+|+[+[+[+[+#+]+~+~+Y.V.%                                   ",
"                    g ++g                     # { 9 L.@+]+.+P.9 { L.l :+1+,+1+@+]+Z.`. +Z.Z.Z.Z.)+>+|+[+[+|+|+#+>+.+l .+)+^+}+2+|+[+%+2+)+]+~+~+`.V.J..+^+<+_+<+_+&+#+1+1+]+]+,+=+#+%+L..+^+_+_+>+#+=+=+[+1+1+&+<+}+!+|+[+]+N.Q.S.S.S.S.X.V.9 9 .+#+[+>+#+|+|+[+[+[+[+,+:+ +S.Q.Q.S.Q.S.S.S.S.S.S.S.J.9 9 g _+<+<+<+<+!+ +Q.S.S.Q.N.S.L.&                               ",
"                                            . { 9 W.X.S.++W.M.`.Z.R.J.K.V.L.L.L.I.L.L.L.L.L.U.V.Q.`.<+}+^+^+^+)+.+`.=+#+[+!+<+2+2+&+]+N.Q.Q.Q.Q.S.N.N.S.Q.Q. +.+ +N.N.W.P.9 9 P.L.S.Z.1+.+W.L.l }+V..+X.X.X.++K.J..+^+}+[+[+[+]+X.Q.S.S.S.X.U.9 { .+[+|+=+2+>+=+>+>+&+>+>+!+[+1+~+:+Z.Y.X.Q.Q.S.S.S.X.M.{ 9 l 2+!+=+:+N.N.Q.J.J.M.R.Q.N.W.P.[                           ",
"                                          & 9 U.R.X.X.N.W.I.P.9 9 9 9 9 9 9 9 { U.% { 9 9 P.J.J.V.I.U.> 9 9 9 { R.1+[+|+!+_+(+&+`.M.J.X.S.X.N.M.K.I.U.V.++Q.X.X.N.K.P.9 9 9 9 9 9 9 L.R.`.1+[+~+Z.K.{ W. +L.9 9 9 9 9 L.l X.[+=+#+:+`.Q.Q.S.X.V.9 { l }+}+2+}+}+}+}+)+:+`..+.+%+>+=+[+[+#+,+:+`.Q.Q.S.S.Q.I.9 V.V.I.U.& [ ! ] ! ] & % P.U.L.9 P.[                       ",
"                                        ( { K.N.X.S.K.{ 9 9 9 9 { % - 1 &             % 9 U.9 9 { P.P.9 9 U.W.X.]+#+>+!+.+l V.P.9 9 9 X.Q.V.P.% - ! - P.9 M.S.W.P.% % & [   & % { 9 9 9 K.Q.Q.S.S.X.U.9 I.W.9 - - % % 9 9 9 9 L.J.S.@+#+Y.Q.X.X.M.U.9 L.:+[+#+:+S.M.M.`.:+Z. +Q.Q.`.Z.Z.l :+=+#+[+:+ +S.Q.X.V.9 U.)                           ] ( (                     ",
"                                      - U.S.N.Q.V.{ % % ! . + $                     [ P.% [     | < P.P.++X.Q.@+&+%+K.% % &     E { L.V.> , 1.        ] U.I.% ,                   ( { 9 9 P.R.X.S.S.K.9 { U.{ #         & % % { 9 9 9 I.J..+N.N.S.N.K.{ 9 R.L.9 9 9 9 9 U.I.L.L.V.V.W.R.V.9 L.X.:+]+1+#+]+`.X.K.{ .                                 ( % U.              ",
"                                  . I.J.S.K.I.{ [ )                               % ] ^           % I.X.Q. +)+.+L.(             ' { % .             + { %                             & { 9 9 J.N.X.V.9 /     % &                 . ] P.9 9 { L.++X.X.X.L.9 P.% I.[ / / / .   ] % % U.P.P.L.V.L.U.W.Q.X.`.~+1+X.J.{ ]                                   &               ",
"                                ( I.K.P.{ & .             ~                                     { L.N.S.Z.K.]                   & !               + P.*                                   1 9 9 K.N.K.%                                   ( & { 9 { L.J. +R.I.{ 1                         ] ! L.V.K.P.{ { P.U.V.K.J.9 %                                                 ",
"                            ' % 9 % ,                   L.S.                                @ { K. +++K.(                                                                                   [ % 9 K.W.*                                           1 & { { V.R.J.P.(                               - K.L.P.( ( % & P.9 9 { ]                                             ",
"                          1 { &                                                           [ P.J.J.L.[                                                                                           % 9 V.{             ! L.                                  ( % I.M.K.1                                 ! ( % .         & % 9 %                                           ",
"                          l '               g M.                                        [ I.W.( +                                                                                                 ( 9 9 (             , L.g         &                           , U.K.U.]                   ]               ( %             [ { U.[ ~                                   ",
"                                          ~ K.l                   [                   % V.J.                                                                                                        ( 9 {               % I.M.                                      , ! { % @               + P.J.g                               [ { %                                 ",
"                                            I.V.W. +X.Q.M.l ( ( -                 & { &                                                                                                               ( 9 [               { P.l                                           & { &               % 9 W.g                                                                   ",
"                                            [ { K.L.P.{ % ( /                 V.% { (                                                                                                                   P.                + P.W.R.                                          # > 1             + L.U.S.                                                                  ",
"                                            % % * ]                         & % &                                                                                                                       & %                   R.M.                                              -                 S.g                                                                   ",
"                                            +                                                                                                                                                             %                                                                                                                                                             ",
"                                                                                                                                                                                                                                                                                                                                                                        ",
"                                                                                                                                                                                                                                                                                                                                                                        ",
"                                                                                                                                                                                                                                                                                                                                                                        ",
"                                                                                                                                                                                                                                                                                                                                                                        ",
"                                                                                                                                                                                                                                                                                                                                                                        ",
"                                                                                                                                                                                                                                                                                                                                                                        "};
