/* XPM */
static char * opeope2_xpm[] = {
"49 49 1098 2",
"  	c None",
". 	c #B4A060",
"+ 	c #A79453",
"@ 	c #988C4B",
"# 	c #AC9950",
"$ 	c #AE9B5C",
"% 	c #B69D62",
"& 	c #CFB274",
"* 	c #898342",
"= 	c #B09A52",
"- 	c #BAA264",
"; 	c #B49D5A",
"> 	c #BAA361",
", 	c #BE9F5B",
"' 	c #D2B27D",
") 	c #787B46",
"! 	c #A59252",
"~ 	c #C5A968",
"{ 	c #C3A768",
"] 	c #CBAD6E",
"^ 	c #A49657",
"/ 	c #C1A35F",
"( 	c #9F9249",
"_ 	c #B29A52",
": 	c #A89459",
"< 	c #9B9259",
"[ 	c #BEA970",
"} 	c #968C55",
"| 	c #68723E",
"1 	c #4B6A3A",
"2 	c #546F3E",
"3 	c #5B7344",
"4 	c #567041",
"5 	c #586D3B",
"6 	c #7D7C43",
"7 	c #AA9857",
"8 	c #A29454",
"9 	c #B39C51",
"0 	c #BAA053",
"a 	c #A69557",
"b 	c #A8995E",
"c 	c #AE9D65",
"d 	c #757A48",
"e 	c #6F7A4A",
"f 	c #948E57",
"g 	c #A49559",
"h 	c #B29D61",
"i 	c #B9A062",
"j 	c #B79E5B",
"k 	c #BAA05D",
"l 	c #B89E5D",
"m 	c #A99756",
"n 	c #A59354",
"o 	c #AB9558",
"p 	c #AC9A56",
"q 	c #A3924A",
"r 	c #A8995F",
"s 	c #6E7945",
"t 	c #577141",
"u 	c #958E58",
"v 	c #AE995E",
"w 	c #CFAF67",
"x 	c #7D7F43",
"y 	c #9B8D4A",
"z 	c #CAAE6F",
"A 	c #D6BD87",
"B 	c #B8A773",
"C 	c #B4A163",
"D 	c #B5A062",
"E 	c #B6A05F",
"F 	c #948C4D",
"G 	c #58723D",
"H 	c #928A49",
"I 	c #B29C54",
"J 	c #A19151",
"K 	c #938E53",
"L 	c #989257",
"M 	c #9D945B",
"N 	c #AC9B62",
"O 	c #B7A066",
"P 	c #928A4A",
"Q 	c #81813F",
"R 	c #9F904B",
"S 	c #828244",
"T 	c #928B4F",
"U 	c #A0904F",
"V 	c #998E4C",
"W 	c #A09454",
"X 	c #CBA470",
"Y 	c #BD8A5C",
"Z 	c #B97B4F",
"` 	c #B86A43",
" .	c #B76D44",
"..	c #C48C57",
"+.	c #DCB670",
"@.	c #C6A16E",
"#.	c #D2A96B",
"$.	c #C89F64",
"%.	c #BE8958",
"&.	c #C1915E",
"*.	c #858545",
"=.	c #908A4E",
"-.	c #BF8D5E",
";.	c #BC7A54",
">.	c #C3865E",
",.	c #C18257",
"'.	c #C38251",
").	c #C57A4E",
"!.	c #BF7251",
"~.	c #BE7D53",
"{.	c #B35D3E",
"].	c #B4523C",
"^.	c #BF7D50",
"/.	c #D6B273",
"(.	c #D0AD69",
"_.	c #CA945A",
":.	c #C07553",
"<.	c #C08054",
"[.	c #B35840",
"}.	c #BF7351",
"|.	c #B85F45",
"1.	c #AF4237",
"2.	c #C4844A",
"3.	c #C8985A",
"4.	c #7A834D",
"5.	c #808244",
"6.	c #C69D71",
"7.	c #B46447",
"8.	c #B85942",
"9.	c #BA6747",
"0.	c #B65B41",
"a.	c #B84D40",
"b.	c #B64E39",
"c.	c #BD6C43",
"d.	c #B96E45",
"e.	c #B03936",
"f.	c #AD1F2A",
"g.	c #AF172A",
"h.	c #B13732",
"i.	c #BD7046",
"j.	c #D9B465",
"k.	c #C18A5D",
"l.	c #B25F43",
"m.	c #B5593D",
"n.	c #B24D37",
"o.	c #C3804B",
"p.	c #B6563C",
"q.	c #B84D3F",
"r.	c #BB6343",
"s.	c #B03830",
"t.	c #AA0022",
"u.	c #C06F46",
"v.	c #BB6844",
"w.	c #B3513B",
"x.	c #C68A52",
"y.	c #9D8F53",
"z.	c #A19556",
"A.	c #C89D5C",
"B.	c #BB6D48",
"C.	c #AE272F",
"D.	c #B33C34",
"E.	c #BD6D46",
"F.	c #BF7F50",
"G.	c #B55D41",
"H.	c #B33F37",
"I.	c #BD6C48",
"J.	c #B04932",
"K.	c #AF132B",
"L.	c #B23435",
"M.	c #BD614B",
"N.	c #BD6245",
"O.	c #B33E30",
"P.	c #C98B4D",
"Q.	c #C48650",
"R.	c #B5714C",
"S.	c #B1473A",
"T.	c #BA5846",
"U.	c #B12632",
"V.	c #AB0127",
"W.	c #C27B4B",
"X.	c #B54837",
"Y.	c #B23432",
"Z.	c #C17847",
"`.	c #C1774C",
" +	c #BF7551",
".+	c #BC724E",
"++	c #B24438",
"@+	c #AE192B",
"#+	c #B1392F",
"$+	c #B87B4C",
"%+	c #B47448",
"&+	c #BC6C41",
"*+	c #BC603F",
"=+	c #AE002B",
"-+	c #B12C2E",
";+	c #B33F34",
">+	c #B24737",
",+	c #B3483B",
"'+	c #BC684D",
")+	c #B96A49",
"!+	c #AE1C2C",
"~+	c #B0272F",
"{+	c #B75141",
"]+	c #C07A52",
"^+	c #BF6840",
"/+	c #B85A3A",
"(+	c #C27847",
"_+	c #B44E37",
":+	c #CB955A",
"<+	c #BF8A57",
"[+	c #B2473B",
"}+	c #BF7854",
"|+	c #B96747",
"1+	c #C57C4D",
"2+	c #B23F31",
"3+	c #C57B47",
"4+	c #B54636",
"5+	c #AE172D",
"6+	c #B44A36",
"7+	c #B4523B",
"8+	c #B4523E",
"9+	c #B24539",
"0+	c #B02E31",
"a+	c #AF172B",
"b+	c #B84E3F",
"c+	c #C07450",
"d+	c #BD7552",
"e+	c #C58754",
"f+	c #C37A48",
"g+	c #B22D2E",
"h+	c #AD0026",
"i+	c #B12B32",
"j+	c #BC5F49",
"k+	c #BE7552",
"l+	c #B76147",
"m+	c #B13734",
"n+	c #AD0027",
"o+	c #B43C35",
"p+	c #BE6847",
"q+	c #B76043",
"r+	c #BF6E4A",
"s+	c #B35737",
"t+	c #C1784B",
"u+	c #AE182B",
"v+	c #B85E3F",
"w+	c #D8B172",
"x+	c #CEA368",
"y+	c #B5643D",
"z+	c #C06347",
"A+	c #B96946",
"B+	c #B13931",
"C+	c #BC5D3F",
"D+	c #BA6541",
"E+	c #C17342",
"F+	c #C06D44",
"G+	c #B23431",
"H+	c #AC0A28",
"I+	c #AC0A27",
"J+	c #AE0428",
"K+	c #AF0C29",
"L+	c #AC0024",
"M+	c #C27550",
"N+	c #C28355",
"O+	c #B35C43",
"P+	c #B5543D",
"Q+	c #BA6440",
"R+	c #BC7248",
"S+	c #BD754E",
"T+	c #BD6F4F",
"U+	c #B76246",
"V+	c #B34E3C",
"W+	c #AF2E2F",
"X+	c #B33336",
"Y+	c #BF644E",
"Z+	c #C36C4E",
"`+	c #C2704A",
" @	c #B45439",
".@	c #B23D35",
"+@	c #B04132",
"@@	c #C17D4F",
"#@	c #AE0A2B",
"$@	c #B23732",
"%@	c #C68352",
"&@	c #C27B50",
"*@	c #B6573A",
"=@	c #B74C3B",
"-@	c #C1774A",
";@	c #BE704E",
">@	c #B44539",
",@	c #BC7048",
"'@	c #B54F38",
")@	c #B95E3D",
"!@	c #BF7449",
"~@	c #C0724D",
"{@	c #BE664A",
"]@	c #C0664E",
"^@	c #C16E52",
"/@	c #BE7251",
"(@	c #C68559",
"_@	c #C07F52",
":@	c #B4583D",
"<@	c #B02C2E",
"[@	c #AC0028",
"}@	c #AF2F2F",
"|@	c #B5503A",
"1@	c #B75640",
"2@	c #B54F3E",
"3@	c #AF3832",
"4@	c #AF1E2F",
"5@	c #B95847",
"6@	c #BE7753",
"7@	c #B55F41",
"8@	c #B86444",
"9@	c #C27E4C",
"0@	c #C48049",
"a@	c #B95543",
"b@	c #C07355",
"c@	c #B65D3E",
"d@	c #AF192C",
"e@	c #B33835",
"f@	c #C57F55",
"g@	c #C49560",
"h@	c #B54B3B",
"i@	c #C37C49",
"j@	c #AF292D",
"k@	c #B54E3A",
"l@	c #B34B3A",
"m@	c #BC664B",
"n@	c #B45A40",
"o@	c #AF2C2F",
"p@	c #B03330",
"q@	c #B6533C",
"r@	c #C68959",
"s@	c #BE8052",
"t@	c #B66144",
"u@	c #B45241",
"v@	c #C48357",
"w@	c #BB6B48",
"x@	c #AD0626",
"y@	c #B12931",
"z@	c #BB5946",
"A@	c #B95141",
"B@	c #AE152B",
"C@	c #AF1E2C",
"D@	c #AE0F29",
"E@	c #B65342",
"F@	c #BF7856",
"G@	c #AE312C",
"H@	c #AE352F",
"I@	c #B55139",
"J@	c #BC6841",
"K@	c #C17D50",
"L@	c #B76C4A",
"M@	c #AF2B30",
"N@	c #AF212D",
"O@	c #B33B36",
"P@	c #C78557",
"Q@	c #CB9357",
"R@	c #CC9D5B",
"S@	c #B03031",
"T@	c #C06F42",
"U@	c #C1724A",
"V@	c #BC5D4A",
"W@	c #BE6D51",
"X@	c #CC9663",
"Y@	c #BC6A4A",
"Z@	c #AE202E",
"`@	c #AD122A",
" #	c #AF2431",
".#	c #BB6D51",
"+#	c #BA714C",
"@#	c #B15138",
"##	c #AE2E2D",
"$#	c #AB0025",
"%#	c #BC6B48",
"&#	c #B95A41",
"*#	c #B33738",
"=#	c #BA684E",
"-#	c #B96A4A",
";#	c #BE7148",
">#	c #BC6341",
",#	c #AF232E",
"'#	c #B13033",
")#	c #BA6247",
"!#	c #B96949",
"~#	c #AC0027",
"{#	c #B33335",
"]#	c #B53F3A",
"^#	c #AD0029",
"/#	c #B3483A",
"(#	c #C18153",
"_#	c #AD342C",
":#	c #B0202E",
"<#	c #AF242E",
"[#	c #B13F36",
"}#	c #C88657",
"|#	c #CA8457",
"1#	c #C8854F",
"2#	c #B85A3B",
"3#	c #B43F34",
"4#	c #C98E5E",
"5#	c #BB734D",
"6#	c #B76349",
"7#	c #B96D49",
"8#	c #BB6A46",
"9#	c #C2774C",
"0#	c #B44337",
"a#	c #BE7053",
"b#	c #BB6E50",
"c#	c #AF3734",
"d#	c #AE0228",
"e#	c #AF172C",
"f#	c #AD1B2A",
"g#	c #BD6B46",
"h#	c #B8553D",
"i#	c #BD6447",
"j#	c #C0744F",
"k#	c #B04337",
"l#	c #B8583C",
"m#	c #C06E47",
"n#	c #B54C38",
"o#	c #AE102B",
"p#	c #B84E3E",
"q#	c #BD6849",
"r#	c #AF3D32",
"s#	c #B75043",
"t#	c #C17C58",
"u#	c #BD6A46",
"v#	c #B75239",
"w#	c #B54D3E",
"x#	c #C07751",
"y#	c #AE0828",
"z#	c #AE152A",
"A#	c #AF3C33",
"B#	c #CA8C58",
"C#	c #D5A063",
"D#	c #C2744E",
"E#	c #C78151",
"F#	c #BF7959",
"G#	c #B8664A",
"H#	c #AD4332",
"I#	c #AC2029",
"J#	c #AB0E27",
"K#	c #B14134",
"L#	c #BA6041",
"M#	c #C37D50",
"N#	c #BF7B52",
"O#	c #B13E35",
"P#	c #AD0A27",
"Q#	c #B85344",
"R#	c #BA5544",
"S#	c #AE1F2E",
"T#	c #BA5A3E",
"U#	c #BD6B47",
"V#	c #B5513B",
"W#	c #B84D42",
"X#	c #BB6349",
"Y#	c #B14732",
"Z#	c #BB5841",
"`#	c #BF6B48",
" $	c #B14236",
".$	c #BF6B4D",
"+$	c #B76347",
"@$	c #BA6040",
"#$	c #C47B4D",
"$$	c #B95E44",
"%$	c #B65B3F",
"&$	c #B02B31",
"*$	c #BC614C",
"=$	c #BF7550",
"-$	c #CA8A54",
";$	c #CF9958",
">$	c #C98F58",
",$	c #CE9A61",
"'$	c #BB6C50",
")$	c #B54A40",
"!$	c #BD604A",
"~$	c #B13133",
"{$	c #AF222E",
"]$	c #B01F2D",
"^$	c #AC0026",
"/$	c #C78556",
"($	c #B55C3E",
"_$	c #B02D32",
":$	c #BC6950",
"<$	c #BA6C4F",
"[$	c #BA6B49",
"}$	c #BD6445",
"|$	c #C4734A",
"1$	c #C3744A",
"2$	c #B54737",
"3$	c #B14133",
"4$	c #B96047",
"5$	c #C4805C",
"6$	c #C4885B",
"7$	c #BD6C4A",
"8$	c #B5443B",
"9$	c #B43E34",
"0$	c #BE6845",
"a$	c #BB6441",
"b$	c #BE6746",
"c$	c #B4483B",
"d$	c #C68558",
"e$	c #BF6D4B",
"f$	c #AD372D",
"g$	c #B22F33",
"h$	c #B85B48",
"i$	c #BB7151",
"j$	c #C88953",
"k$	c #C47D51",
"l$	c #C0844C",
"m$	c #C9915C",
"n$	c #B85443",
"o$	c #BB6D4F",
"p$	c #BA6749",
"q$	c #C3784E",
"r$	c #B33B35",
"s$	c #AE0D2B",
"t$	c #C57D52",
"u$	c #B34636",
"v$	c #B95643",
"w$	c #C17755",
"x$	c #B2513D",
"y$	c #AF4033",
"z$	c #C2784C",
"A$	c #BE6645",
"B$	c #B95D41",
"C$	c #BB6B49",
"D$	c #B9664A",
"E$	c #B8654C",
"F$	c #BA6D4E",
"G$	c #BB6C4B",
"H$	c #BA6647",
"I$	c #BF714C",
"J$	c #BC6347",
"K$	c #BC5F41",
"L$	c #C57D4F",
"M$	c #C2714F",
"N$	c #C37B57",
"O$	c #BA6E52",
"P$	c #B96648",
"Q$	c #C3744E",
"R$	c #AD2D2C",
"S$	c #B3423A",
"T$	c #C27A57",
"U$	c #AE4236",
"V$	c #B64C3D",
"W$	c #CA8D55",
"X$	c #CE9462",
"Y$	c #C7905E",
"Z$	c #C27D51",
"`$	c #C67D55",
" %	c #B25740",
".%	c #AB2D2C",
"+%	c #C57B4E",
"@%	c #B75D41",
"#%	c #AF262D",
"$%	c #AD0028",
"%%	c #BC6645",
"&%	c #BF6E48",
"*%	c #B95740",
"=%	c #BB6545",
"-%	c #B5503C",
";%	c #B33639",
">%	c #BD7250",
",%	c #B55440",
"'%	c #AC0C29",
")%	c #BA6549",
"!%	c #B3523E",
"~%	c #AD242B",
"{%	c #AE0028",
"]%	c #AD282C",
"^%	c #B5583E",
"/%	c #C2764E",
"(%	c #C06D47",
"_%	c #BA5F42",
":%	c #BB6B4B",
"<%	c #B96A4F",
"[%	c #B65E49",
"}%	c #B33B33",
"|%	c #C16F4B",
"1%	c #B24835",
"2%	c #B5463A",
"3%	c #C88456",
"4%	c #B5483D",
"5%	c #C37D5A",
"6%	c #C98A54",
"7%	c #D5AC6A",
"8%	c #C68953",
"9%	c #C3784D",
"0%	c #BC6748",
"a%	c #B02C30",
"b%	c #B9513F",
"c%	c #BC6F4A",
"d%	c #BB5E49",
"e%	c #B74C41",
"f%	c #BE6C48",
"g%	c #BD694B",
"h%	c #C5835A",
"i%	c #C2825B",
"j%	c #BF7657",
"k%	c #C28259",
"l%	c #BE704D",
"m%	c #B33A34",
"n%	c #AE0D29",
"o%	c #AE142A",
"p%	c #AF1D2C",
"q%	c #AF1B2A",
"r%	c #AE1228",
"s%	c #AE0B29",
"t%	c #BA5C40",
"u%	c #C3774D",
"v%	c #AE292F",
"w%	c #AF3E32",
"x%	c #AE3D34",
"y%	c #AD1029",
"z%	c #B22F31",
"A%	c #BA5D41",
"B%	c #C07147",
"C%	c #B12A31",
"D%	c #BD6845",
"E%	c #B9694B",
"F%	c #BC7250",
"G%	c #D0965F",
"H%	c #DABD78",
"I%	c #C58451",
"J%	c #C2774F",
"K%	c #BC6A49",
"L%	c #AC1927",
"M%	c #C2785B",
"N%	c #C08057",
"O%	c #BC6F50",
"P%	c #BC6A4C",
"Q%	c #BD6F50",
"R%	c #B85841",
"S%	c #B95F46",
"T%	c #C88C62",
"U%	c #C27D5B",
"V%	c #B9664C",
"W%	c #C37A51",
"X%	c #BC6346",
"Y%	c #B02D31",
"Z%	c #AF252E",
"`%	c #AE1528",
" &	c #B54B41",
".&	c #BC6951",
"+&	c #BC6A4D",
"@&	c #B75341",
"#&	c #BE6848",
"$&	c #B95C43",
"%&	c #AF112C",
"&&	c #AF222D",
"*&	c #AF272F",
"=&	c #AE1D2C",
"-&	c #B64F3B",
";&	c #C88453",
">&	c #AF182A",
",&	c #AC0A29",
"'&	c #B34F3D",
")&	c #B9634B",
"!&	c #D7A76D",
"~&	c #BD724C",
"{&	c #C07851",
"]&	c #B8634A",
"^&	c #BE7555",
"/&	c #C17F5D",
"(&	c #B86649",
"_&	c #AD4334",
":&	c #B24E39",
"<&	c #C57D55",
"[&	c #BB6F52",
"}&	c #B14439",
"|&	c #B85C48",
"1&	c #B3483F",
"2&	c #B44939",
"3&	c #C07150",
"4&	c #B75542",
"5&	c #AE1128",
"6&	c #B5443E",
"7&	c #BC6D55",
"8&	c #BD7457",
"9&	c #C17553",
"0&	c #B44038",
"a&	c #BB5F45",
"b&	c #BE714D",
"c&	c #AE112B",
"d&	c #AF1229",
"e&	c #B23634",
"f&	c #C37B56",
"g&	c #CA8B61",
"h&	c #BA6B51",
"i&	c #B9654F",
"j&	c #BF7C5B",
"k&	c #D8AC77",
"l&	c #CA9467",
"m&	c #B34E3D",
"n&	c #CD9C70",
"o&	c #B2483B",
"p&	c #B9574C",
"q&	c #B74F46",
"r&	c #B02531",
"s&	c #AB001F",
"t&	c #C57C56",
"u&	c #CB8F65",
"v&	c #B76549",
"w&	c #AA1825",
"x&	c #C78D66",
"y&	c #BF7356",
"z&	c #B75549",
"A&	c #BE7457",
"B&	c #B55340",
"C&	c #AD0023",
"D&	c #C06E54",
"E&	c #BD6F52",
"F&	c #A9001E",
"G&	c #B5453D",
"H&	c #B95E48",
"I&	c #BB674F",
"J&	c #B65B42",
"K&	c #AF1B2C",
"L&	c #AF202C",
"M&	c #B02630",
"N&	c #B75347",
"O&	c #BA6952",
"P&	c #BC7358",
"Q&	c #C99567",
"R&	c #BD7B59",
"S&	c #BB7356",
"T&	c #BB7457",
"U&	c #DABE8B",
"V&	c #B64C3F",
"W&	c #B84941",
"X&	c #BD7256",
"Y&	c #BC6955",
"Z&	c #BF755D",
"`&	c #C58363",
" *	c #B54D40",
".*	c #AF1A2A",
"+*	c #B95344",
"@*	c #C99367",
"#*	c #C17D58",
"$*	c #AF302F",
"%*	c #BE7052",
"&*	c #BF7658",
"**	c #BF7A5F",
"=*	c #B65F4D",
"-*	c #AD232B",
";*	c #AC001E",
">*	c #C17959",
",*	c #C98B66",
"'*	c #B33D39",
")*	c #AE2A2F",
"!*	c #B55345",
"~*	c #C28262",
"{*	c #C68C69",
"]*	c #B03634",
"^*	c #AE0125",
"/*	c #B13536",
"(*	c #BB6553",
"_*	c #BD775C",
":*	c #BC7558",
"<*	c #B25746",
"[*	c #AC0022",
"}*	c #B22C32",
"|*	c #CB8C6F",
"1*	c #C68966",
"2*	c #BA5C4A",
"3*	c #C17958",
"4*	c #C0795D",
"5*	c #AB2E2C",
"6*	c #C78361",
"7*	c #B8624A",
"8*	c #AD272C",
"9*	c #B95649",
"0*	c #BD7757",
"a*	c #C99167",
"b*	c #BC654E",
"c*	c #AC1327",
"d*	c #B25845",
"e*	c #B04E3E",
"f*	c #AD0D24",
"g*	c #AF0126",
"h*	c #B54F45",
"i*	c #C08063",
"j*	c #C27B5E",
"k*	c #BC7259",
"l*	c #BB7257",
"m*	c #C28966",
"n*	c #C78F69",
"o*	c #BD6750",
"p*	c #B65043",
"q*	c #BA6454",
"r*	c #BF7C61",
"s*	c #B45B49",
"t*	c #B65247",
"u*	c #B95B4B",
"v*	c #B43A39",
"w*	c #B12A30",
"x*	c #BA5E4E",
"y*	c #D7BB8F",
"z*	c #B75D47",
"A*	c #CC8F68",
"B*	c #B85F4B",
"C*	c #B43B39",
"D*	c #C48164",
"E*	c #B65C49",
"F*	c #AC0423",
"G*	c #C27B5F",
"H*	c #B65B46",
"I*	c #BC6F53",
"J*	c #C27B5B",
"K*	c #BD6850",
"L*	c #BA5D4A",
"M*	c #B95A4A",
"N*	c #BB6451",
"O*	c #BE6F58",
"P*	c #C18166",
"Q*	c #B66451",
"R*	c #AE342F",
"S*	c #C48868",
"T*	c #CEA37B",
"U*	c #BA7457",
"V*	c #A92629",
"W*	c #B03F36",
"X*	c #C37F5D",
"Y*	c #CD926D",
"Z*	c #BE7C63",
"`*	c #B24C3F",
" =	c #B95C4E",
".=	c #C17F64",
"+=	c #C38062",
"@=	c #C27559",
"#=	c #B3443D",
"$=	c #CF9878",
"%=	c #CB9A72",
"&=	c #C37C5A",
"*=	c #C07B5C",
"==	c #BD6F57",
"-=	c #BD7E61",
";=	c #B13837",
">=	c #B33C3C",
",=	c #C18162",
"'=	c #B44D41",
")=	c #AB001B",
"!=	c #B75C48",
"~=	c #CC966F",
"{=	c #C9926B",
"]=	c #C07B5D",
"^=	c #C38366",
"/=	c #CA9C75",
"(=	c #C28563",
"_=	c #B03432",
":=	c #B95D4C",
"<=	c #BE795F",
"[=	c #B3564A",
"}=	c #B64C42",
"|=	c #B95947",
"1=	c #CC936C",
"2=	c #B86E53",
"3=	c #B64A43",
"4=	c #C38667",
"5=	c #AB3534",
"6=	c #B44239",
"7=	c #CD926A",
"8=	c #C47D60",
"9=	c #BF7558",
"0=	c #B86D54",
"a=	c #B44D40",
"b=	c #B75846",
"c=	c #C88F6C",
"d=	c #BF7C5E",
"e=	c #B85C49",
"f=	c #B33A37",
"g=	c #B33637",
"h=	c #BF7A5E",
"i=	c #B2604A",
"j=	c #AE4A3D",
"k=	c #B35644",
"l=	c #B8634B",
"m=	c #C48360",
"n=	c #C47C5C",
"o=	c #C17F5E",
"p=	c #BC7256",
"q=	c #B85F4E",
"r=	c #C58868",
"s=	c #C2795A",
"t=	c #B4453A",
"u=	c #B4423A",
"v=	c #BD6F51",
"w=	c #B55A40",
"x=	c #B85546",
"y=	c #C88C67",
"z=	c #B5403E",
"A=	c #B5493E",
"B=	c #CA8B67",
"C=	c #D9BA82",
"D=	c #C88963",
"E=	c #BD6950",
"F=	c #BE7055",
"G=	c #C68C67",
"H=	c #C69569",
"I=	c #C38260",
"J=	c #C27C5C",
"K=	c #BB6950",
"L=	c #CA8862",
"M=	c #B76148",
"N=	c #B44A41",
"O=	c #C1795E",
"P=	c #C48665",
"Q=	c #C47C5B",
"R=	c #C37A58",
"S=	c #C88B61",
"T=	c #BB6C51",
"U=	c #BA6850",
"V=	c #AD4135",
"W=	c #BA674A",
"X=	c #BF7353",
"Y=	c #BD684D",
"Z=	c #B86348",
"`=	c #B6473C",
" -	c #C7845F",
".-	c #BD735A",
"+-	c #D5B575",
"@-	c #BF8154",
"#-	c #AE503B",
"$-	c #A80922",
"%-	c #AF2F32",
"&-	c #B24339",
"*-	c #AC302F",
"=-	c #B9674A",
"--	c #CE9F68",
";-	c #C17152",
">-	c #B86347",
",-	c #A8001D",
"'-	c #BB6548",
")-	c #C1754F",
"!-	c #B7513B",
"~-	c #B03A37",
"{-	c #BC6D50",
"]-	c #B55341",
"^-	c #B6443C",
"/-	c #C17251",
"(-	c #B65A3D",
"_-	c #AB1928",
":-	c #B25341",
"<-	c #C98665",
"[-	c #D29561",
"}-	c #BA5740",
"|-	c #B3453B",
"1-	c #BC6E53",
"2-	c #C17B58",
"3-	c #BE6A4B",
"4-	c #B95F3E",
"5-	c #BD6844",
"6-	c #B6583F",
"7-	c #AF3230",
"8-	c #AC0F28",
"9-	c #BD6B48",
"0-	c #BB6044",
"a-	c #BB6144",
"b-	c #C47D53",
"c-	c #B96049",
"d-	c #BD7355",
"e-	c #BA674D",
"f-	c #AA001C",
"g-	c #B85643",
"h-	c #C7895A",
"i-	c #BE6D47",
"j-	c #B4433C",
"k-	c #B85847",
"l-	c #C57D5F",
"m-	c #CE9563",
"n-	c #CC9463",
"o-	c #B35940",
"p-	c #A80625",
"q-	c #C68452",
"r-	c #B95E41",
"s-	c #AC0329",
"t-	c #C98753",
"u-	c #B03433",
"v-	c #B23936",
"w-	c #B64E41",
"x-	c #BC6B4B",
"y-	c #B6553F",
"z-	c #AD0D2A",
"A-	c #C17651",
"B-	c #C68D5D",
"C-	c #B25741",
"D-	c #B34239",
"E-	c #C37F53",
"F-	c #C2784D",
"G-	c #C7855F",
"H-	c #D09B6F",
"I-	c #BB6241",
"J-	c #B03632",
"K-	c #BD7350",
"L-	c #B3523C",
"M-	c #B03032",
"N-	c #C17D4D",
"O-	c #C88A56",
"P-	c #BE6D4C",
"Q-	c #BC664D",
"R-	c #C8895E",
"S-	c #BC704D",
"T-	c #AD1528",
"U-	c #B95441",
"V-	c #BB6749",
"W-	c #B5503F",
"X-	c #BD6A50",
"Y-	c #C2815D",
"Z-	c #C8885D",
"`-	c #C68556",
" ;	c #B24E3C",
".;	c #B3463E",
"+;	c #C07D54",
"@;	c #B76547",
"#;	c #B24237",
"$;	c #BF7054",
"%;	c #B55B43",
"&;	c #AC1F28",
"*;	c #B4563F",
"=;	c #B76844",
"-;	c #BA7245",
";;	c #C1784A",
">;	c #B94F3A",
",;	c #BB6445",
"';	c #BA6344",
");	c #BD714E",
"!;	c #AB0020",
"~;	c #B95139",
"{;	c #BF6D44",
"];	c #B45341",
"^;	c #C78561",
"/;	c #C67F51",
"(;	c #C78459",
"_;	c #B9704C",
":;	c #AF3731",
"<;	c #B43C39",
"[;	c #BF6D4F",
"};	c #C57853",
"|;	c #B94F3D",
"1;	c #B9593B",
"2;	c #BD693F",
"3;	c #BF7244",
"4;	c #B9613D",
"5;	c #C0714A",
"6;	c #B23B37",
"7;	c #BC6144",
"8;	c #C98A59",
"9;	c #C6895F",
"0;	c #BA5B3A",
"a;	c #B0272C",
"b;	c #B86445",
"c;	c #AC3D2E",
"d;	c #BE7142",
"e;	c #B95638",
"f;	c #B95A39",
"g;	c #C8854B",
"h;	c #BC603D",
"i;	c #B34334",
"j;	c #BC734A",
"k;	c #B76849",
"l;	c #BC6B49",
"m;	c #C47B4B",
"n;	c #C2784A",
"o;	c #C5784C",
"p;	c #B84D3B",
"q;	c #BA6340",
"r;	c #B7573C",
"s;	c #B8593C",
"t;	c #C47E46",
"u;	c #BD653A",
"v;	c #B23330",
"w;	c #B33236",
"x;	c #BE6A4E",
"y;	c #C17842",
"z;	c #C07A4A",
"A;	c #BA6C47",
"B;	c #B44B3C",
"C;	c #B96143",
"D;	c #B5553C",
"E;	c #BA603B",
"F;	c #C67D4A",
"G;	c #C57F56",
"H;	c #CA854B",
"I;	c #C16A49",
"J;	c #C27955",
"K;	c #B86344",
"L;	c #AD1529",
"M;	c #AE192D",
"N;	c #B8643F",
"O;	c #C38047",
"P;	c #B64A37",
"Q;	c #AE222C",
"R;	c #B95944",
"S;	c #C58158",
"T;	c #C78651",
"U;	c #C38A57",
"                                                                                                  ",
"                      . + @ #                                                                     ",
"                    $ %   & * =                                                                   ",
"                  - ; > , ' ) !                     ~ { ]                                         ",
"                  ^ / ( _ : <               [ } | 1 2 3 4 5 6 7                                   ",
"                  8 9 0 a b             c d e f g h i j k l m n o                                 ",
"                  p q               r s t u v                                                     ",
"                  w x y z   A B C D E F G H                                                       ",
"                    I J K L M N O       P Q R                                                     ",
"                                          S T                                                     ",
"                                          U V W           X Y Z `  ...+.                          ",
"                        @.#.$.%.&.          *.=.      -.;.>.,.'.).!.~.{.].^./.                    ",
"                    (._.:.<.[.}.|.1.2.3.    4.5.  6.7.8.9.0.a.b.c.d.e.f.g.h.i.j.                  ",
"                k.l.m.n.o.p.q.r.s.t.u.v.w.x.y.z.A.B.C.D.E.F.G.H.I.J.K.L.M.N.O.P.Q.                ",
"              R.S.T.U.V.W.X.Y.Z.`. +.+++@+#+$+%+&+*+=+-+;+>+,+'+)+!+~+{+]+^+/+(+_+:+              ",
"            <+[+}+|+1+2+3+4+5+6+7+8+9+0+a+b+c+d+e+f+g+h+i+j+k+l+m+n+o+p+q+r+s+t+u+v+w+            ",
"          x+y+z+A+B+C+D+E+F+G+n+H+I+J+K+L+M+N+O+P+Q+R+S+T+U+V+W+X+Y+Z+`+ @.@+@@@#@$@%@            ",
"          &@*@=@-@;@>@,@'@)@!@~@{@]@^@/@(@_@:@<@[@}@|@1@2@3@4@5@6@7@8@9@0@a@b@c@d@e@f@            ",
"        g@h@i@j@k@l@m@n@o@p@q@1@r@s@t@u@v@w@x@y@z@A@B@d@C@D@E@F@8+G@H@I@J@K@L@M@N@O@P@Q@          ",
"        R@S@T@U@V@W@X@Y@Z@`@ #.#+#@###$#%#&#*#=#-#;#>#C@,#'#)#!#~#{#]#^#/#(#_#:#<#[#}#|#          ",
"        1#2#3#4#5#6#7#8#9#0#a#b#c#d#e#f#g#h#i#j#k#l#m#n#o#p#q#r#s#t#u#v#w#x#y#<#z#A#B#C#          ",
"        D#E#F#G#H#I#J#K#L#M#N#O#P#Q#R#S#u.T#X.U#V#W#X#Y#[@Z#`# $.$+$@$#$$$%$a+&$*$=$-$;$          ",
"        >$,$'$)$!$~${$]$^$/$($_$:$<$[$}$|$1$2$3$4$5$6$7$8$9$0$a$b$*@c$d$e$f$g$h$i$w@j$k$          ",
"        l$m$n$o$p$q$r$N@s$t$u$v$w$x$y$z$A$B$C$D$E$F$G$H$I$J$K$L$M$N$O$P$Q$R$S$T$U$V$W$X$          ",
"        Y$Z$`$ %.%+%@%#%$%%%&%*%=%-%;%>%,%'%8+)%!%~%{%]%^%/%(%_%:%<%[%}%|%1%2%3%4%5%6%7%          ",
"        /.8%9%0%a%b%c%d%e%0+f%g%h%i%j%k%l%m%n%o%p%q%r%s%L+t%u%v%w%x%y%z%A%B%C%D%E%F%G%            ",
"        H%I%J%K%L%M%N%O%P%Q%R%S%T%U%V%9.W%X%Y%Z%`% &.&+&@&m%#&$&%&&&*&=&-&;&>&,&'&)&!&            ",
"          ~&{&]&^&/&(&_&:&/@<&a@[&}&|&1&2&3&4&5&6&7&8&T$9&0&a&b&c&*&Z%d&e&f&g&h&i&j&k&            ",
"          l&m&a#n&o&p&q&r&s&t&u&v&w&x&y&z&A&B&C&D&E&F&G&m@H&I&J&K&L&M&N&O&P&Q&R&S&T&              ",
"          U&V&W&X&Y&Z&`& *.*+*@*#*$*%*&***=*-*;*>*,*'*)*!*~*{*]*^*/*(*_*:*<*F&[*}*|*              ",
"            1*2*3*4*5*6*7*8*9*0*a*b*c*d*e*f*g*h*i*1*j*k*l*m*n*o*p*q*r*s*t*u*v*w*x*                ",
"            y*z*A*B*C*D*E*F*G*H*I*J*K*L*M*N*O*P*Q*R*S*T*U*V*W*X*Y*Z*`* =.=+=@=#=$=                ",
"              %=&=*===-=;=>=,='=)=!=~={=]=^=/=(=_=:=<=[=t*}=C&|=1=2=3=4=5=6=7=8=                  ",
"                9=[%0=a=b=c=d=e=f=g=h=i=j=k=l=m=n=o=p=q=r=s=t=u=v=w=x=y=z=A=B=                    ",
"                C=D=E=F=G=H=I=J=K=L=M=N=O=P=Q=2@R=S=T=U=V=W=X='#Y=Z=`= -.-:$                      ",
"                  +-@-#-$-%-&-*-=---H$;->-,-'-)-!-D%K%~- *{-]-^-/-(-n+_-:-<-                      ",
"                    [-}-|-1-2-3-w*4-5-A$6-7-8-9-0-a-b-c-d-e-f-g-h-i-j-k-l-                        ",
"                      m-n-o-p-q-r-s-t-U@u-v-w-x-y-z-A-B-C-D-c$)#E-F-G-H-                          ",
"                          I-J-K-L-M-N-O-P-Q-R-S-T-U-V-W-X-Y-Z-`- ;.;+;                            ",
"                            3%@;#;$;%;&;*;=;-;;;>;,;';S%);!;~;{;];^;                              ",
"                              /;(;_;:;<;[;};|;1;2;3;4;l#5;6;7;8;9;                                ",
"                                  0;a;x#b;c;d;e;f;g;h;i;j;k;l;                                    ",
"                                    m;n;o;p;q;r;s;t;u;v;w;x;                                      ",
"                                        y;z;A;B;C;D;E;F;G;                                        ",
"                                          H;I;J;K;L;M;N;                                          ",
"                                              O;P;Q;R;S;                                          ",
"                                                  T;U;                                            ",
"                                                                                                  ",
"                                                                                                  "};
