/* XPM */
static char * sunny_5_xpm[] = {
"90 90 1083 2",
"  	c None",
". 	c #000000",
"+ 	c #4B270C",
"@ 	c #894D1F",
"# 	c #82481D",
"$ 	c #542D0F",
"% 	c #2B1A09",
"& 	c #6D4520",
"* 	c #A75F28",
"= 	c #C67131",
"- 	c #B5672C",
"; 	c #965523",
"> 	c #6D3C17",
", 	c #40210A",
"' 	c #150B03",
") 	c #BD8346",
"! 	c #7D552B",
"~ 	c #A05B26",
"{ 	c #C57131",
"] 	c #BB6B2E",
"^ 	c #6C3B17",
"/ 	c #2E1605",
"( 	c #4E3318",
"_ 	c #E9A258",
": 	c #906233",
"< 	c #9C5825",
"[ 	c #C67231",
"} 	c #AE632A",
"| 	c #623513",
"1 	c #4A3535",
"2 	c #8A5F31",
"3 	c #F2A85C",
"4 	c #916334",
"5 	c #9B5825",
"6 	c #C06E30",
"7 	c #723F19",
"8 	c #040202",
"9 	c #020100",
"0 	c #D3924F",
"a 	c #F8AC5E",
"b 	c #896032",
"c 	c #A45D27",
"d 	c #BC6B2E",
"e 	c #5D3212",
"f 	c #473232",
"g 	c #634848",
"h 	c #563E3E",
"i 	c #190F0F",
"j 	c #453131",
"k 	c #624747",
"l 	c #614646",
"m 	c #583F3F",
"n 	c #624322",
"o 	c #F1A85B",
"p 	c #ECA359",
"q 	c #553316",
"r 	c #C16F30",
"s 	c #6C3C17",
"t 	c #281B1B",
"u 	c #6C4F4F",
"v 	c #594040",
"w 	c #4D3737",
"x 	c #150D0D",
"y 	c #3D2C2C",
"z 	c #3F2D2D",
"A 	c #584040",
"B 	c #493434",
"C 	c #3E2B2B",
"D 	c #0A0505",
"E 	c #B47C42",
"F 	c #D0904E",
"G 	c #683915",
"H 	c #2C1E1E",
"I 	c #2D1F1F",
"J 	c #1E1414",
"K 	c #312222",
"L 	c #4E3838",
"M 	c #170E0E",
"N 	c #302121",
"O 	c #4C3737",
"P 	c #271A1A",
"Q 	c #DE9A53",
"R 	c #F5AA5D",
"S 	c #744F28",
"T 	c #B7692D",
"U 	c #BA6A2E",
"V 	c #46240B",
"W 	c #241818",
"X 	c #644949",
"Y 	c #6B4F4F",
"Z 	c #6B4E4E",
"` 	c #1D1313",
" .	c #674B4B",
"..	c #6A4D4D",
"+.	c #533B3B",
"@.	c #895D30",
"#.	c #E19C55",
"$.	c #5A3112",
"%.	c #C37031",
"&.	c #B3662C",
"*.	c #3E1F08",
"=.	c #604545",
"-.	c #5A4141",
";.	c #654949",
">.	c #5B4242",
",.	c #5B3E28",
"'.	c #EFA65B",
").	c #F9AD5E",
"!.	c #AF773F",
"~.	c #7D461C",
"{.	c #191010",
"].	c #664B4B",
"^.	c #372727",
"/.	c #513B3B",
"(.	c #694C4C",
"_.	c #644848",
":.	c #2F2121",
"<.	c #E49E56",
"[.	c #905222",
"}.	c #B8692D",
"|.	c #3E1F09",
"1.	c #55381B",
"2.	c #87572A",
"3.	c #4C280D",
"4.	c #604646",
"5.	c #503A3A",
"6.	c #664A4A",
"7.	c #4E3737",
"8.	c #392726",
"9.	c #2E1C18",
"0.	c #2C180F",
"a.	c #2E190F",
"b.	c #2B160A",
"c.	c #2A150A",
"d.	c #2C1A14",
"e.	c #311F1B",
"f.	c #321F1B",
"g.	c #372626",
"h.	c #5C4242",
"i.	c #543C3C",
"j.	c #BB8145",
"k.	c #F2A85B",
"l.	c #704722",
"m.	c #BF6E2F",
"n.	c #B0642B",
"o.	c #2E1A12",
"p.	c #684C4C",
"q.	c #684B4B",
"r.	c #4B3636",
"s.	c #140C0C",
"t.	c #030202",
"u.	c #AE7840",
"v.	c #986836",
"w.	c #AA6129",
"x.	c #080200",
"y.	c #2B1D1D",
"z.	c #110909",
"A.	c #482B1F",
"B.	c #995724",
"C.	c #BC6C2F",
"D.	c #C87332",
"E.	c #BF6D2F",
"F.	c #BD6C2F",
"G.	c #854B1E",
"H.	c #3F2212",
"I.	c #483333",
"J.	c #553D3D",
"K.	c #875C30",
"L.	c #F9AC5E",
"M.	c #926434",
"N.	c #B2662B",
"O.	c #C47131",
"P.	c #744019",
"Q.	c #5D4343",
"R.	c #402D2D",
"S.	c #D1914E",
"T.	c #9D6B39",
"U.	c #261A1A",
"V.	c #2A1D1D",
"W.	c #090301",
"X.	c #633614",
"Y.	c #A15B26",
"Z.	c #C77232",
"`.	c #7A441B",
" +	c #381C07",
".+	c #1E1313",
"++	c #4C3219",
"@+	c #BA8346",
"#+	c #B0652B",
"$+	c #341D13",
"%+	c #5D4242",
"&+	c #5E4444",
"*+	c #4C3636",
"=+	c #291C1C",
"-+	c #2A1A09",
";+	c #E59F56",
">+	c #9D6C39",
",+	c #C16E30",
"'+	c #251103",
")+	c #242214",
"!+	c #565336",
"~+	c #625E3F",
"{+	c #19170D",
"]+	c #362525",
"^+	c #552E10",
"/+	c #6A3D18",
"(+	c #623A19",
"_+	c #5F3817",
":+	c #884D20",
"<+	c #A15B27",
"[+	c #C26F30",
"}+	c #4A2914",
"|+	c #442F2A",
"1+	c #EAA358",
"2+	c #8A4E20",
"3+	c #734019",
"4+	c #060303",
"5+	c #130B0B",
"6+	c #140B0B",
"7+	c #6F4B25",
"8+	c #F6AA5D",
"9+	c #C06E2F",
"0+	c #8C4F20",
"a+	c #090904",
"b+	c #252315",
"c+	c #918B5E",
"d+	c #C8C084",
"e+	c #DBD291",
"f+	c #F0E7A0",
"g+	c #F3EAA2",
"h+	c #8C865B",
"i+	c #573A1C",
"j+	c #C18547",
"k+	c #F4A95D",
"l+	c #B37B41",
"m+	c #A46E39",
"n+	c #865125",
"o+	c #8F5121",
"p+	c #B4672C",
"q+	c #563019",
"r+	c #3A2927",
"s+	c #D1904E",
"t+	c #6E4822",
"u+	c #C67232",
"v+	c #AC622A",
"w+	c #241817",
"x+	c #261919",
"y+	c #CA8C4B",
"z+	c #AF642B",
"A+	c #232113",
"B+	c #CCC487",
"C+	c #DDD492",
"D+	c #F9EFA6",
"E+	c #FAF0A6",
"F+	c #F0E69F",
"G+	c #9F9868",
"H+	c #070603",
"I+	c #201306",
"J+	c #B87F44",
"K+	c #B87F43",
"L+	c #C48748",
"M+	c #D79551",
"N+	c #F6AB5D",
"O+	c #B77E43",
"P+	c #915221",
"Q+	c #B6682D",
"R+	c #C6894A",
"S+	c #996937",
"T+	c #B7682D",
"U+	c #C77332",
"V+	c #562F11",
"W+	c #412E2E",
"X+	c #4A3434",
"Y+	c #432F2F",
"Z+	c #311806",
"`+	c #CDC587",
" @	c #F4EBA2",
".@	c #726D4A",
"+@	c #573F3F",
"@@	c #614747",
"#@	c #4F3838",
"$@	c #261814",
"%@	c #482F18",
"&@	c #765028",
"*@	c #D99752",
"=@	c #F4A95C",
"-@	c #603E1D",
";@	c #925322",
">@	c #7A522A",
",@	c #EEA55A",
"'@	c #AA753E",
")@	c #B1652B",
"!@	c #BE6C2F",
"~@	c #BE6D2F",
"{@	c #BD6D2F",
"]@	c #2F2020",
"^@	c #724D27",
"/@	c #9B6A38",
"(@	c #565236",
"_@	c #F9EFA5",
":@	c #E4DB97",
"<@	c #564F38",
"[@	c #422F2F",
"}@	c #4C352C",
"|@	c #6F4B26",
"1@	c #F7AC5E",
"2@	c #F0A75B",
"3@	c #B37B42",
"4@	c #713E18",
"5@	c #44230A",
"6@	c #A88928",
"7@	c #B79D20",
"8@	c #BCA220",
"9@	c #BAA020",
"0@	c #C8AC23",
"a@	c #C0A521",
"b@	c #886C17",
"c@	c #81481D",
"d@	c #412A13",
"e@	c #E5A057",
"f@	c #71441E",
"g@	c #4B280D",
"h@	c #030301",
"i@	c #D2C98A",
"j@	c #CBC286",
"k@	c #4A4031",
"l@	c #F0A65B",
"m@	c #F9AD5F",
"n@	c #CB8D4C",
"o@	c #64401E",
"p@	c #C47031",
"q@	c #B96A2D",
"r@	c #643E13",
"s@	c #A78F1B",
"t@	c #E2C329",
"u@	c #F9D72E",
"v@	c #F8D62E",
"w@	c #F9D82F",
"x@	c #D5B926",
"y@	c #988218",
"z@	c #715712",
"A@	c #955423",
"B@	c #523A3A",
"C@	c #51361C",
"D@	c #DD9953",
"E@	c #C38648",
"F@	c #49260C",
"G@	c #807B53",
"H@	c #F8EEA5",
"I@	c #A69F6D",
"J@	c #1E1413",
"K@	c #0F0808",
"L@	c #010000",
"M@	c #7C542B",
"N@	c #8D6032",
"O@	c #9F5A26",
"P@	c #A55E27",
"Q@	c #CFB425",
"R@	c #F2D12D",
"S@	c #D0B425",
"T@	c #6D5B0F",
"U@	c #241603",
"V@	c #3C2926",
"W@	c #976A38",
"X@	c #EAA359",
"Y@	c #F4AA5D",
"Z@	c #7A5027",
"`@	c #4A270C",
" #	c #45412B",
".#	c #EAE19B",
"+#	c #6A6445",
"@#	c #5D4444",
"##	c #443030",
"$#	c #4B3535",
"%#	c #7F562C",
"&#	c #EFA65A",
"*#	c #2D1505",
"=#	c #958018",
"-#	c #A48F1B",
";#	c #9C8619",
">#	c #9D8719",
",#	c #DDBF28",
"'#	c #F5D42D",
")#	c #B0981E",
"!#	c #CD8E4D",
"~#	c #C58849",
"{#	c #945423",
"]#	c #49270C",
"^#	c #D5CB8E",
"/#	c #524238",
"(#	c #493333",
"_#	c #885D31",
":#	c #7F6D13",
"<#	c #9C9685",
"[#	c #BEBEBE",
"}#	c #E9E9E9",
"|#	c #F1F1F1",
"1#	c #9A9A9A",
"2#	c #D2B525",
"3#	c #968018",
"4#	c #E29D55",
"5#	c #673B18",
"6#	c #4B270D",
"7#	c #1F1414",
"8#	c #363320",
"9#	c #F7EDA4",
"0#	c #F6ECA3",
"a#	c #8A835A",
"b#	c #382727",
"c#	c #BA8145",
"d#	c #D89651",
"e#	c #472E15",
"f#	c #ACA79C",
"g#	c #B9B9B9",
"h#	c #4C4C4C",
"i#	c #272727",
"j#	c #DADADA",
"k#	c #B39B1E",
"l#	c #F6D42E",
"m#	c #AE961E",
"n#	c #9D6D39",
"o#	c #8D6132",
"p#	c #1C0B02",
"q#	c #3E2C2C",
"r#	c #272516",
"s#	c #D9D090",
"t#	c #D6CD8E",
"u#	c #4A3833",
"v#	c #634747",
"w#	c #54381B",
"x#	c #E8A157",
"y#	c #725421",
"z#	c #90866A",
"A#	c #A0A0A0",
"B#	c #0C0C0C",
"C#	c #939393",
"D#	c #C2C2C2",
"E#	c #C6AB23",
"F#	c #F4D32D",
"G#	c #9C8819",
"H#	c #C38748",
"I#	c #DB9853",
"J#	c #80481D",
"K#	c #B4AC76",
"L#	c #7F7953",
"M#	c #8C6032",
"N#	c #F2A95D",
"O#	c #7A5726",
"P#	c #BFA621",
"Q#	c #92918C",
"R#	c #0D0B0B",
"S#	c #010100",
"T#	c #A1A1A1",
"U#	c #9C9379",
"V#	c #F3D22D",
"W#	c #EFCF2C",
"X#	c #F9D72F",
"Y#	c #FAD92F",
"Z#	c #FAD82F",
"`#	c #F7D62E",
" $	c #785A22",
".$	c #83572C",
"+$	c #49260D",
"@$	c #221616",
"#$	c #433030",
"$$	c #3C2A2A",
"%$	c #989263",
"&$	c #D0C78A",
"*$	c #4E3B38",
"=$	c #523B3B",
"-$	c #5E4343",
";$	c #4D3636",
">$	c #523935",
",$	c #3B2611",
"'$	c #714D26",
")$	c #B79E1F",
"!$	c #AA9321",
"~$	c #868686",
"{$	c #070707",
"]$	c #8F8F8F",
"^$	c #95928A",
"/$	c #9F8D35",
"($	c #686356",
"_$	c #757269",
":$	c #5E521E",
"<$	c #807653",
"[$	c #817756",
"}$	c #776C49",
"|$	c #CCB026",
"1$	c #956635",
"2$	c #82491E",
"3$	c #9A5724",
"4$	c #3B2929",
"5$	c #0C0606",
"6$	c #2E2C1B",
"7$	c #F6ECA4",
"8$	c #EBE19C",
"9$	c #625A40",
"0$	c #533C3C",
"a$	c #503939",
"b$	c #462E1B",
"c$	c #BB8245",
"d$	c #D79550",
"e$	c #DB9852",
"f$	c #7E6B15",
"g$	c #F5D52E",
"h$	c #AD9622",
"i$	c #B6B6B6",
"j$	c #838383",
"k$	c #9B9B9B",
"l$	c #CCCCCC",
"m$	c #9B988E",
"n$	c #B79E21",
"o$	c #918F89",
"p$	c #E6E6E6",
"q$	c #F9F9F9",
"r$	c #7B7B7B",
"s$	c #DEDEDE",
"t$	c #F3F3F3",
"u$	c #AEADAB",
"v$	c #A8901C",
"w$	c #776112",
"x$	c #3D200D",
"y$	c #483434",
"z$	c #050402",
"A$	c #E4DA97",
"B$	c #AEA473",
"C$	c #3D2815",
"D$	c #7D552C",
"E$	c #A16E3A",
"F$	c #C08547",
"G$	c #C3A922",
"H$	c #EACB2B",
"I$	c #B6B4AF",
"J$	c #9A9176",
"K$	c #8F7C16",
"L$	c #7B7667",
"M$	c #E7E7E7",
"N$	c #FFFFFF",
"O$	c #A4A4A4",
"P$	c #CACACA",
"Q$	c #867741",
"R$	c #EECE2C",
"S$	c #D3B626",
"T$	c #945522",
"U$	c #A86028",
"V$	c #694D4D",
"W$	c #5C4343",
"X$	c #BAB27A",
"Y$	c #CAC286",
"Z$	c #372826",
"`$	c #2E1F1E",
" %	c #6B4825",
".%	c #C18749",
"+%	c #7E6221",
"@%	c #F6D52E",
"#%	c #F7D72F",
"$%	c #D4B726",
"%%	c #969696",
"&%	c #FCFCFC",
"*%	c #F6F6F6",
"=%	c #797979",
"-%	c #FDFDFD",
";%	c #DBDBDB",
">%	c #535044",
",%	c #E6C72A",
"'%	c #EFCE2C",
")%	c #644810",
"!%	c #522D12",
"~%	c #5B4141",
"{%	c #180F0F",
"]%	c #B1AA74",
"^%	c #E3DA97",
"/%	c #4A3F32",
"(%	c #8F6233",
"_%	c #DC9953",
":%	c #D4934F",
"<%	c #B89E20",
"[%	c #F5D42E",
"}%	c #8D7D48",
"|%	c #EDEDED",
"1%	c #8C7D41",
"2%	c #7D6E13",
"3%	c #C37030",
"4%	c #5E3312",
"5%	c #392828",
"6%	c #8A8459",
"7%	c #E4DB98",
"8%	c #48432D",
"9%	c #483021",
"0%	c #C7894A",
"a%	c #A5773C",
"b%	c #EBCB2B",
"c%	c #EECD2C",
"d%	c #999792",
"e%	c #BCBCBC",
"f%	c #D0D0D0",
"g%	c #867515",
"h%	c #693916",
"i%	c #0B0606",
"j%	c #827D54",
"k%	c #DFD594",
"l%	c #5E5038",
"m%	c #946736",
"n%	c #AA7B3B",
"o%	c #F1D02C",
"p%	c #C2AB23",
"q%	c #C3C3C3",
"r%	c #EBEBEB",
"s%	c #BDBDBD",
"t%	c #C7C7C7",
"u%	c #BBA421",
"v%	c #C2A822",
"w%	c #B2662C",
"x%	c #935322",
"y%	c #402E2D",
"z%	c #5F4545",
"A%	c #463232",
"B%	c #080404",
"C%	c #3C2B2B",
"D%	c #493535",
"E%	c #706C48",
"F%	c #CFC688",
"G%	c #987243",
"H%	c #AA7C3C",
"I%	c #DCBE28",
"J%	c #483D06",
"K%	c #515151",
"L%	c #B2B2B2",
"M%	c #979797",
"N%	c #D7D7D7",
"O%	c #9D891A",
"P%	c #C2A722",
"Q%	c #884C1F",
"R%	c #271610",
"S%	c #2E1F1F",
"T%	c #2E2020",
"U%	c #6D6647",
"V%	c #AEA673",
"W%	c #563D20",
"X%	c #F1AA5D",
"Y%	c #FAAF60",
"Z%	c #FAB061",
"`%	c #FAAE5F",
" &	c #FAB060",
".&	c #AA7E3E",
"+&	c #B49C1F",
"@&	c #FEFEFE",
"#&	c #919191",
"$&	c #EEEEEE",
"%&	c #978222",
"&&	c #2A1C1C",
"*&	c #030101",
"=&	c #7F7156",
"-&	c #F8EEA4",
";&	c #E7DC9A",
">&	c #272317",
",&	c #3E210A",
"'&	c #47260C",
")&	c #46260C",
"!&	c #503E0A",
"~&	c #A7921C",
"{&	c #7A7A7A",
"]&	c #B3B3B3",
"^&	c #F0F0F0",
"/&	c #988323",
"(&	c #6A4E4E",
"_&	c #594141",
":&	c #4D3838",
"<&	c #72694C",
"[&	c #F7EEA4",
"}&	c #C0B87F",
"|&	c #47270E",
"1&	c #8C5A1E",
"2&	c #A8911C",
"3&	c #EFEFEF",
"4&	c #1A1010",
"5&	c #716C49",
"6&	c #7A441C",
"7&	c #B86A2D",
"8&	c #8F5B1F",
"9&	c #191401",
"0&	c #ABABAB",
"a&	c #DDDDDD",
"b&	c #A18B1D",
"c&	c #C1A621",
"d&	c #322221",
"e&	c #332323",
"f&	c #221717",
"g&	c #010101",
"h&	c #3A2929",
"i&	c #3D2B2B",
"j&	c #D7CE8E",
"k&	c #726C49",
"l&	c #8F5021",
"m&	c #C2AE23",
"n&	c #CFCFCF",
"o&	c #E8E8E8",
"p&	c #B4B4B4",
"q&	c #CECECE",
"r&	c #BDA621",
"s&	c #874C1F",
"t&	c #332424",
"u&	c #251919",
"v&	c #A7A06D",
"w&	c #E6DD99",
"x&	c #48402E",
"y&	c #47260E",
"z&	c #7E461C",
"A&	c #8D581F",
"B&	c #EACA2B",
"C&	c #A2A2A1",
"D&	c #C1C1C1",
"E&	c #EDCD2C",
"F&	c #8D7B16",
"G&	c #522C11",
"H&	c #231717",
"I&	c #050303",
"J&	c #B4AD76",
"K&	c #DED493",
"L&	c #55433C",
"M&	c #834A1E",
"N&	c #B9A020",
"O&	c #8D7E4C",
"P&	c #F4F4F4",
"Q&	c #8D8D8D",
"R&	c #E4E4E4",
"S&	c #80744D",
"T&	c #F7D82E",
"U&	c #807013",
"V&	c #4D290D",
"W&	c #0E0808",
"X&	c #4F3939",
"Y&	c #C4BC81",
"Z&	c #BFB77E",
"`&	c #703E18",
" *	c #634F0E",
".*	c #F3D32D",
"+*	c #C8AD23",
"@*	c #A5A5A5",
"#*	c #6D6D6D",
"$*	c #E5E5E5",
"%*	c #6C6349",
"&*	c #DABC27",
"**	c #F0CF2C",
"=*	c #5F4A0E",
"-*	c #462611",
";*	c #2B2919",
">*	c #F2E8A0",
",*	c #F5EBA3",
"'*	c #978F64",
")*	c #1D0D04",
"!*	c #542D10",
"~*	c #8E5021",
"{*	c #8D5020",
"]*	c #CCB024",
"^*	c #AD9625",
"/*	c #8D887A",
"(*	c #A3A098",
"_*	c #948655",
":*	c #8D7A24",
"<*	c #82807A",
"[*	c #ECECEC",
"}*	c #716641",
"|*	c #E3C429",
"1*	c #8E5420",
"2*	c #9D5925",
"3*	c #78734D",
"4*	c #E3D996",
"5*	c #4C3D35",
"6*	c #4F2B10",
"7*	c #874B1F",
"8*	c #8D7816",
"9*	c #B49B22",
"0*	c #AAAAAA",
"a*	c #B1B1B1",
"b*	c #C4C4C4",
"c*	c #ACA594",
"d*	c #B49E1F",
"e*	c #909090",
"f*	c #EAEAEA",
"g*	c #FBFBFB",
"h*	c #BBBBBB",
"i*	c #98863A",
"j*	c #836D15",
"k*	c #3E241A",
"l*	c #443131",
"m*	c #A19B6A",
"n*	c #C0B77F",
"o*	c #553E3D",
"p*	c #674A4A",
"q*	c #52371A",
"r*	c #C9AD23",
"s*	c #AF9823",
"t*	c #858585",
"u*	c #ADADAD",
"v*	c #908A79",
"w*	c #BCA320",
"x*	c #907E3A",
"y*	c #A6A39B",
"z*	c #7A6D44",
"A*	c #B8B099",
"B*	c #B9B19B",
"C*	c #A2987C",
"D*	c #B59C1F",
"E*	c #F2D22D",
"F*	c #C0A622",
"G*	c #985624",
"H*	c #422E2E",
"I*	c #C6BE83",
"J*	c #F4E9A2",
"K*	c #685D45",
"L*	c #473333",
"M*	c #79522A",
"N*	c #F0A85C",
"O*	c #68501A",
"P*	c #C8B024",
"Q*	c #8A8A89",
"R*	c #110F0F",
"S*	c #9C906A",
"T*	c #ECCC2C",
"U*	c #F5D32D",
"V*	c #F6D42D",
"W*	c #6D5619",
"X*	c #ECA45A",
"Y*	c #6C4622",
"Z*	c #452612",
"`*	c #342424",
" =	c #302D1C",
".=	c #C2B980",
"+=	c #523721",
"@=	c #E8A158",
"#=	c #785D1F",
"$=	c #80744F",
"%=	c #CDB225",
"&=	c #B69D1F",
"*=	c #BA8045",
"==	c #D59350",
"-=	c #7C451B",
";=	c #817C54",
">=	c #F3E9A1",
",=	c #726A4B",
"'=	c #AA763E",
")=	c #CB8C4C",
"!=	c #35220E",
"~=	c #B2B0AA",
"{=	c #9E9E9E",
"]=	c #434343",
"^=	c #999999",
"/=	c #B1981E",
"(=	c #C0A621",
"_=	c #885C30",
":=	c #7E552C",
"<=	c #1A0A02",
"[=	c #1C1B0F",
"}=	c #D5CD8D",
"|=	c #B2AA75",
"1=	c #553F3D",
"2=	c #634322",
"3=	c #F7AB5E",
"4=	c #84711C",
"5=	c #A49F97",
"6=	c #E2E2E2",
"7=	c #B9B9B7",
"8=	c #BFA421",
"9=	c #AE961D",
"0=	c #F3A85C",
"a=	c #70411A",
"b=	c #DED593",
"c=	c #534837",
"d=	c #6E4A25",
"e=	c #EAA258",
"f=	c #EEA65A",
"g=	c #292202",
"h=	c #8A7716",
"i=	c #AB9639",
"j=	c #A89966",
"k=	c #A79864",
"l=	c #CDB125",
"m=	c #F8D72E",
"n=	c #B87E43",
"o=	c #F1E7A0",
"p=	c #847E56",
"q=	c #402E2E",
"r=	c #463131",
"s=	c #322323",
"t=	c #E7A057",
"u=	c #F1A75B",
"v=	c #945322",
"w=	c #806A14",
"x=	c #D2B626",
"y=	c #9E861A",
"z=	c #281204",
"A=	c #3E291E",
"B=	c #B97F44",
"C=	c #744922",
"D=	c #292717",
"E=	c #AFA873",
"F=	c #352424",
"G=	c #754F28",
"H=	c #ECA459",
"I=	c #774E27",
"J=	c #82491D",
"K=	c #BA6B2E",
"L=	c #5A3D0F",
"M=	c #C3A822",
"N=	c #B2991E",
"O=	c #6B5710",
"P=	c #5A3011",
"Q=	c #664524",
"R=	c #BC8245",
"S=	c #4A270D",
"T=	c #ABA470",
"U=	c #F9F0A6",
"V=	c #4A3B33",
"W=	c #372415",
"X=	c #BF8547",
"Y=	c #F3A95C",
"Z=	c #C28748",
"`=	c #6E401C",
" -	c #BC6C2E",
".-	c #975624",
"+-	c #775516",
"@-	c #958017",
"#-	c #B29A1E",
"$-	c #BAA421",
"%-	c #B59E1F",
"&-	c #C5AC23",
"*-	c #BEA521",
"=-	c #837013",
"--	c #7F4C1B",
";-	c #2F1808",
">-	c #5D3E1E",
",-	c #875125",
"'-	c #2C2A19",
")-	c #403D28",
"!-	c #352525",
"~-	c #342210",
"{-	c #6B4824",
"]-	c #EFA75B",
"^-	c #85592D",
"/-	c #80471D",
"(-	c #B2652B",
"_-	c #D08F4D",
":-	c #905121",
"<-	c #9A5725",
"[-	c #AB6229",
"}-	c #211515",
"|-	c #936535",
"1-	c #42220A",
"2-	c #77724D",
"3-	c #AEA772",
"4-	c #EDE39D",
"5-	c #E6DC98",
"6-	c #5D593B",
"7-	c #130A05",
"8-	c #81582E",
"9-	c #865C30",
"0-	c #C98C4B",
"a-	c #DC9852",
"b-	c #8D5F31",
"c-	c #724019",
"d-	c #C48749",
"e-	c #9E6C39",
"f-	c #B96A2E",
"g-	c #6A3A17",
"h-	c #A7733D",
"i-	c #9F6D39",
"j-	c #402109",
"k-	c #060502",
"l-	c #817B53",
"m-	c #BBB37B",
"n-	c #615C3D",
"o-	c #1A100F",
"p-	c #7E572D",
"q-	c #D49350",
"r-	c #BF8447",
"s-	c #906535",
"t-	c #774E26",
"u-	c #542E0F",
"v-	c #2D1E1E",
"w-	c #CD8D4C",
"x-	c #6D4925",
"y-	c #221514",
"z-	c #3F2B23",
"A-	c #CE904E",
"B-	c #9F6E3A",
"C-	c #3F2009",
"D-	c #835025",
"E-	c #A86D37",
"F-	c #A86E37",
"G-	c #9C6532",
"H-	c #713F18",
"I-	c #A65E28",
"J-	c #5C3212",
"K-	c #3D2A26",
"L-	c #E19D56",
"M-	c #E9A359",
"N-	c #291B1B",
"O-	c #453232",
"P-	c #1C1110",
"Q-	c #7B451B",
"R-	c #50351D",
"S-	c #B98347",
"T-	c #321B0E",
"U-	c #39240F",
"V-	c #200E03",
"W-	c #190902",
"X-	c #562E10",
"Y-	c #78431A",
"Z-	c #A25C27",
"`-	c #593011",
" ;	c #855A2F",
".;	c #9D6B38",
"+;	c #3B2A2A",
"@;	c #D1924F",
"#;	c #76421A",
"$;	c #3D2A29",
"%;	c #643A23",
"&;	c #6E3D17",
"*;	c #734018",
"=;	c #744018",
"-;	c #66391F",
";;	c #6A3F2A",
">;	c #6C4029",
",;	c #AC763F",
"';	c #6C4723",
");	c #261204",
"!;	c #B27B41",
"~;	c #966736",
"{;	c #050100",
"];	c #513A3A",
"^;	c #935423",
"/;	c #582F11",
"(;	c #674522",
"_;	c #905D2E",
":;	c #5F3413",
"<;	c #5A3E2B",
"[;	c #B07940",
"};	c #864B1E",
"|;	c #453030",
"1;	c #1E1004",
"2;	c #83592E",
"3;	c #E6A057",
"4;	c #6E441F",
"5;	c #3B1F08",
"6;	c #1A1111",
"7;	c #624848",
"8;	c #322222",
"9;	c #352420",
"0;	c #CA8D4C",
"a;	c #F6AC5E",
"b;	c #8F6132",
"c;	c #AA6029",
"d;	c #A6723C",
"e;	c #CE8F4D",
"f;	c #020101",
"g;	c #654A4A",
"h;	c #452E15",
"i;	c #6F4924",
"j;	c #F6AB5E",
"k;	c #AB763E",
"l;	c #79431A",
"m;	c #070303",
"n;	c #78542B",
"o;	c #A5713C",
"p;	c #874C1E",
"q;	c #37230F",
"r;	c #E39D56",
"s;	c #A0703B",
"t;	c #915222",
"u;	c #9D6A37",
"v;	c #925222",
"w;	c #2F1705",
"x;	c #3A2510",
"y;	c #754E27",
"z;	c #9E5926",
"A;	c #AD622A",
"B;	c #3B1E08",
"C;	c #48260C",
"D;	c #83491D",
"E;	c #6C3B16",
"F;	c #412209",
"                                                                                                                                                                                    ",
"                                                                                                                                                                                    ",
"                                                                                                                                                                                    ",
"                                                                                                                                                                                    ",
"                                                                                                                                                                                    ",
"                                                                                                                                                                                    ",
"                                                                                                                                                                                    ",
"                                                                                                                                                                                    ",
"                                                                                . + @ # $ .                                                                                         ",
"                                                                                  % & * = - ; > ,                                                                                   ",
"                                                                                  ' ) ! ~ { { { ] ^ /                                                                               ",
"                                                                                    ( _ : < { { { [ } | .                                                                           ",
"                                                                                    1 2 3 4 5 { { { { 6 7 .                                                                         ",
"                            . . . . . . . . . . . . . . . . . . . . . . . . . . . . 8 9 0 a b c { { { { d e                                                                         ",
"                            . f g g g g g g g h i g g g g g g g j f g g g g g g k l l m n o p q d { { { { r s .                                                                     ",
"                            . t u u u u v v v w x v v v v v v v y z v v v A A A B C C C D E a F @ = { { { { 6 G . .                                                                 ",
"                              . . . . . . H I I J K L L L L L L L L M N w w O O O O O O O P Q R S T { { { { { U V . . .                                                             ",
"                              W X X X X X Y u Z w N Z Z Z Z Z Z u u w `  .Z ..............+.@.a #.$.%.{ { { { { &.*.. . . .                                                         ",
"                              t u u u Z Z Z Z Z =.. -.Z Z Z Z Z Z ..;.. >.Z ................,.'.).!.- { { { { { { ~.. . . . . .               . .                                   ",
"                              {.].Z Z Z Z Z Z Z Z ^./.Z Z Z Z (._._._.:.f  .................B <.a 0 [.{ { { { { { }.|.v l f . . . .           1.2.3.                                ",
"                              . 4.Z Z Z Z Z Z Z Z ^.5...6.7.8.9.0.a.a.b.c.d.e.f.g.h.(.......i.j.a k.l.m.{ { { { { { n.o.p.q.k r.s.t.. . .     u.v.w.x.                              ",
"                              . h h h h h h h h h y.z.A.s B.} C.= D.D.D.D.E.d F.* G.H.I.J.J.1 K.L.).M.N.{ { { { { { O.P.7.q.q.(...Q.. R.` . . S.T.E.>                               ",
"                              . . U.K K K K K V.W.X.Y.Z.Z.Z.{ { { { { { { { { { { { = `. +.+N ++R a @+~ { { { { O.{ { #+$+%+Q.Q.Q.&+. k *+=+-+;+>+,+&.'+                            ",
"                    )+!+~+{+  . >.(.Z Z Z Z ;.]+^+/+(+(+(+_+:+<+C.[+O.{ { { { { { { { { }.}+Q.|+<.a 1+2+{ { { O.{ { { { 3+4+5+5+5+6+. M W .+7+8+>+9+{ 0+                            ",
"          a+b+~+c+d+e+f+g+h+. . 4.Z Z Z Z g =+i+j+_ a a a k+#.j+l+m+n+o+6 { O.{ { { { { { p+q+r+s+a R t+u+= { { { { { { v+w+_.q.q.q.g.R.i.x+y+a >+r O.z+.                           ",
"        A+B+C+g+D+E+E+E+E+F+G+H+4.Z Z Z Z ^.I+j.J+K+L+M+'.a a a a a N+O+S P+Q+= { { { O.{ { Q+V R+a a S+T+O.{ { { { { { U+V+h.q.q.q.W+X+Y+>+a a >+r { T Z+                          ",
"          `+E+E+E+E+E+E+E+E+ @.@w Z Z Z Z +@k &+=.@@#@$@%@&@*@R a a a a =@s+-@;@%.{ { { { { { w.>@=@,@'@)@!@~@{@,+{ { { { w.f q.q.q.W+]@^@=@a a /@,+{ r ,                           ",
"          (@_@E+E+E+E+E+E+E+E+:@<@g Z Z Z Z Z ........*+[@v }@|@j.1@a a a 1@2@3@4@6 { { { { [+5 5@6@7@8@9@0@0@a@b@c@z+= = ] Z+q.q.q.j d@e@a a R f@O.{ { g@                          ",
"          h@i@E+E+E+E+E+E+E+E+D+j@k@..Z Z Z Z ........*+[@....k y./@l@a a a a m@n@o@< p@{ q@r@s@t@u@v@v@v@v@v@v@w@x@y@z@A@&.$ _.g B@C@D@a a a E@A@{ { { F@.                         ",
"            G@D+E+E+E+E+E+E+E+E+H@I@J@.+.+.+.+` ` ` ` 5+K@` ` ` x L@M@p a a a a a l@N@O@P@z@Q@v@v@v@v@v@v@v@v@v@v@v@v@R@S@T@U@I.V@W@X@a a 1@Y@Z@~@{ { { `@.                         ",
"             #.#E+E+E+E+E+E+E+E+E+.#+#B @#@#Q.Q.Q.Q.Q.-.. ##h.h.h.h.$#%#&#a a a a a X@*#=#-#;#>#,#v@v@v@v@v@v@v@v@v@v@v@v@'#)#. !#1@a a a 1@~#{#{ { { { ]#. .                       ",
"              G+E+E+E+E+E+E+E+E+E+E+^#/#Z Z ..........(.y.L (.(.(.(.(.(#_#3 a a a a O+:#<#[#}#|#1#2#v@v@v@v@v@v@v@v@v@v@v@v@v@3#O+=@a a a 4#5#p@{ { { = 6#7#.                       ",
"              8#9#E+E+E+E+E+E+E+E+E+0#a#h Z ..........(.b#L (.(.(.(.(.(.C c#1@a a d#e#f#g#h#i#1#j#k#v@v@v@v@v@v@v@v@v@v@v@v@v@l#m#n#N+a 1@o#Q+{ { { { N.p#q#g..                     ",
"              r#s#E+E+E+E+E+E+E+E+E+E+t#u#Z ..........(.b#L (.(.(.(.(.(.v#w#Y@a x#y#z#A#B#. . C#D#E#v@v@v@v@v@v@v@v@v@v@v@v@v@v@F#G#H#a I#`.{ { { { u+J#. . X M                     ",
"                K#E+E+E+E+E+E+E+E+E+E+0#L#@@..........(.b#C (.(.(.(.(.q.q.B M#N#O#P#Q#R#. . S#T#U#V#V#W#X#Y#Z#w@v@v@v@v@v@v@v@v@v@`# $2@.$p+{ { { { p@+$@$. #$$$.                   ",
"                %$_@E+E+E+E+E+E+E+E+E+E+&$*$........(.(.=$N (.(.(.;.-$7.;$>$,$'$)$!$~$. . {$]$^$S@/$($_$:$<$[$}$|$'#v@v@v@v@v@v@v@v@)#1$2$[ { { O.{ 3$4$q.b#. 5$. .                 ",
"                6$7$E+E+E+E+E+E+E+E+E+E+8$9$4.......(.(.0$N q.a$W+b$>+c$d$Q e$f$g$h$i$j$k$l$m$n$o$p$q$q$r$s$q$t$u$v$V#v@v@v@v@v@v@v@R@w$U { { { { [+x$=.(.y$i K . .                 ",
"                z$A$E+E+E+E+E+E+E+E+E+E+9#B$&+....(.(.(.w C$D$E$j+,@a a a ).F$G$v@H$;#I$[#J$K$L$M$N$N$N$M$O$N$N$N$P$Q$R$v@v@v@v@v@v@v@S$T$= { { { U$Y+V$..W$. _.Q.$$.               ",
"                  X$E+E+E+E+E+E+E+E+E+E+E+Y$Z$*+*+r.$#`$ %.%1@a a a a a a 3 +%V#v@v@`#@%#%$%%%&%N$N$N$N$*%=%-%N$N$N$;%>%,%v@v@v@v@v@v@'%)%{ { { m.!%~%....Z {%L Z ..V.              ",
"                  ]%D+E+E+E+E+E+E+E+E+E+E+^%/%1 =+. (%_%=@a a 1@a a a a a :%<%v@v@v@v@v@[%}%|#N$N$N$N$N$-%=%|%N$N$N$N$s$1%v@v@v@v@v@v@v@2%,+{ 3%4%r.........1 5%Z Z q#.             ",
"                  6%_@E+E+E+E+E+E+E+E+E+E+7%8%9%S+0%N+a a a a a a a a a a a%b%v@v@v@v@v@c%d%N$N$N$N$N$N$N$e%f%N$N$N$N$N$A#R@v@v@v@v@v@u@g%T p@h%. . . :.L =.v i%Z u A .             ",
"                  j%_@E+E+E+E+E+E+E+E+E+k%l%m%2@a a a a a a 1@a a a a a a n%o%v@v@v@v@v@p%q%&%N$N$N$N$N$N$r%s%N$N$N$N$N$t%u%v@v@v@v@v@v@v%w%x%y%(.(.z%A%P 8 B%4+Q.Z u x .           ",
"        C%6.u  .D%E%H@E+E+E+E+E+E+E+E+F%G%4#R a a a a a a a a a a a a a a H%o%v@v@v@v@I%J%K%L%N$N$N$N$N$N$*%M%N$N$N$N$N$N%O%v@u@v@v@v@v@P%Q%R%g ..........4.a$. . S%T%{%.           ",
"        p.u u u u U%9#E+E+E+E+E+E+H@V%W%X%Y%Z%Y%`% &Y%Y%Y%Y%Y%`% &`% &Y%`%.&R@v@v@v@v@+&. . C#@&N$N$N$N$N$@&#&N$N$N$N$N$$&%&Z#v@v@v@v@v@P%&&z%..............4.. B m A A *&.         ",
"      A%u u u u u =&-&E+E+E+E+E+E+;&>&9 ,&'&'&)&)&)&)&)&)&)&)&'&)&)&)&)&'&!&o%v@v@v@v@~&. . {&-%N$N$N$N$N$N$]&N$N$N$N$N$^&/&u@v@v@v@v@v@P%+.................(&P _&Z u u :&.         ",
"      K V$u u u u <&[&E+E+E+E+E+E+_@}&|&r m.m.m.m.m.m.m.6 E.m.9+m.m.m.m.9+1&o%v@v@v@v@2&. . ]$@&N$N$N$N$N$@&1#N$N$N$N$N$3&/&u@v@v@v@v@v@P%&& ...............6.4&_&Z u u ^..         ",
"        :&u u u A 5&H@E+E+E+E+E+E+E+-&I@6&7&{ { { { { { { { { { { { { { { 8&R@v@v@v@v@,#9&. 0&N$N$N$N$N$N$*%]$N$N$N$N$N$a&b&u@v@v@v@v@v@c&`.d&6.............4.. e&q#y.f&g&          ",
"          h&J.i&  G@_@E+E+E+E+E+E+E+E+E+j&k&l&m.{ { { { { { { O.{ { { { { 8&o%v@v@v@v@v@m&n&N$N$N$N$N$N$N$o&p&N$N$N$N$N$q&r&v@v@v@v@v@v@c&&.s&j p.....q.=.$#t&. u&L L 5%.           ",
"                  v&_@E+E+E+E+E+E+E+E+E+E+w&x&y&z&q@{ { { { { { { { { { { A&W#v@v@v@v@v@B&C&N$N$N$N$N$N$N$D&t%N$N$N$N$N$A#E&v@v@v@v@v@u@F&&.6 G&i&*+W+H&I&N j D (.Z Z .             ",
"                  J&E+E+E+E+E+E+E+E+E+E+E+K&L&_./.I M&}.= { { { { { { { { < N&v@v@v@v@v@l#O&P&N$N$N$N$N$@&Q&r%N$N$N$N$R&S&v@v@v@v@v@v@T&U&9+{ d V&W&R.X&k ..=$i%Z Z w .             ",
"                  Y&E+E+E+E+E+E+E+E+E+E+E+Z&. . . . . . `&v+[ { { { { { { ~@ *.*v@v@u@o%c%+*@*q$N$N$N$N$*%#*&%N$N$N$$*%*&*v@v@v@v@v@v@**=*p@{ { d -*v#....Z [@w Z Z V..             ",
"                ;*>*E+E+E+E+E+E+E+E+E+E+,*'*A _.g g g k w )*!*~*z+3%{ { { = {*]*v@V#^*/*(*_*:*<*^&N$N$N$[*k$N$N$N$s$}*|*v@v@v@v@v@v@v@,#1*{ { { { 2*f ....... v Z Q.@$              ",
"                3*9#E+E+E+E+E+E+E+E+E+E+4*5*..........(.0$]@-.$#4$6*7*A@c )@d 8*v@9*0*O$a*b*c*d*e*f*N$N$Q&s$N$g*h*i*B&v@v@v@v@v@v@v@l#j*T { { { { [+k*6...h . v l*t .               ",
"                m*_@E+E+E+E+E+E+E+E+E+D+n*o*Z ......(.(.0$]@q.q.p*p*;$]+e&=+L@q*r*s*t*. . 8 u*v*w*x*y*]$z*A*B*C*D*E*v@v@v@v@v@v@v@v@F*%#G*[ { { { { ;@H*Z h&J {%. .                 ",
"                I*E+E+E+E+E+E+E+E+E+E+J*K*..Z ......(.(.L*N (.q.p*p*p*p*p*;$M*N*O*P*Q*R*. . {$0*S*@%**T*U*'#U*V*`#v@v@v@v@v@v@v@v@[%W*X*Y*U { { { { 9+Z*h t . `*. .                 ",
"               =F+E+E+E+E+E+E+E+E+E+D+.=*+Z ........(.(.b#L*(.q.p*p*p*p*p*+=@=1@<.#=$=#&. . . C#h*%=v@v@v@v@v@v@v@v@v@v@v@v@v@v@v@&=*=a ==c@{ { { { [ -=. . h.N .                   ",
"              ;=_@E+E+E+E+E+E+E+E+E+>=,=(.Z ........(.(.b#L (.(.q.p*p*p*C '=).a a )=!=~={=]=. ^=;%/=v@v@v@v@v@v@v@v@v@v@v@v@v@l#(=_=N*a a :=}.{ { { { n.<=.+h..                     ",
"            [=}=E+E+E+E+E+E+E+E+E+E+|=1=Z Z ........(.(.b#L (.(.q.q.p*i.2=l@1@a a 3=u.4=5=6=3&t$7=8=v@v@v@v@v@v@v@v@v@v@v@v@v@9=1$0=a a a _%a=3%{ { { { F@R.6+.                     ",
"            5&0#E+E+E+E+E+E+E+E+E+b=c=..Z Z Z ......(.p*4&L (.(.q.q.+.d=e=a a a a a f=g=h=i=j=k=l=`#v@v@v@v@v@v@v@v@v@v@v@m=(=. d#a a a a 3=n=5 { { { { `@. .                       ",
"            J&E+E+E+E+E+E+E+E+E+o=p=q=A%A%A%A%r=r=j j Y+. s=j j ####|@t=a a a a a u=4 ~*v=w=&*u@v@v@v@v@v@v@v@v@v@v@v@`#x=y=z==+A=B=p a a a '.C=r { { { F@.                         ",
"          D=F+E+E+E+E+E+E+E+E+-&E=z w w w O *+*+*+*+$#F=S%$#$#r=. G=H=a a a a a Q I=J=p@{ K=L=M=**v@v@v@v@v@v@v@l#B&N=O=-=} P==.q.X+Q=_ a a a R=x%{ O.[ S=.                         ",
"          T=D+E+E+E+E+E+E+E+U=Y&V=..Z Z Z ..........(.$#H*X b#W=X=Y=a a a a 3=Z=`=- { { { {  -.-+-@-#-$-%-&-&-*-=---* d { ] ;-(.....J.>-e=a a 3 ,-{ { { `@                          ",
"        '-A$E+E+E+E+E+E+E+E+}=)-1 Z Z Z Z Q.z%z%z%z%>.!-~-{-R+]-1@a a a N+:%^-/-,+{ { { { { { (-Z@<._-: :-< 5 <-&.Z.{ { { [-4$(.....[@}-4 k+a a |-,+{ ,+1-                          ",
"          2-3-b=4-_@_@E+E+5-6-. +@u Z Z Z W 7-8-K.9-n#0-,@R a a a m@Y@a-b-c-- { { { { { { { F.$ d-a a e-f-{ { { { { { { [ g-v (.....[@*+A%h-a a i-,+{ ] j-                          ",
"                k-l-;=m-m-n-  . @@u u Z ..&+o-p-q-m@m@a a a R :%r-s-t-Q%}.p@{ { { { { { { C.u-v-w-a R x-{ { { { { { { { &.y-;.(...Z Y+w V$z-A-a B-,+{ z+.                           ",
"                              . @@u u u ....&+U.C-D-E-E-F-G-H-@ I-}.p@{ { { { { { { { { K=J-a$K-L-a M-Q%{ O.{ { { { { { -=R.v -.>.>.N-]@##t&M*N+B-6 = ;                             ",
"                              . O-&+6.6.;._._.h.P-Q-#+3%{ p@{ { { { { { { { { { { { p@G*/ B &+R-3=a S-< { { { { { { { U T-H&H&W W W . $$B 5%U-e=B-,+U V-                            ",
"                              . V.. . . . . . . . . W-X-Y-Z-p@{ { { { { { { { { T 2+`-. . . .  ;m@)..;)@{ { { O.{ { = `.*+(.(...Z Z . p.+;. . @;i-9+#;                              ",
"                              . @@u u u u Z Z ....g.C (.=$H*$;%;&;*;=;=;=;-;;;>;`*A%l (.(.(.a$,;a 3 ';E.{ { { { { { Q+);_.(.(.Z >.I.. . .     !;~;w.{;                              ",
"                              . @@u u u u Z Z Z Z g.];........(.p.q. .X+`*q.(.(.(.(.(.(.(.(.I.;+a d#^;{ { { { { { ~@/;J.(.;.*+K@L@. . .       (;_;:;                                ",
"                              H&(&u u u u Z Z Z V$P ];................7#$#(.(.(.(.(.(.(.....<;&#a [;)@{ { { { { { };. A%|;&&. . .             . 1;                                  ",
"                              t u u u u u u Z Z +@. g Z Z Z ........&+. l (.(.(.(.........Q.2;3=3;4;r { { { { { - 5;. . . . .                                                       ",
"                              6;:&:&:&:&:&7;g g f l*Z Z Z Z Z Z Z Z 5%8;Z Z ............p.9;0;a;b;c;{ { { { p@E.X.. . . .                                                           ",
"                              4&w w w w . . . . . 6;I I I I I I I H . J I I H H H H H H &&d;a e;z&{ { { { { Z.`&f;. .                                                               ",
"                            . 7#(.u u u u u u u J &+u u Z Z Z Z l 4+g;A A A A A +@+@+@*+h;,@&#i;}.{ { { { O.P.. .                                                                   ",
"                            . . . . . . . . . . . . . . . . . . . . . . . . . . . . . L@n@j;k;2*{ { { { m.l;.                                                                       ",
"                                                                                    m;n;Y=o;p;O.{ { { { P.                                                                          ",
"                                                                                    q;r;s;t;= { { { &.`&.                                                                           ",
"                                                                                  . R=u;0+= { = F.v;w;                                                                              ",
"                                                                                  x;y;z;O.,+A;c@B;                                                                                  ",
"                                                                                . C;D;~*E;F;.                                                                                       ",
"                                                                                                                                                                                    ",
"                                                                                                                                                                                    ",
"                                                                                                                                                                                    ",
"                                                                                                                                                                                    ",
"                                                                                                                                                                                    ",
"                                                                                                                                                                                    ",
"                                                                                                                                                                                    ",
"                                                                                                                                                                                    ",
"                                                                                                                                                                                    "};
