/* XPM */
static char * sunny_6_xpm[] = {
"90 90 1591 2",
"  	c None",
". 	c #000000",
"+ 	c #020101",
"@ 	c #180E0E",
"# 	c #473232",
"$ 	c #4A3535",
"% 	c #291B1B",
"& 	c #1B1111",
"* 	c #503A3A",
"= 	c #674B4B",
"- 	c #644949",
"; 	c #543D3D",
"> 	c #392828",
", 	c #090505",
"' 	c #2E2020",
") 	c #6B4E4E",
"! 	c #694D4D",
"~ 	c #634848",
"{ 	c #5D4343",
"] 	c #463232",
"^ 	c #1D1313",
"/ 	c #3F2D2D",
"( 	c #553D3D",
"_ 	c #3A2929",
": 	c #170E0E",
"< 	c #483434",
"[ 	c #533B3B",
"} 	c #5B4242",
"| 	c #5F4545",
"1 	c #5A4141",
"2 	c #251919",
"3 	c #211616",
"4 	c #5C4343",
"5 	c #664B4B",
"6 	c #5D4444",
"7 	c #271A1A",
"8 	c #3D2B2B",
"9 	c #4C3636",
"0 	c #4B3636",
"a 	c #190F0F",
"b 	c #594141",
"c 	c #412E2E",
"d 	c #100909",
"e 	c #3E1F08",
"f 	c #291C1C",
"g 	c #6C4F4F",
"h 	c #6A4D4D",
"i 	c #443131",
"j 	c #2A1D1D",
"k 	c #312222",
"l 	c #563E3E",
"m 	c #5C4242",
"n 	c #604545",
"o 	c #614747",
"p 	c #4C3737",
"q 	c #2C1E1E",
"r 	c #3A200A",
"s 	c #80491E",
"t 	c #82481D",
"u 	c #8C865B",
"v 	c #9D9767",
"w 	c #5E5A3C",
"x 	c #6D6846",
"y 	c #443030",
"z 	c #654A4A",
"A 	c #322323",
"B 	c #473333",
"C 	c #523B3B",
"D 	c #5E4444",
"E 	c #624747",
"F 	c #513A3A",
"G 	c #281B1B",
"H 	c #6D4924",
"I 	c #8A5628",
"J 	c #A55D27",
"K 	c #925221",
"L 	c #030100",
"M 	c #C3BB80",
"N 	c #E2D996",
"O 	c #ECE39D",
"P 	c #D7CF8F",
"Q 	c #C7BE83",
"R 	c #C8C084",
"S 	c #B4AD77",
"T 	c #76724C",
"U 	c #5A5639",
"V 	c #684C4C",
"W 	c #342424",
"X 	c #604646",
"Y 	c #594040",
"Z 	c #4D3737",
"` 	c #483333",
" .	c #231717",
"..	c #8D6032",
"+.	c #996937",
"@.	c #A15F2A",
"#.	c #BB6A2E",
"$.	c #A45D27",
"%.	c #7B441B",
"&.	c #ACA571",
"*.	c #FAF0A6",
"=.	c #F9F0A6",
"-.	c #F9EFA6",
";.	c #F3EAA2",
">.	c #F1E8A0",
",.	c #F2E9A1",
"'.	c #A7A16E",
").	c #241818",
"!.	c #221616",
"~.	c #573F3F",
"{.	c #684B4B",
"].	c #422F2F",
"^.	c #4E3838",
"/.	c #624848",
"(.	c #362626",
"_.	c #010101",
":.	c #6E4B2D",
"<.	c #E49E56",
"[.	c #97602F",
"}.	c #BA6B2E",
"|.	c #BF6E2F",
"1.	c #A25C27",
"2.	c #663815",
"3.	c #C1B97E",
"4.	c #F6ECA3",
"5.	c #F9EFA5",
"6.	c #CFC688",
"7.	c #676242",
"8.	c #654949",
"9.	c #453131",
"0.	c #372727",
"a.	c #533C3C",
"b.	c #4F3939",
"c.	c #694C4C",
"d.	c #493434",
"e.	c #352424",
"f.	c #614646",
"g.	c #432F2F",
"h.	c #1E1414",
"i.	c #614329",
"j.	c #C38748",
"k.	c #BA7E43",
"l.	c #A7602A",
"m.	c #C57131",
"n.	c #C47031",
"o.	c #B7682D",
"p.	c #663715",
"q.	c #ADA571",
"r.	c #F5EBA2",
"s.	c #EAE09B",
"t.	c #918B5F",
"u.	c #2B1E1D",
"v.	c #352525",
"w.	c #563F3F",
"x.	c #2A1C1C",
"y.	c #C98B4B",
"z.	c #D0904E",
"A.	c #9B5F2D",
"B.	c #BB6B2E",
"C.	c #C37030",
"D.	c #9E5A25",
"E.	c #582F10",
"F.	c #B1AA74",
"G.	c #F8EFA5",
"H.	c #F7EEA4",
"I.	c #AEA772",
"J.	c #584A3C",
"K.	c #332323",
"L.	c #271308",
"M.	c #542F17",
"N.	c #653819",
"O.	c #47291B",
"P.	c #623E32",
"Q.	c #69443A",
"R.	c #4B3535",
"S.	c #543C3C",
"T.	c #664A4A",
"U.	c #140C0C",
"V.	c #4E3939",
"W.	c #4D3838",
"X.	c #422E2E",
"Y.	c #4F3838",
"Z.	c #573D36",
"`.	c #A7733D",
" +	c #EEA55A",
".+	c #8B6032",
"++	c #B1652B",
"@+	c #C47131",
"#+	c #BC6C2E",
"$+	c #884C1F",
"%+	c #46240B",
"&+	c #C2BB80",
"*+	c #F8EEA5",
"=+	c #DCD391",
"-+	c #5A4E3C",
";+	c #463231",
">+	c #442E22",
",+	c #6D4828",
"'+	c #70451F",
")+	c #6B3D18",
"!+	c #935423",
"~+	c #A86029",
"{+	c #A15B26",
"]+	c #9D5A29",
"^+	c #834B25",
"/+	c #402415",
"(+	c #452F2C",
"_+	c #593F3E",
":+	c #382727",
"<+	c #A3703B",
"[+	c #E9A158",
"}+	c #9C5926",
"|+	c #BC6C2F",
"1+	c #653715",
"2+	c #9F9868",
"3+	c #E2D896",
"4+	c #8A805B",
"5+	c #644948",
"6+	c #352420",
"7+	c #9E6C39",
"8+	c #B27A41",
"9+	c #DB9852",
"0+	c #CF8E4C",
"a+	c #9E6936",
"b+	c #73431D",
"c+	c #9E5B27",
"d+	c #BE6D2F",
"e+	c #C06E30",
"f+	c #C47030",
"g+	c #A05B28",
"h+	c #693B1A",
"i+	c #2F1B14",
"j+	c #392523",
"k+	c #4A3636",
"l+	c #77512E",
"m+	c #ECA459",
"n+	c #CD8E4D",
"o+	c #A5622C",
"p+	c #C16E30",
"q+	c #BF6D2F",
"r+	c #8D4F20",
"s+	c #BEB67D",
"t+	c #9E9668",
"u+	c #604945",
"v+	c #815A44",
"w+	c #A16F44",
"x+	c #BB8144",
"y+	c #DC9852",
"z+	c #F2A85B",
"A+	c #E59E56",
"B+	c #B47A41",
"C+	c #844E22",
"D+	c #C67231",
"E+	c #C87332",
"F+	c #B1652C",
"G+	c #82491F",
"H+	c #2E1C16",
"I+	c #4E3735",
"J+	c #614645",
"K+	c #5F4444",
"L+	c #7E5637",
"M+	c #DE9A53",
"N+	c #DB9752",
"O+	c #8C5325",
"P+	c #C67131",
"Q+	c #A35C27",
"R+	c #532C0F",
"S+	c #CDC488",
"T+	c #F5EBA3",
"U+	c #F4EAA2",
"V+	c #B7B079",
"W+	c #271B1A",
"X+	c #6C4C42",
"Y+	c #9B6B3F",
"Z+	c #D2924F",
"`+	c #F3A85C",
" @	c #F4A95D",
".@	c #DE9953",
"+@	c #B5763C",
"@@	c #B86E33",
"#@	c #C26F30",
"$@	c #B6682D",
"%@	c #905226",
"&@	c #583321",
"*@	c #714E34",
"=@	c #DD9953",
"-@	c #A16531",
";@	c #BD6D2F",
">@	c #6D3C17",
",@	c #F7EDA4",
"'@	c #C7BF84",
")@	c #594F3B",
"!@	c #453030",
"~@	c #3F2918",
"{@	c #A9743E",
"]@	c #E7A057",
"^@	c #F5AA5D",
"/@	c #BB8044",
"(@	c #A96B34",
"_@	c #B1672D",
":@	c #B0652B",
"<@	c #834C2B",
"[@	c #65443D",
"}@	c #654948",
"|@	c #785235",
"1@	c #F0A65B",
"2@	c #F0A75B",
"3@	c #87572B",
"4@	c #B8692E",
"5@	c #C37031",
"6@	c #9E5A26",
"7@	c #4A270C",
"8@	c #807B53",
"9@	c #DFD693",
"0@	c #DFD595",
"a@	c #75694E",
"b@	c #5D4544",
"c@	c #372626",
"d@	c #2F2020",
"e@	c #43302F",
"f@	c #654637",
"g@	c #BF8549",
"h@	c #F1A85C",
"i@	c #F8AC5E",
"j@	c #DC9751",
"k@	c #A66B35",
"l@	c #AA6129",
"m@	c #B0642B",
"n@	c #76421D",
"o@	c #4D3635",
"p@	c #A87446",
"q@	c #EDA55A",
"r@	c #B4763C",
"s@	c #B5672C",
"t@	c #593011",
"u@	c #080200",
"v@	c #686343",
"w@	c #F6ECA4",
"x@	c #786E50",
"y@	c #6A4E4E",
"z@	c #221717",
"A@	c #3E2B2B",
"B@	c #604544",
"C@	c #593E30",
"D@	c #AA753E",
"E@	c #F7AC5E",
"F@	c #CD8E4C",
"G@	c #8F5D2E",
"H@	c #AD642B",
"I@	c #693C21",
"J@	c #4B3330",
"K@	c #AA7540",
"L@	c #EFA65A",
"M@	c #E8A157",
"N@	c #AA6D36",
"O@	c #BD6C2F",
"P@	c #7A431B",
"Q@	c #040100",
"R@	c #B5AD77",
"S@	c #EFE59F",
"T@	c #E4DB98",
"U@	c #8E845F",
"V@	c #604645",
"W@	c #674A4A",
"X@	c #130B0B",
"Y@	c #704D36",
"Z@	c #C5894A",
"`@	c #F7AB5E",
" #	c #D89550",
".#	c #AB6C35",
"+#	c #B7692D",
"@#	c #A75F28",
"##	c #5A3116",
"$#	c #523829",
"%#	c #AD773F",
"&#	c #F9AC5E",
"*#	c #EAA258",
"=#	c #764A23",
"-#	c #C06E2F",
";#	c #925222",
">#	c #2C1504",
",#	c #B5AE77",
"'#	c #F0E69F",
")#	c #F3E9A1",
"!#	c #776F4F",
"~#	c #674C4B",
"{#	c #3C2A2A",
"]#	c #845A2F",
"^#	c #E79F57",
"/#	c #C18547",
"(#	c #814C21",
"_#	c #B5682C",
":#	c #7A451E",
"<#	c #553B3A",
"[#	c #493228",
"}#	c #CF8F4E",
"|#	c #D2914E",
"1#	c #A06430",
"2#	c #BD6C2E",
"3#	c #965523",
"4#	c #321906",
"5#	c #C4BC81",
"6#	c #E7DE99",
"7#	c #988E65",
"8#	c #5B4141",
"9#	c #583F3F",
"0#	c #452D1D",
"a#	c #B57C43",
"b#	c #F4A95C",
"c#	c #F2A95C",
"d#	c #B97E43",
"e#	c #A4602B",
"f#	c #A75F29",
"g#	c #533327",
"h#	c #664630",
"i#	c #E59F56",
"j#	c #CD904D",
"k#	c #A6642E",
"l#	c #3D231A",
"m#	c #0C0606",
"n#	c #433030",
"o#	c #847E55",
"p#	c #D9D08F",
"q#	c #EAE09C",
"r#	c #8F855F",
"s#	c #614746",
"t#	c #3B2929",
"u#	c #92643A",
"v#	c #E29D55",
"w#	c #9C6432",
"x#	c #76431F",
"y#	c #9C6B3C",
"z#	c #E39D56",
"A#	c #D6934E",
"B#	c #9C5925",
"C#	c #B9692E",
"D#	c #704125",
"E#	c #5A4040",
"F#	c #6B4F4F",
"G#	c #534539",
"H#	c #8F895D",
"I#	c #E8DE9A",
"J#	c #7F7654",
"K#	c #634431",
"L#	c #D59350",
"M#	c #F7AB5D",
"N#	c #F1A75B",
"O#	c #C08447",
"P#	c #874F23",
"Q#	c #B8692D",
"R#	c #915221",
"S#	c #B17940",
"T#	c #AE773F",
"U#	c #AB632C",
"V#	c #C16F30",
"W#	c #663818",
"X#	c #1A1010",
"Y#	c #332424",
"Z#	c #685A47",
"`#	c #C2BA80",
" $	c #DCD392",
".$	c #928662",
"+$	c #60443C",
"@$	c #A5723E",
"#$	c #F4AA5D",
"$$	c #A46E3A",
"%$	c #AD642C",
"&$	c #B3662C",
"*$	c #905324",
"=$	c #9F6D38",
"-$	c #9B6937",
";$	c #BB6B2F",
">$	c #533A3A",
",$	c #110A0A",
"'$	c #766A50",
")$	c #E9E09B",
"!$	c #DBD291",
"~$	c #635A42",
"{$	c #503939",
"]$	c #593F3F",
"^$	c #996A3C",
"/$	c #F3A95C",
"($	c #864E1E",
"_$	c #A45E27",
":$	c #945F20",
"<$	c #8C691B",
"[$	c #9E7F1C",
"}$	c #A5871E",
"|$	c #9B7E22",
"1$	c #C79A3B",
"2$	c #C99543",
"3$	c #AD6E37",
"4$	c #7D461E",
"5$	c #513734",
"6$	c #5A4242",
"7$	c #6F5A4E",
"8$	c #AEA474",
"9$	c #F8EEA4",
"0$	c #F2E8A1",
"a$	c #C3BB82",
"b$	c #4A3D32",
"c$	c #3F2C27",
"d$	c #59403E",
"e$	c #634746",
"f$	c #5F4020",
"g$	c #CE8E4C",
"h$	c #9D7333",
"i$	c #7A6B38",
"j$	c #9B841A",
"k$	c #9E871A",
"l$	c #D3B626",
"m$	c #EBCB2B",
"n$	c #EDCC2B",
"o$	c #F9D72E",
"p$	c #E2C329",
"q$	c #CCB024",
"r$	c #B99A23",
"s$	c #BF8D29",
"t$	c #BF752E",
"u$	c #864C1F",
"v$	c #3A2828",
"w$	c #362525",
"x$	c #1F1414",
"y$	c #5C3C1C",
"z$	c #5A3819",
"A$	c #6D6348",
"B$	c #DAD191",
"C$	c #E5DB97",
"D$	c #D9CD8D",
"E$	c #A3996A",
"F$	c #8C7B51",
"G$	c #513D28",
"H$	c #6B492D",
"I$	c #634325",
"J$	c #5B3D22",
"K$	c #855C38",
"L$	c #68472A",
"M$	c #744F2F",
"N$	c #875D31",
"O$	c #7D552E",
"P$	c #865C3A",
"Q$	c #6C4A35",
"R$	c #4C342B",
"S$	c #75523D",
"T$	c #5D413C",
"U$	c #573E3E",
"V$	c #583E3E",
"W$	c #734F35",
"X$	c #D79551",
"Y$	c #DF9B53",
"Z$	c #B47F44",
"`$	c #4D3722",
" %	c #9B927B",
".%	c #A09B8D",
"+%	c #B5B1A8",
"@%	c #BFB79F",
"#%	c #A5934F",
"$%	c #D6B926",
"%%	c #F4D32D",
"&%	c #F8D62E",
"*%	c #DDBE28",
"=%	c #C9AD23",
"-%	c #BF9427",
";%	c #B6702B",
">%	c #C27030",
",%	c #8A4E23",
"'%	c #322222",
")%	c #2D1F1F",
"!%	c #110909",
"~%	c #AC773F",
"{%	c #996836",
"]%	c #845226",
"^%	c #48260C",
"/%	c #999364",
"(%	c #F3E9A2",
"_%	c #D0C78A",
":%	c #A39968",
"<%	c #B09660",
"[%	c #B6834A",
"}%	c #CC8F4F",
"|%	c #C28648",
"1%	c #CD8D4C",
"2%	c #DE9A54",
"3%	c #E59F57",
"4%	c #EFA65B",
"5%	c #D79550",
"6%	c #D3924F",
"7%	c #D69451",
"8%	c #C6894A",
"9%	c #BA8145",
"0%	c #AF7946",
"a%	c #81593D",
"b%	c #503621",
"c%	c #B37C42",
"d%	c #B17E3F",
"e%	c #AA862E",
"f%	c #907F57",
"g%	c #958F82",
"h%	c #9B9A96",
"i%	c #9A9A9A",
"j%	c #757575",
"k%	c #BFBFBF",
"l%	c #EFEFEF",
"m%	c #B9AB83",
"n%	c #ECCC33",
"o%	c #F5D42D",
"p%	c #DCBD28",
"q%	c #A0801D",
"r%	c #995724",
"s%	c #81491D",
"t%	c #5B3F3D",
"u%	c #664949",
"v%	c #3F2C2C",
"w%	c #261917",
"x%	c #5F401F",
"y%	c #9D6B39",
"z%	c #AE652C",
"A%	c #552D0F",
"B%	c #9F9867",
"C%	c #D5CC8C",
"D%	c #817B54",
"E%	c #382F1D",
"F%	c #A8753E",
"G%	c #F4AB5E",
"H%	c #F5AC5E",
"I%	c #DF9B54",
"J%	c #B98243",
"K%	c #836721",
"L%	c #B69D1F",
"M%	c #B29A21",
"N%	c #969182",
"O%	c #5C5B58",
"P%	c #434343",
"Q%	c #040404",
"R%	c #1E1E1E",
"S%	c #6F6F6F",
"T%	c #BABABA",
"U%	c #C1B9A1",
"V%	c #D9BC27",
"W%	c #F8D72E",
"X%	c #E5C62A",
"Y%	c #AF8E21",
"Z%	c #AC6C27",
"`%	c #9A582B",
" &	c #523A3A",
".&	c #3B2A2A",
"+&	c #251818",
"@&	c #4F351C",
"#&	c #B47C42",
"$&	c #CA8C4B",
"%&	c #AB6C36",
"&&	c #B1642B",
"*&	c #643714",
"=&	c #B3AC75",
"-&	c #F4EBA2",
";&	c #B4AC76",
">&	c #593112",
",&	c #7E471C",
"'&	c #5C3818",
")&	c #B37B41",
"!&	c #E6A057",
"~&	c #FAAE5F",
"{&	c #F9AD5F",
"]&	c #D5944F",
"^&	c #BC9337",
"/&	c #CCB025",
"(&	c #D9BC29",
"_&	c #A89964",
":&	c #7F7F7F",
"<&	c #030202",
"[&	c #010100",
"}&	c #8D8D8D",
"|&	c #BDBDBD",
"1&	c #C2B178",
"2&	c #E3C429",
"3&	c #A3891C",
"4&	c #975923",
"5&	c #7A441B",
"6&	c #573D3C",
"7&	c #523A35",
"8&	c #452E1F",
"9&	c #B07940",
"0&	c #B86D32",
"a&	c #BA6A2E",
"b&	c #D9D090",
"c&	c #CCC487",
"d&	c #936E43",
"e&	c #925322",
"f&	c #5E3413",
"g&	c #966534",
"h&	c #D3934F",
"i&	c #FAAF60",
"j&	c #F9AE5F",
"k&	c #F8AD5E",
"l&	c #E29E54",
"m&	c #826522",
"n&	c #DEBF2A",
"o&	c #F3D22D",
"p&	c #E7C82B",
"q&	c #B5A778",
"r&	c #9A9998",
"s&	c #7A7A7A",
"t&	c #696969",
"u&	c #5B5B5B",
"v&	c #7E7D7B",
"w&	c #A19D94",
"x&	c #B4A883",
"y&	c #DCBE28",
"z&	c #F7D52E",
"A&	c #ECCC2C",
"B&	c #BB9C23",
"C&	c #945D21",
"D&	c #532E13",
"E&	c #644848",
"F&	c #382625",
"G&	c #583B28",
"H&	c #99693C",
"I&	c #EDA459",
"J&	c #A56D37",
"K&	c #7C451B",
"L&	c #645F3F",
"M&	c #F6EDA4",
"N&	c #B9A972",
"O&	c #AA6B36",
"P&	c #A25C26",
"Q&	c #77431A",
"R&	c #714923",
"S&	c #BD8245",
"T&	c #EDA65A",
"U&	c #D79650",
"V&	c #C89C3B",
"W&	c #D2B526",
"X&	c #F6D52E",
"Y&	c #F2D12D",
"Z&	c #C6AD39",
"`&	c #B6B4AF",
" *	c #B1B1B1",
".*	c #BEBDB9",
"+*	c #A2A09A",
"@*	c #A19676",
"#*	c #BBA75D",
"$*	c #C0A83F",
"%*	c #D8BC37",
"&*	c #927D17",
"**	c #382621",
"=*	c #5F4441",
"-*	c #553C39",
";*	c #593D2B",
">*	c #5D3E1F",
",*	c #F6AB5D",
"'*	c #C38648",
")*	c #B36E34",
"!*	c #BB6C2E",
"~*	c #BAB27A",
"{*	c #86764E",
"]*	c #A65E28",
"^*	c #C06F2F",
"/*	c #8B4F20",
"(*	c #512C0F",
"_*	c #A36F3A",
":*	c #AF7E3F",
"<*	c #E4C32E",
"[*	c #F4D22D",
"}*	c #F7D62E",
"|*	c #F2D447",
"1*	c #D5C17C",
"2*	c #A09265",
"3*	c #91834D",
"4*	c #A59459",
"5*	c #94928C",
"6*	c #CDC8B9",
"7*	c #A09C92",
"8*	c #8D8360",
"9*	c #C3A937",
"0*	c #F1D132",
"a*	c #F9D82F",
"b*	c #CDB124",
"c*	c #514510",
"d*	c #885E37",
"e*	c #926639",
"f*	c #B67E46",
"g*	c #C7894A",
"h*	c #EDA45A",
"i*	c #9B6837",
"j*	c #B96A2E",
"k*	c #78431A",
"l*	c #B6AE78",
"m*	c #E6DD99",
"n*	c #EAE19C",
"o*	c #A09869",
"p*	c #774824",
"q*	c #AF642B",
"r*	c #6E3D17",
"s*	c #82562B",
"t*	c #C68949",
"u*	c #F4AB5D",
"v*	c #F9AD5E",
"w*	c #DE9C53",
"x*	c #C49D37",
"y*	c #F3D12C",
"z*	c #CDB236",
"A*	c #B3A784",
"B*	c #C2C0BA",
"C*	c #D2D1CE",
"D*	c #EEEEEE",
"E*	c #F7F7F7",
"F*	c #FAFAFA",
"G*	c #D7D6D5",
"H*	c #736E5E",
"I*	c #837958",
"J*	c #BAA34A",
"K*	c #E2C438",
"L*	c #E8C82A",
"M*	c #937723",
"N*	c #F2A85C",
"O*	c #E39D55",
"P*	c #BB7D42",
"Q*	c #9B5B27",
"R*	c #3A1D08",
"S*	c #8E885C",
"T*	c #CEC589",
"U*	c #57463D",
"V*	c #583D37",
"W*	c #724124",
"X*	c #B2662B",
"Y*	c #AA6229",
"Z*	c #834A1D",
"`*	c #502F12",
" =	c #C08A47",
".=	c #DFBC32",
"+=	c #E4C645",
"@=	c #9E9681",
"#=	c #F1F1F1",
"$=	c #FBFBFB",
"%=	c #FFFFFF",
"&=	c #FEFEFE",
"*=	c #E5E5E5",
"==	c #BBBBBB",
"-=	c #E5E5E4",
";=	c #CDCBC5",
">=	c #A59976",
",=	c #DCBE29",
"'=	c #C8A82A",
")=	c #C88F46",
"!=	c #F6AA5D",
"~=	c #9D6A37",
"{=	c #905121",
"]=	c #9F9968",
"^=	c #D5CD8D",
"/=	c #D2C98B",
"(=	c #8D865D",
"_=	c #1E1513",
":=	c #463333",
"<=	c #744323",
"[=	c #955523",
"}=	c #623A13",
"|=	c #8E7322",
"1=	c #F0CF2C",
"2=	c #D4B927",
"3=	c #C3B78C",
"4=	c #D6D6D4",
"5=	c #F2F2F2",
"6=	c #A9A9A9",
"7=	c #F0F0F0",
"8=	c #D1D1D0",
"9=	c #BDAA69",
"0=	c #E1C229",
"a=	c #A37D31",
"b=	c #E9A258",
"c=	c #B3763D",
"d=	c #A05D29",
"e=	c #542D0F",
"f=	c #888258",
"g=	c #E2D995",
"h=	c #E4DA97",
"i=	c #857C59",
"j=	c #665248",
"k=	c #0E0808",
"l=	c #3C200F",
"m=	c #894D1F",
"n=	c #A36226",
"o=	c #C6A525",
"p=	c #C7AC23",
"q=	c #483D07",
"r=	c #8B8A87",
"s=	c #E6E6E6",
"t=	c #DBDBDB",
"u=	c #A5A5A5",
"v=	c #C1BBAB",
"w=	c #D8BC40",
"x=	c #EDCD2B",
"y=	c #B4952B",
"z=	c #D69450",
"A=	c #905728",
"B=	c #B4672D",
"C=	c #3D1F08",
"D=	c #A09A69",
"E=	c #DBD292",
"F=	c #A79D6F",
"G=	c #594340",
"H=	c #2B1D1D",
"I=	c #8F5B1F",
"J=	c #ECCA2C",
"K=	c #D3B726",
"L=	c #857314",
"M=	c #110F08",
"N=	c #686868",
"O=	c #C5C5C5",
"P=	c #C1C1C1",
"Q=	c #CBCBCB",
"R=	c #F9F9F9",
"S=	c #DDDBD9",
"T=	c #AD9D68",
"U=	c #F1D12D",
"V=	c #B89B27",
"W=	c #CF914C",
"X=	c #BC7F43",
"Y=	c #9A5C29",
"Z=	c #713F18",
"`=	c #251103",
" -	c #7D7851",
".-	c #DDD392",
"+-	c #897F5B",
"@-	c #6D584D",
"#-	c #59382E",
"$-	c #905122",
"%-	c #AF672A",
"&-	c #BC9625",
"*-	c #B0981E",
"=-	c #453B06",
"--	c #737373",
";-	c #DDDDDD",
">-	c #D0D0D0",
",-	c #FDFDFD",
"'-	c #F3F3F3",
")-	c #A4A3A1",
"!-	c #CAB035",
"~-	c #F5D32D",
"{-	c #B39A1F",
"]-	c #B98143",
"^-	c #936031",
"/-	c #A9632C",
"(-	c #AC6229",
"_-	c #45240E",
":-	c #F1E7A0",
"<-	c #D4CA8C",
"[-	c #928761",
"}-	c #402D2C",
"|-	c #40251B",
"1-	c #7B451B",
"2-	c #9A5D24",
"3-	c #DDBC29",
"4-	c #F6D42D",
"5-	c #EDCD2C",
"6-	c #A9921C",
"7-	c #040300",
"8-	c #383838",
"9-	c #919191",
"0-	c #F8F8F8",
"a-	c #D5D5D5",
"b-	c #DEDEDE",
"c-	c #B39F4C",
"d-	c #F3D22E",
"e-	c #F6D42E",
"f-	c #CBAE25",
"g-	c #906126",
"h-	c #A05B26",
"i-	c #C67232",
"j-	c #6D3D17",
"k-	c #34211D",
"l-	c #271B1B",
"m-	c #B1A974",
"n-	c #EDE39D",
"o-	c #B8B079",
"p-	c #817556",
"q-	c #69524B",
"r-	c #5B3C34",
"s-	c #854D2A",
"t-	c #A56C25",
"u-	c #D0B425",
"v-	c #AF991E",
"w-	c #3F3C30",
"x-	c #7B7B7B",
"y-	c #EDEDED",
"z-	c #DFDFDE",
"A-	c #BCAA70",
"B-	c #D6B827",
"C-	c #AA7226",
"D-	c #673916",
"E-	c #201515",
"F-	c #160D0D",
"G-	c #827D54",
"H-	c #B7B078",
"I-	c #E8DF9A",
"J-	c #D7CE8E",
"K-	c #A49C6C",
"L-	c #56473B",
"M-	c #463131",
"N-	c #4F3737",
"O-	c #542E12",
"P-	c #BC6B2E",
"Q-	c #925C20",
"R-	c #CAAE24",
"S-	c #D1BA42",
"T-	c #CFCFCE",
"U-	c #E0E0E0",
"V-	c #E8E8E8",
"W-	c #B7B7B7",
"X-	c #D2D2D2",
"Y-	c #CFBA6D",
"Z-	c #DCBC28",
"`-	c #8A531E",
" ;	c #A65F28",
".;	c #7A4626",
"+;	c #452C27",
"@;	c #180F0F",
"#;	c #E2D895",
"$;	c #E1D894",
"%;	c #7C7452",
"&;	c #56493B",
"*;	c #553E3E",
"=;	c #412F2F",
"-;	c #5F4340",
";;	c #6F412A",
">;	c #905124",
",;	c #AE632A",
"';	c #8E5120",
");	c #F5D32E",
"!;	c #CEB867",
"~;	c #CECECD",
"{;	c #C8C8C8",
"];	c #CDCBC4",
"^;	c #B7A020",
"/;	c #BEA321",
"(;	c #9E6424",
"_;	c #B0652C",
":;	c #3E2213",
"<;	c #77714C",
"[;	c #AAA36F",
"};	c #E0D794",
"|;	c #E3DA96",
"1;	c #BCB57C",
"2;	c #888159",
"3;	c #523F39",
"4;	c #584040",
"5;	c #392727",
"6;	c #6C3E23",
"7;	c #9C5927",
"8;	c #AC7126",
"9;	c #C8AC23",
"0;	c #EECE2C",
"a;	c #DFC12F",
"b;	c #F1D02C",
"c;	c #F1D02D",
"d;	c #AF9A42",
"e;	c #E3E1DD",
"f;	c #FCFCFC",
"g;	c #ECECEC",
"h;	c #A1A1A1",
"i;	c #F5F5F5",
"j;	c #C2BBA5",
"k;	c #CEB226",
"l;	c #8F7D17",
"m;	c #B76D2C",
"n;	c #9B5825",
"o;	c #76462D",
"p;	c #402E2E",
"q;	c #C0B87F",
"r;	c #B9B179",
"s;	c #898359",
"t;	c #4A462E",
"u;	c #473632",
"v;	c #442F2F",
"w;	c #392514",
"x;	c #5C4117",
"y;	c #C9AD25",
"z;	c #D1B427",
"A;	c #BBA96E",
"B;	c #A29877",
"C;	c #9F9882",
"D;	c #C3AF6A",
"E;	c #BBA656",
"F;	c #C6C6C6",
"G;	c #CDCDCD",
"H;	c #D1D1D1",
"I;	c #A08F50",
"J;	c #EECE2D",
"K;	c #E4C52A",
"L;	c #AF8923",
"M;	c #9E5925",
"N;	c #5B3112",
"O;	c #53352D",
"P;	c #5E4241",
"Q;	c #4A3434",
"R;	c #634747",
"S;	c #60443F",
"T;	c #7D5535",
"U;	c #AA763F",
"V;	c #CF924D",
"W;	c #AE9420",
"X;	c #B09823",
"Y;	c #98958F",
"Z;	c #959595",
"`;	c #ACABAA",
" >	c #ABA79B",
".>	c #93844D",
"+>	c #A59F91",
"@>	c #EBEAEA",
"#>	c #C2C2C2",
"$>	c #F6F6F6",
"%>	c #D3CEC2",
"&>	c #BDA327",
"*>	c #D0B325",
"=>	c #AA7825",
"->	c #7C4828",
";>	c #513227",
">>	c #060201",
",>	c #0E0707",
"'>	c #453232",
")>	c #412D2D",
"!>	c #302121",
"~>	c #3E2C2C",
"{>	c #4E3630",
"]>	c #8F6338",
"^>	c #D49350",
"/>	c #A7862E",
"(>	c #B3A25A",
"_>	c #747474",
":>	c #020202",
"<>	c #9E9E9D",
"[>	c #ACA695",
"}>	c #A39456",
"|>	c #D3D3D0",
"1>	c #B9B9B9",
"2>	c #E7E7E7",
"3>	c #B1A376",
"4>	c #E2C32A",
"5>	c #EDCC2C",
"6>	c #B59B21",
"7>	c #693C20",
"8>	c #2D1B17",
"9>	c #5A403F",
"0>	c #2D2020",
"a>	c #0B0606",
"b>	c #2E201F",
"c>	c #523723",
"d>	c #72503B",
"e>	c #644843",
"f>	c #4C3535",
"g>	c #3C2929",
"h>	c #5E433F",
"i>	c #5E4136",
"j>	c #835A38",
"k>	c #A16E3B",
"l>	c #A47638",
"m>	c #847651",
"n>	c #726F6A",
"o>	c #1B1A1A",
"p>	c #010000",
"q>	c #646464",
"r>	c #A4A19A",
"s>	c #A49660",
"t>	c #ABA79D",
"u>	c #989898",
"v>	c #E2E2E2",
"w>	c #C7C1B2",
"x>	c #C3AA23",
"y>	c #D9BB27",
"z>	c #927B2D",
"A>	c #191010",
"B>	c #3D2B2A",
"C>	c #6E4B27",
"D>	c #9F6D3A",
"E>	c #8C6032",
"F>	c #835B3A",
"G>	c #74513B",
"H>	c #372622",
"I>	c #4B332A",
"J>	c #634742",
"K>	c #452F29",
"L>	c #60412A",
"M>	c #8C6034",
"N>	c #C38749",
"O>	c #C18548",
"P>	c #62584A",
"Q>	c #9C9B99",
"R>	c #121212",
"S>	c #969593",
"T>	c #A99A6A",
"U>	c #A99334",
"V>	c #BCB7AB",
"W>	c #C0C0C0",
"X>	c #B7B5AF",
"Y>	c #D3BC69",
"Z>	c #C2A722",
"`>	c #513F29",
" ,	c #1F1515",
".,	c #0A0505",
"+,	c #543822",
"@,	c #D89651",
"#,	c #CE8F4D",
"$,	c #D1914F",
"%,	c #B98046",
"&,	c #AE7941",
"*,	c #CA8D4B",
"=,	c #957A53",
"-,	c #A39F96",
";,	c #818181",
">,	c #282828",
",,	c #464646",
"',	c #9D9C9B",
"),	c #ADA58D",
"!,	c #F4D430",
"~,	c #D8C064",
"{,	c #AFA381",
"],	c #88816F",
"^,	c #B9B6AC",
"/,	c #EEEDEC",
"(,	c #F4F4F4",
"_,	c #DDDDDB",
":,	c #C9C6BF",
"<,	c #9A9177",
"[,	c #B39D3F",
"},	c #AA8B1F",
"|,	c #5D3726",
"1,	c #2E1F1F",
"2,	c #2D1E1E",
"3,	c #402B29",
"4,	c #5F3718",
"5,	c #A26935",
"6,	c #D5914E",
"7,	c #F0A65A",
"8,	c #F6AB5E",
"9,	c #EEA65A",
"0,	c #71581E",
"a,	c #98907B",
"b,	c #C8C7C6",
"c,	c #888888",
"d,	c #C5BA9A",
"e,	c #DFC129",
"f,	c #F0CF2D",
"g,	c #E3C439",
"h,	c #D3C07C",
"i,	c #BAB29A",
"j,	c #CAC5B9",
"k,	c #C3BEB1",
"l,	c #ACA386",
"m,	c #BBAA6D",
"n,	c #C6AC33",
"o,	c #E0C130",
"p,	c #EECD2C",
"q,	c #C1A721",
"r,	c #B37729",
"s,	c #7B4622",
"t,	c #583E3C",
"u,	c #150D0D",
"v,	c #312121",
"w,	c #0F0808",
"x,	c #653816",
"y,	c #A35F2A",
"z,	c #B16D34",
"A,	c #A96E37",
"B,	c #C58546",
"C,	c #E09A53",
"D,	c #F8AC5F",
"E,	c #CB8C4B",
"F,	c #BB7F44",
"G,	c #956131",
"H,	c #784C19",
"I,	c #917920",
"J,	c #BAAC81",
"K,	c #D7D3C8",
"L,	c #F3F3F2",
"M,	c #C8C8C7",
"N,	c #BBA764",
"O,	c #E9C92B",
"P,	c #F2D139",
"Q,	c #D8BD50",
"R,	c #CEB225",
"S,	c #E6C830",
"T,	c #DEC128",
"U,	c #96751C",
"V,	c #B4662C",
"W,	c #9F5A27",
"X,	c #463130",
"Y,	c #574040",
"Z,	c #120908",
"`,	c #A85F28",
" '	c #B56C32",
".'	c #8E5223",
"+'	c #995F2D",
"@'	c #B6773D",
"#'	c #B57D43",
"$'	c #D3914E",
"%'	c #C18446",
"&'	c #C08346",
"*'	c #A8723C",
"='	c #AC733B",
"-'	c #744620",
";'	c #A1602C",
">'	c #925424",
",'	c #8E621D",
"''	c #B29A36",
")'	c #BFA958",
"!'	c #B9A767",
"~'	c #CDB872",
"{'	c #D4B726",
"]'	c #F3D12D",
"^'	c #A9921D",
"/'	c #AA6D27",
"('	c #4B2C1E",
"_'	c #352626",
":'	c #523C3C",
"<'	c #4F3632",
"['	c #643C29",
"}'	c #905221",
"|'	c #B9692D",
"1'	c #B2662C",
"2'	c #B6692D",
"3'	c #AA642D",
"4'	c #955625",
"5'	c #AC652D",
"6'	c #9F5D29",
"7'	c #AC622A",
"8'	c #9D7F1C",
"9'	c #E7C72A",
"0'	c #F1D131",
"a'	c #D7B727",
"b'	c #7D511A",
"c'	c #C06D2F",
"d'	c #713F1A",
"e'	c #3C2724",
"f'	c #1C1111",
"g'	c #5D3B30",
"h'	c #94552D",
"i'	c #C16F31",
"j'	c #9F6823",
"k'	c #C5A624",
"l'	c #E6C72A",
"m'	c #B99D22",
"n'	c #A87724",
"o'	c #B1662B",
"p'	c #331D13",
"q'	c #201616",
"r'	c #1C1212",
"s'	c #513939",
"t'	c #673C24",
"u'	c #995725",
"v'	c #AF642A",
"w'	c #87561E",
"x'	c #B1951F",
"y'	c #EACA2C",
"z'	c #A48A22",
"A'	c #885E2F",
"B'	c #A05D27",
"C'	c #AA6029",
"D'	c #673F2F",
"E'	c #160E0E",
"F'	c #120B0B",
"G'	c #694A49",
"H'	c #6C4539",
"I'	c #724223",
"J'	c #8E5020",
"K'	c #AD632A",
"L'	c #975524",
"M'	c #7D5127",
"N'	c #C48E43",
"O'	c #B7952F",
"P'	c #DCBF28",
"Q'	c #CFB226",
"R'	c #BA9532",
"S'	c #C28846",
"T'	c #C88A4A",
"U'	c #965827",
"V'	c #5F3A2C",
"W'	c #3D2C2C",
"X'	c #644137",
"Y'	c #693B20",
"Z'	c #7B451D",
"`'	c #9D5A2A",
" )	c #BC6C30",
".)	c #894E22",
"+)	c #65391B",
"@)	c #906033",
"#)	c #CC8D4C",
"$)	c #9A732E",
"%)	c #A88620",
"&)	c #C4AA23",
"*)	c #D9BD27",
"=)	c #F0D02C",
"-)	c #BB9F24",
";)	c #B08F2D",
">)	c #906332",
",)	c #DA9952",
"')	c #D99651",
"))	c #A46430",
"!)	c #5A3729",
"~)	c #2F2121",
"{)	c #342525",
"])	c #5F413E",
"^)	c #6B402D",
"/)	c #834C2A",
"()	c #915329",
"_)	c #844A1E",
":)	c #8D4F21",
"<)	c #643819",
"[)	c #553324",
"})	c #513938",
"|)	c #3B2825",
"1)	c #C08448",
"2)	c #A56631",
"3)	c #9E6025",
"4)	c #AE8424",
"5)	c #B19320",
"6)	c #A38A1B",
"7)	c #C6A425",
"8)	c #B49A1F",
"9)	c #B2981F",
"0)	c #C6A824",
"a)	c #B99E20",
"b)	c #A9911C",
"c)	c #7A6913",
"d)	c #A07336",
"e)	c #845025",
"f)	c #704228",
"g)	c #2B1E1E",
"h)	c #5B4140",
"i)	c #5D403C",
"j)	c #503632",
"k)	c #1A1111",
"l)	c #201311",
"m)	c #593F3A",
"n)	c #8E6237",
"o)	c #E9A259",
"p)	c #775029",
"q)	c #BB6C30",
"r)	c #AF692A",
"s)	c #A66027",
"t)	c #AE652A",
"u)	c #955423",
"v)	c #A36625",
"w)	c #43230E",
"x)	c #875C33",
"y)	c #E29C55",
"z)	c #A66A35",
"A)	c #4F2B14",
"B)	c #5B4241",
"C)	c #201414",
"D)	c #402D2D",
"E)	c #6F4A28",
"F)	c #E29E56",
"G)	c #C08144",
"H)	c #9F5B26",
"I)	c #8C4F20",
"J)	c #583930",
"K)	c #624646",
"L)	c #69493C",
"M)	c #B57C45",
"N)	c #9F6935",
"O)	c #B4672C",
"P)	c #120A0A",
"Q)	c #261A1A",
"R)	c #4E3737",
"S)	c #6C4B3A",
"T)	c #A5632E",
"U)	c #523122",
"V)	c #5C3F2F",
"W)	c #5E3312",
"X)	c #130908",
"Y)	c #5B403C",
"Z)	c #B77F49",
"`)	c #D2914F",
" !	c #955E2E",
".!	c #673D2A",
"+!	c #996939",
"@!	c #BA7F43",
"#!	c #A6602A",
"$!	c #432411",
"%!	c #261919",
"&!	c #070303",
"*!	c #634743",
"=!	c #724E2E",
"-!	c #A96C36",
";!	c #C36F30",
">!	c #9A5724",
",!	c #57321F",
"'!	c #3A2928",
")!	c #754F2A",
"!!	c #E19C55",
"~!	c #C28647",
"{!	c #A4602A",
"]!	c #8E5021",
"^!	c #381E10",
"/!	c #563D38",
"(!	c #8C613A",
"_!	c #C88A4B",
":!	c #AA7039",
"<!	c #9E5926",
"[!	c #522E19",
"}!	c #644430",
"|!	c #CA8C4C",
"1!	c #D4914E",
"2!	c #9E5C28",
"3!	c #512B0E",
"4!	c #140701",
"5!	c #040202",
"6!	c #453130",
"7!	c #3C281B",
"8!	c #A26F3B",
"9!	c #BE8346",
"0!	c #A46A35",
"a!	c #A5602A",
"b!	c #83491E",
"c!	c #5E3B2E",
"d!	c #4A3433",
"e!	c #5A413F",
"f!	c #A16F3C",
"g!	c #B57C42",
"h!	c #B36930",
"i!	c #3C1E09",
"j!	c #030101",
"k!	c #160C03",
"l!	c #805831",
"m!	c #B98044",
"n!	c #ECA359",
"o!	c #BB7F43",
"p!	c #895124",
"q!	c #B6672C",
"r!	c #7D4824",
"s!	c #3F2A27",
"t!	c #513A39",
"u!	c #8A5F37",
"v!	c #E7A157",
"w!	c #A26C37",
"x!	c #6F3D17",
"y!	c #28190A",
"z!	c #75522A",
"A!	c #A86F38",
"B!	c #8B4E20",
"C!	c #49312D",
"D!	c #76502C",
"E!	c #E09B54",
"F!	c #CB8D4C",
"G!	c #B16E35",
"H!	c #AD622A",
"I!	c #42220A",
"J!	c #0A0401",
"K!	c #7D552B",
"L!	c #CE8F4E",
"M!	c #C28547",
"N!	c #A06936",
"O!	c #955A28",
"P!	c #A96029",
"Q!	c #7E461C",
"R!	c #301805",
"S!	c #332220",
"T!	c #A4713C",
"U!	c #BD6E31",
"V!	c #392410",
"W!	c #8D6031",
"X!	c #A16B37",
"Y!	c #98602E",
"Z!	c #B2652B",
"`!	c #7C451C",
" ~	c #4C280E",
".~	c #2A1405",
"+~	c #150C0C",
"@~	c #9E6D39",
"#~	c #AC6E37",
"$~	c #975623",
"%~	c #2F1705",
"&~	c #834E22",
"*~	c #A15B27",
"=~	c #723F18",
"-~	c #B77F44",
";~	c #B86E32",
">~	c #81481D",
",~	c #4D290E",
"'~	c #402109",
")~	c #76421A",
"!~	c #A75E28",
"~~	c #A05A26",
"{~	c #9C5825",
"]~	c #965423",
"^~	c #8F6132",
"/~	c #976332",
"(~	c #A86028",
"_~	c #623F1D",
":~	c #734620",
"<~	c #6A3B16",
"[~	c #180C03",
"                                                                                                                                                                                    ",
"                                                                                                                                                                                    ",
"                                                                                                                                                                                    ",
"                                                                                                                                                                                    ",
"                                                        . + .                                                                                                                       ",
"                                                        @ # $ % .                                                                                                                   ",
"                                                        & * = - ; > . .                                                                                                             ",
"                                                        , ' ; ) ! ~ { ] ^ .                                                                                                         ",
"                                                      ^ / ( _ : < [ } | 1 ' 2 . .                                                                                                   ",
"                                                      3 4 ! 5 6 ] 7 8 9 0 a 6 b c d .                         e                                                                     ",
"                                                      f = ) g h = ! } i j k l m n o p q .                     r s t                                                                 ",
"                              u v w x               . y z ) ) ) ) ) ) ) p A B C l 1 D E F G . .               H I J K L                                                             ",
"                              M N O P Q R S T U     . $ 1 ~ ) ) ) ) ) V C W h X ( * ; Y Z y F `  ..           ..+.@.#.$.%.                                                          ",
"                              &.*.=.-.*.;.>.,.'.    ).!._ p ~.X {.) ) ) 0 ].~ ) ) - 1 ^.< ].~.| /.C (.. _.    :.<.[.}.|.1.2.                                                        ",
"                              3.4.*.*.*.*.*.5.6.7.. * 8.1 9.0.# a.4 - ! > b.= ) ) ) ) c.| d.e.^.Y { f.} g.: h.i.j.k.l.m.n.o.p.                                                      ",
"                              q.r.*.*.*.*.*.-.s.t.u.o ) ) ) E b.W / 9 d.v.; h V ) ) ) ) ) b A 9.^.C w.Y Y f.Z x.y.z.A.B.m.C.D.E.                                                    ",
"                              F.G.*.*.*.*.*.*.H.I.J.- ) ) ) h 5 E K.L.M.N.O.P.Q.R.S.E T.= E U.X T.} V.W.] X.Y.Z.`. +.+++@+m.#+$+%+                                                  ",
"                              &+r.*.*.*.*.*.*.*+=+-+= ) ) ) 1 ;+>+,+'+)+!+n.~+{+]+^+/+(+_+F :+D ) h h n ; $ 9.% <+[+k.}+n.m.m.|+1+                                                  ",
"                              2+*.*.*.*.*.*.*.*.3+4+5+) ) h Z 6+7+8+9+0+a+b+c+d+e+e+f+g+h+i+j+m ! h h h h - Y k+l+m+n+o+p+m.m.q+r+                                                  ",
"                              s+5.*.*.*.*.*.*.*.>.t+u+) ) h ~ E v+w+x+y+z+A+B+C+~+|.m.D+E+F+G+H+I+J+h h h h h K+L+M+N+O+P+m.m.n.Q+R+                                                ",
"                              S+T+*.*.*.*.*.*.*.U+V+W+9 E ) ) h T.~ X+Y+Z+`+ @.@+@@@#@@+m.D+n.$@%@&@Z T.h h h = *@N+=@-@d+m.m.m.;@>@                                                ",
"                              R *.*.*.*.*.*.*.*.,@'@)@8 x./ 1 h h h T.!@~@{@]@^@=@/@(@_@m.m.m.n.p+:@<@[@c.h h }@|@1@2@3@4@m.m.m.5@6@7@                                              ",
"                            8@9@*.*.*.*.*.*.*.*.*.0@a@b@6 W.c@d@b.8.8.R.e@f@g@h@i@i@j@k@l@5@m.m.m.m.m@n@o@n c.m p@q@]@r@B.m.m.m.m.s@t@u@                                            ",
"                            v@w@*.*.*.*.*.*.*.*.5.N x@z y@8.n ( c z@> A@( B@C@D@]@i@E@F@G@H@5@m.m.m.m.o.I@J@; ^.K@L@M@N@$@m.m.m.m.O@P@Q@.                                           ",
"                            R@S@*.*.*.*.*.*.*.*.*.T@U@V@) h h W@E } # X@A a.~ Y@Z@E@i@`@ #.#+#m.m.m.m.m.@###q $#%#&#*#=#-#m.m.m.m.#@;#>#. .                                         ",
"                            ,#'#*.*.*.*.*.*.*.*.*.)#!#~#h h h h h {.C ).c {#3 z@]#^#`@i@2@/#(#_#m.m.m.m.e+:#<#[#}#E@|#1#2#m.m.m.m.m.3#4#. . .                                       ",
"                            5#-.*.*.*.*.*.*.*.*.*.6#7#/.h h h h h c.] y 8#n 9#y 0#a#b#i@i@c#d#e#5@m.m.@+#@f#g#h#i#i@j#k#d+m.m.m.m.C.@#l#_ m#. .                                     ",
"                F 8.X n#  o#p#*.*.*.*.*.*.*.*.*.*.q#r#s#h h h h h E t#b.{.c.W@E [ u#i#i@i@i@v#w#e+m.m.m.m.|+x#y#z#^@A#B#m.m.m.m.m.m.C#D#E#( x..                                     ",
"              X y@F#) E G#H#5.*.*.*.*.*.*.*.*.*.-.I#J#f.h h h h c.C c 1 c.c.c.c.{.K#L#M#i@i@N#O#P#Q#m.m.m.n.R#S#1@`@T#U#m.m.m.m.@+m.V#W#B@8.0 X#.                                   ",
"            Y#! g g g g Z#`#5.*.*.*.*.*.*.*.*.*.*. $.$~ h h h c.c.R.{#E c.c.c.c.{.+$@$#$i@i@i@`+$$%$#@-#+#&$*$=$b#m+-$;$m.m.m.m.m.m.B.^+>${.~ 0 ,$+                                 ",
"            0 /.g g g g '$)$-.*.*.*.*.*.*.*.*.*.*.!$~${$K+V c.c.f.d.y c.c.c.c.c.c.]$^$]@i@i@i@/$y.($_$:$<$[$}$|$1$2$3$Q#5@m.m.m.m.m.C.4$5$n 8.{.b.z@.         . .                   ",
"              6$g g y@7$8$9$*.*.*.*.*.*.*.*.*.,@0$a$b$` ].Z Y f.( c$d$n f.{.T.W@{.e$f$h@i@i@ +g$h$i$j$k$l$m$n$o$p$q$r$s$t$e+5@m.m.m.q+u$, v$F K+| w$x.x$      y$z$                  ",
"              8 ~.1 Y A$B$5.*.*.*.*.*.*.*+*.C$D$E$F$G$H$I$J$K$L$M$N$O$P$Q$R$S$T$U$V$W$X$N#Y$Z$`$ %.%+%@%#%$%%%&%&%&%n$*%=%-%;%@+m.m.>%,%] Y.'%)%9.!%~.Y#,   ~%{%]%^%                ",
"                      /%*+*.*.*.*.*.*.(%_%:%<%[%}%|%m+L#1%=@2%m+2%3%4%5%6%7%8%9%0%a%b%c%d%e%f%g%h%i%j%k%l%m%n%&%&%&%&%&%o%p%q%r%O@m.D+s%t%u%{.8#K.d / v%w%x%z.y%z%A%                ",
"                    B%C%5.*.*.*.*.*.*.0$D%E%F%G%H%E@E@i@i@i@i@i@i@i@E@i@i@M#i@b#*#I%J%K%L%M%N%O%P%Q%R%S%T%U%V%&%&%&%&%&%&%W%X%Y%Z%P+-#`% &{.{.{.c .&A@+&@&#&$&%&&&*&                ",
"                    =&-&*.*.*.*.*.*.*.>.;&>&,&'&)&!&~&{&i@i@i@i@i@i@i@i@i@i@i@i@M#]&^&/&(&_&:&<&. . [&}&|&1&2&&%&%&%&%&%&%&%&%*%3&4&s@5&6&{.{.{ ].` 7&8&9& +8+0&a&5&                ",
"                  I.b&*.*.*.*.*.*.*.*.5.c&d&+#_#e&f&g&h&i&j&k&i@i@i@i@i@i@i@i@b#l&m&n&o&p&q&r&s&t&u&v&w&x&y&&%&%&%&%&%&%&%&%&%z&A&B&C&D&E&W@{.Y.F&G&H&y.I&<.J&V#C.K&                ",
"                L&6#4.*.*.*.*.*.*.*.*.*.M&N&O&V##@|.P&Q&R&S&T&j&{&i@i@i@i@i@i@U&V&W&X&&%Y&Z&`& *.*+*@*#*$*%*Y&o%&%&%&%&%&%&%&%&%&%2&&***[ =*-*;*>*Z@I&,*i@'*)*5@!*e&                ",
"                ~**+*.*.*.*.*.*.*.*.*.*.*+!${*]*C.m.>%^*:@/*(*_*9+~&j&i@i@i@i@:*<*[*&%&%&%}*|*1*2*3*4*5*6*7*8*9*0*a*W%&%&%&%&%&%&%z&b*c*d*e*f*g*]@/$i@i@h*i*e+m.j*k*                ",
"              l*m**.*.*.*.*.*.*.*.*.*.*.*.n*o*p*q*m.m.m.5@#@2#B#r*s*t*u*j&v*w*x*y*&%&%&%&%&%X&z*A*B*C*D*E*F*G*H*I*J*K*&%&%&%&%&%&%&%L*M*$&E@N*`@E@i@i@O*P*Q*n.@+++R*                ",
"            S*6#*.*.*.*.*.*.*.*.*.*.*.*.U+T*U*V*W*X*C.m.m.m.@+>%-#Y*Z*`*T#O* =.=o%&%&%&%&%%%+=@=#=$=%=&=%=%=*===-=;=>=,=z&&%&%&%&%&%z&'=)=!=i@i@i@^@4%~=e#|+m.m.{=                  ",
"          ]=^=9$*.*.*.*.*.*.*.*.*.*.*.,@/=(=_=y :=<=&$m.m.m.m.m.m.C.V#+#[=}=|=Y&&%&%&%&%1=2=3=4=&=%=%=%=%=%=5=6=7=F*8=9=m$&%&%&%&%&%&%0=a=b=i@i@L@|#c=d=V#m.m.#@e=                  ",
"        f=g=5.*.*.*.*.*.*.*.*.*.*.*.*+h=i=j=~.c k=l=m=d+m.m.m.@+m.m.m.n.#@n=o=%%&%&%&%1=p=q=r=s=&=%=%=%=%=&=t=u=&=%=&=v=w=z&&%&%&%&%&%x=y=z=`@#$#&A=B=|.m.m.m.{+C=                  ",
"      D=^=*+*.*.*.*.*.*.*.*.*.*.*.*+E=F=G=h V z o 9 H=K&s@m.m.m.m.m.m.m.>%I=J=z&&%&%&%K=L=M=N=O=%=%=%=%=%=%=P=Q=R=%=&=S=T=U=&%&%&%&%&%&%V=W=2%X=Y=|+m.m.m.m.m.Z=`=                  ",
"     -s.,@*.*.*.*.*.*.*.*.*.*.*.-..-+-@-= h h h c.T.| #-$-D+m.m.m.m.m.m.%-&-o&&%&%&%&%*-=-. --;-%=%=%=%=%=$=>->-,-%=%='-)-!-~-&%&%&%&%~-{-]-^-/-}.m.m.m.m.#@(-_-,$.                 ",
"  I.b&*+*.*.*.*.*.*.*.*.*.*.*.:-<-[-l ) ) h h h c.c.{ }-|-1-:@C.m.m.m.m.2-3-4-&%&%&%5-6-7-8-9-,-%=%=%=%=%=0-a-t=%=%=%=,-b-c-d-&%&%&%&%e-f-g-h-C.m.m.m.m.i-~+j-k-l-.                 ",
"  m-n-*.*.*.*.*.*.*.*.*.*.*.n-o-p-q-h h h h h h c.{.a.W ~.r-s-Q#@+m.m.q+t-u-&%&%&%&%~-v-w-x->-&=%=%=%=%=%=$=6=y-%=%=%=%=z-A-z&&%&%&%&%&%B-C--#m.m.m.m.C.o.D-<&E-] F-                ",
"  G-H-I-4.*.*.*.*.*.*.5.'#J-K-L-z ) ) h h h h c.c.8#c M-{.f.N-O-1.P-m.C.Q-R-}*&%&%&%~-S-T-U-E*%=%=%=%=%=%=V-W-%=%=%=%=%=X-Y-%%&%&%&%&%e-Z-`-P+m.m.m.n. ;.;+;@;' a.X@                ",
"      m-#;5.*.*.*.*.=.$;R@%;&;i *;~ ) h h h h c.c.y =;{ {.W@W@-;;;>;,;2#';B-e-&%&%&%);!;~;%=%=%=%=%=%=%=&={;*=%=%=%=%=E*];^;&%&%&%&%&%&%/;(;m.m.m.V#_;:;6&8.g.q _ ).                ",
"        <;[;};*.U+|;1;2;3;X 4;Z $ B b.{ c.h h c.D 8 F c.{.W@W@E&[ 5;6;7;8;9;o%0;a;b;c;d;e;,-%=%=%=%=%=f;g;h;%=%=%=%=%=i;j;k;&%&%&%&%&%&%l;m;n.@+!*n;o;( = ~ p;!%!%<&.               ",
"            ;&q;r;s;t;u;| ) ) {.{ * $ ` ` ~.~ {.` ] { c.c.W@W@W@W@T.v;w;x;y;z;A;B;C;D;E;F;,-%=%=%=%=%=l%G;H;%=%=%=%=&=7=I;J;&%&%&%&%&%K;L;+#B.M;N;O;P;W@h ~ .&e.2 . .               ",
"                    h.} ) ) ) ) = h f.( R.` 9.Q;@;Z W@c.{.{.W@W@R;S;T;U;V;W;X;Y;Z;`; >.>+>@>%=%=%=%=F*P=#>$>%=%=%=%=i;%>&>o$&%&%&%&%&%*>=>r%->;>>>c@| h h h E-9#8#W ,>              ",
"                  . '>T.g ) ) = b.| - V 8.E#)>!>f ~>Y 8.{.{.W@{ {>]>^>N*I%/>(>_>:>u&<>[>}>|>f;%=%=f;H;1>2>%=%=%=%=%=U-3>4>&%&%&%&%&%5>6>7>8>9>T.E&` 0>^.~ | ~>a.V [ a>              ",
"                  . V.= g g h D b>c>d>e>E ~ f>g>9 d.] n#C h>i>j>k><.k&i@N#l>m>n>o>p>q>r>s>t>#=%=%=#=u>v>$=%=%=%=%=g;w>x>o$&%&%&%&%&%y>z>F ~ V h h ~ d.:+b.1 :+} ) l 2               ",
"                  A>8 } {.h h T.B>C>D>E>F>G>H>I>J>B>K>a>L>M>N>.@`+`@i@i@N*O>P>Q>R>. Q%S>T>U>V>-=U-W>W>&=%=%=%=F*y-X>Y>0;&%&%&%&%&%%%Z>`>8.h h h h h h S.q 3 x$h g ^. ,              ",
"                . p ] .,~>9#8.u%9#+,#&#$@,#,$,8+~%%,&,*,|#1@ @i@i@i@i@i@i@6%=,-,;,>,,,',),!,~,{,],^,/,&=$>(,_,:,<,[,z&&%&%&%&%&%&%0=},|,o h h h h h h = Y d@A ~ ! C .               ",
"                j /.g ! C 1,2,Z D 3,4,5,6,7,!=,*M#/$8,^@`@i@i@i@i@i@E@E@b#9,0,a,b,6=c,1>d,e,%%f,g,h,i,j,k,l,m,n,o,p,&%&%&%&%&%&%o$q,r,s,t,c.h h h h h h f.u,).v,C ].m#              ",
"              !.; ! g g g g m v%w,a x,y,z,A,B,C,m+<.N#D,,*i@M#N*`@*#i#E,F,G,H,I,J,K,L,M,N,O,&%&%z&4-P,Q,R,S,1=&%z&&%&%&%&%&%&%W%T,U,V,W,X,= h h h h h ! Y,v.F [ 9.z@+               ",
"              7 ! g g g g ) ) ) E&y Z,2.`,@+ '.'+'@'`.#'$'E,%'&'*'='-';'>'_;(-,''')'!'~'{'&%&%&%&%&%&%}*&%z&&%&%&%&%&%&%&%&%&%]'^'/'p+l@('; - h c.! h 8.:+W.8.= X '>+               ",
"            u,_':'| ! g g ) ) ) ) ^.g><'['}'4@m.|'1'2'3'4'5'6'h-%$7'q+-#m.m.m.}.8'9'0'c;&%&%&%&%&%&%&%&%&%&%&%&%&%&%&%&%&%&%1=a'b'5@m.c'd'e'n#9. &Y S.^.F-p V g g a.E-              ",
"            f'R.Z W.W.1 = g ) y@z K.b.T.} g'h'i'm.m.n.m.m.#@n.m.@+m.m.m.m.m.m.-#j'k']'&%&%&%&%&%&%&%&%&%&%&%&%&%&%&%&%&%&%l'm'n'o'm.m.C.J p'g.i (.d@A@q'r'v$:+0 4;0..               ",
"          + j 8.- Y Z 0.*;8.V X ] 8 1 h h f.s't'u'Q#m.m.m.m.m.m.m.m.m.m.m.m.m.n.v'w'x'0=&%&%&%&%&%&%&%&%&%&%&%&%&%&%&%o%y'z'A'B'#@m.m.m.C'D'8.E 8.f.d.a>U$( p (.E'F'                ",
"            . . ].D V p !.W F Q;:+} V h h h h G'H'I'J'K'm.m.m.m.m.m.m.m.m.n.e+Q#L'M'N'O'x>P'o&&%&%&%&%&%&%&%&%&%&%z&9'Q'R'S'T'U'@+m.m.m.Q#V'~ h ) 1 X.y h h X G p>                  ",
"                . . k ; ) 4;q X#W'T.) ) ) h h h c.{.X'Y'Z'`' )n.|.m.n.d+d+~+.)+)@)L#h*#)$)%)&)*)m$z&o&[*&%o&&%=)0=-);)>),)N#')))d+m.m.m.1'!)= ! c.~)Z - ) 4;{#.                     ",
"                      . U.` {)$ $ k $ | ) ) h h h h v%{#])Q.^)/)()_):)t <)[)})|)1)I&`@y.2)$.3)4)5)6)7)8)9)0)a)b)c)d)|#`+,*i@]@e)C.m.m.m.s@f)D | 9.!>} ! E g)w,                      ",
"                          . . '%4;y@9#/ ~>~.c.) E Y.!>S.c.c.c.h)Z i)j)k)l)9.m)n)o)`@q@p)q)5@e+++7'r)s)t)n=u)v)w)2,x)y)i@i@i@y)z)O@m.m.m.|.A)B)c l-(.` 9.c C)                        ",
"                                .  .p 8.| $ !>W.D)W S.T.c.c.c.c.c.= c.c.a.G E)^>i@F)G)H)m.m.m.m.m.m.m.C.C.d+I)J)K)L)M)7,i@i@4%N)O)m.m.m.++*&d@).P)Q)p>F-                            ",
"                                    . . v%4;R))%2 G 1 ) h c.c.c.c.c.c.c.E S)9&{&v*#'T)a&m.m.m.m.m.m.m.m.n.Y*U)J+c.f.V)y.^@i@1@X=~+m.m.m.j*W)X)` g.2 . .                             ",
"                                        . . X@8 4 p 8 (.F E&h h h h h h Y)Z)]@N*`) !o.m.m.m.m.m.m.m.m.q+W,.!l c.h c.( +! +i@^@@!#!@+m.m.O)$!'%9#%!w,                                ",
"                                              . &!:+V.a.i !># { h h = *!=!*#,*')-!z%;!m.m.m.m.m.m.m.m.>!,!]$T.h h m '!)!!!i@M#~!{!#@m.m.]!^!7 !%.                                   ",
"                                                  . . H=] ~.$ > t#a./!(!_!N*y+:!,;m.m.m.m.m.m.m.m.a&<![!)>m ~ ! ) 9 # }!|!`@,*1!2!m.@+#@3!4!.                                       ",
"                                                        5!E'{#b.6!7!8!2%b=9!0!a!V#m.m.m.m.m.m.m.O@b!c!d!k :+Z m Y )>{$e!f!`+i@g!h!m.m.h-i!.                                         ",
"                                                            j!k!l!m!n!O*o!p!q!n.m.m.m.m.m.m.#+ ;r!s!f.c.c.Y c ' d@2,9.t!u!v!*#w!p+m.;!x!                                            ",
"                                                            y!z!@,z##)A!6'+#m.m.m.m.m.m.m.#+B!R+C!D W@8.h V {.{ , 8 M-> D!E!F!G!;!#@H!I!                                            ",
"                                                        J!K!<+L!M!N!O!,;C.@+m.m.m.m.P+B.P!Q!R!5!v.v;` # c@] 9 .&(.} .&S!H L@T!U!n.$@$+                                              ",
"                                                        V!W!X!Y!o+Z!2#m.m.m.m.m.>%5@h-`! ~.~. . . &!+~. j!p>. , . u,A>. @~y.#~e+a&$~                                                ",
"                                                      %~f&&~*~}.n.m.P+n.m.e+V#,;>!=~R+. p>. . . . . . .                 -~`.;~C'>~,~                                                ",
"                                                        '~)~K&B!!~$.~~7'{~]~)~1+                                        ^~/~(~f&                                                    ",
"                                                                    N;4#                                                _~:~<~                                                      ",
"                                                                                                                        [~                                                          ",
"                                                                                                                                                                                    ",
"                                                                                                                                                                                    ",
"                                                                                                                                                                                    ",
"                                                                                                                                                                                    ",
"                                                                                                                                                                                    ",
"                                                                                                                                                                                    ",
"                                                                                                                                                                                    ",
"                                                                                                                                                                                    ",
"                                                                                                                                                                                    ",
"                                                                                                                                                                                    "};
