/* XPM */
static char * sunny_9_xpm[] = {
"90 90 1271 2",
"  	c None",
". 	c #362626",
"+ 	c #412E2E",
"@ 	c #2F2020",
"# 	c #4E4A30",
"$ 	c #4F3939",
"% 	c #684C4C",
"& 	c #6B4E4E",
"* 	c #654949",
"= 	c #403D27",
"- 	c #817C53",
"; 	c #DED593",
"> 	c #B0A974",
", 	c #605C3D",
"' 	c #3D2B2B",
") 	c #694D4D",
"! 	c #6C4F4F",
"~ 	c #644949",
"{ 	c #393622",
"] 	c #716C49",
"^ 	c #D0C88A",
"/ 	c #C8BF84",
"( 	c #2F2D1C",
"_ 	c #F9EFA5",
": 	c #F7EEA4",
"< 	c #E7DE99",
"[ 	c #BAB37B",
"} 	c #7C7750",
"| 	c #423F28",
"1 	c #4E3838",
"2 	c #3E2C2C",
"3 	c #575337",
"4 	c #8B855A",
"5 	c #CFC688",
"6 	c #F0E79F",
"7 	c #F9EFA6",
"8 	c #DDD593",
"9 	c #44412A",
"0 	c #D8D08F",
"a 	c #FAF0A6",
"b 	c #F3E9A1",
"c 	c #D2CA8B",
"d 	c #908A5E",
"e 	c #635E3F",
"f 	c #432F2F",
"g 	c #6A4E4E",
"h 	c #664B4B",
"i 	c #322323",
"j 	c #3C3925",
"k 	c #6F6A47",
"l 	c #A69F6C",
"m 	c #E4DA97",
"n 	c #F7EDA4",
"o 	c #EEE59E",
"p 	c #6D6846",
"q 	c #504C32",
"r 	c #E8DE99",
"s 	c #F6ECA3",
"t 	c #EBE19C",
"u 	c #CBC386",
"v 	c #989163",
"w 	c #7A754F",
"x 	c #5F5B3C",
"y 	c #5B4242",
"z 	c #493534",
"A 	c #4E4B31",
"B 	c #656040",
"C 	c #8B865B",
"D 	c #A8A16E",
"E 	c #DDD492",
"F 	c #F1E7A0",
"G 	c #F8EEA5",
"H 	c #8D885C",
"I 	c #F5EBA2",
"J 	c #F2E9A1",
"K 	c #CFC789",
"L 	c #C5BD81",
"M 	c #B4AD76",
"N 	c #878158",
"O 	c #75704C",
"P 	c #797051",
"Q 	c #807456",
"R 	c #756D4D",
"S 	c #76704C",
"T 	c #847F56",
"U 	c #8F895D",
"V 	c #C1B97F",
"W 	c #CAC185",
"X 	c #E2D895",
"Y 	c #EBE29C",
"Z 	c #C9C185",
"` 	c #8C865B",
" .	c #F5ECA3",
"..	c #F5EBA3",
"+.	c #DBD291",
"@.	c #46432B",
"#.	c #C7BF84",
"$.	c #EDE49D",
"%.	c #6E6A47",
"&.	c #C8C084",
"*.	c #EFE69F",
"=.	c #75714C",
"-.	c #726D49",
";.	c #E1D895",
">.	c #EEE49E",
",.	c #979062",
"'.	c #2D2B1B",
").	c #000000",
"!.	c #6A6644",
"~.	c #D1C98B",
"{.	c #A29B6A",
"].	c #0B0606",
"^.	c #251919",
"/.	c #170E0E",
"(.	c #1D1313",
"_.	c #2D1F1F",
":.	c #281B1B",
"<.	c #0A0505",
"[.	c #040202",
"}.	c #050303",
"|.	c #4B482F",
"1.	c #C5BD82",
"2.	c #E0D794",
"3.	c #7E7851",
"4.	c #1F1C11",
"5.	c #090505",
"6.	c #0B0505",
"7.	c #1E1414",
"8.	c #291C1C",
"9.	c #302121",
"0.	c #463232",
"a.	c #070404",
"b.	c #241818",
"c.	c #433030",
"d.	c #473333",
"e.	c #614747",
"f.	c #5F4545",
"g.	c #2E2020",
"h.	c #614646",
"i.	c #553D3D",
"j.	c #534738",
"k.	c #B3AC76",
"l.	c #CCC387",
"m.	c #655E42",
"n.	c #604646",
"o.	c #583F3F",
"p.	c #1A1010",
"q.	c #563E3E",
"r.	c #674B4B",
"s.	c #624747",
"t.	c #0D0707",
"u.	c #231818",
"v.	c #694C4C",
"w.	c #483333",
"x.	c #5D4444",
"y.	c #493833",
"z.	c #817A54",
"A.	c #DDD493",
"B.	c #F8EEA4",
"C.	c #E9DF9B",
"D.	c #E7DD99",
"E.	c #A49D6B",
"F.	c #574D3A",
"G.	c #5A4141",
"H.	c #271B1B",
"I.	c #634848",
"J.	c #4D3737",
"K.	c #342424",
"L.	c #625742",
"M.	c #B2AA76",
"N.	c #B9B17A",
"O.	c #4F4932",
"P.	c #AEA672",
"Q.	c #D2C98C",
"R.	c #736D4B",
"S.	c #2A1F1C",
"T.	c #6A4D4D",
"U.	c #312222",
"V.	c #483434",
"W.	c #3F2D2D",
"X.	c #57423E",
"Y.	c #786F4F",
"Z.	c #C6BE83",
"`.	c #EDE39D",
" +	c #5E3F22",
".+	c #2E1B09",
"++	c #6F5633",
"@+	c #D1C88A",
"#+	c #F1E8A0",
"$+	c #D6CD8E",
"%+	c #8E865D",
"&+	c #584B3C",
"*+	c #4C3737",
"=+	c #2A1D1D",
"-+	c #261A1A",
";+	c #654A4A",
">+	c #4A3535",
",+	c #271A1A",
"'+	c #5B4740",
")+	c #71684B",
"!+	c #BFB67E",
"~+	c #E3D996",
"{+	c #D7CE8E",
"]+	c #87562C",
"^+	c #B7692D",
"/+	c #6F4822",
"(+	c #E39F57",
"_+	c #A07C4A",
":+	c #DCD392",
"<+	c #E9DF9A",
"[+	c #D0C689",
"}+	c #847D57",
"|+	c #54473A",
"1+	c #5D4443",
"2+	c #5E4444",
"3+	c #322222",
"4+	c #624848",
"5+	c #120B0B",
"6+	c #5C4242",
"7+	c #604545",
"8+	c #59433F",
"9+	c #5E5041",
"0+	c #999165",
"a+	c #BEB67D",
"b+	c #DBD191",
"c+	c #DFD694",
"d+	c #867950",
"e+	c #B6682D",
"f+	c #BD6C2F",
"g+	c #794E26",
"h+	c #F2A95D",
"i+	c #DD9953",
"j+	c #776846",
"k+	c #C9C085",
"l+	c #ACA372",
"m+	c #6C6447",
"n+	c #56433C",
"o+	c #604645",
"p+	c #2B1E1E",
"q+	c #584040",
"r+	c #3A2929",
"s+	c #2C1E1E",
"t+	c #5C4343",
"u+	c #30201A",
"v+	c #2F1E10",
"w+	c #4C3636",
"x+	c #3F2C2C",
"y+	c #5A4241",
"z+	c #251E17",
"A+	c #57493B",
"B+	c #524933",
"C+	c #894E21",
"D+	c #C47031",
"E+	c #784E26",
"F+	c #F2AA5D",
"G+	c #F4A95C",
"H+	c #9B6B39",
"I+	c #564F37",
"J+	c #4D4632",
"K+	c #3E322A",
"L+	c #604745",
"M+	c #614746",
"N+	c #3D2815",
"O+	c #302120",
"P+	c #573F3F",
"Q+	c #79532B",
"R+	c #7F572F",
"S+	c #542F1A",
"T+	c #C57131",
"U+	c #784D25",
"V+	c #F2A95C",
"W+	c #F8AC5E",
"X+	c #E7A158",
"Y+	c #5C3F27",
"Z+	c #3C2A2A",
"`+	c #5D4343",
" @	c #2A1C1C",
".@	c #684B4B",
"+@	c #9E6D3A",
"@@	c #6B4824",
"#@	c #352525",
"$@	c #523B3B",
"%@	c #0C0606",
"&@	c #0F0808",
"*@	c #543D3D",
"=@	c #664A4A",
"-@	c #221616",
";@	c #2B1914",
">@	c #543013",
",@	c #D3934F",
"'@	c #906335",
")@	c #4E3737",
"!@	c #854A1E",
"~@	c #794E25",
"{@	c #F7AB5D",
"]@	c #966737",
"^@	c #201515",
"/@	c #2B1D1D",
"(@	c #5F4444",
"_@	c #B17A42",
":@	c #C08547",
"<@	c #542E11",
"[@	c #1B0B02",
"}@	c #221717",
"|@	c #594040",
"1@	c #0E0706",
"2@	c #7B441B",
"3@	c #875528",
"4@	c #EEA55A",
"5@	c #8E6234",
"6@	c #1C1212",
"7@	c #40261B",
"8@	c #B3662C",
"9@	c #784E25",
"0@	c #F3A95C",
"a@	c #CE8E4D",
"b@	c #190E04",
"c@	c #5E4443",
"d@	c #AF7941",
"e@	c #E8A158",
"f@	c #784920",
"g@	c #5F3413",
"h@	c #1B1111",
"i@	c #332323",
"j@	c #5A4242",
"k@	c #3C2B2B",
"l@	c #3B2929",
"m@	c #2E180A",
"n@	c #AA6129",
"o@	c #9F6734",
"p@	c #F4AA5D",
"q@	c #A3713C",
"r@	c #4B3636",
"s@	c #3E2B2B",
"t@	c #884C1F",
"u@	c #C26F30",
"v@	c #F1A85B",
"w@	c #976836",
"x@	c #483332",
"y@	c #503938",
"z@	c #BF8447",
"A@	c #F2A85B",
"B@	c #835227",
"C@	c #A25C27",
"D@	c #251511",
"E@	c #644848",
"F@	c #5D351D",
"G@	c #BE6D2F",
"H@	c #A06834",
"I@	c #F5AA5D",
"J@	c #C98C4B",
"K@	c #3B2926",
"L@	c #392828",
"M@	c #381E0D",
"N@	c #794F26",
"O@	c #DB9752",
"P@	c #452F26",
"Q@	c #3B281E",
"R@	c #D79551",
"S@	c #F2A85C",
"T@	c #855428",
"U@	c #BB6B2E",
"V@	c #543120",
"W@	c #543C3C",
"X@	c #231717",
"Y@	c #7F471C",
"Z@	c #A06734",
"`@	c #E59F57",
" #	c #493119",
".#	c #382727",
"+#	c #080404",
"@#	c #211616",
"##	c #352424",
"$#	c #4A3434",
"%#	c #503939",
"&#	c #713F1A",
"*#	c #774D25",
"=#	c #F1A75B",
"-#	c #79522C",
";#	c #513A3A",
">#	c #372626",
",#	c #120A0A",
"'#	c #150D0D",
")#	c #583B1F",
"!#	c #ECA459",
"~#	c #845227",
"{#	c #C16F30",
"]#	c #6B3C1D",
"^#	c #452F2D",
"/#	c #A65F28",
"(#	c #976130",
"_#	c #76502C",
":#	c #2F2121",
"<#	c #2E1F1F",
"[#	c #2C170A",
"}#	c #F7AC5E",
"|#	c #C68B4B",
"1#	c #402A17",
"2#	c #3D2A2A",
"3#	c #875C31",
"4#	c #EFA65A",
"5#	c #815026",
"6#	c #C37030",
"7#	c #985624",
"8#	c #533B3B",
"9#	c #543428",
"0#	c #834F24",
"a#	c #EAA258",
"b#	c #C7894A",
"c#	c #452F29",
"d#	c #674A4A",
"e#	c #643817",
"f#	c #7F5731",
"g#	c #553A2D",
"h#	c #D3924F",
"i#	c #E19D55",
"j#	c #915424",
"k#	c #B0652B",
"l#	c #472F2B",
"m#	c #643A24",
"n#	c #C16E30",
"o#	c #975725",
"p#	c #DA9752",
"q#	c #EAA359",
"r#	c #5E4025",
"s#	c #402D2D",
"t#	c #473231",
"u#	c #925222",
"v#	c #774C24",
"w#	c #9D6B39",
"x#	c #744F2B",
"y#	c #C58849",
"z#	c #A65E28",
"A#	c #BA6A2E",
"B#	c #492B1F",
"C#	c #1F1414",
"D#	c #6A3B1C",
"E#	c #AB6129",
"F#	c #CA8B4B",
"G#	c #B77E43",
"H#	c #180E0B",
"I#	c #422B26",
"J#	c #AC622A",
"K#	c #C68949",
"L#	c #432F2E",
"M#	c #39271F",
"N#	c #F7AB5E",
"O#	c #B27940",
"P#	c #C06E30",
"Q#	c #512E19",
"R#	c #261919",
"S#	c #634747",
"T#	c #6E3E1D",
"U#	c #996836",
"V#	c #7F572D",
"W#	c #56311B",
"X#	c #BE6C2F",
"Y#	c #E9A258",
"Z#	c #110904",
"`#	c #F6AB5D",
" $	c #9E6A36",
".$	c #BC6C2E",
"+$	c #56301A",
"@$	c #402E2E",
"#$	c #060303",
"$$	c #6D3D1D",
"%$	c #825429",
"&$	c #78522C",
"*$	c #874C1F",
"=$	c #926435",
"-$	c #80572D",
";$	c #ECA359",
">$	c #EDA459",
",$	c #8C582A",
"'$	c #542F19",
")$	c #493434",
"!$	c #2D1E1E",
"~$	c #6D3C19",
"{$	c #C37031",
"]$	c #C47131",
"^$	c #8C5123",
"/$	c #D89551",
"($	c #E59E56",
"_$	c #7A532C",
":$	c #523A3A",
"<$	c #664949",
"[$	c #995724",
"}$	c #AE7840",
"|$	c #493333",
"1$	c #865B31",
"2$	c #C48749",
"3$	c #945423",
"4$	c #532D14",
"5$	c #6A3A16",
"6$	c #B6682C",
"7$	c #9C6936",
"8$	c #77512C",
"9$	c #45302F",
"0$	c #C67231",
"a$	c #BF6D2F",
"b$	c #F3AA5D",
"c$	c #F9AD5F",
"d$	c #F8AD5E",
"e$	c #D69450",
"f$	c #513936",
"g$	c #483230",
"h$	c #8A5E32",
"i$	c #8B5B2E",
"j$	c #512C14",
"k$	c #5B4141",
"l$	c #533C3C",
"m$	c #663A21",
"n$	c #7B461D",
"o$	c #D79550",
"p$	c #AF7940",
"q$	c #5B3E26",
"r$	c #38231D",
"s$	c #B5672C",
"t$	c #BA6B2E",
"u$	c #A56027",
"v$	c #8B5D1D",
"w$	c #8D5F1D",
"x$	c #8C5F1D",
"y$	c #885D1C",
"z$	c #6C5417",
"A$	c #A07836",
"B$	c #A47A37",
"C$	c #A47937",
"D$	c #A47838",
"E$	c #D69550",
"F$	c #DC9852",
"G$	c #533A32",
"H$	c #654427",
"I$	c #BC8246",
"J$	c #8F5223",
"K$	c #4A2B1C",
"L$	c #693E29",
"M$	c #B1652B",
"N$	c #895B2E",
"O$	c #E29D55",
"P$	c #835A2E",
"Q$	c #44240C",
"R$	c #B0642B",
"S$	c #8B511F",
"T$	c #7C6015",
"U$	c #BFA621",
"V$	c #E7C72A",
"W$	c #EACA2B",
"X$	c #E9C92B",
"Y$	c #E5C62A",
"Z$	c #B69C20",
"`$	c #8F6E28",
" %	c #C18647",
".%	c #54381E",
"+%	c #966736",
"@%	c #7D5229",
"#%	c #B7682D",
"$%	c #4C2E22",
"%%	c #673D29",
"&%	c #834A1F",
"*%	c #C88B4A",
"=%	c #694D1E",
"-%	c #8D7616",
";%	c #C5AA23",
">%	c #F0D02C",
",%	c #F8D62E",
"'%	c #F7D52E",
")%	c #EFCE2C",
"!%	c #BFA523",
"~%	c #87711B",
"{%	c #765227",
"]%	c #E7A258",
"^%	c #F5AB5D",
"/%	c #B47B42",
"(%	c #935423",
"_%	c #B96A2E",
":%	c #4A2D21",
"<%	c #080200",
"[%	c #492D24",
"}%	c #B4672C",
"|%	c #7D4C23",
"1%	c #DB9852",
"2%	c #DF9B54",
"3%	c #876827",
"4%	c #F3D22D",
"5%	c #F7D62E",
"6%	c #EECF2C",
"7%	c #B69C21",
"8%	c #8C682B",
"9%	c #E59F56",
"0%	c #D0914E",
"a%	c #7D491F",
"b%	c #402B28",
"c%	c #562E10",
"d%	c #432B13",
"e%	c #160C03",
"f%	c #905121",
"g%	c #84572B",
"h%	c #EDA55A",
"i%	c #C78A4A",
"j%	c #866924",
"k%	c #BBA427",
"l%	c #AB952D",
"m%	c #B39B2E",
"n%	c #EECD2C",
"o%	c #E8C92B",
"p%	c #AD9630",
"q%	c #A8922C",
"r%	c #B59D23",
"s%	c #856427",
"t%	c #7B4F26",
"u%	c #B8692D",
"v%	c #80481F",
"w%	c #311F0C",
"x%	c #39230D",
"y%	c #3E2009",
"z%	c #844A1E",
"A%	c #82552A",
"B%	c #AD773F",
"C%	c #5D3E1E",
"D%	c #573E3E",
"E%	c #5E3419",
"F%	c #BF6E2F",
"G%	c #9B6A38",
"H%	c #E39E56",
"I%	c #B67E42",
"J%	c #554227",
"K%	c #897E5C",
"L%	c #8B8882",
"M%	c #949494",
"N%	c #AEAEAD",
"O%	c #BBA33B",
"P%	c #F9D72E",
"Q%	c #F8D72E",
"R%	c #F6D52E",
"S%	c #A99549",
"T%	c #B3B3B3",
"U%	c #929292",
"V%	c #8E8B81",
"W%	c #908667",
"X%	c #5D4524",
"Y%	c #E19C55",
"Z%	c #936333",
"`%	c #9B5825",
" &	c #532F1B",
".&	c #684723",
"+&	c #B37C42",
"@&	c #794C24",
"#&	c #723F18",
"$&	c #905122",
"%&	c #965523",
"&&	c #9D6A37",
"*&	c #7A542B",
"=&	c #301F17",
"-&	c #2C1A15",
";&	c #8D5020",
">&	c #593F17",
",&	c #857229",
"'&	c #B0AEA9",
")&	c #7B7B7B",
"!&	c #333333",
"~&	c #0C0C0C",
"{&	c #9A9A9A",
"]&	c #9D9783",
"^&	c #DDBE28",
"/&	c #A28B1A",
"(&	c #988418",
"_&	c #A58F1B",
":&	c #DFC028",
"<&	c #EECD2D",
"[&	c #B3AEA2",
"}&	c #848484",
"|&	c #101010",
"1&	c #3D3D3D",
"2&	c #8E8E8E",
"3&	c #A7A39B",
"4&	c #7F6D22",
"5&	c #593C17",
"6&	c #9F5A26",
"7&	c #81481D",
"8&	c #322011",
"9&	c #8B5F32",
"0&	c #DD9A53",
"a&	c #8A5C2F",
"b&	c #A55E27",
"c&	c #7B451B",
"d&	c #6C3B16",
"e&	c #965524",
"f&	c #A16F3A",
"g&	c #C6894A",
"h&	c #624222",
"i&	c #2D1E1D",
"j&	c #48260D",
"k&	c #975623",
"l&	c #8E791A",
"m&	c #AFA99C",
"n&	c #9C9C9C",
"o&	c #121212",
"p&	c #030303",
"q&	c #AEAEAE",
"r&	c #A7A296",
"s&	c #ECCC2B",
"t&	c #E4C42A",
"u&	c #B8A228",
"v&	c #423A06",
"w&	c #504508",
"x&	c #BEA828",
"y&	c #E6C72A",
"z&	c #EBCC2D",
"A&	c #C0BDB7",
"B&	c #969696",
"C&	c #010101",
"D&	c #222222",
"E&	c #B0B0B0",
"F&	c #A29A85",
"G&	c #867115",
"H&	c #A25C26",
"I&	c #B2662B",
"J&	c #41210A",
"K&	c #1A0F0B",
"L&	c #74502B",
"M&	c #D1914E",
"N&	c #976735",
"O&	c #9E5A26",
"P&	c #613513",
"Q&	c #4E290D",
"R&	c #945524",
"S&	c #AA753E",
"T&	c #A06E3A",
"U&	c #4E3528",
"V&	c #251818",
"W&	c #443030",
"X&	c #633719",
"Y&	c #876D17",
"Z&	c #A4914A",
"`&	c #D5D5D5",
" *	c #555555",
".*	c #393939",
"+*	c #C3C3C3",
"@*	c #9A8E65",
"#*	c #CCB028",
"$*	c #998C61",
"%*	c #A2A099",
"&*	c #BDBDBD",
"**	c #545454",
"=*	c #B9B9B8",
"-*	c #9C988F",
";*	c #9A8B5C",
">*	c #CFB225",
",*	c #9E967D",
"'*	c #B9B9B9",
")*	c #282828",
"!*	c #616161",
"~*	c #C1C0C0",
"{*	c #AE9730",
"]*	c #816416",
"^*	c #58321C",
"/*	c #543927",
"(*	c #AC773F",
"_*	c #F0A75B",
":*	c #9B6936",
"<*	c #9A5724",
"[*	c #3A1D08",
"}*	c #2C1505",
"|*	c #C27030",
"1*	c #8C5021",
"2*	c #A6723C",
"3*	c #CE914E",
"4*	c #82582F",
"5*	c #65452F",
"6*	c #553B33",
"7*	c #493433",
"8*	c #211515",
"9*	c #603517",
"0*	c #714E15",
"a*	c #D3B626",
"b*	c #A5976A",
"c*	c #E2E2E2",
"d*	c #232323",
"e*	c #A3A3A3",
"f*	c #A69F8A",
"g*	c #867529",
"h*	c #A7A5A2",
"i*	c #EFEFEF",
"j*	c #FDFDFD",
"k*	c #FAFAFA",
"l*	c #A9A9A9",
"m*	c #8A8A8A",
"n*	c #797979",
"o*	c #B4B4B4",
"p*	c #FCFCFC",
"q*	c #EBEBEB",
"r*	c #9C9A94",
"s*	c #927E24",
"t*	c #A09A8B",
"u*	c #191919",
"v*	c #3C3C3C",
"w*	c #DCDCDC",
"x*	c #AF9C58",
"y*	c #C9AE24",
"z*	c #714916",
"A*	c #5C341E",
"B*	c #5A4040",
"C*	c #533C3B",
"D*	c #573D35",
"E*	c #65442C",
"F*	c #8C5F32",
"G*	c #E8A157",
"H*	c #956635",
"I*	c #955423",
"J*	c #8C4F20",
"K*	c #9C5925",
"L*	c #805329",
"M*	c #CC8E4C",
"N*	c #B27B41",
"O*	c #8C5F31",
"P*	c #684729",
"Q*	c #463028",
"R*	c #2D1E1B",
"S*	c #613514",
"T*	c #AF642B",
"U*	c #935522",
"V*	c #BFA521",
"W*	c #F5D42D",
"X*	c #A49565",
"Y*	c #E8E8E8",
"Z*	c #A0A0A0",
"`*	c #A2A2A2",
" =	c #9A927C",
".=	c #AC9725",
"+=	c #949084",
"@=	c #F6F6F6",
"#=	c #FFFFFF",
"$=	c #FEFEFE",
"%=	c #F4F4F4",
"&=	c #8E8772",
"*=	c #A99221",
"==	c #989385",
"-=	c #9E9E9E",
";=	c #E3E3E3",
">=	c #AE9B56",
",=	c #F5D42E",
"'=	c #AA921C",
")=	c #A15C27",
"!=	c #A96029",
"~=	c #532D10",
"{=	c #3F2C29",
"]=	c #53392E",
"^=	c #694725",
"/=	c #906234",
"(=	c #B98044",
"_=	c #DE9953",
":=	c #EBA359",
"<=	c #7A4D25",
"[=	c #6E3D17",
"}=	c #4E2A0E",
"|=	c #7E481E",
"1=	c #976635",
"2=	c #E49E56",
"3=	c #E39F56",
"4=	c #CC8D4C",
"5=	c #C18547",
"6=	c #85572B",
"7=	c #755814",
"8=	c #CFB435",
"9=	c #BEBDB9",
"0=	c #DBDBDB",
"a=	c #C2C1C0",
"b=	c #A7996F",
"c=	c #BBA321",
"d=	c #9D9B95",
"e=	c #959083",
"f=	c #C6AB23",
"g=	c #A29878",
"h=	c #C5C4C4",
"i=	c #DADADA",
"j=	c #ACA8A0",
"k=	c #DCBE2A",
"l=	c #E1C229",
"m=	c #5E4211",
"n=	c #875A2E",
"o=	c #C38748",
"p=	c #D0904E",
"q=	c #E6A057",
"r=	c #DE9A54",
"s=	c #8C5D2F",
"t=	c #824A1F",
"u=	c #B5682C",
"v=	c #4D290E",
"w=	c #894D1F",
"x=	c #794B23",
"y=	c #AF783F",
"z=	c #D99651",
"A=	c #DE9A53",
"B=	c #A08720",
"C=	c #F5D32D",
"D=	c #C9AE31",
"E=	c #BEA538",
"F=	c #D5B927",
"G=	c #9C8C55",
"H=	c #A69344",
"I=	c #EBCC2B",
"J=	c #D2B62A",
"K=	c #BFA639",
"L=	c #D2B62C",
"M=	c #F6D42E",
"N=	c #A18327",
"O=	c #EFA55A",
"P=	c #D4924F",
"Q=	c #A26D39",
"R=	c #794921",
"S=	c #B2652B",
"T=	c #754119",
"U=	c #4B270C",
"V=	c #AF642A",
"W=	c #925424",
"X=	c #835429",
"Y=	c #A26F3A",
"Z=	c #BD8547",
"`=	c #E29F56",
" -	c #D5934F",
".-	c #BBA123",
"+-	c #EBCB2B",
"@-	c #A6A195",
"#-	c #8C846C",
"$-	c #F0CF2C",
"%-	c #B89B25",
"&-	c #E7A057",
"*-	c #F0A65B",
"=-	c #BC8447",
"--	c #9E6B38",
";-	c #845429",
">-	c #915323",
",-	c #AD622A",
"'-	c #402109",
")-	c #C06E2F",
"!-	c #9D5925",
"~-	c #8E5324",
"{-	c #7F5229",
"]-	c #A36E3A",
"^-	c #9A6A37",
"/-	c #C9B326",
"(-	c #E7C82A",
"_-	c #98958D",
":-	c #F7F7F7",
"<-	c #F1F1F1",
"[-	c #8B8471",
"}-	c #EDCD2B",
"|-	c #C1A524",
"1-	c #AB753E",
"2-	c #7D5026",
"3-	c #A15B26",
"4-	c #643714",
"5-	c #7A441B",
"6-	c #BC6B2E",
"7-	c #955523",
"8-	c #C4AB23",
"9-	c #F1D02C",
"0-	c #796D42",
"a-	c #979797",
"b-	c #E7E7E7",
"c-	c #F3F3F3",
"d-	c #FBFBFB",
"e-	c #8C8C8C",
"f-	c #77692E",
"g-	c #BFA222",
"h-	c #A86028",
"i-	c #713E18",
"j-	c #A35D27",
"k-	c #D1B726",
"l-	c #B0A78E",
"m-	c #D8D8D8",
"n-	c #A1A1A1",
"o-	c #8D8D8D",
"p-	c #9B9B9B",
"q-	c #C7C7C7",
"r-	c #F0F0F0",
"s-	c #909090",
"t-	c #A8A8A8",
"u-	c #D7D7D7",
"v-	c #988C64",
"w-	c #F4D42E",
"x-	c #CBAD24",
"y-	c #653715",
"z-	c #0F0501",
"A-	c #A35C27",
"B-	c #D2B826",
"C-	c #B4AB92",
"D-	c #F8F8F8",
"E-	c #E9E9E9",
"F-	c #CBCBCB",
"G-	c #BABABA",
"H-	c #959595",
"I-	c #C0C0C0",
"J-	c #9D9D9D",
"K-	c #C1C1C1",
"L-	c #CFCFCF",
"M-	c #EDEDED",
"N-	c #988C66",
"O-	c #B86A2D",
"P-	c #0C0401",
"Q-	c #76421A",
"R-	c #C8AD23",
"S-	c #A49A7B",
"T-	c #F5F5F5",
"U-	c #F2F2F2",
"V-	c #93865A",
"W-	c #F4D32D",
"X-	c #C2A422",
"Y-	c #693916",
"Z-	c #100501",
"`-	c #887216",
" ;	c #F4D22D",
".;	c #B9A02C",
"+;	c #BDBCBB",
"@;	c #AAA8A3",
"#;	c #C5AA26",
"$;	c #F2D12D",
"%;	c #8F7219",
"&;	c #AF632A",
"*;	c #542D0F",
"=;	c #42220A",
"-;	c #8A4E20",
";;	c #85571C",
">;	c #E2C329",
",;	c #9C8C4F",
"';	c #CACAC9",
");	c #B0993B",
"!;	c #DABC27",
"~;	c #85501D",
"{;	c #7E461C",
"];	c #070303",
"^;	c #613515",
"/;	c #B79D1F",
"(;	c #8E8360",
"_;	c #E0E0E0",
":;	c #D6D6D6",
"<;	c #968855",
"[;	c #EFCF2C",
"};	c #A2891B",
"|;	c #B2662C",
"1;	c #4F2B11",
"2;	c #4B3535",
"3;	c #3F2418",
"4;	c #83491E",
"5;	c #846917",
"6;	c #F1D12D",
"7;	c #E0C129",
"8;	c #867D60",
"9;	c #D9D9D9",
"0;	c #867B58",
"a;	c #7F6017",
"b;	c #77421A",
"c;	c #42281F",
"d;	c #452613",
"e;	c #844D1D",
"f;	c #D2B626",
"g;	c #DCBE28",
"h;	c #8C7F56",
"i;	c #AAA7A1",
"j;	c #D3D3D3",
"k;	c #EEEEEE",
"l;	c #ECECEC",
"m;	c #DFDFDF",
"n;	c #CECDCD",
"o;	c #A6A39A",
"p;	c #938450",
"q;	c #E0C229",
"r;	c #CDB125",
"s;	c #9B5C24",
"t;	c #703E18",
"u;	c #44271A",
"v;	c #140C0C",
"w;	c #3F261D",
"x;	c #713F1B",
"y;	c #A75F28",
"z;	c #A86029",
"A;	c #9A811A",
"B;	c #F2D02D",
"C;	c #E3C429",
"D;	c #C8AE24",
"E;	c #A8922D",
"F;	c #AA974F",
"G;	c #AB9851",
"H;	c #A9954C",
"I;	c #A59024",
"J;	c #C7AE24",
"K;	c #E7C82B",
"L;	c #F1D02D",
"M;	c #806915",
"N;	c #663818",
"O;	c #352019",
"P;	c #160E0E",
"Q;	c #010000",
"R;	c #442E2B",
"S;	c #45281B",
"T;	c #5C3319",
"U;	c #423107",
"V;	c #B69D1F",
"W;	c #372605",
"X;	c #5C341B",
"Y;	c #46281B",
"Z;	c #47302E",
"`;	c #5E4343",
" >	c #130B0B",
".>	c #291B1B",
"+>	c #483610",
"@>	c #AE951E",
"#>	c #9F881C",
"$>	c #372610",
"%>	c #654848",
"&>	c #5D4242",
"*>	c #523724",
"=>	c #9D6E37",
"->	c #C2A722",
";>	c #B0971F",
">>	c #AE783F",
",>	c #C88A4A",
"'>	c #483128",
")>	c #4C3635",
"!>	c #B47C42",
"~>	c #966B33",
"{>	c #B49A20",
"]>	c #A68F1D",
"^>	c #A17039",
"/>	c #9A6B39",
"(>	c #0E0707",
"_>	c #090404",
":>	c #744F2C",
"<>	c #EEA65B",
"[>	c #BE8446",
"}>	c #876B23",
"|>	c #C3A824",
"1>	c #EDCD2C",
"2>	c #B09720",
"3>	c #8E6C28",
"4>	c #664527",
"5>	c #332424",
"6>	c #4F3838",
"7>	c #1F1413",
"8>	c #6C4925",
"9>	c #80582A",
"0>	c #8D7417",
"a>	c #D9BB27",
"b>	c #F6D62E",
"c>	c #D2B425",
"d>	c #806815",
"e>	c #8B5F30",
"f>	c #5C3E1E",
"g>	c #362525",
"h>	c #4D3734",
"i>	c #8F6234",
"j>	c #D79450",
"k>	c #925323",
"l>	c #8B561F",
"m>	c #775915",
"n>	c #887117",
"o>	c #957E19",
"p>	c #CDAF25",
"q>	c #D1B326",
"r>	c #CDB124",
"s>	c #CEB124",
"t>	c #CEB225",
"u>	c #D1B226",
"v>	c #CBAE25",
"w>	c #917B18",
"x>	c #887017",
"y>	c #745415",
"z>	c #8F5620",
"A>	c #864D20",
"B>	c #8B5C2F",
"C>	c #7D562D",
"D>	c #0E0808",
"E>	c #4B3327",
"F>	c #A9743E",
"G>	c #DC9A54",
"H>	c #884F22",
"I>	c #342423",
"J>	c #35221F",
"K>	c #864B1E",
"L>	c #824D21",
"M>	c #906232",
"N>	c #E09C55",
"O>	c #9D6C39",
"P>	c #3E291E",
"Q>	c #4D3318",
"R>	c #83592E",
"S>	c #CC8E4D",
"T>	c #814D22",
"U>	c #8B4E20",
"V>	c #3E2824",
"W>	c #3D251C",
"X>	c #935322",
"Y>	c #804E23",
"Z>	c #C28547",
"`>	c #EFA65B",
" ,	c #7B532A",
".,	c #3E2812",
"+,	c #150B03",
"@,	c #120902",
"#,	c #674522",
"$,	c #A3703B",
"%,	c #D39450",
"&,	c #F6AA5D",
"*,	c #815228",
"=,	c #995725",
"-,	c #5D3316",
";,	c #3E2A29",
">,	c #915223",
",,	c #86572B",
"',	c #CF904D",
"),	c #A2703B",
"!,	c #593B1D",
"~,	c #020100",
"{,	c #241305",
"],	c #966634",
"^,	c #9C6A37",
"/,	c #9B6A37",
"(,	c #9B6937",
"_,	c #966534",
":,	c #8B5629",
"<,	c #5A3111",
"[,	c #453131",
"},	c #683917",
"|,	c #855327",
"1,	c #996736",
"2,	c #744A23",
"3,	c #180C03",
"4,	c #B9692D",
"5,	c #552F19",
"6,	c #5F3519",
"7,	c #A45D27",
"8,	c #BC6C2F",
"9,	c #572F10",
"0,	c #341A06",
"a,	c #4F2E1F",
"b,	c #473130",
"c,	c #432D2A",
"d,	c #522E1A",
"e,	c #A05B26",
"f,	c #2E1605",
"g,	c #47250B",
"h,	c #744119",
"i,	c #46302F",
"j,	c #3F2B29",
"k,	c #542E13",
"l,	c #7C451B",
"m,	c #AD632A",
"n,	c #834A1E",
"o,	c #200E03",
"p,	c #4B270D",
"q,	c #532C0F",
"r,	c #593011",
"s,	c #582F11",
"t,	c #552E10",
"u,	c #281304",
"v,	c #301705",
"w,	c #582F10",
"x,	c #5C3212",
"y,	c #522C0F",
"z,	c #1E0C02",
"A,	c #160D0D",
"B,	c #594141",
"C,	c #100909",
"D,	c #180F0F",
"E,	c #020101",
"F,	c #422F2F",
"G,	c #3A2828",
"H,	c #2C1F1F",
"I,	c #342525",
"J,	c #443131",
"                                                                                                                                                                                    ",
"                                                                                                                                                                                    ",
"                                                                                                                                                                                    ",
"                                                                                        . + @                                                                                       ",
"                                                      #                               $ % & * +                                 =                                                   ",
"                                                    - ; > ,                         ' ) ! ! ! ~                           { ] ^ / (                                                 ",
"                                                    > _ : < [ } |                   1 ! ! ! ! & 2                     3 4 5 6 7 8 9                                                 ",
"                                                    0 a a a _ b c d e               f g ! ! ! h i               j k l m n a a a o p                                                 ",
"                                                  q r a a a a a a s t u v w x         y g ! % z         A B C D E F G a a a a a n H                                                 ",
"                                                  } I a a a a a a a a a _ J < K L M N O P Q R S T U V W X Y s a a a a a a a a a 7 Z                                                 ",
"                                                  ` : a a a a a a a a a a a a a _ G s  .....I ..s n _ a a a a a a a a a a a a a a +.@.                                              ",
"                                                  #.a a a a a a a a a a a a a a a a a a a a a a a a a a a a a a a a a a a a a a a $.%.                                              ",
"                                                  &.a a a a a a a a a a a a a a a a a a a a a a a a a a a a a a a a a a a a a a a *.=.                                              ",
"                                                  -.;.a a a a a a a a a a a a a a a a a a a a a a a a a a a a a a a a a a a a a >.,.'.                                              ",
"                            ).                      !.~._ a a a a a a a a a a a a a a a a a a a a a a a a a a a a a a a a a a *.{.                  ).).).                          ",
"                            ].^./.(._.:.<.<.[.}.<.<.}.|.1.s a a a a a a a a a a a a a a a a a a a a a a a a a a a a a a a G 2.3.4.5.6.).<.<.7._.8.].9.0.a.                          ",
"                            b.~ c.d.g % e.f.g.f h.h.i.c.j.k.>.a a a a a a a a a a a a a a a a a a a a a a a a a a a a a s l.m.z f.n.o.p.q.n.* g n.:.r.s.t.                          ",
"                            u.v.0.w.! ! ! % ^.x.! ! ! & % y.z.A.B.a a a a a a a a a a a n C.s a a a a a a a a a a a _ D.E.F.s.& & & r.8.G.& & ! s.H.v.e.t.                          ",
"                            ^.v.0.w.! ! ! % :.I.! ! & & & J.K.L.M.o _ a a a a a a a a s N.O.P.n a a a a a a a a a b Q.R.S.* & & & & T.U.G.& & ! s.:.% s.t.                          ",
"                            b.v.c.V.! ! ! % H.I.! & & & & J.W.% X.Y.Z.`.G a a a a a s D  +.+++@+7 a a a a a 7 #+$+%+&+*+=+v.& & & & T.U.G.& & & s.-+r.s.t.                          ",
"                            b.;+:.>+! ! ! % ,+s.T.T.v.T.& J.W.& & ;+'+)+!+~+b _ a a {+]+^+/+(+_+:+a a a s <+[+}+|+1+) 2+=+v.& T.) & T.3+G.& & & 4+5+2+s.t.                          ",
"                            ^.* :.f.! & & r.,+h.T.6+i 7+T.*+W.& & & & % 8+9+0+a+b+c+d+e+f+g+h+i+j+; c+k+l+m+n+o+T.& & 2+p+v.& q+r+s.T.U.G.& & & ) s+t+s.t.                          ",
"                            b.;+:.e.& & & r.,+h.x.u+v+f.T.w+x+& T.T.& & & ) y+z+A+B+C+D+f+E+F+G+H+I+J+K+L+M+T.T.T.T.T.2+=+v.& 2+N+O+I.3+G.& & & g 9.t+s.t.                          ",
"                            b.I.:.e.& & & r.-+P+8.Q+R+f.T.w+2 T.T.T.T.T.T.T.h.,+f.S+f+T+f+U+V+W+X+Y+Z+V.T.T.T.T.T.T.T.`+ @.@T.1++@@@#@:.G.& & & T.9.$@q.%@                          ",
"                            <.:.&@0.*@.@T.=@-@;@>@,@'@f.T.w+x+T.T.T.T.T.T.T.h.,+)@!@D+T+f+~@V+W+{@]@^@w.T.T.T.T.T.T.T.2+/@.@T.(@_@:@<@[@G.& T.f.*+^@}@-+).                          ",
"                            7.|@=+r+7. @K.i 1@2@3@4@5@f.T.w+2 T.T.T.T.T.T.T.h.6@7@8@T+T+f+9@0@W+W+a@b@w.v.T.T.T.T.T.T.`+ @.@T.c@d@e@f@g@=+K.U.h@i@@ j@f.t.                          ",
"                            b.;+k@) s.q.q.l@m@n@o@p@q@6+v.r@s@v.v.v.v.v.v.T.h.&@t@u@T+T+f+9@0@W+W+v@w@x@v.v.v.v.T.T.T.`+ @.@T.y@z@A@B@C@D@$@P+t+v.*@t+s.t.                          ",
"                            ^.~ ' T.& T.T.E@F@G@H@I@J@K@J.. L@E@v.v.v.v.v.v.7+M@e+T+T+T+f+N@V+W+W+W+O@P@r.v.v.v.v.v.r.P+7.w+w+Q@R@S@T@U@V@r.& & & W@t+s.t.                          ",
"                            X@~ Z+T.& T.T.P+Y@u@Z@I@`@ #.#8.+#@####@#@$#o.o.%#&#u@T+T+T+f+*#0@W+W+W+=#-#;#o.W@>##@##s+,#'#r+.#)#!#S@~#{#]#e.& & & *@t+s.t.                          ",
"                            b.~ Z+T.& T.T.^#/#u@(#0@S@_#7+r@:#W@W@W@1 9.9.<#[#n@T+T+T+T+f+U+0@W+W+W+}#|#1#@ 9.2#W@W@W@>+ @.@y 3#I@4#5#6#7#8#& & & *@t+s.t.                          ",
"                            b.~ k@T.T.T.T.9#U@D+0#a#W+b#c#$#2 v.v.v.v..@d#6+e#6#T+T+T+T+f+N@V+W+W+W+W+G+f#h..@% v.v.v.`+/@=@g#h#W+i#j#T+k#l#T.& & *@t+s.t.                          ",
"                            X@~ Z+T.T.T.r.m#n#T+o#p#W+q#r#s#s@v.v.v..@.@.@t#u#T+T+T+T+T+f+v#V+W+W+W+W+{@w#q.v.v.v.v.v.t+8.`+x#=#W+y#z#T+A#B#r.& & *@t+e.t.                          ",
"                            C#G.r+T.T.T.I.D#6#T+E#F#W+}#G#H#s@.@.@.@d#d#=@I#J#T+T+T+T+T+f+E+V+W+W+W+W+W+K#L#v.v.v.v.v.`+7.M#y#N#W+O#e+T+P#Q#I.& ! *@L@' }.                          ",
"                            a.R#<#% T.T.S#T#6#T+e+U#}#W+4@V#r+.@.@d#d#d#7+W#X#T+T+T+T+T+f+g+V+W+W+W+W+}#Y#r#S#v.v.v.v.`+Z#w@0@W+`# $.$T+u@+$S#g ! ;#k@@$#$                          ",
"                            h@`+^..#x.r.S#$$D+T+G@%$=#W+W+e@&$W@d#d#d#d#8#*$T+T+T+T+T+T+f+*#0@W+W+W+W+W+{@=$|@v.v.v..@w+-$;$W+W+>$,$6#T+u@'$h.I.)$7.`+e.t.                          ",
"                            ).P+U.i p.!$x+~${$T+]$^$/$W+W+W+($_$:$<$d#<$.#[$T+T+T+T+T+T+f+g+V+W+W+W+W+W+W+}$)@.@v.r.|$1$Y#W+W+W+2$3$T+T+u@4$K.C#^.L@t+s.t.                          ",
"                            ).P+Z+r.2+w.. 5$6#T+T+6$7$0@W+W+W+($8$9$h.<$i@E#T+T+T+0$0$0$a$~@b$c$d$c$W+W+W+e$f$.@f.g$h$a#W+W+W+4#i$A#T+T+{#j$s#k$=@l$t+s.t.                          ",
"                            ).o.Z+) v.v.I.m${#T+T+u@n$o$W+W+W+W+!#p$q$)@r$s$D+t$u$v$w$x$y$z$A$B$C$D$E$4@}#F$G$x@H$I$4#W+W+W+W+a@J$]$T+T+f+K$=@& & l$t+e.t.                          ",
"                            ).P+Z+v.v.v..@L$n#T+T+T+M$N$A@W+W+W+}#{@O$P$Q$R$S$T$U$V$W$W$X$W$W$X$X$Y$Z$`$ %E$.%+%Y#N#W+W+W+W+!#@%#%T+T+T+A#$%% T.T.$@y s.t.                          ",
"                            #$o.l@v.v.v..@%%P#T+T+T+D+&%*%N#W+W+W+W+W+i#=%-%;%>%,%,%,%,%,%,%,%,%,%,%'%)%!%~%{%]%W+W+W+W+W+^%/%(%T+T+T+T+_%:%% T.T.$@y s.t.                          ",
"                  <%        }@P+9.v.v.v.r.[%}%T+T+T+T+f+|%1%W+}#W+W+2%3%;%4%,%,%,%,%,%,%,%,%,%,%,%,%,%,%5%6%7%8%9%W+W+W+}#0%a%P#T+T+T+T+E#b%v.T.T.8#f n.&@        ).                ",
"                  c%d%e%    b.q.@ v.T.v.v.0.f%T+T+T+T+T+8@g%h%W+I@i%j%k%l%m%n%,%,%,%,%,%,%,%,%,%,%,%,%,%o%p%q%r%s%,@N#W+a#t%u%T+T+T+T+D+v%y T.T.T.$@.#7+t.    w%x%y%                ",
"                  z%A%B%C%}.X@D%@ v.T.v.v.(@E%F%T+T+T+]$D+*$G%H%I%J%K%L%M%N%O%5%,%,%,%,%P%Q%Q%,%,%,%,%R%S%T%U%V%W%X% %Y%Z%`%T+T+T+T+T+U@ &* T.T.T.$@.#7+-@w..&+&@&#&                ",
"                  $&%&&&p#*&=&J.@ v.T.v.v.* -&%&]$T+T+T+T+F%;&>&,&'&)&!&~&{&]&)%,%,%5%^&/&(&_&:&5%,%,%<&[&}&|&1&2&3&4&5&6&u@T+T+T+T+D+7&$ v.T.T.T.8#. o.8&9&0&a&b&c&                ",
"                  d&{#e&f&q#g&h&i&=@T.T.v.* ^@j&e+T+T+T+T+]$k&l&m&n&o&).p&q&r&s&4%t&u&v&).).).w&x&y&4%z&A&B&C&).D&E&F&G&H&T+T+T+T+T+I&J&|@T.T.T.T.$@K&L&M&Y#N&O&a$P&                ",
"                  Q&U@6#R&S&0@Y#T&U&6+.@v.* V&W&X&u%T+T+T+8@Y&Z&`& *).)..*+*@*#*$*%*&*1&).).).**=*-*;*>*,*'*)*).).!*~*{*]*s$T+T+T+8@^*p.|@T.T.=@D%/*(*h%_*:*<*D+^+[*                ",
"                  }*n@T+|*1*2*!#I@3*4*5*6*7*8*G.%#9*u%T+A#0*a*b*c*.*).d*e*f*g*h*i*j*k*l*m*n*M%o*k*p*q*r*s*t*m*u*).v*w*x*y*z*G@T+}%A*B*9.%#C*D*E*F*p#`#G*H*`%D+T+I*                  ",
"                    J*T+T+u@K*L*M*V+I@a#1%N*O*P*Q*R*S*T*U*V*W*X*Y*Z*B&`* =.=+=@=#=#=#=$=p*k*j*$=#=#=#=%=&=*===-=B&e*;=>=,='=)=!=~={=]=^=/=(=_=:=`#_*a@<=6&D+T+6#[=                  ",
"                    }=t$T+T+T+e+|=1=2=W+W+}#`#_*3=4=5=6=7=W$,%8=9=0=a=b=c=d=i*#=#=#=#=#=#=#=#=#=#=#=#=#=Y*e=f=g=h=i=j=k=,%l=m=n=o=p=q==#I@W+W+}#r=s=t=A#T+T+T+u=v=                  ",
"                      w=T+T+T+T+{$n@x=y=z=4#{@W+W+W+W+A=B='%,%C=D=E=F=n%G=Y*#=#=#=#=#=#=#=#=#=#=#=#=#=#=#=c*H=I=J=K=L=5%,%M=N=a#W+W+W+W+`#O=P=Q=R=S=T+T+T+T+D+T=                    ",
"                      U=}%T+T+T+T+T+G@V=W=X=Y=Z=`=_*N# -.-,%,%,%,%,%,%+-@-p*#=#=#=#=#=#=#=#=#=#=#=#=#=#=#=@=#-$-,%,%,%,%,%,%%-&-{@*-Y%=---;->-M$P#T+T+T+T+T+,-'-                    ",
"                        [=)-T+T+T+T+T+T+T+.$M$!-~-{-]-^-/-,%,%,%,%,%,%(-_-:-#=#=#=#=#=#=#=#=#=#=#=#=#=#=#=<-[-}-,%,%,%,%,%,%|-1-&&2-j#3-8@G@T+T+T+T+T+T+T+f+4-                      ",
"                          5-f+T+T+T+T+T+T+T+T+T+]$6-s$7-8-,%,%,%,%,%,%9-0-a-b-c-d-#=#=#=#=#=#=#=#=#=k*c-;=e-f-4%,%,%,%,%,%,%g-h-s$G@]$T+T+T+T+T+T+T+T+T+_%i-                        ",
"                            5-G@T+T+T+T+T+T+T+T+]$T+T+j-k-,%,%,%,%,%,%4%l-m-n-o-p-q-c*r-j*#=p*i*c*+*B&s-t-u-v-w-,%,%,%,%,%,%x-^+T+T+T+T+T+T+T+T+T+T+T+U@y-z-                        ",
"                              5-{#T+T+T+T+T+T+T+T+T+T+A-B-,%,%,%,%,%,%4%C-j*p*D-E-F-G-H-l*I-J-J-K-L-M-D-j*@=N-W*,%,%,%,%,%,%x-O-T+T+T+T+T+T+T+T+T+T+f+[=                            ",
"                              P-Q-U@T+T+T+T+T+T+T+T+T+A-R-,%,%,%,%,%,%4%S-T-#=#=#=#=$=k*c-U-%=d-#=#=#=#=#=i*V-W-,%,%,%,%,%,%X-^+T+T+T+T+T+T+T+T+T+#%Y-Z-                            ",
"                              ).C&y-}%]$T+T+T+T+T+T+T+}%`- ;,%,%,%,%,%'%.;+;$=#=#=#=#=#=#=#=#=#=#=#=#=#=p*@;#;'%,%,%,%,%,%$;%;f+T+T+T+T+T+T+T+D+&;*;).                              ",
"                                ).).=;-;U@T+T+T+T+T+T+6#;;>;,%,%,%,%,%,%$-,;w*#=#=#=#=#=#=#=#=#=#=#=#=$=';); ;,%,%,%,%,%,%!;~;D+T+T+T+T+T+T+^+{;'-).).                              ",
"                                ).).).];^;R$D+T+T+T+T+T+!=/;,%,%,%,%,%,%,%W$(;_;$=#=#=#=#=#=#=#=#=#=#=:;<;[;,%,%,%,%,%,%'%};|;T+T+T+T+T+6#J#1;).).).                                ",
"                                  ).).2;$@3;4;s$D+T+T+T+t$5;6;,%,%,%,%,%,%,%7;8;c*j*#=#=#=#=#=#=#=j*9;0;Y$,%,%,%,%,%,%,%n%a;F%T+T+T+6#M$b;c;%#/.).).                                ",
"                                  ).).w+v.s.>+d;T=8@u@T+D+e;f;,%,%,%,%,%,%,%,%g;h;i;j;c*M-k;l;m;n;o;p;q;,%,%,%,%,%,%,%,%r;s;T+T+u@T*t;u;8#E@f.v;).                                  ",
"                                    )./@S#v.r./@W&w;x;y;_%z;A;C=,%,%,%,%,%,%,%,%B;C;D;E;F;G;H;I;J;K;4%,%,%,%,%,%,%,%,%L;M;k#u%b&N;O;P;|@.@r.r@).).                                  ",
"                                    ).Q;0.v.r./@y S#D%R;S;T;U;f=W-,%,%,%,%,%,%,%,%,%,%5%,%'%,%,%,%,%,%,%,%,%,%,%,%,%L;V;W;X;Y;Z;k$7+:.`+.@`; >).                                    ",
"                                      ).8.r.v.s+t+v.v..@<$(@.>+>@>4%,%,%,%,%,%,%,%,%,%,%,%,%,%,%,%,%,%,%,%,%,%,%,%L;#>$>w+h.%>.@.@* ,+&>v.w.).).                                    ",
"                                      ).<.2+) _.x.T.T.T.T.* *>h#=>->C=,%,%,%,%,%,%,%,%,%,%,%,%,%,%,%,%,%,%,%,%,%4%;>>>,>'>S#.@.@.@* :.`+r.p+).                                      ",
"                                        ).s#~ 8.y & T.T.T.)>!>{@4@~>{>n%'%,%,%,%,%,%,%,%,%,%,%,%,%,%,%,%,%,%R%s&]>^>=#p@/>:$.@.@.@E@R#|@k$(>).                                      ",
"                                        ).].R#_>H.Z+Z+x+W@:>:=W+W+<>[>}>|>L;,%,%Q%,%,%,%,%,%,%,%,%,%,%,%,%1>2>3>y#=#W+W+q=4>l@l@l@5>[.^@p.).).                                      ",
"                                          p.`+W./@6>w+7>8>2=W+W+W+W+W+2%9>0>a>s&b>5%,%,%,%,%,%,%,%Q%R%W$c>d>e>e@W+W+W+W+W+p#f><#>+f ^@2+g>).                                        ",
"                                          5.r+)$' r.h>i>&-W+W+W+W+S@j>L*k>}%l>m>n>o>p>q>r>s>t>u>v>w>x>y>z>s$A>B>1%0@W+W+W+W+Y%C>L#q./@$ h@                                          ",
"                                            D>r+ @E>F>*-W+W+W+`#G>B>H>e+]$T+T+G@t$}%R$5-I>q.J>K>R$#%U@a$T+T+D+}%L>M>N>}#W+W+W+!#O>P>-@^.).                                          ",
"                                            e%Q>R>S>`#W+W+W+!#/%T>8@D+T+T+T+T+T+T+6-U>V>s.T.`+W>X>P#T+T+T+T+T+T+{$k#Y>Z>`>W+W+W+`#y# ,.,+,                                          ",
"                                      @,#,$,%,&-=#`#`#&,:=2$*,=,P#T+T+T+T+T+T+T+^+-,L#E@T.T.T.n.;,~$.$T+T+T+T+T+T+T+F%>,,,F#!#`#`#`#=#9%',),!,~,                                    ",
"                                      {,t%],^,^,/,^,(,_,:,`%6-T+T+T+T+T+T+T+T+e+<,[,.@T.T.T.T.T.I./.},U@T+T+]$T+T+T+T+T+A#=,|,_,1,1,U#1,1,Z%2,3,                                    ",
"                                        P&3-4,U@U@U@U@6-{$T+T+T+T+T+T+T+T+6-<*5,v;;#T.T.T.T.T.T.I.V&x+6,7,8,T+T+T+T+T+T+T+T+u@U@U@6-A#U@u%!-9,                                      ",
"                                          0,T=e+T+T+T+T+T+T+T+T+T+T+D+U@I*a,b,h..#w.T.T.T.T.T.T.2+-@I.y c,d,e,X#]$T+T+T+T+T+T+T+T+T+T+I&[=f,                                        ",
"                                              g,-;R$_%G@u@6#u@u@{#V=h,+$i,E@T.T.8#:.=@T.T.T.T.T.2;9..@T.) 2+j,k,l,I&u@u@u@u@u@a$e+m,n,=;                                            ",
"                                                  o,p,q,r,s,c%9,t,u,%@W@T.T.T.T.h.6@`+T.T.T.T.r./@w+T.T.T.v.E@X@).v,9,9,w,9,x,y,=;z,                                                ",
"                                                          ).).a.:#,+A,-+l@B,* T.% 3+0.T.T.T.T.7+p.n.T.r.2+W&U.C,(.i D,).).).                                                        ",
"                                                              ).8.q.q.E,'#v;X@' 2;s#9.2+;+% n.>+@#q.F,/@/.p.).G,6+r+%@).                                                            ",
"                                                                ).C,9.8.(.q+i.[,8.}@)._>-@ @(>[./.,+' w+2+K.v;Z+6@).                                                                ",
"                                                                    ).].).s#& & % * _.g.t+t+%#C,y % T.& (@t.E,a.                                                                    ",
"                                                                      ).).-@y T.& & ;#L@& & y s+) ! & =@Z+).).                                                                      ",
"                                                                          ).b.i@$@I.$@_.) ! t+9.=@|@x+H,a.                                                                          ",
"                                                                              ).).p.I,:.h ! G./.}@5.).                                                                              ",
"                                                                                    ).C,Z+J,@#).).                                                                                  ",
"                                                                                        ).).).                                                                                      ",
"                                                                                                                                                                                    ",
"                                                                                                                                                                                    ",
"                                                                                                                                                                                    ",
"                                                                                                                                                                                    "};
