/* XPM */
static char * turbilhao_8_xpm[] = {
"170 170 885 2",
"  	c None",
". 	c #0073FD",
"+ 	c #0074FE",
"@ 	c #0074FD",
"# 	c #0070F7",
"$ 	c #0072FC",
"% 	c #0074FF",
"& 	c #0075FF",
"* 	c #0075FE",
"= 	c #0072F8",
"- 	c #0073FC",
"; 	c #0073FB",
"> 	c #0074FC",
", 	c #0076FD",
"' 	c #0073FA",
") 	c #0077FB",
"! 	c #0076FF",
"~ 	c #0094F9",
"{ 	c #0095F9",
"] 	c #0098FA",
"^ 	c #009AFB",
"/ 	c #009CFB",
"( 	c #009EFB",
"_ 	c #009FFB",
": 	c #00A0FC",
"< 	c #0079FD",
"[ 	c #0071F9",
"} 	c #009FFC",
"| 	c #008FFB",
"1 	c #0098FF",
"2 	c #009DFF",
"3 	c #00A2FF",
"4 	c #00A3FF",
"5 	c #00A6FF",
"6 	c #00A8FF",
"7 	c #00A9FF",
"8 	c #00ABFF",
"9 	c #00ACFF",
"0 	c #00AEFF",
"a 	c #00AFFF",
"b 	c #01AAF9",
"c 	c #0079FE",
"d 	c #007AFE",
"e 	c #0076FC",
"f 	c #0075FB",
"g 	c #009EFF",
"h 	c #00A4FF",
"i 	c #00A7FF",
"j 	c #00AAFF",
"k 	c #00ADFF",
"l 	c #00B0FF",
"m 	c #0089FA",
"n 	c #008DFC",
"o 	c #0093FE",
"p 	c #0096FD",
"q 	c #009CFE",
"r 	c #009BFE",
"s 	c #00A2FE",
"t 	c #00A3FE",
"u 	c #00A9FE",
"v 	c #00ABFE",
"w 	c #01B2FF",
"x 	c #02B4FF",
"y 	c #03B4FF",
"z 	c #04B7FF",
"A 	c #05B7FF",
"B 	c #07B8FF",
"C 	c #0AB9FE",
"D 	c #0DB7FB",
"E 	c #0EB7FB",
"F 	c #00A7FE",
"G 	c #00A6FE",
"H 	c #00A2FC",
"I 	c #009DFA",
"J 	c #0079FA",
"K 	c #0094FF",
"L 	c #0095FF",
"M 	c #0098FD",
"N 	c #009DFE",
"O 	c #00A4FE",
"P 	c #00A5FE",
"Q 	c #00ADFE",
"R 	c #00B2FF",
"S 	c #01B4FF",
"T 	c #03B6FF",
"U 	c #06B9FF",
"V 	c #07B9FF",
"W 	c #0ABBFF",
"X 	c #0CBCFF",
"Y 	c #0EB8FC",
"Z 	c #0FB8FC",
"` 	c #0EB7FC",
" .	c #0078F7",
"..	c #007AFD",
"+.	c #008BFB",
"@.	c #008DFB",
"#.	c #0092FC",
"$.	c #01AEFD",
"%.	c #01B0FD",
"&.	c #05B3FD",
"*.	c #08B6FE",
"=.	c #0BB8FE",
"-.	c #0FBCFE",
";.	c #10BDFE",
">.	c #15C0FF",
",.	c #15C1FF",
"'.	c #18C2FF",
").	c #17C2FF",
"!.	c #1AC2FE",
"~.	c #1BC3FE",
"{.	c #1BC4FF",
"].	c #19C2FE",
"^.	c #18C2FE",
"/.	c #18C0FD",
"(.	c #18BCFB",
"_.	c #01AEFE",
":.	c #01AFFE",
"<.	c #00AAFE",
"[.	c #00A7FD",
"}.	c #00A4FD",
"|.	c #007BFD",
"1.	c #007CFE",
"2.	c #0CB6FC",
"3.	c #10B9FC",
"4.	c #14BEFD",
"5.	c #15BFFD",
"6.	c #1AC4FF",
"7.	c #1DC6FF",
"8.	c #1EC7FF",
"9.	c #1CC6FF",
"0.	c #19BEFC",
"a.	c #00B1FF",
"b.	c #00A1FD",
"c.	c #007DFE",
"d.	c #14BDFC",
"e.	c #16BEFD",
"f.	c #1CC2FE",
"g.	c #23C8FE",
"h.	c #27CBFF",
"i.	c #26CBFF",
"j.	c #25CAFF",
"k.	c #24C8FE",
"l.	c #23C6FE",
"m.	c #23C5FD",
"n.	c #02AEFC",
"o.	c #02B3FE",
"p.	c #02B3FF",
"q.	c #01B1FF",
"r.	c #00A5FD",
"s.	c #007EFD",
"t.	c #2ACAFD",
"u.	c #2FD0FF",
"v.	c #2ECFFF",
"w.	c #2DCFFF",
"x.	c #2CCEFF",
"y.	c #2ACDFF",
"z.	c #29CBFE",
"A.	c #05B5FD",
"B.	c #05B6FE",
"C.	c #01B3FF",
"D.	c #01B0FF",
"E.	c #00A1FB",
"F.	c #007FFB",
"G.	c #2AC9FD",
"H.	c #2AC9FC",
"I.	c #30CEFE",
"J.	c #30CFFE",
"K.	c #33D2FE",
"L.	c #34D3FF",
"M.	c #34D2FF",
"N.	c #33D2FF",
"O.	c #32D1FF",
"P.	c #30D0FF",
"Q.	c #2FCEFE",
"R.	c #06B4FC",
"S.	c #06B5FD",
"T.	c #04B5FE",
"U.	c #04B6FF",
"V.	c #02B2FF",
"W.	c #00ACFE",
"X.	c #00A5FC",
"Y.	c #007EFA",
"Z.	c #03AEFB",
"`.	c #3DD6FD",
" +	c #3ED8FE",
".+	c #3ED9FF",
"++	c #3CD8FF",
"@+	c #3AD7FF",
"#+	c #38D5FE",
"$+	c #33CEFC",
"%+	c #0AB9FD",
"&+	c #09BBFF",
"*+	c #05B8FF",
"=+	c #007DF9",
"-+	c #06B2FC",
";+	c #10BAFC",
">+	c #1ABEFC",
",+	c #1BBFFC",
"'+	c #3DD5FD",
")+	c #3ED7FD",
"!+	c #40D9FE",
"~+	c #41DBFF",
"{+	c #3FDAFF",
"]+	c #3DD9FF",
"^+	c #3CD7FE",
"/+	c #37D1FD",
"(+	c #0BB9FD",
"_+	c #0BBBFF",
":+	c #03B5FF",
"<+	c #0DBDFF",
"[+	c #18C3FF",
"}+	c #23C9FF",
"|+	c #24CAFF",
"1+	c #2BCBFE",
"2+	c #2DCCFD",
"3+	c #32CEFD",
"4+	c #37CFFD",
"5+	c #3BD1FD",
"6+	c #3FD3FD",
"7+	c #40D3FD",
"8+	c #4CDEFD",
"9+	c #4EE2FF",
"0+	c #4CE1FF",
"a+	c #4AE0FF",
"b+	c #48DFFF",
"c+	c #45DDFF",
"d+	c #45DCFF",
"e+	c #12BAFD",
"f+	c #12BBFD",
"g+	c #0EBBFE",
"h+	c #00A7FC",
"i+	c #44DCFF",
"j+	c #2BCCFE",
"k+	c #33CEFD",
"l+	c #38CFFD",
"m+	c #3CD1FD",
"n+	c #41D3FD",
"o+	c #49DFFF",
"p+	c #0BB9FE",
"q+	c #30D1FF",
"r+	c #39D6FF",
"s+	c #3BD7FF",
"t+	c #42DBFF",
"u+	c #46DDFF",
"v+	c #4ADFFF",
"w+	c #51E4FF",
"x+	c #56E7FF",
"y+	c #57E7FF",
"z+	c #59E3FC",
"A+	c #56DFFB",
"B+	c #59E6FD",
"C+	c #5BEAFF",
"D+	c #59E9FF",
"E+	c #54E6FF",
"F+	c #53E5FF",
"G+	c #4BDDFD",
"H+	c #42D4FD",
"I+	c #14BCFC",
"J+	c #14BFFE",
"K+	c #11BDFE",
"L+	c #06B8FF",
"M+	c #38D6FF",
"N+	c #56E6FF",
"O+	c #59E5FD",
"P+	c #38D5FF",
"Q+	c #50E3FF",
"R+	c #52E5FF",
"S+	c #0083FB",
"T+	c #00A9FB",
"U+	c #00ACFC",
"V+	c #03B3FE",
"W+	c #13C0FF",
"X+	c #16C2FF",
"Y+	c #21C9FF",
"Z+	c #21C8FF",
"`+	c #2ED1FF",
" @	c #2ED0FF",
".@	c #44DDFF",
"+@	c #47DEFF",
"@@	c #52E4FF",
"#@	c #5CEAFF",
"$@	c #5EECFF",
"%@	c #64EFFF",
"&@	c #65F0FF",
"*@	c #6BF3FF",
"=@	c #6FF3FF",
"-@	c #6FF4FF",
";@	c #6EEDFB",
">@	c #6EECFA",
",@	c #66EEFE",
"'@	c #65EEFE",
")@	c #62EEFF",
"!@	c #60EDFF",
"~@	c #5AE9FF",
"{@	c #4FE3FF",
"]@	c #18BDFB",
"^@	c #15BEFD",
"/@	c #10BEFF",
"(@	c #0EBDFF",
"_@	c #00AAFD",
":@	c #00ABFD",
"<@	c #0BBCFF",
"[@	c #14C1FF",
"}@	c #22C9FF",
"|@	c #2FD1FF",
"1@	c #58E8FF",
"2@	c #5DEBFF",
"3@	c #66F1FF",
"4@	c #6CF4FF",
"5@	c #67EEFE",
"6@	c #63EFFF",
"7@	c #50E4FF",
"8@	c #11BFFF",
"9@	c #0FBDFF",
"0@	c #007CFA",
"a@	c #0080FE",
"b@	c #0081FD",
"c@	c #0082F9",
"d@	c #00A8FE",
"e@	c #00A9FD",
"f@	c #02B2FE",
"g@	c #07B7FF",
"h@	c #12BFFF",
"i@	c #1BC5FF",
"j@	c #1EC6FF",
"k@	c #37D5FF",
"l@	c #43DCFF",
"m@	c #59E8FF",
"n@	c #68F1FF",
"o@	c #71F6FF",
"p@	c #72F7FF",
"q@	c #78F9FF",
"r@	c #7DF9FF",
"s@	c #80F9FE",
"t@	c #7DF3FC",
"u@	c #6FEFFD",
"v@	c #6FF2FE",
"w@	c #6FF5FF",
"x@	c #6DF4FF",
"y@	c #18BEFD",
"z@	c #09BAFF",
"A@	c #007CFB",
"B@	c #0081FF",
"C@	c #0081FE",
"D@	c #0081F8",
"E@	c #08B8FF",
"F@	c #14C0FF",
"G@	c #20C7FF",
"H@	c #6EF5FF",
"I@	c #74F8FF",
"J@	c #75F8FF",
"K@	c #7CFAFF",
"L@	c #81FBFF",
"M@	c #83FBFF",
"N@	c #7EF4FC",
"O@	c #7BEFFA",
"P@	c #73F0FD",
"Q@	c #73F3FE",
"R@	c #70F6FF",
"S@	c #68F2FF",
"T@	c #19C3FF",
"U@	c #0079FB",
"V@	c #007CFD",
"W@	c #0082FE",
"X@	c #03B3FF",
"Y@	c #0CBBFF",
"Z@	c #13BFFF",
"`@	c #22C8FF",
" #	c #31D1FF",
".#	c #40DAFF",
"+#	c #4DE2FF",
"@#	c #63EEFF",
"##	c #73F7FF",
"$#	c #76F8FF",
"%#	c #7DFAFF",
"&#	c #7EFAFF",
"*#	c #86FCFF",
"=#	c #85FCFF",
"-#	c #8BFDFF",
";#	c #8DFDFF",
">#	c #8BF8FD",
",#	c #8AF6FC",
"'#	c #79F0FD",
")#	c #7AF4FE",
"!#	c #7BF9FF",
"~#	c #79F9FF",
"{#	c #65EFFF",
"]#	c #1AC0FD",
"^#	c #10BDFF",
"/#	c #02B5FF",
"(#	c #007AFC",
"_#	c #007DFF",
":#	c #007FFF",
"<#	c #04B4FF",
"[#	c #0EBCFF",
"}#	c #28CCFF",
"|#	c #5FECFF",
"1#	c #67F1FF",
"2#	c #72F6FF",
"3#	c #7BFAFF",
"4#	c #82FBFF",
"5#	c #84FBFF",
"6#	c #91FEFF",
"7#	c #93FEFF",
"8#	c #90FAFE",
"9#	c #8FF8FD",
"0#	c #7EF0FD",
"a#	c #7FF5FE",
"b#	c #80FBFF",
"c#	c #69F2FF",
"d#	c #1BBEFB",
"e#	c #007EFF",
"f#	c #007FFE",
"g#	c #0081FC",
"h#	c #0097FA",
"i#	c #00A5FF",
"j#	c #05B6FF",
"k#	c #08BAFF",
"l#	c #11BEFF",
"m#	c #2BCDFF",
"n#	c #37D4FF",
"o#	c #43D9FD",
"p#	c #43D9FE",
"q#	c #4EDFFE",
"r#	c #50E0FD",
"s#	c #59E6FE",
"t#	c #5DE7FE",
"u#	c #65ECFE",
"v#	c #6AEFFE",
"w#	c #79F6FE",
"x#	c #7FF8FE",
"y#	c #88FCFF",
"z#	c #8AFDFF",
"A#	c #96FEFF",
"B#	c #98FEFF",
"C#	c #97FCFE",
"D#	c #96FCFE",
"E#	c #84F6FE",
"F#	c #84FCFF",
"G#	c #7AF9FF",
"H#	c #6EF4FF",
"I#	c #19BDFC",
"J#	c #0078FD",
"K#	c #007BFE",
"L#	c #0080FB",
"M#	c #0081FB",
"N#	c #2BCEFF",
"O#	c #3AD6FF",
"P#	c #43D4FB",
"Q#	c #7BF0FC",
"R#	c #84F6FD",
"S#	c #8FFEFF",
"T#	c #90FEFF",
"U#	c #97FFFF",
"V#	c #9BFFFF",
"W#	c #9DFFFF",
"X#	c #8BF7FE",
"Y#	c #17C3FF",
"Z#	c #007FFA",
"`#	c #0081FA",
" $	c #08B9FF",
".$	c #39D4FE",
"+$	c #86F6FD",
"@$	c #91FDFF",
"#$	c #92FDFF",
"$$	c #99FFFF",
"%$	c #9EFFFF",
"&$	c #A0FFFF",
"*$	c #8DF7FE",
"=$	c #8EFDFF",
"-$	c #83FCFF",
";$	c #69EDFD",
">$	c #09B9FF",
",$	c #007AFF",
"'$	c #0080FF",
")$	c #0090FC",
"!$	c #009FFF",
"~$	c #0BBAFF",
"{$	c #20C8FF",
"]$	c #2FCDFD",
"^$	c #94F9FE",
"/$	c #96FAFE",
"($	c #A3FFFF",
"_$	c #A5FFFF",
":$	c #92F6FC",
"<$	c #96FFFF",
"[$	c #94FFFF",
"}$	c #6BEAF9",
"|$	c #67E7F8",
"1$	c #1AC1FE",
"2$	c #0CBAFF",
"3$	c #007FFD",
"4$	c #0091FD",
"5$	c #00A0FF",
"6$	c #25C9FF",
"7$	c #2FCDFE",
"8$	c #94F8FE",
"9$	c #97FAFE",
"0$	c #9FFFFF",
"a$	c #A4FFFF",
"b$	c #A7FFFF",
"c$	c #A6FFFF",
"d$	c #93F6FD",
"e$	c #95FFFF",
"f$	c #6DEEFB",
"g$	c #6AECFA",
"h$	c #1BC1FE",
"i$	c #0DBBFF",
"j$	c #007BFF",
"k$	c #007BF8",
"l$	c #00A1FF",
"m$	c #1BC3FF",
"n$	c #22C7FE",
"o$	c #22C6FD",
"p$	c #96F5FD",
"q$	c #9AF8FE",
"r$	c #AAFFFF",
"s$	c #AEFFFF",
"t$	c #ADFEFF",
"u$	c #ACFEFF",
"v$	c #98F9FE",
"w$	c #74F7FF",
"x$	c #1DC3FC",
"y$	c #0FBEFF",
"z$	c #17BFFD",
"A$	c #9CF9FC",
"B$	c #A0FBFD",
"C$	c #A8FFFF",
"D$	c #B0FFFF",
"E$	c #B5FFFF",
"F$	c #B1FBFE",
"G$	c #AFF9FD",
"H$	c #9DF6FC",
"I$	c #9EFAFD",
"J$	c #75F2FD",
"K$	c #72F1FD",
"L$	c #1FC3FA",
"M$	c #04B3FD",
"N$	c #02B1FD",
"O$	c #9DFAFD",
"P$	c #9CFFFF",
"Q$	c #74F2FD",
"R$	c #B4FFFF",
"S$	c #0088FC",
"T$	c #008BFD",
"U$	c #04B5FF",
"V$	c #0CB9FE",
"W$	c #11BBFC",
"X$	c #76F0FD",
"Y$	c #7CF0FB",
"Z$	c #81F0FA",
"`$	c #95F3FB",
" %	c #9DF9FD",
".%	c #A0FAFD",
"+%	c #A9FFFF",
"@%	c #B2FFFF",
"#%	c #B8FFFF",
"$%	c #B9FFFF",
"%%	c #B3F9FD",
"&%	c #B0F6FC",
"*%	c #A2FAFE",
"=%	c #A1FCFE",
"-%	c #86FAFF",
";%	c #20C5FD",
">%	c #05B4FE",
",%	c #0CB9FD",
"'%	c #11BAFC",
")%	c #77F1FD",
"!%	c #85EFFA",
"~%	c #94F3FB",
"{%	c #0087FA",
"]%	c #008AFB",
"^%	c #08B6FC",
"/%	c #76F0FC",
"(%	c #83F8FE",
"_%	c #88FBFE",
":%	c #8EFCFE",
"<%	c #96FDFE",
"[%	c #99FDFE",
"}%	c #9FFEFF",
"|%	c #A0FEFF",
"1%	c #AFFFFF",
"2%	c #B2FCFF",
"3%	c #A4FEFF",
"4%	c #A2FEFF",
"5%	c #9CFEFF",
"6%	c #92FBFE",
"7%	c #92FAFE",
"8%	c #21C7FF",
"9%	c #10BFFF",
"0%	c #06B0FB",
"a%	c #07B5FB",
"b%	c #76EFFC",
"c%	c #84F9FE",
"d%	c #89FDFF",
"e%	c #9AFFFF",
"f%	c #B0FBFF",
"g%	c #9BFEFF",
"h%	c #91F9FD",
"i%	c #25C4FB",
"j%	c #0086FA",
"k%	c #0089FB",
"l%	c #06B4FD",
"m%	c #81F6FD",
"n%	c #8CFBFE",
"o%	c #95FEFF",
"p%	c #A7FAFD",
"q%	c #9FF6FC",
"r%	c #A0FAFE",
"s%	c #A1FDFE",
"t%	c #9FFCFE",
"u%	c #98F9FD",
"v%	c #97F9FD",
"w%	c #2CCBFD",
"x%	c #29CAFD",
"y%	c #1FC7FF",
"z%	c #0FBBFE",
"A%	c #06B4FE",
"B%	c #7FF4FC",
"C%	c #8AFAFE",
"D%	c #A2FFFF",
"E%	c #A1F6FC",
"F%	c #9FF7FD",
"G%	c #A0F8FD",
"H%	c #9FFAFE",
"I%	c #9CFAFD",
"J%	c #92F3FB",
"K%	c #2DCDFE",
"L%	c #0EB9FD",
"M%	c #0085FA",
"N%	c #0088FB",
"O%	c #0093FF",
"P%	c #88F7FD",
"Q%	c #8FFAFE",
"R%	c #98FCFE",
"S%	c #99FBFE",
"T%	c #9EF7FC",
"U%	c #9DF8FD",
"V%	c #9CF9FD",
"W%	c #31CDFC",
"X%	c #2ACCFF",
"Y%	c #0DB7FC",
"Z%	c #0084FA",
"`%	c #0087FB",
" &	c #0092FF",
".&	c #04B4FE",
"+&	c #08B3FC",
"@&	c #36D0FB",
"#&	c #32CFFC",
"$&	c #29CCFF",
"%&	c #0DB4FB",
"&&	c #0086FC",
"*&	c #0091FF",
"=&	c #07B2FD",
"-&	c #46D8FD",
";&	c #39D2FC",
">&	c #36D2FD",
",&	c #32D0FD",
"'&	c #29CDFF",
")&	c #19C3FE",
"!&	c #0082FC",
"~&	c #0085FD",
"{&	c #008FFF",
"]&	c #009BFF",
"^&	c #02B1FF",
"/&	c #05B1FF",
"(&	c #48DEFF",
"_&	c #6BEDFC",
":&	c #41D6FC",
"<&	c #41D8FD",
"[&	c #3BD6FE",
"}&	c #35D4FF",
"|&	c #25CBFF",
"1&	c #16BEFC",
"2&	c #0084FC",
"3&	c #008EFF",
"4&	c #009AFF",
"5&	c #02B0FF",
"6&	c #04B1FE",
"7&	c #6AEDFC",
"8&	c #6BECFB",
"9&	c #41D7FD",
"0&	c #40D8FD",
"a&	c #3AD6FE",
"b&	c #22C8FE",
"c&	c #16BDFB",
"d&	c #0083FC",
"e&	c #008CFF",
"f&	c #00AEFE",
"g&	c #01AFFC",
"h&	c #46D9FC",
"i&	c #47D9FC",
"j&	c #65ECFC",
"k&	c #66EEFD",
"l&	c #6CF2FE",
"m&	c #73F6FF",
"n&	c #73F4FE",
"o&	c #71EDFB",
"p&	c #4EDAFB",
"q&	c #4ADDFE",
"r&	c #49DEFE",
"s&	c #41DAFF",
"t&	c #36D4FF",
"u&	c #1FC4FE",
"v&	c #1EC3FD",
"w&	c #64EBFC",
"x&	c #72F4FE",
"y&	c #71EEFB",
"z&	c #70EDFB",
"A&	c #4EDBFB",
"B&	c #0088FF",
"C&	c #00ADFD",
"D&	c #35CFFC",
"E&	c #34CFFC",
"F&	c #41D8FE",
"G&	c #42D9FE",
"H&	c #62EAFD",
"I&	c #66EFFE",
"J&	c #69F1FE",
"K&	c #70F5FF",
"L&	c #74F6FE",
"M&	c #70EEFB",
"N&	c #5AE2FC",
"O&	c #56E5FE",
"P&	c #33D3FF",
"Q&	c #2DCEFE",
"R&	c #25C6FD",
"S&	c #24C4FC",
"T&	c #2ECEFE",
"U&	c #24C5FC",
"V&	c #63EAFD",
"W&	c #0071F3",
"X&	c #0085FF",
"Y&	c #0099FF",
"Z&	c #39D5FF",
"`&	c #3BD2FC",
" *	c #3CD0FA",
".*	c #57DFFA",
"+*	c #5CE6FD",
"@*	c #61EDFF",
"#*	c #67F0FF",
"$*	c #6AF3FF",
"%*	c #4DE1FF",
"&*	c #30CDFD",
"**	c #29C5FA",
"=*	c #38D4FF",
"-*	c #55DDFA",
";*	c #5AE5FC",
">*	c #61EEFF",
",*	c #66F0FF",
"'*	c #42DCFF",
")*	c #2FCCFD",
"!*	c #28C3FA",
"~*	c #0070F1",
"{*	c #0083FF",
"]*	c #008AFF",
"^*	c #30CCFC",
"/*	c #35D2FE",
"(*	c #37D3FE",
"_*	c #36CFFC",
":*	c #55E1FC",
"<*	c #56E2FD",
"[*	c #5AE8FE",
"}*	c #5EEBFF",
"|*	c #60ECFF",
"1*	c #4BE0FF",
"2*	c #39D2FD",
"3*	c #38D1FD",
"4*	c #32CCFB",
"5*	c #007BFC",
"6*	c #0075FD",
"7*	c #0072F7",
"8*	c #0072F9",
"9*	c #0082FF",
"0*	c #0089FF",
"a*	c #009CFF",
"b*	c #00A8FD",
"c*	c #00A6F9",
"d*	c #2CC8FB",
"e*	c #34D2FE",
"f*	c #4FDAFB",
"g*	c #51DDFC",
"h*	c #5CEBFF",
"i*	c #5BE9FF",
"j*	c #55E6FF",
"k*	c #34CEFC",
"l*	c #0086FF",
"m*	c #0090FF",
"n*	c #00A8FC",
"o*	c #2ECCFD",
"p*	c #2FCBFD",
"q*	c #2FC9FC",
"r*	c #52E1FE",
"s*	c #52E1FD",
"t*	c #52E2FE",
"u*	c #51E2FF",
"v*	c #50E1FF",
"w*	c #4FE0FF",
"x*	c #4DDFFF",
"y*	c #4BDEFF",
"z*	c #4ADDFF",
"A*	c #46DAFE",
"B*	c #45DAFE",
"C*	c #40D7FD",
"D*	c #39D1FD",
"E*	c #3AD2FD",
"F*	c #007CFC",
"G*	c #0079FF",
"H*	c #0078FF",
"I*	c #0084FF",
"J*	c #008DFF",
"K*	c #29C7FC",
"L*	c #29C8FD",
"M*	c #2CC9FD",
"N*	c #2ECAFD",
"O*	c #49D8FC",
"P*	c #4ADBFD",
"Q*	c #49DCFF",
"R*	c #48DBFF",
"S*	c #47DAFF",
"T*	c #46DAFF",
"U*	c #44D9FF",
"V*	c #43D7FE",
"W*	c #3FD4FD",
"X*	c #3ED3FD",
"Y*	c #39D0FC",
"Z*	c #0077FF",
"`*	c #0073FF",
" =	c #007DFB",
".=	c #007CFF",
"+=	c #007AFB",
"@=	c #0087FF",
"#=	c #0096FF",
"$=	c #00A2FA",
"%=	c #007DFC",
"&=	c #0079F9",
"*=	c #008BFF",
"==	c #0097FF",
"-=	c #00A1FE",
";=	c #00A1FC",
">=	c #007DFD",
",=	c #009FFE",
"'=	c #007EFE",
")=	c #0071F7",
"!=	c #0078FA",
"~=	c #0083FE",
"{=	c #0071F8",
"]=	c #0087FE",
"^=	c #0082FD",
"/=	c #0085FE",
"(=	c #009DFC",
"_=	c #009DFB",
":=	c #0080FD",
"<=	c #0084FE",
"[=	c #00A0FE",
"}=	c #00A0FD",
"|=	c #00A0FB",
"1=	c #0087FC",
"2=	c #0084FD",
"3=	c #0075FC",
"4=	c #0080FC",
"5=	c #00A1FA",
"6=	c #00A2F7",
"7=	c #0074FB",
"8=	c #0094FD",
"9=	c #0095FD",
"0=	c #0097FC",
"a=	c #0098FC",
"b=	c #009AFD",
"c=	c #009EFE",
"d=	c #008FF9",
"e=	c #008EFE",
"f=	c #0089FE",
"g=	c #0086FE",
"h=	c #007FFC",
"i=	c #0071F5",
"j=	c #0091FC",
"k=	c #0094FC",
"l=	c #0096FC",
"m=	c #0099FD",
"n=	c #007EFC",
"o=	c #0076F8",
"p=	c #0089FC",
"q=	c #007DFA",
"r=	c #0082FA",
"                                                                                                                                                                                                                                                                                                                                                    ",
"                                                                                                                                                                                                                                                                                                                                                    ",
"                                                                                                                                                                                                                                                                                                                                                    ",
"                                                                                                                                                                                                                                                                                                                                                    ",
"                                                                                                                                                                                                                                                                                                                                                    ",
"                                                                                                                                                                                                                                                                                                                                                    ",
"                                                                                                                                                                                                                                                                                                                                                    ",
"                                                                                                                                                                                                                                                                                                                                                    ",
"                                                                                                                                                                                                                                                                                                                                                    ",
"                                                                                                                                                                                                                                                                                                                                                    ",
"                                                                                                                                                                                                                                                                                                                                                    ",
"                                                                                                                                                                                                                                                                                                                                                    ",
"                                                                                                                                                                                                                                                                                                                                                    ",
"                                                                                                                                                                                                                                                                                                                                                    ",
"                                                                                                                                                                                                                                                                                                                                                    ",
"                                                                                                                                                                                                                                                                                                                                                    ",
"                                                                                                                                                                                                                                                                                                                                                    ",
"                                                                                                                                                                                                                                                                                                                                                    ",
"                                                                                                                                                                                                                                                                                                                                                    ",
"                                                                                                                                                                                                                                                                                                                                                    ",
"                                                                                                                                                                                                                                                                                                                                                    ",
"                                                                                                                                                                                                                                                                                                                                                    ",
"                                                                                                                                                                                                                                              . . . + + @                                                                                           ",
"                                                                                                                                                                                                                                        # # $ % % % & & * = = =                                                                                     ",
"                                                                                                                                                                                                                                        # # $ % % % & & * = = =                                                                                     ",
"                                                                                                                                                                                                                                            - + + + & & % - - -                                                                                     ",
"                                                                                                                                                                                                                                            ; @ @ + % % % % % % > > >                                                                               ",
"                                                                                                                                                                                                                                            ; @ @ + % % % % % % > > >                                                                               ",
"                                                                                                                                                                                                                                              > > @ * * & % % % @ @ @                                                                               ",
"                                                                                                                                                                                                                                                    , , , & & & % % % ; ' '                                                                         ",
"                                                                                                                                                                                                                                                    , , , & & & % % % ; ' '                                                                         ",
"                                                                                                                                                                                                                                                    , , , * * * % % % ; ; ;                                                                         ",
"                                                                                                                                                                                                                                                          ) ) ) ! ! ! % % %                                                                         ",
"                                                                                                                                                                                                                                                          ) ) ) ! ! ! % % %                                                                         ",
"                                                                                                                                                                                                                                                          ) ) ) ! ! ! % % %                                                                         ",
"                                                                                                                                        ~ { { ] ^ ^ / ( ( _ : : :                                                                                               < < < ! ! ! ; [ [                                                                   ",
"                                                                                                                                        ~ { { ] ^ ^ / ( ( _ : : :                                                                                               < < < ! ! ! ; [ [                                                                   ",
"                                                                                                                                        ~ { { ] ^ ^ / ( ( ( : : }                                                                                               < < < ! ! ! ; [ [                                                                   ",
"                                                                                                                      | | | 1 1 1 2 2 2 3 4 4 5 6 6 7 8 8 9 0 0 0 a a a b b b                                                                                         c d d e f f                                                                   ",
"                                                                                                                      | | | 1 1 1 2 g g 4 h h i 7 7 j 9 9 k a a a l l l b b b                                                                                         d d d e f f                                                                   ",
"                                                                                                                      | | | 1 1 1 2 g g 4 h h i 7 7 j 9 9 k a a a l l l b b b                                                                                         d d d e f f                                                                   ",
"                                                                                                          m m n o o o p p p q q r s t t u v v 0 l l w x x y z z A B B B C C C D E E                                       v v v F G G H I I                           J J J < < <                                                                   ",
"                                                                                                          m m n K K L M M M N N N O P P v Q Q l R R S T T z U U V W W W X X X Y E E Z     ` ` `                           k k k 7 i i H I I                              . ...d d                                                                   ",
"                                                                                                          m m n K K L M M M N N N O P P v Q Q l R R S T T z U U V W W W X X X Y E E Z     ` ` `                           k k k 7 i i H I I                              . ...d d                                                                   ",
"                                                                                                          +.+.@.#.#.#.                        $.%.%.&.*.*.=.-.-.;.>.>.,.'.'.).!.!.!.~.{.{.].^.^./.(.(.                    _.:.:.k k k <.[.[.}.} }                           |.1.1.                                                                  ",
"                                                                                                          n n                                         2.2.3.4.4.5.6.6.6.7.7.7.8.8.8.8.8.8.7.9.9.~.0.0.0.                  %.%.%.a.a.a.k 8 8 F b.b.:                         c.c.c.                                                                  ",
"                                                                                                          n n                                         2.2.3.4.4.5.6.6.6.7.7.7.8.8.8.8.8.8.7.9.9.~.0.0.0.                  %.%.%.a.a.a.k 8 8 F b.b.:                         c.c.c.                                                                  ",
"                                                                                                                                                            d.d.e.f.f.f.g.g.g.h.h.h.h.h.h.i.j.j.k.l.l.m.                    n.n.o.p.p.q.a a 8 F F r.                        s.s.s.                                                                  ",
"                                                                                                                                                                        t.t.t.u.u.u.u.u.u.v.w.w.x.y.y.z.                        A.B.B.y C.C.D.9 9 u E.E.E.                  F.F.F.                                                                  ",
"                                                                                                                                                                        t.t.t.u.u.u.u.u.u.v.w.w.x.y.y.z.                        A.B.B.y C.C.D.9 9 u E.E.E.                  F.F.F.                                                                  ",
"                                                                                                                                                                        G.H.H.I.J.J.K.L.L.M.N.N.O.P.P.Q.                        R.S.S.T.U.U.V.a a W.X.X.X.                    Y.Y.                                                                  ",
"                                                                                                                      Z.Z.Z.D D D                                                   `. + +.+.+.+++@+@+#+$+$+$+                        %+&+&+*+S S q.9 9 v                     =+=+                                                                  ",
"                                                                                                                      Z.Z.Z.D D D                                                   `. + +.+.+.+++@+@+#+$+$+$+                        %+&+&+*+S S q.9 9 v                     =+=+                                                                  ",
"                                                                                                                      -+-+-+;+;+;+>+,+,+                                            '+)+)+!+~+~+{+]+]+^+/+/+/+                        (+_+_+B :+:+p.k k W.                                                                                          ",
"                                                                                                                      <+<+<+[+[+[+}+|+|+1+2+2+3+4+4+5+6+6+7+                              8+9+9+0+a+a+b+c+c+d+                        e+f+f+g+W W B C.C.q.h+h+h+                                                                                    ",
"                                                                                                                      <+<+<+[+[+[+}+|+|+1+2+2+3+4+4+5+6+6+7+                              8+9+9+0+a+a+b+c+c+i+                        e+f+f+g+W W B C.C.q.h+h+h+                                                                                    ",
"                                                                                                                      <+<+<+[+[+[+}+|+|+j+2+2+k+l+l+m+6+6+n+                              8+9+9+0+a+a+o+c+c+d+                        e+f+f+g+W W V C.C.q.h+h+h+                                                                                    ",
"                                                                                                                p+p+g+[+[+[+|+|+|+u.q+q+r+s+s+t+u+u+v+9+9+w+x+x+y+z+z+z+                    A+A+B+C+C+D+E+E+F+G+G+G+H+H+H+                  I+J+J+K+V V L+a.a.a.                                                                                    ",
"                                                                                                                p+p+g+[+[+[+|+|+|+u.q+q+M+s+s+t+u+u+v+9+9+w+x+x+N+z+z+z+                    A+A+O+C+C+D+E+E+F+G+G+G+H+H+H+                  I+J+J+K+V V L+a.a.a.                                                                                    ",
"                                                                                                                p+p+g+[+[+[+|+|+|+u.q+q+P+s+s+t+u+u+v+9+9+Q+x+x+N+z+z+z+                    A+A+O+C+C+D+E+E+R+G+G+G+n+H+H+                  I+J+J+K+V V L+a.a.a.                                                                                    ",
"                                                                          S+S+S+                  T+U+U+V+U U _+W+W+X+Y+Z+Y+`+ @ @@+s+s+.@+@+@9+@@@@y+#@#@$@%@%@&@*@*@*@=@=@-@;@>@>@              ,@,@'@)@)@!@~@~@~@{@{@{@                    ]@]@^@/@/@(@T T :+_@:@:@                                                                              ",
"                                                                          S+S+S+                  T+U+U+V+U U <@[@[@).}@}@}@|@|@|@s+++++c+b+b+{@F+F+1@2@2@!@&@&@3@4@4@4@-@-@-@;@>@>@              5@5@,@6@6@)@C+C+C+7@7@7@                    ]@]@^@8@8@9@T T T :@:@:@                                                                              ",
"                                                                          S+S+S+                  T+U+U+V+U U <@[@[@).}@}@}@|@|@|@s+++++c+b+b+{@F+F+1@2@2@!@&@&@3@4@4@4@-@-@-@;@>@>@              5@5@,@6@6@)@C+C+C+7@7@7@                    ]@]@^@8@8@9@T T T :@:@:@                                                                              ",
"                                                                  0@a@a@b@c@c@c@            d@e@e@:.f@f@g@X X h@i@i@j@y.y.y.k@k@k@l@.@.@9+w+w+m@2@2@)@n@n@*@o@o@p@q@q@q@r@r@r@s@s@s@t@            u@u@v@w@w@x@&@&@&@~@~@~@                        y@).).,.z@z@z@l l a.                                                                              ",
"                                                               . .A@B@B@C@D@D@D@            u <.<.D.x x E@(@(@F@7.7.G@x.x.x.r+r+r+u++@+@w+E+E+C+!@!@&@*@*@H@I@I@J@K@K@K@L@L@L@M@M@M@N@O@O@        P@P@Q@p@p@R@S@S@S@2@2@2@                          T@T@)._+_+_+R R R                                                                               ",
"                                                               . .A@B@B@C@D@D@D@            u <.<.D.x x E@(@(@F@7.7.G@x.x.x.r+r+r+u++@+@w+E+E+C+!@!@&@*@*@H@I@I@J@K@K@K@L@L@L@M@M@M@N@O@O@        P@P@Q@p@p@R@S@S@S@2@2@2@                          T@T@)._+_+_+R R R                                                                               ",
"                                                            U@V@V@s.W@W@C@            s 3 3 8 k k X@U.U.Y@Z@Z@'.`@`@j. # # #.#{+{+0++#+#1@C+C+@#n@n@x@####$#%#%#&#*#=#*#-#-#-#;#;#;#>#,#,#        '#'#)#!#!#~#R@R@R@%@{#{#                          ]#]#/.^#^#9@x x /#                                                                              ",
"                                                            (#_#_#:#W@W@W@            t h h 9 a a <#L+L+[#,.,.{.j.j.}#L.L.L.l@l@l@Q+w+w+#@|#|#1#4@4@2#q@q@3#4#4#5#-#-#-#6#6#6#7#7#7#8#9#9#        0#0#a#b#b#&#J@J@J@c#c#c#                          d#d#0.h@h@h@T T T                                                                               ",
"                                                            (#_#_#:#W@W@W@            t h h 9 a a <#L+L+[#,.,.{.j.j.}#L.L.L.l@l@l@Q+w+w+#@|#|#1#4@4@2#q@q@3#4#4#5#-#-#-#6#6#6#7#7#7#8#9#9#        0#0#a#b#b#&#J@J@J@c#c#c#                          d#d#0.h@h@h@T T T                                                                               ",
"                                                        ) ) |.e#e#f#b@b@g#      h#h#h#i#5 5 0 l l j#k#k#l#[+[+j@}#}#m#n#n#n#o#p#p#q#r#r#s#t#t#u#v#v#Q@w#w#x#y#y#z#6#6#6#A#A#A#B#B#B#C#D#D#            E#*#*#F#G#G#G#H#H#H#                              I#,.,.[@A A A                                                                               ",
"                                                      J#J#J#K#:#:#f#L#L#M#      r r r i 6 6 l R R B <@<@F@i@i@Z+N#N#v.O#O#O#P#P#P#                    Q#Q#R#S#S#T#U#U#U#V#V#V#W#W#W#W#W#W#            X#;#;#-#b#b#b#######                                Y#Y#Y#B B B                                                                               ",
"                                                      J#J#J#K#:#:#f#L#L#M#      r r r i 6 6 l R R B <@<@F@i@i@Z+N#N#v.O#O#O#P#P#P#                    Q#Q#R#S#S#T#U#U#U#V#V#V#W#W#W#W#W#W#            X#;#;#-#b#b#b#######                                Y#Y#Y#B B B                                                                               ",
"                                                      J#c c 1.:#:#f#Z#Z#`#      q q q 6 7 7 a.C.C. $<+<+,.7.7.}@x.x.v..$.$.$                              +$@$@$#$$$$$$$%$%$%$&$&$&$&$&$&$            *$T#T#=$-$-$-$$#$#$#;$                              '.'.'. $>$>$                                                                              ",
"                                                      < ,$,$_#'$'$f#      )$)$)$!$!$!$j 8 8 C./#/#~$/@/@T@{${$j.Q.Q.]$                                      ^$^$/$%$%$%$($($($_$_$_$_$_$_$            :$<$<$[$z#z#z#K@K@K@}$|$|$                          1$1$1$2$2$2$                                                                              ",
"                                                      < ,$,$_#'$'$f#      )$)$)$!$!$!$j 8 8 C./#/#~$/@/@T@{${$j.Q.Q.]$                                      ^$^$/$%$%$%$($($($_$_$_$_$_$_$            :$<$<$[$z#z#z#K@K@K@}$|$|$                          1$1$1$2$2$2$                                                                              ",
"                                                      < ,$,$_#f#f#3$      4$4$4$5$!$!$j 8 8 p./#/#Y@l#l#T@{${$6$7$7$]$                                      8$8$9$0$0$0$a$a$a$b$b$b$c$c$c$            d$U#U#e$-#-#-#%#%#%#f$g$g$                          h$h$1$Y@i$i$                                                                              ",
"                                                      ,$j$j$|.k$k$        K K K l$l$l$9 k k x T T [#W+W+m$n$n$o$                                            p$p$q$a$a$a$r$r$r$s$s$s$t$u$u$            v$V#V#$$6#6#6#4#4#4#w$p@p@                          x$x$x$y$y$y$                                                                              ",
"                                                      ,$j$j$|.k$k$        K K K l$l$l$9 k k x T T [#W+W+m$n$n$o$                                            p$p$q$a$a$a$r$r$r$s$s$s$t$u$u$            v$V#V#$$6#6#6#4#4#4#w$p@p@                          x$x$x$y$y$y$                                                                              ",
"                                                      d j$j$|.k$k$        K K K l$l$l$9 k k x T T [#W+W+m$n$n$o$                                            p$p$q$a$a$a$r$r$r$s$s$s$t$u$u$            v$V#V#$$6#6#6#4#4#4#w$p@p@                          x$x$x$y$y$y$                                                                              ",
"                                                                        +.L L L 3 3 3 k 0 0 :+z z ^#,.,.z$                                                  A$A$B$C$C$C$D$D$D$E$E$E$F$G$G$        H$H$I$%$%$W#e$e$e$*#*#*#J$K$K$                          L$L$L$8@8@8@M$N$N$                                                                        ",
"                                                                        +.L L L 3 3 3 k 0 0 :+z z ^#,.,.z$                                                  A$A$B$C$C$C$D$D$D$E$E$E$F$G$G$        H$H$O$%$%$P$e$e$e$*#*#*#Q$K$K$                          L$L$L$8@8@8@M$N$N$                                                                        ",
"                                                                        +.L L L 3 3 3 k 0 0 :+z z ^#,.,.z$                                                  A$A$B$C$C$C$D$D$D$R$E$E$F$G$G$        H$H$O$%$%$P$e$e$e$*#*#*#Q$K$K$                          L$L$L$8@8@8@M$N$N$                                                                        ",
"                                                                    S$S$T$L L L 3 3 3 k 0 0 U$A A V$W$W$                                X$X$X$Y$Z$Z$      `$ % %.%+%+%+%@%@%@%#%$%$%%%&%&%        *%*%=%0$0$W#<$<$<$-%-%-%                                ;%;%;%8@8@8@>%V+V+                                                                        ",
"                                                                    S$S$T$L L L 3 3 3 k 0 0 U$A A ,%'%'%                                )%)%)%Y$Z$Z$!%    ~% % %.%+%+%+%@%@%@%#%$%$%%%&%&%        *%*%=%0$0$W#<$<$<$-%-%-%                                ;%;%;%8@8@8@>%V+V+                                                                        ",
"                                                                    S$S$T$L L L 3 3 3 k 0 0 U$A A ,%'%'%                                )%)%)%Y$Z$Z$!%    ~% % %.%+%+%+%@%@%@%#%$%$%%%&%&%        *%*%=%0$0$W#<$<$<$-%-%-%                                ;%;%;%8@8@8@>%V+V+                                                                        ",
"                                                                    {%{%]%L L L l$l$l$9 k k :+z z ^%                                      /%/%(%_%_%:%<%<%[%}%}%|%b$b$C$1%1%1%2%2%2%            *%3%3%4%W#W#5%6%6%7%                                      8%8%8%9%9%9%0%                                                                            ",
"                                                                    {%{%]%L L L l$l$l$9 k k :+z z a%                                      b%b%c%d%d%T#U#U#e%0$0$&$b$b$b$s$s$s$f%f%f%            *%_$_$($W#W#g%h%h%h%                                    i%Z+Z+Z+9%9%9%                                                                              ",
"                                                                    {%{%]%L L L l$l$l$9 k k :+z z a%                                      b%b%c%d%d%T#U#U#e%0$0$&$b$b$b$s$s$s$f%f%f%            *%_$_$($W#W#g%h%h%h%                                    i%Z+Z+Z+9%9%9%                                                                              ",
"                                                                    j%j%k%K K L l$5$5$8 9 9 y T T l%                                          m%c%c%n%o%o%U#W#W#%$a$a$a$p%p%p%              q%q%r%s%s%t%u%u%v%                                      w%w%x%y%y%y%g+z%z%                                                                              ",
"                                                                    j%j%k%K K K 5$5$5$8 9 9 x T T A%                                          B%m%m%C%7#7#A#P$P$W#D%D%D%E%E%E%            F%G%G%H%t%t%I%J%J%                                        K%K%j+8.8.8.L%L%L%                                                                              ",
"                                                                    j%j%k%K K K 5$5$5$8 9 9 x T T A%                                          B%m%m%C%7#7#A#P$P$W#D%D%D%E%E%E%            F%G%G%H%t%t%I%J%J%                                        K%K%j+8.8.8.L%L%L%                                                                              ",
"                                                                    M%M%N%O%O%O%!$!$!$j 8 8 p./#/#>%                                                P%Q%Q%7%R%R%S%O$O$O$                    T%T%U%V%V%                                            W%x.x.X%7.7.9.Y%` `                                                                               ",
"                                                                    Z%Z%`% & & &g g g 7 j j w S S .&+&+&                                                                                                                                      @&@&#&N#N#$&i@i@i@  %&%&                                                                              ",
"                                                                    Z%Z%`% & & &g g g 7 j j w S S .&+&+&                                                                                                                                      @&@&#&N#N#$&i@i@i@  %&%&                                                                              ",
"                                                                    S+S+&&*&*&*&2 2 2 6 7 7 l C.C.V+=&=&                    -&-&-&                                                                                                          ;&>&>&,&'&'&h.)&)&)&                                                                                    ",
"                                                                    !&!&~&{&{&{&]&]&]&5 i i a a.a.^&/&/&                    (&(&(&              _&_&                                                                                  :&<&<&[&}&}&q+|&|&}+1&1&1&                                                                                    ",
"                                                                    !&!&~&{&{&{&]&]&]&5 i i a a.a.^&/&/&                    (&(&(&              _&_&                                                                                  :&<&<&[&}&}&q+|&|&}+1&1&1&                                                                                    ",
"                                                                    !&!&2&3&3&{&]&4&4&i#5 5 0 l l 5&6&6&                    u+u+u+              7&7&8&                                                                                9&0&0&a&L.L.u.|+|+b&c&c&c&                                                                                    ",
"                                                                    M#M#d&e&e&e&1 1 1 3 4 4 8 0 0 f&g&g&                    .#.#.#h&i&i&      j&k&k&l&m&m&n&o&o&                                                          p&p&p&q&r&r&s&++++t& @ @y.u&u&v&                                                                                          ",
"                                                                    M#M#d&e&e&e&1 1 1 3 4 4 8 0 0 f&g&g&                    .#.#.#h&i&i&      j&k&k&l&m&m&n&o&o&                                                          p&p&p&q&r&r&s&++++t& @ @y.u&u&v&                                                                                          ",
"                                                                    M#M#d&e&e&e&1 1 1 3 4 4 8 0 0 f&g&g&                    .#.#.#h&i&i&      w&k&k&l&2#2#x&y&y&z&                                                        p&A&A&q&r&r&s&++++t& @ @X%u&u&v&                                                                                          ",
"                                                                    Z#Z#M#B&B&B&O%O%O%g !$!$i j j W.C&C&                    D&D&E&F&G&G&            H&I&I&J&w@w@K&L&L&L&M&M&M&                                    N&O&O&O&9++#+#l@.#.#M+P&P&Q&R&R&S&                                                                                                ",
"                                                                    Z#Z#M#B&B&B&O%O%O%g !$!$i j j W.C&C&                    D&D&D&F&G&G&            H&I&I&J&w@w@K&L&L&L&M&M&M&                                      O&O&O&9++#+#i+.#.#r+P&P&T&R&R&U&                                                                                                ",
"                                                                    Z#Z#M#B&B&B&O%O%O%g !$!$i j j W.C&C&                    D&D&D&F&G&G&            V&I&I&J&w@w@K&L&L&L&M&M&M&                                      O&O&O&9++#+#i+.#.#r+P&P&T&R&R&U&                                                                                                ",
"                                            W&W&                        F.X&X&X&3&3&3&1 Y&Y&3 h h j k k v                         P+Z&Z&`& * *        .*.*+*@*@*)@#*#*#**@*@*@x@x@x@4@4@4@*@$*$*n@&@&@@#|#|#2@x+x+x+0+%*%*l@t+t+r+t&t&&*****                                                    (#(#U@                                              ",
"                                            W&W&                        F.X&X&X&3&3&3&1 Y&Y&l$h h 7 k k v                         =*P+P+`& * *        -*-*;*!@!@>*,*,*,**@*@*@x@x@x@4@4@4@*@$*$*S@&@&@6@|#|#2@x+x+x+0+0+0+'*~+~+M+}&}&)*!*!*                                                    (#(#U@                                              ",
"                                            W&W&                        F.X&X&X&3&3&3&1 Y&Y&l$h h 7 k k v                         =*P+P+`& * *        -*-*;*!@!@>*,*,*,**@*@*@x@x@x@4@4@4@*@$*$*S@&@&@6@|#|#2@x+x+x+0+0+0+'*~+~+M+}&}&)*!*!*                                                    (#(#U@                                              ",
"                                            ~*~*                          {*{*{*]*]*]*K L L 2 !$!$5 j j e@                        ^*^*^*/*(*(*_*            :*:*<*[*[*[*}*}*}*!@!@!@|*|*|*|#}*}*#@m@m@y+F+F+w+1*1*a+~+~+t+2*3*3*4*                                                        A@A@5*j$j$d 6*6*6*                                        ",
"                                            ~*~*7*8*8*                    9*9*9*0*0*0*O%K K a*g g i#7 7 b*c*c*                    d*d*d*e*t&t&D&            f*f*g*O&O&O&~@~@~@h*h*h*#@#@#@i*~@~@1@j*j*F+{@{@9++@+@+@.+.+.+D&k*k*                                                          A@A@V@j$j$,$* * *                                         ",
"                                            ~*~*7*8*8*                    9*9*9*0*0*0*O%K K a*g g i#7 7 b*c*c*                    d*d*d*e*t&t&D&            f*f*g*O&O&O&~@~@~@h*h*h*#@#@#@i*~@~@1@j*j*F+{@{@9++@+@+@.+.+.+D&k*k*                                                          A@A@V@j$j$,$* * *                                         ",
"                                                ' ; ;                     f#f#a@l*l*l*{&m*m*1 4&4&l$i#i#G b*b*n*                        o*7$7$p*q*q*                    r*r*s*t*t*t*u*u*u*v*w*w*x*y*y*z*A*A*B*C*C*C*D*E*E*                                                              F*c.c.K#G*G*H*% % %                                         ",
"                                                > > >                     s.s.s.I*I*I*e&J*J*L 1 1 g 3 3 i#u u b*                        K*L*L*M*N*N*                    O*O*O*P*P*P*Q*Q*Q*R*S*S*T*U*U*V*W*W*X*Y*Y*Y*                                                                    V@_#_#j$H*H*Z*`*`*`*                                        ",
"                                                > > >                     s.s.s.I*I*I*e&J*J*L 1 1 g 3 3 i#u u b*                        K*L*L*M*N*N*                    O*O*O*P*P*P*Q*Q*Q*R*S*S*T*U*U*V*W*W*X*Y*Y*Y*                                                                    V@_#_#j$H*H*Z*`*`*`*                                        ",
"                                                @ * *                     F*F*F*{*{*9*0*]*]* &K K 4&g g 3 5 5 P                                                                                                                                                                      = =V@.=.=,$Z*Z*! $ $ $                                         ",
"                                                * & & ;                   +=+=+=B@B@B@l*@=@=3&m*m*#=4&4&g 4 4 t $=$=                                                                                                                                                              %=s.s.c.j$j$G*& & * [ [ [                                         ",
"                                                * & & ;                   +=+=+=B@B@B@l*@=@=3&m*m*#=4&4&g 4 4 t $=$=                                                                                                                                                              %=s.s.c.j$j$G*& & * [ [ [                                         ",
"                                                + & & ;                   &=&=J '$'$'$X&X&X&*=3&3&O%====]&5$5$-=H H ;=                                                                                                                                                            >=c.c.K#,$,$H*& & +                                               ",
"                                                + + + - ; ;                     _#_#_#9*9*9*@=0*0*3& & &#=]&]&2 -=-=-=                                                                                                                                                      3$f#f#_#.=.=,$Z*Z*! % % +                                               ",
"                                                + + + - ; ;                     _#_#_#9*9*9*@=0*0*3& & &#=]&]&2 -=-=-=                                                                                                                                                      3$f#f#_#.=.=,$Z*Z*! % % +                                               ",
"                                                @ @ @ @ > > ;                   1.1.1.B@B@B@l*B&B&J*m*m*K Y&Y&]&,=,=,=                                                                                                                                                      '=f#f#.=j$j$G*! ! ! + + .                                               ",
"                                                ; ; ; + & & > )=)=              !=!=!=e#e#e#W@~=~=@=]*]*3& & &L 4&4&]&,=,=,=                                                                                                                                          '$'$'$e#_#_#,$H*H*! % % . )=)=                                                ",
"                                                ; ; ; + & & > )=)=              !=!=!=e#e#e#W@~=~=@=]*]*3& & &L 4&4&]&,=,=,=                                                                                                                                          '$'$'$e#_#_#,$H*H*! % % . )=)=                                                ",
"                                                ; ; ; + & & @ {={=              !=!=!=c.e#e#W@~=~=]=]*]*J* & &K 4&4&4&,=,=,=                                                                                                                                          '$'$'$_#_#_#,$H*H*! % % . )=)=                                                ",
"                                                  8*8*@ & & & * * @                               L#^=^=/=0*0**=*&*& &1 1 1 !$!$!$(=_=_=                                                                                                                        :=:=:=e#e#e#,$G*G*Z*& & - # #                                                       ",
"                                                  8*8*@ & & & * * @                               M#^=^=/=0*0*e&*&*& &1 1 1 !$!$!$(=_=_=                                                                                                                        :=:=:=e#e#e#,$G*G*Z*& & - # #                                                       ",
"                                                  8*8*@ & & & * * @                               M#^=^=/=0*0*e&*&*& &1 1 1 !$!$!$_=_=_=                                                                                                                        :=:=:=e#e#e#,$G*G*Z*& & - # #                                                       ",
"                                                      @ & & & & & * @ @ >                               g#W@W@<=B&B&0*3&3&{&#=L L ]&]&]&!$5$5$[=}=}=: |=|=|=                                                                                N%1=1=&&2=2=2=9*9*9*e#e#e#d c c 3=' '                                                                   ",
"                                                      @ & & & & & * @ @ @                               4=W@W@<=B&B&0*3&3&3&L L L 4&]&]&!$5$5$[=}=}=: |=|=|=E.E.5=6=6=6=                                                                    N%1=1=&&2=2=2=9*9*9*e#e#e#c c c f ' '                                                                   ",
"                                                      @ & & & & & * @ @ @                               4=W@W@<=B&B&0*3&3&3&L L L 4&]&]&!$5$5$[=}=}=: |=|=|=E.E.5=6=6=6=                                                                    N%1=1=&&2=2=2=9*9*9*e#e#e#c c c f ' '                                                                   ",
"                                                      ; 7=7=@ & & & & & +                                     L#^=^=~=@=@=@=e&e&e& & & &8=9=9=0=a=a=b=N N c=5$5$[=s s s O O O                                             d=d=d=e=3&3&*=f=f=g=<=<=^=h=h=h=>=>=>=J J J                                                                               ",
"                                                        ' ' @ & & & & & * i=i=i=                                :=:=b@X&X&X&]*]*]*{&m*m*4$j=j=k=l=l=m=a*a*2 5$5$5$3 3 3 h h h                                             d=d=d=e=3&3&*=0*0*l*~=~=b@n=n=n=5*5*5*o=o=o=                                                                              ",
"                                                        ' ' @ & & & & & * i=i=i=                                :=:=b@X&X&X&]*]*]*{&m*m*4$j=j=k=l=l=m=a*a*2 5$5$5$3 3 3 h h h                                             d=d=d=e=3&3&*=0*0*l*~=~=b@n=n=n=5*5*5*o=o=o=                                                                              ",
"                                                        8*8*@ & & & & & & - - -                                       g#g#g#~&~&~&S$p=p=                          q q q (=(=(=                                                                                                                                                                      ",
"                                                            @ & & & & & & + + +                                       q=q=q=g#g#g#r=r=r=                                                                                                                                                                                                            ",
"                                                            @ & & & & & & + + +                                       q=q=q=g#g#g#r=r=r=                                                                                                                                                                                                            ",
"                                                            ; > > @ & & & & & *                                                                                                                                                                                                                                                                     ",
"                                                              = = ; & & & & & & 8*8*8*                                                                                                                                                                                                                                                              ",
"                                                              = = ; & & & & & & 8*8*8*                                                                                                                                                                                                                                                              ",
"                                                                  ' + + + & & & 8*8*8*                                                                                                                                                                                                                                                              ",
"                                                                    ; ; - & & & ' ' '                                                                                                                                                                                                                                                               ",
"                                                                    ; ; - & & & ' ' '                                                                                                                                                                                                                                                               ",
"                                                                    ; ; ; * * * ' ' '                                                                                                                                                                                                                                                               ",
"                                                                                                                                                                                                                                                                                                                                                    ",
"                                                                                                                                                                                                                                                                                                                                                    ",
"                                                                                                                                                                                                                                                                                                                                                    ",
"                                                                                                                                                                                                                                                                                                                                                    ",
"                                                                                                                                                                                                                                                                                                                                                    ",
"                                                                                                                                                                                                                                                                                                                                                    ",
"                                                                                                                                                                                                                                                                                                                                                    ",
"                                                                                                                                                                                                                                                                                                                                                    ",
"                                                                                                                                                                                                                                                                                                                                                    ",
"                                                                                                                                                                                                                                                                                                                                                    ",
"                                                                                                                                                                                                                                                                                                                                                    ",
"                                                                                                                                                                                                                                                                                                                                                    ",
"                                                                                                                                                                                                                                                                                                                                                    ",
"                                                                                                                                                                                                                                                                                                                                                    ",
"                                                                                                                                                                                                                                                                                                                                                    ",
"                                                                                                                                                                                                                                                                                                                                                    ",
"                                                                                                                                                                                                                                                                                                                                                    ",
"                                                                                                                                                                                                                                                                                                                                                    ",
"                                                                                                                                                                                                                                                                                                                                                    ",
"                                                                                                                                                                                                                                                                                                                                                    ",
"                                                                                                                                                                                                                                                                                                                                                    ",
"                                                                                                                                                                                                                                                                                                                                                    ",
"                                                                                                                                                                                                                                                                                                                                                    ",
"                                                                                                                                                                                                                                                                                                                                                    ",
"                                                                                                                                                                                                                                                                                                                                                    ",
"                                                                                                                                                                                                                                                                                                                                                    ",
"                                                                                                                                                                                                                                                                                                                                                    ",
"                                                                                                                                                                                                                                                                                                                                                    "};
