/* XPM */
static char * vidas2_xpm[] = {
"75 25 168 2",
"  	c None",
". 	c #930003",
"+ 	c #990003",
"@ 	c #970003",
"# 	c #A80001",
"$ 	c #AF0005",
"% 	c #A60005",
"& 	c #AC0003",
"* 	c #BA0004",
"= 	c #DE0004",
"- 	c #A10000",
"; 	c #A40004",
"> 	c #B00006",
", 	c #C60005",
"' 	c #EE0004",
") 	c #760003",
"! 	c #8E0003",
"~ 	c #650100",
"{ 	c #550200",
"] 	c #680001",
"^ 	c #800003",
"/ 	c #A50003",
"( 	c #6A0100",
"_ 	c #630000",
": 	c #520100",
"< 	c #800002",
"[ 	c #B60005",
"} 	c #CC0000",
"| 	c #830001",
"1 	c #730001",
"2 	c #580200",
"3 	c #6B0001",
"4 	c #870003",
"5 	c #BA0005",
"6 	c #6E0100",
"7 	c #660000",
"8 	c #590200",
"9 	c #5A0000",
"0 	c #700001",
"a 	c #A20004",
"b 	c #E20006",
"c 	c #710001",
"d 	c #770003",
"e 	c #D80009",
"f 	c #E9000A",
"g 	c #E3000A",
"h 	c #750001",
"i 	c #590100",
"j 	c #5B0100",
"k 	c #9E0003",
"l 	c #4C0001",
"m 	c #5C0100",
"n 	c #5A0100",
"o 	c #660001",
"p 	c #B10006",
"q 	c #740002",
"r 	c #9D0006",
"s 	c #E8000A",
"t 	c #EE000B",
"u 	c #930004",
"v 	c #580100",
"w 	c #670000",
"x 	c #A10002",
"y 	c #7F0003",
"z 	c #570000",
"A 	c #550100",
"B 	c #980005",
"C 	c #DF0003",
"D 	c #C10007",
"E 	c #EA000A",
"F 	c #ED000A",
"G 	c #7D0003",
"H 	c #740003",
"I 	c #840006",
"J 	c #6E0000",
"K 	c #DD0009",
"L 	c #EF000B",
"M 	c #EC000A",
"N 	c #940004",
"O 	c #530200",
"P 	c #580000",
"Q 	c #5A0200",
"R 	c #5B0000",
"S 	c #B10004",
"T 	c #490100",
"U 	c #5F0100",
"V 	c #E90009",
"W 	c #E4000A",
"X 	c #A20005",
"Y 	c #5D0100",
"Z 	c #500200",
"` 	c #A10005",
" .	c #850001",
"..	c #7F0001",
"+.	c #F3000A",
"@.	c #DF000A",
"#.	c #600000",
"$.	c #4C0300",
"%.	c #880000",
"&.	c #D20005",
"*.	c #5F0200",
"=.	c #E50009",
"-.	c #D0000A",
";.	c #560200",
">.	c #570200",
",.	c #770002",
"'.	c #5D0200",
").	c #730000",
"!.	c #C20007",
"~.	c #8E0004",
"{.	c #570100",
"].	c #590000",
"^.	c #C10004",
"/.	c #510200",
"(.	c #C30004",
"_.	c #620000",
":.	c #3F0000",
"<.	c #BE0002",
"[.	c #540100",
"}.	c #C20002",
"|.	c #4B0000",
"1.	c #5F0000",
"2.	c #C10003",
"3.	c #4E0200",
"4.	c #910003",
"5.	c #D10005",
"6.	c #3F0100",
"7.	c #9D0003",
"8.	c #470100",
"9.	c #5D0000",
"0.	c #560100",
"a.	c #B90004",
"b.	c #4A0000",
"c.	c #820003",
"d.	c #B50003",
"e.	c #510000",
"f.	c #4E0000",
"g.	c #AF0001",
"h.	c #540200",
"i.	c #810003",
"j.	c #AB0002",
"k.	c #820001",
"l.	c #B50000",
"m.	c #5E0000",
"n.	c #4E0300",
"o.	c #920002",
"p.	c #460300",
"q.	c #690000",
"r.	c #9A0003",
"s.	c #C50003",
"t.	c #AF0009",
"u.	c #460100",
"v.	c #4D0000",
"w.	c #510100",
"x.	c #7B0002",
"y.	c #B50001",
"z.	c #2C0300",
"A.	c #7D0002",
"B.	c #B40003",
"C.	c #CF0003",
"D.	c #5C0200",
"E.	c #8F0002",
"F.	c #550001",
"G.	c #7E0003",
"H.	c #BC0001",
"I.	c #430100",
"J.	c #680000",
"K.	c #640002",
"                                                                                                                                                      ",
"                                                                                                                                                      ",
"                                                                                                                                                      ",
"                                                                                                                                                      ",
"                                                              . +                     @ #                                                             ",
"          $ % & * =           - ; > , '                   ) ! ~ { ] ^ /         ( _ { : _ < [                                                         ",
"      } | ^ 1 2 3 4 5     < 6 7 8 9 0 a b             c d e f g h i i j k   l m i n n n n i o p                                                       ",
"      q r s t u n v w x y z n n n n i A B C           n D t E F G n n n v n n n n n n n n n i H                                                       ",
"    I J K L M N j n i O P Q n n n n n v R S         T U V M W X Y n n n n n n n n n n n n n n Z `                                                     ",
"   .O ..+.@.% #.n n n n n n n n n n n j $.%.&.      n *.=.-.N ;.i n n n n n n n n n n n n n n >.,.                                                    ",
"  '.j ).!.~.2 {.n n n n n n n n n n n n 8 ].^.      j j ! 0 /.i n n n n n n n n n n n n n n n i {.(.                                                  ",
"  : j R _.A {.n n n n n n n n n n n n n n :.<.      n n [.{.n n n n n n n n n n n n n n n n n n : }.                                                  ",
"  |.i i 8 n n n n n n n n n n n n n n n 2 1.2.      v n n n n n n n n n n n n n n n n n n n n v q                                                     ",
"    {.n n n n n n n n n n n n n n n n j 3.4.5.      6.n n n n n n n n n n n n n n n n n n n n { 7.                                                    ",
"    8.9.n n n n n n n n n n n n n n n 0.,.a.          b.j n n n n n n n n n n n n n n n n n v c.d.                                                    ",
"      e.f.'.9 n n n n n n n n n n i >.h g.              b.'.n n n n n n n n n n n n n n n h.i.j.                                                      ",
"          f.{.j n n n n n n n n 0.j k.l.                    m.9 n n n n n n n n n n n i n.o.                                                          ",
"            p.{ Y n n n n n n /.q.r.s.                        >.j n n n n n n n n n [.Y t.                                                            ",
"              u.v.m.n n n i w.x.y.                            z.;.m n n n n n n n O A.B.                                                              ",
"                  u.m.n 8 Y 7.C.                                  :.D.n n n n n 9.E.                                                                  ",
"                      F.G.H.                                          I.].i #.J.                                                                      ",
"                                                                          K.                                                                          ",
"                                                                                                                                                      ",
"                                                                                                                                                      ",
"                                                                                                                                                      "};
