/* XPM */
static char * nave1_7_xpm[] = {
"50 50 227 2",
"  	c None",
". 	c #000000",
"+ 	c #020000",
"@ 	c #2B0506",
"# 	c #1D0303",
"$ 	c #8C2225",
"% 	c #440B0D",
"& 	c #030000",
"* 	c #B12E31",
"= 	c #631517",
"- 	c #3F360A",
"; 	c #554A11",
"> 	c #4A0D0F",
", 	c #701A1C",
"' 	c #A72B2E",
") 	c #D1373B",
"! 	c #942427",
"~ 	c #4C0E0F",
"{ 	c #3D3509",
"] 	c #C7B134",
"^ 	c #6C6018",
"/ 	c #350708",
"( 	c #AE2C30",
"_ 	c #B83033",
": 	c #A3292C",
"< 	c #C83539",
"[ 	c #771B1E",
"} 	c #010000",
"| 	c #77691C",
"1 	c #75681B",
"2 	c #010100",
"3 	c #902326",
"4 	c #590615",
"5 	c #41000D",
"6 	c #A2292C",
"7 	c #9B262A",
"8 	c #41390B",
"9 	c #300607",
"0 	c #3E0A0B",
"a 	c #8D2225",
"b 	c #610418",
"c 	c #534500",
"d 	c #604900",
"e 	c #711A1C",
"f 	c #A4292D",
"g 	c #280505",
"h 	c #000002",
"i 	c #000007",
"j 	c #010102",
"k 	c #852023",
"l 	c #C03236",
"m 	c #681719",
"n 	c #705600",
"o 	c #F7C000",
"p 	c #6B5300",
"q 	c #000003",
"r 	c #AC2C2F",
"s 	c #9C272A",
"t 	c #060713",
"u 	c #111326",
"v 	c #8E2326",
"w 	c #DEAD00",
"x 	c #FFCA00",
"y 	c #765B00",
"z 	c #42060D",
"A 	c #BD3235",
"B 	c #2E0506",
"C 	c #15182E",
"D 	c #5B61A4",
"E 	c #6168AE",
"F 	c #6D75C2",
"G 	c #4C528A",
"H 	c #010103",
"I 	c #E0AE00",
"J 	c #FFCD00",
"K 	c #FFC900",
"L 	c #7E6200",
"M 	c #3A000D",
"N 	c #C13336",
"O 	c #AA2B2F",
"P 	c #121428",
"Q 	c #737BCC",
"R 	c #7F88E0",
"S 	c #7D86DE",
"T 	c #7D86DD",
"U 	c #7A83D9",
"V 	c #272A4C",
"W 	c #615614",
"X 	c #5E5314",
"Y 	c #FFC700",
"Z 	c #FFCE00",
"` 	c #775E00",
" .	c #4B0011",
"..	c #C93539",
"+.	c #7C1D1F",
"@.	c #0C0E1F",
"#.	c #4C5189",
"$.	c #7880D4",
"%.	c #7B84DA",
"&.	c #545997",
"*.	c #13152A",
"=.	c #4C430E",
"-.	c #948424",
";.	c #564D11",
">.	c #FFC800",
",.	c #EEB900",
"'.	c #41080D",
").	c #731A1C",
"!.	c #2D2F54",
"~.	c #6E76C4",
"{.	c #242746",
"].	c #3E360A",
"^.	c #9C8B27",
"/.	c #978625",
"(.	c #514810",
"_.	c #D6A700",
":.	c #1A1B00",
"<.	c #801D21",
"[.	c #7E1D20",
"}.	c #555C9A",
"|.	c #7E87DF",
"1.	c #505791",
"2.	c #928123",
"3.	c #C6B034",
"4.	c #988725",
"5.	c #70001F",
"6.	c #972528",
"7.	c #140100",
"8.	c #43487C",
"9.	c #7F88E1",
"0.	c #7B84DB",
"a.	c #5B62A4",
"b.	c #574C12",
"c.	c #B8A330",
"d.	c #992528",
"e.	c #360000",
"f.	c #393D6B",
"g.	c #5E65A9",
"h.	c #7A83D8",
"i.	c #7C85DC",
"j.	c #757ED0",
"k.	c #2F3359",
"l.	c #241F04",
"m.	c #998826",
"n.	c #C8B235",
"o.	c #273D6A",
"p.	c #7982D7",
"q.	c #7C86DC",
"r.	c #7780D4",
"s.	c #424779",
"t.	c #000001",
"u.	c #9B8927",
"v.	c #666DB5",
"w.	c #6C74C0",
"x.	c #2D3055",
"y.	c #352F07",
"z.	c #040300",
"A.	c #7E88E0",
"B.	c #767ED1",
"C.	c #6E76C3",
"D.	c #3B3F6D",
"E.	c #9A8926",
"F.	c #C4AE33",
"G.	c #151102",
"H.	c #30335A",
"I.	c #8089E2",
"J.	c #7881D5",
"K.	c #5E64A8",
"L.	c #353964",
"M.	c #9F8D28",
"N.	c #C0AB32",
"O.	c #282304",
"P.	c #0D0E1F",
"Q.	c #808AE3",
"R.	c #5F65AA",
"S.	c #938224",
"T.	c #020100",
"U.	c #070500",
"V.	c #370208",
"W.	c #6C0618",
"X.	c #8E0A22",
"Y.	c #570411",
"Z.	c #030200",
"`.	c #C41333",
" +	c #C71434",
".+	c #9A0C26",
"++	c #560311",
"@+	c #070815",
"#+	c #CE1537",
"$+	c #C31333",
"%+	c #660516",
"&+	c #383D68",
"*+	c #747CCD",
"=+	c #D21538",
"-+	c #BB1231",
";+	c #310106",
">+	c #232544",
",+	c #7982D6",
"'+	c #D31638",
")+	c #980C26",
"!+	c #150002",
"~+	c #373B66",
"{+	c #7780D3",
"]+	c #700619",
"^+	c #646CB3",
"/+	c #010104",
"(+	c #43487B",
"_+	c #767FD2",
":+	c #373A66",
"<+	c #525895",
"[+	c #020205",
"}+	c #7E87DE",
"|+	c #7C85DB",
"1+	c #6B73BF",
"2+	c #080A18",
"3+	c #7079C8",
"4+	c #2B2E52",
"5+	c #6168AD",
"6+	c #5A61A3",
"7+	c #5B62A3",
"8+	c #5A61A1",
"9+	c #5960A1",
"0+	c #636BB2",
"a+	c #4A4F86",
"b+	c #646BB3",
"c+	c #5F66AA",
"d+	c #222543",
"                            . +                                                                     ",
"                          . . @ .       . . . . . .                                                 ",
"                        . . # $ % &   . . . . . . . .                                               ",
"                      . . . . * = . . . . . - ; . . . .                                             ",
"                    . . > , ' ) ! ~ . . . . { ] ^ . .                                               ",
"                      / ( _ * : < [ . } . } . | 1 . 2 .                                             ",
"                . . / 3 4 5 . . 6 7 . .   . . 8 . . . . .                                           ",
"              . 9 0 a b c d . . e f g . . . h } i j . . . .                                         ",
"            . 9 k l m . n o p q r s . . . . t . u . . . . . .                                       ",
"            . 0 l v . . w x y z A _ B . . C D E F G . H . . . .                                     ",
"        .   / a m . . I J K L M N O > . P Q R S T U V . . W X . .                                   ",
"      . . / 3 b . . I J Y Z `  ...+.. @.#.$.%.%.%.%.&.*.. =.-.;.. .                                 ",
"    . . > ( 4 c n w J Y >.,.. '.s ).. !.~.T %.%.%.S F {.. ].^./.(.. .                               ",
"  . . . , _ 5 d o x K Z ,._.:.<.[.. . }.|.%.%.%.%.%.%.1.. . 2.3.4.(.. .                             ",
". . # . ' * . . p y L ` . :.5.6.7.. 8.9.0.%.%.%.%.%.%.a.. h b.c.3.4.(.. .                           ",
"+ @ $ * ) : . . q z M  .'.<.6.d.e.f.g.h.%.%.%.%.%.%.i.j.k.. l.^ m.n.4.(.. .                         ",
"  . % = ! < 6 e r A N ..s [.7.e.o.E p.q.%.%.%.%.%.%.0.r.s.. t.. . u.n.4.(.. .                       ",
"    & . ~ [ 7 f s _ O +.).. . f.E p.i.%.%.%.%.%.%.%.%.|.v.. . 2 . . u.n.4.(.. .                     ",
"      . . . . g . B > . . . 8.g.p.i.%.%.%.%.%.%.0.0.%.i.w.x.. t.. . . u.n.^.y.z..                   ",
"    . . . } . . . . . @.!.}.9.h.q.%.%.%.%.%.%.A.B.B.A.%.C.D.. . . . . . E.F.G.. . .                 ",
"  . . . . .   . . . P #.~.|.0.%.%.%.%.%.%.%.R C.H.H.C.I.J.K.L.. . . . . . M.N.O.. . .               ",
"  . . . . } . . . C Q $.T %.%.%.%.%.%.%.%.R ~.P.. . P.~.Q.J.R.L.. . . . . . 4.S.. T..               ",
"  . . - { . . h t D R %.%.%.%.%.%.%.%.%.R ~.P.. . . . P.~.Q.J.R.L.. . . . . . U.. .                 ",
"  . . ; ] | 8 } . E S %.%.%.%.%.%.%.%.A.C.P.. V.W.X.Y.. P.~.Q.J.R.L.. . . . . Z.. .                 ",
"  . . . ^ 1 . i u F T %.%.%.%.%.%.%.0.B.H.. . W.`. +.+++. @+~.I.J.R.L.. . . . . .                   ",
"  . . . . . . j . G U %.S %.%.%.%.%.0.B.H.. . X. +#+$+%+. . &+*+A.J.R.L.. . .                       ",
"    . . . 2 . . . . V &.F %.%.i.0.%.%.A.C.P.. Y..+$+=+-+;+. >+K.,+T J.R.L.. .                       ",
"      .   . . . . H . *.{.1.a.j.r.|.i.%.I.~.P.. ++%+-+'+)+!+. ~+{+i.T J.R.L.. .                     ",
"            . . . . . . . . . k.s.v.w.C.J.Q.~.P.. . ;+)+]+. t.H ^+%.%.T J.R.L.. .                   ",
"              . . . W =.].. h . . . x.D.K.J.Q.~.@+. . !+. . . . ^+9.%.%.T J.R.L.. .                 ",
"                . . X -.^.2.b.l.t.. . . L.R.J.Q.~.&+>+. t.. /+. (+_+%.%.%.T J.R.:+. .               ",
"                  . . ;./.3.c.^ . 2 t.. . L.R.J.I.*+K.~+H . . . <+i.%.%.%.%.T ,+K.. [+.             ",
"                    . . (.4.3.m.. . . . . . L.R.J.A.,+{+^+^+(+<+}+|+%.%.%.%.%.q.1+2+. .             ",
"                      . . (.4.n.u.. . . . . . L.R.J.T i.%.9._+i.|+%.%.%.%.%.%.|+3+4+. t..           ",
"                        . . (.4.n.u.. . . . . . L.R.J.T %.%.%.%.%.%.%.%.%.%.%.%.9.5+. t..           ",
"                          . . (.4.n.u.. . . . . . L.R.J.T %.%.%.%.%.%.%.%.%.%.%.|+6+. . .           ",
"                            . . (.4.n.E.. . . . . . L.R.J.T %.%.%.%.%.%.%.%.%.%.%.7+. H .           ",
"                              . . (.^.F.M.. . . . . . L.R.J.T %.%.%.%.%.%.%.%.%.%.8+. H .           ",
"                                . . y.G.N.4.. . . . . . L.R.J.T %.%.%.%.%.%.%.%.|+9+. . .           ",
"                                  . z.. O.S.U.Z..     . . L.R.,+q.|+%.%.%.%.%.%.A.0+. j .           ",
"                                    . . . . . . .       . . :+K.1+3+9.|+%.%.|+S _+a+. H .           ",
"                                      . . T.. .           . . . 2+4+5+6+7+8+9+b+c+d+. .             ",
"                                        . .                 . [+. . . . . . . . . . .               ",
"                                                              . . t.t.. H H . j /+.                 ",
"                                                                  . . . . . . . .                   ",
"                                                                                                    ",
"                                                                                                    ",
"                                                                                                    ",
"                                                                                                    ",
"                                                                                                    "};
