/* XPM */
static char * nave1_14_xpm[] = {
"50 50 447 2",
"  	c None",
". 	c #000000",
"+ 	c #010100",
"@ 	c #181402",
"# 	c #918023",
"$ 	c #B09C2D",
"% 	c #6D6118",
"& 	c #554B11",
"* 	c #6C6018",
"= 	c #2E2805",
"- 	c #000001",
"; 	c #010205",
"> 	c #0C0901",
", 	c #887821",
"' 	c #C0AB32",
") 	c #C8B335",
"! 	c #B8A430",
"~ 	c #988826",
"{ 	c #796C1C",
"] 	c #4A410D",
"^ 	c #020309",
"/ 	c #090A18",
"( 	c #30335A",
"_ 	c #615514",
": 	c #AA972B",
"< 	c #C9B335",
"[ 	c #C1AC33",
"} 	c #A5932A",
"| 	c #877920",
"1 	c #605514",
"2 	c #1F1B03",
"3 	c #010102",
"4 	c #16192F",
"5 	c #686FB9",
"6 	c #5A61A2",
"7 	c #6168AD",
"8 	c #6A72BD",
"9 	c #676EB8",
"0 	c #545A98",
"a 	c #3C406F",
"b 	c #16182F",
"c 	c #302A06",
"d 	c #918124",
"e 	c #C2AC33",
"f 	c #C8B235",
"g 	c #B29F2E",
"h 	c #938324",
"i 	c #72651A",
"j 	c #41390A",
"k 	c #191C34",
"l 	c #383D69",
"m 	c #5C63A5",
"n 	c #757ECF",
"o 	c #7E87DF",
"p 	c #7B84DA",
"q 	c #7C85DC",
"r 	c #7D86DD",
"s 	c #7880D4",
"t 	c #6B73BF",
"u 	c #5B61A4",
"v 	c #474C82",
"w 	c #282B4E",
"x 	c #6B5F18",
"y 	c #BAA630",
"z 	c #CAB435",
"A 	c #B9A530",
"B 	c #9A8926",
"C 	c #8B7C21",
"D 	c #5F5414",
"E 	c #515893",
"F 	c #7982D6",
"G 	c #7982D7",
"H 	c #7B84DB",
"I 	c #7C85DB",
"J 	c #7D86DE",
"K 	c #7B84D9",
"L 	c #7179C9",
"M 	c #6269AF",
"N 	c #515692",
"O 	c #373A66",
"P 	c #0B0D1D",
"Q 	c #7C6E1D",
"R 	c #867720",
"S 	c #948324",
"T 	c #84751F",
"U 	c #635815",
"V 	c #5F5514",
"W 	c #353863",
"X 	c #717ACA",
"Y 	c #7C86DC",
"Z 	c #767ED1",
"` 	c #6970BB",
" .	c #585E9F",
"..	c #43477A",
"+.	c #212442",
"@.	c #1D1803",
"#.	c #010103",
"$.	c #010104",
"%.	c #727BCC",
"&.	c #7A82D7",
"*.	c #6F77C5",
"=.	c #5F66AB",
"-.	c #4D528C",
";.	c #31355C",
">.	c #030309",
",.	c #121427",
"'.	c #020206",
").	c #5B5012",
"!.	c #393108",
"~.	c #03040C",
"{.	c #6A72BE",
"].	c #7A83D8",
"^.	c #7F88E1",
"/.	c #747CCE",
"(.	c #666DB6",
"_.	c #555B9A",
":.	c #3D4170",
"<.	c #252848",
"[.	c #3D4270",
"}.	c #43497B",
"|.	c #404576",
"1.	c #555B99",
"2.	c #4C528B",
"3.	c #5F66AA",
"4.	c #5D64A7",
"5.	c #545A97",
"6.	c #6067AC",
"7.	c #515792",
"8.	c #30345A",
"9.	c #2C2605",
"0.	c #625615",
"a.	c #080600",
"b.	c #363B65",
"c.	c #7780D3",
"d.	c #727ACB",
"e.	c #737BCC",
"f.	c #6E76C4",
"g.	c #6269AE",
"h.	c #6167AD",
"i.	c #808AE3",
"j.	c #7881D5",
"k.	c #6C73C0",
"l.	c #676FB8",
"m.	c #7079C7",
"n.	c #7E88E0",
"o.	c #7F88E0",
"p.	c #6D75C1",
"q.	c #1A1C35",
"r.	c #282204",
"s.	c #312906",
"t.	c #030200",
"u.	c #332B07",
"v.	c #3A3E6C",
"w.	c #13152A",
"x.	c #222543",
"y.	c #0F1122",
"z.	c #13162B",
"A.	c #757DCF",
"B.	c #7F89E1",
"C.	c #8089E2",
"D.	c #7B85DB",
"E.	c #757ED0",
"F.	c #2D3055",
"G.	c #414677",
"H.	c #636BB2",
"I.	c #414678",
"J.	c #7E87E0",
"K.	c #494F86",
"L.	c #2E3258",
"M.	c #727BCB",
"N.	c #5D63A7",
"O.	c #530310",
"P.	c #7F081E",
"Q.	c #43020B",
"R.	c #560411",
"S.	c #202340",
"T.	c #6971BC",
"U.	c #262A4A",
"V.	c #020000",
"W.	c #292D4F",
"X.	c #6B73BE",
"Y.	c #464C81",
"Z.	c #850920",
"`.	c #C81435",
" +	c #CE1537",
".+	c #B7112F",
"++	c #AB0F2B",
"@+	c #910B23",
"#+	c #590412",
"$+	c #494E84",
"%+	c #727ACA",
"&+	c #585E9E",
"*+	c #3A3F6C",
"=+	c #737CCD",
"-+	c #7E87DE",
";+	c #7078C7",
">+	c #1F223E",
",+	c #48020D",
"'+	c #A70F2A",
")+	c #C91435",
"!+	c #CD1536",
"~+	c #73071A",
"{+	c #535996",
"]+	c #646BB2",
"^+	c #292C4F",
"/+	c #360808",
"(+	c #601416",
"_+	c #651618",
":+	c #872023",
"<+	c #5E1416",
"[+	c #240404",
"}+	c #7D1D20",
"|+	c #000102",
"1+	c #1B1E38",
"2+	c #4D538C",
"3+	c #5E64A8",
"4+	c #6D75C3",
"5+	c #6971BB",
"6+	c #080917",
"7+	c #650516",
"8+	c #B4102E",
"9+	c #C61334",
"0+	c #C61434",
"a+	c #690617",
"b+	c #6F78C6",
"c+	c #0C0C1C",
"d+	c #050000",
"e+	c #741A1D",
"f+	c #581214",
"g+	c #B93034",
"h+	c #A1282C",
"i+	c #C03236",
"j+	c #C83539",
"k+	c #C53437",
"l+	c #B12E31",
"m+	c #6D181B",
"n+	c #1D1F3A",
"o+	c #404476",
"p+	c #575D9C",
"q+	c #686FBA",
"r+	c #3F4473",
"s+	c #2A0105",
"t+	c #6B0518",
"u+	c #920B24",
"v+	c #7C081D",
"w+	c #320107",
"x+	c #494F85",
"y+	c #220509",
"z+	c #6B171A",
"A+	c #BB3034",
"B+	c #CD363A",
"C+	c #AF2C30",
"D+	c #3A090A",
"E+	c #751B1D",
"F+	c #591214",
"G+	c #04050E",
"H+	c #333760",
"I+	c #4F548E",
"J+	c #6067AD",
"K+	c #7881D6",
"L+	c #5B62A4",
"M+	c #272B4D",
"N+	c #525894",
"O+	c #8E2225",
"P+	c #C73438",
"Q+	c #B42F32",
"R+	c #912227",
"S+	c #48020F",
"T+	c #440C0D",
"U+	c #242747",
"V+	c #45497D",
"W+	c #5A60A1",
"X+	c #6A71BD",
"Y+	c #777FD2",
"Z+	c #6C74C1",
"`+	c #3A4272",
" @	c #4C0E0F",
".@	c #902326",
"+@	c #7A1B1F",
"@@	c #3A0C0A",
"#@	c #090A00",
"$@	c #574200",
"%@	c #7F6200",
"&@	c #46000F",
"*@	c #BF3236",
"=@	c #852022",
"-@	c #101225",
";@	c #393D6A",
">@	c #636AB1",
",@	c #5C63A6",
"'@	c #001A33",
")@	c #801B16",
"!@	c #5C0E15",
"~@	c #725A00",
"{@	c #BF9400",
"]@	c #F1BC00",
"^@	c #FFC800",
"/@	c #A68100",
"(@	c #922427",
"_@	c #230304",
":@	c #2B2E52",
"<@	c #494E85",
"[@	c #474E84",
"}@	c #370000",
"|@	c #9C272A",
"1@	c #8F2126",
"2@	c #B78E00",
"3@	c #FBC400",
"4@	c #FFD000",
"5@	c #9C7900",
"6@	c #000300",
"7@	c #64001A",
"8@	c #7B1C1F",
"9@	c #020200",
"0@	c #191C35",
"a@	c #3B3F6E",
"b@	c #6168AE",
"c@	c #6268AF",
"d@	c #2A2C4F",
"e@	c #801E21",
"f@	c #66001C",
"g@	c #876C00",
"h@	c #F9C200",
"i@	c #F9C300",
"j@	c #8E2325",
"k@	c #420B0C",
"l@	c #3E4372",
"m@	c #737CCC",
"n@	c #7079C8",
"o@	c #912326",
"p@	c #45100D",
"q@	c #FFCD00",
"r@	c #C39800",
"s@	c #681719",
"t@	c #952528",
"u@	c #473E0C",
"v@	c #AC992C",
"w@	c #83741F",
"x@	c #050610",
"y@	c #505690",
"z@	c #545B98",
"A@	c #551113",
"B@	c #A52A2D",
"C@	c #74181D",
"D@	c #161C00",
"E@	c #E1AF00",
"F@	c #FFC700",
"G@	c #FFCA00",
"H@	c #5D4700",
"I@	c #BA3034",
"J@	c #A0282C",
"K@	c #2E0606",
"L@	c #070600",
"M@	c #73661A",
"N@	c #B9A430",
"O@	c #C7B134",
"P@	c #9C8A27",
"Q@	c #0E1021",
"R@	c #5A61A1",
"S@	c #4E548E",
"T@	c #060206",
"U@	c #B42E32",
"V@	c #A2292C",
"W@	c #010002",
"X@	c #A98400",
"Y@	c #DDAC00",
"Z@	c #370809",
"`@	c #B52F32",
" #	c #6A181A",
".#	c #120101",
"+#	c #BEA932",
"@#	c #716419",
"##	c #585F9F",
"$#	c #2C0506",
"%#	c #AB2B2F",
"&#	c #CA3539",
"*#	c #550014",
"=#	c #533F00",
"-#	c #C19600",
";#	c #741C1D",
">#	c #6F191B",
",#	c #8E7E23",
"'#	c #80721E",
")#	c #6E6119",
"!#	c #100C03",
"~#	c #020102",
"{#	c #2C3054",
"]#	c #6A72BC",
"^#	c #300607",
"/#	c #932427",
"(#	c #7E1C20",
"_#	c #695100",
":#	c #977500",
"<#	c #020300",
"[#	c #922327",
"}#	c #340708",
"|#	c #C1AC32",
"1#	c #B6A22F",
"2#	c #5E5213",
"3#	c #7F1E21",
"4#	c #000004",
"5#	c #5D1215",
"6#	c #811E21",
"7#	c #988726",
"8#	c #B4A02E",
"9#	c #544911",
"0#	c #2D3156",
"a#	c #44497D",
"b#	c #1B0203",
"c#	c #8A2124",
"d#	c #200303",
"e#	c #9A262A",
"f#	c #C63438",
"g#	c #6A1719",
"h#	c #695E17",
"i#	c #908023",
"j#	c #8E7E22",
"k#	c #3D3509",
"l#	c #020100",
"m#	c #04040D",
"n#	c #040000",
"o#	c #3F0A0B",
"p#	c #B12D31",
"q#	c #C93539",
"r#	c #B22E31",
"s#	c #C43437",
"t#	c #761B1E",
"u#	c #342E07",
"v#	c #070814",
"w#	c #992629",
"x#	c #CF373B",
"y#	c #821F22",
"z#	c #040300",
"A#	c #40380B",
"B#	c #070500",
"C#	c #380809",
"D#	c #9F282B",
"E#	c #0A0101",
"F#	c #2A2405",
"G#	c #857620",
"H#	c #1E1903",
"I#	c #322C06",
"J#	c #9F8D28",
"K#	c #41390B",
"L#	c #0F0101",
"M#	c #292305",
"N#	c #221C03",
"                                                                                                    ",
"                                                                                                    ",
"                                                                                                    ",
"                                                                                                    ",
"                                                                                                    ",
"                                                                                                    ",
"                                                                                                    ",
"                                          . . . .                                                   ",
"                                        . . + . . . .                                               ",
"                                        . . @ . . . . . .                                           ",
"              . . . . . . .           . . . # $ % & * = . . . .                                     ",
"          .   . . . - . ; . . .       . . . > , ' ) ! ~ { ] . . . .                                 ",
"      . . . . ^ . . . / . ( . . . .   . . . . . . _ : < [ } | 1 2 . . . .                           ",
"      . 3 . . . 4 5 6 7 8 9 0 a b . . . . . . . . . . c d e f g h i j . . . .                       ",
"    . . . k l m n o o p q r s t u v w . . . . . . . . . . . x y z A B C D . . . .                   ",
"    . - E F G H I p p p p p I J K L M N O P . . . . . . . . . Q R S T U V . . . . . . . . .         ",
"  . . W X q p p p p p p p p p p p r Y Z `  ...+.. . . . - . . . @.. . . . . #.. . . + . . . . .     ",
"  . $.. %.q p p p p p p p p p p p p p q J &.*.=.-.;.. . . . . >.. . . . ,.. . '.. . . ).!.. . .     ",
"  . 3 ~.{.p p p p p p p p p p p p q p o ].r ^.q /.(._.:.<.[.}.|.1.2.3.4.5.6.7.8.. - 9.d f 0.a..     ",
"  . . . b.c.q p p p p p p p p J d.e.f.6 g.h.t p i.o j.k.l.m.K p ].o ].n.p r o.p.q.. r.s.t.u.. .     ",
"  . . #.. 5 p p p p p p p p p p v.. w.. . x.y.z._.A.B.C.p D.p p p p p p p p I E.F.. . . . . + . .   ",
"      #.. G.o p p p p p p p o H.. ; . - . . . . . . I.{.r J.p p p p p p p p p H K.. . . . . . .     ",
"    . . #.L.M.Y I p p p p p q N.. . . . O.P.Q.. R.. . . S.T.K p p p p p p p p C.U.. .   . V.. .     ",
"      . . . W.X.I p p p p p p E.Y.. . . Z.`. +.+++@+#+- . $+p p p p p p p r %+&+. . . . . . . . . . ",
"      . . . . *+=+H r D.p p p -+;+>+. . ,+'+)+ +!+)+~+. . {+^.p p p p p p r ]+^+. . . /+(+_+:+<+[+}+",
"        . . |+1+2+3+4+F r q p p o 5+a 6+. . 7+8+9+0+a+. . A.q p p p p p -+b+c+. d+e+f+g+h+i+j+k+l+m+",
"          . . . . n+o+p+9 A.q r H F q+r+. . s+t+u+v+w+. I.o.p p p p p r /.x+. y+z+A+B+C+D+. E+B+F+. ",
"                . . . G+H+I+J+;+].o n.K+L+M+. . . . - . {.-+p p p p I j.N+. . O+P+Q+R+S+. . F+i+T+. ",
"                    . . . . U+V+W+X+Y+J i.r {.I.. . . S.r p p p p p r Z+`+.  @.@+@@@#@$@%@. &@*@=@. ",
"                        . . . . -@;@N+>@d.p C.B.A.{+$+T.n.p p p p p p ,@'@)@.@!@. ~@{@]@^@/@. (@_@. ",
"                      . . . . . . . . :@<@,@Z+K+r ^.p K p p p p p r %+[@}@|@1@+ 2@3@^@4@5@6@7@8@. . ",
"                    . . 9@. . . . . . . . 0@a@b@j.D.p p p p p p p q c@d@. e@f@g@h@^@^@i@. . j@k@    ",
"                    . . . . . . . . . . . . . l@m@I p p p p p p p Y n@. . o@p@. ]@^@q@r@. s@t@.     ",
"                    . . u@v@w@. . . . . . - . x@y@s I p p p p p p ^.z@. A@B@C@D@E@F@G@H@. I@J@K@.   ",
"                    . L@. M@N@O@P@u@. . . . + . Q@R@K q p p p p p p S@T@. U@V@W@X@4@Y@. Z@`@ #.#    ",
"                    . . . . . h +#z g @#. . . . . . ##K+p p p p q d.<@. $#%#&#*#=#i@-#. ;#>#. .     ",
"                      . . + . j i h g f e ,#'#)#!#~#{#]#n.q p p p r l . ^#/#j+(#. _#:#<#[#}#        ",
"                          . . . . 2 1 | } |#< 1#2#. . U.4.j.p I I j.. . . . *@3#. . 4#5#6#.         ",
"                                . . . . ] { 7#8#: 9#. . 0#t o.I 9 a#. . . b#c#/#d#. e#f#g#.         ",
"                                    . . . . = h#i#j#k#l#. . 2+N+'.m#. . n#. o#p#q#r#s#t#. .         ",
"                                          . . . . 1 u#. #.. v#. . 4#. .   . . e+w#x#y#. . .         ",
"                                              . . . z#. . . . - . A#B#9@. . . . C#D#>#E#.           ",
"                                                  . . . . . . . F#G#H#. . . . . .  @e@. .           ",
"                                                        . . . t.I#J#1#K#. . .     . L#.             ",
"                                                            . . . . M#N#. . .         .             ",
"                                                              . . . . + .                           ",
"                                                                . . . . .                           ",
"                                                                                                    ",
"                                                                                                    ",
"                                                                                                    "};
