/* XPM */
static char * nave1_16_xpm[] = {
"50 50 445 2",
"  	c None",
". 	c #000000",
"+ 	c #020206",
"@ 	c #010102",
"# 	c #000001",
"$ 	c #414677",
"% 	c #13152A",
"& 	c #010103",
"* 	c #3E4272",
"= 	c #7179C9",
"- 	c #767FD1",
"; 	c #6A72BE",
"> 	c #363B65",
", 	c #1A1D37",
"' 	c #7981D6",
") 	c #7D86DD",
"! 	c #7C85DB",
"~ 	c #7B84DA",
"{ 	c #7780D3",
"] 	c #686FB9",
"^ 	c #2E3258",
"/ 	c #383D69",
"( 	c #7982D7",
"_ 	c #7C85DC",
": 	c #7E87DF",
"< 	c #727BCB",
"[ 	c #292D4F",
"} 	c #000102",
"| 	c #020309",
"1 	c #5C63A5",
"2 	c #7B84DB",
"3 	c #7C86DC",
"4 	c #6B73BE",
"5 	c #3A3F6C",
"6 	c #1B1E38",
"7 	c #16192F",
"8 	c #757ECF",
"9 	c #737CCD",
"0 	c #4D538C",
"a 	c #5E64A8",
"b 	c #1D1F3A",
"c 	c #5A61A2",
"d 	c #6D75C3",
"e 	c #404476",
"f 	c #090A18",
"g 	c #6168AD",
"h 	c #7B85DB",
"i 	c #7982D6",
"j 	c #575D9C",
"k 	c #04050E",
"l 	c #070600",
"m 	c #010205",
"n 	c #6A72BD",
"o 	c #676EB8",
"p 	c #333760",
"q 	c #020200",
"r 	c #473E0C",
"s 	c #30335A",
"t 	c #757DCF",
"u 	c #4F548E",
"v 	c #AC992C",
"w 	c #73661A",
"x 	c #010100",
"y 	c #545A98",
"z 	c #7880D4",
"A 	c #6067AD",
"B 	c #242747",
"C 	c #83741F",
"D 	c #B9A430",
"E 	c #3C406F",
"F 	c #6B73BF",
"G 	c #7D86DE",
"H 	c #636BB2",
"I 	c #5D63A7",
"J 	c #757ED0",
"K 	c #7E87DE",
"L 	c #7078C7",
"M 	c #45497D",
"N 	c #C7B134",
"O 	c #938324",
"P 	c #41390A",
"Q 	c #16182F",
"R 	c #5B61A4",
"S 	c #7B84D9",
"T 	c #727ACB",
"U 	c #3A3E6C",
"V 	c #464C81",
"W 	c #7A83D8",
"X 	c #5A60A1",
"Y 	c #101225",
"Z 	c #9C8A27",
"` 	c #BEA932",
" .	c #72651A",
"..	c #474C82",
"+.	c #737BCC",
"@.	c #1F223E",
"#.	c #6971BB",
"$.	c #6A71BD",
"%.	c #393D6A",
"&.	c #CAB435",
"*.	c #1F1B03",
"=.	c #282B4E",
"-.	c #6269AF",
";.	c #6E76C4",
">.	c #686FBA",
",.	c #7E88E0",
"'.	c #777FD2",
").	c #525894",
"!.	c #B29F2E",
"~.	c #605514",
"{.	c #515692",
"].	c #767ED1",
"^.	c #080917",
"/.	c #3F4473",
"(.	c #7881D6",
"_.	c #636AB1",
":.	c #2B2E52",
"<.	c #716419",
"[.	c #C8B235",
"}.	c #877920",
"|.	c #373A66",
"1.	c #6970BB",
"2.	c #6269AE",
"3.	c #530310",
"4.	c #850920",
"5.	c #48020D",
"6.	c #5B62A4",
"7.	c #808AE3",
"8.	c #494E85",
"9.	c #C2AC33",
"0.	c #A5932A",
"a.	c #4A410D",
"b.	c #0B0D1D",
"c.	c #585E9F",
"d.	c #7A82D7",
"e.	c #6167AD",
"f.	c #222543",
"g.	c #7F081E",
"h.	c #C81435",
"i.	c #A70F2A",
"j.	c #272B4D",
"k.	c #5C63A6",
"l.	c #191C35",
"m.	c #8E7E23",
"n.	c #C1AC32",
"o.	c #796C1C",
"p.	c #181402",
"q.	c #918023",
"r.	c #0C0901",
"s.	c #43477A",
"t.	c #6F77C5",
"u.	c #7F88E1",
"v.	c #0F1122",
"w.	c #43020B",
"x.	c #CE1537",
"y.	c #C91435",
"z.	c #650516",
"A.	c #2A0105",
"B.	c #8089E2",
"C.	c #6C74C1",
"D.	c #3B3F6E",
"E.	c #80721E",
"F.	c #C9B335",
"G.	c #988726",
"H.	c #2E2805",
"I.	c #B09C2D",
"J.	c #887821",
"K.	c #212442",
"L.	c #5F66AB",
"M.	c #13162B",
"N.	c #B7112F",
"O.	c #B4102E",
"P.	c #6B0518",
"Q.	c #414678",
"R.	c #7F89E1",
"S.	c #6168AE",
"T.	c #3E4372",
"U.	c #050610",
"V.	c #6E6119",
"W.	c #B6A22F",
"X.	c #B4A02E",
"Y.	c #695E17",
"Z.	c #6D6118",
"`.	c #C0AB32",
" +	c #4D528C",
".+	c #747CCE",
"++	c #555B9A",
"@+	c #560411",
"#+	c #AB0F2B",
"$+	c #CD1536",
"%+	c #C61334",
"&+	c #920B24",
"*+	c #7881D5",
"=+	c #737CCC",
"-+	c #505690",
";+	c #0E1021",
">+	c #100C03",
",+	c #5E5213",
"'+	c #AA972B",
")+	c #908023",
"!+	c #554B11",
"~+	c #C8B335",
"{+	c #615514",
"]+	c #31355C",
"^+	c #666DB6",
"/+	c #910B23",
"(+	c #C61434",
"_+	c #7C081D",
":+	c #535996",
"<+	c #5A61A1",
"[+	c #020102",
"}+	c #544911",
"|+	c #8E7E22",
"1+	c #6C6018",
"2+	c #B8A430",
"3+	c #590412",
"4+	c #73071A",
"5+	c #690617",
"6+	c #320107",
"7+	c #494E84",
"8+	c #585F9F",
"9+	c #2C3054",
"0+	c #3D3509",
"a+	c #342E07",
"b+	c #040300",
"c+	c #988826",
"d+	c #302A06",
"e+	c #3D4170",
"f+	c #6C73C0",
"g+	c #202340",
"h+	c #6971BC",
"i+	c #6A72BC",
"j+	c #262A4A",
"k+	c #020100",
"l+	c #C1AC33",
"m+	c #918124",
"n+	c #252848",
"o+	c #676FB8",
"p+	c #5D64A7",
"q+	c #2D3156",
"r+	c #3D4270",
"s+	c #7079C7",
"t+	c #7E87E0",
"u+	c #7F88E0",
"v+	c #6B5F18",
"w+	c #43497B",
"x+	c #070814",
"y+	c #BAA630",
"z+	c #7C6E1D",
"A+	c #030309",
"B+	c #404576",
"C+	c #030200",
"D+	c #867720",
"E+	c #1D1803",
"F+	c #555B99",
"G+	c #020205",
"H+	c #2A2405",
"I+	c #322C06",
"J+	c #B9A530",
"K+	c #948324",
"L+	c #4C528B",
"M+	c #44497D",
"N+	c #04040D",
"O+	c #000004",
"P+	c #40380B",
"Q+	c #857620",
"R+	c #9F8D28",
"S+	c #9A8926",
"T+	c #84751F",
"U+	c #5F66AA",
"V+	c #727ACA",
"W+	c #6268AF",
"X+	c #7079C8",
"Y+	c #545B98",
"Z+	c #4E548E",
"`+	c #070500",
" @	c #1E1903",
".@	c #292305",
"+@	c #8B7C21",
"@@	c #635815",
"#@	c #474E84",
"$@	c #2A2C4F",
"%@	c #060206",
"&@	c #41390B",
"*@	c #221C03",
"=@	c #5F5414",
"-@	c #5F5514",
";@	c #121427",
">@	c #545A97",
",@	c #3A4272",
"'@	c #001A33",
")@	c #370000",
"!@	c #551113",
"~@	c #2C0506",
"{@	c #300607",
"]@	c #040000",
"^@	c #6067AC",
"/@	c #6F78C6",
"(@	c #494F85",
"_@	c #801B16",
":@	c #9C272A",
"<@	c #801E21",
"[@	c #912326",
"}@	c #A52A2D",
"|@	c #B42E32",
"1@	c #AB2B2F",
"2@	c #932427",
"3@	c #1B0203",
"4@	c #515792",
"5@	c #646BB2",
"6@	c #0C0C1C",
"7@	c #4C0E0F",
"8@	c #902326",
"9@	c #8F2126",
"0@	c #66001C",
"a@	c #45100D",
"b@	c #74181D",
"c@	c #A2292C",
"d@	c #CA3539",
"e@	c #C83539",
"f@	c #BF3236",
"g@	c #8A2124",
"h@	c #3F0A0B",
"i@	c #30345A",
"j@	c #6D75C1",
"k@	c #585E9E",
"l@	c #292C4F",
"m@	c #220509",
"n@	c #8E2225",
"o@	c #5C0E15",
"p@	c #876C00",
"q@	c #161C00",
"r@	c #010002",
"s@	c #550014",
"t@	c #7E1C20",
"u@	c #7F1E21",
"v@	c #B12D31",
"w@	c #741A1D",
"x@	c #1A1C35",
"y@	c #2D3055",
"z@	c #494F86",
"A@	c #050000",
"B@	c #6B171A",
"C@	c #C73438",
"D@	c #7A1B1F",
"E@	c #B78E00",
"F@	c #F9C200",
"G@	c #F1BC00",
"H@	c #E1AF00",
"I@	c #A98400",
"J@	c #533F00",
"K@	c #200303",
"L@	c #C93539",
"M@	c #992629",
"N@	c #380809",
"O@	c #BB3034",
"P@	c #B42F32",
"Q@	c #3A0C09",
"R@	c #725A00",
"S@	c #FBC400",
"T@	c #FFC800",
"U@	c #FFC700",
"V@	c #FFD000",
"W@	c #F9C300",
"X@	c #695100",
"Y@	c #B22E31",
"Z@	c #CF373B",
"`@	c #9F282B",
" #	c #2C2605",
".#	c #282204",
"+#	c #581214",
"@#	c #CD363A",
"##	c #912227",
"$#	c #090A00",
"%#	c #BF9400",
"&#	c #FFCD00",
"*#	c #FFCA00",
"=#	c #DDAC00",
"-#	c #C19600",
";#	c #977500",
">#	c #9A262A",
",#	c #C43437",
"'#	c #821F22",
")#	c #6F191B",
"!#	c #0F0101",
"~#	c #5B5012",
"{#	c #312906",
"]#	c #360808",
"^#	c #B93034",
"/#	c #AF2C30",
"(#	c #48020F",
"_#	c #574200",
":#	c #C39800",
"<#	c #5D4700",
"[#	c #020300",
"}#	c #5D1215",
"|#	c #C63438",
"1#	c #761B1E",
"2#	c #0A0101",
"3#	c #393108",
"4#	c #601416",
"5#	c #A1282C",
"6#	c #3A090A",
"7#	c #7F6200",
"8#	c #9C7900",
"9#	c #370809",
"0#	c #741C1D",
"a#	c #922327",
"b#	c #811E21",
"c#	c #6A1719",
"d#	c #625615",
"e#	c #332B07",
"f#	c #020000",
"g#	c #651618",
"h#	c #C03236",
"i#	c #A68100",
"j#	c #000300",
"k#	c #681719",
"l#	c #BA3034",
"m#	c #B52F32",
"n#	c #340708",
"o#	c #080600",
"p#	c #872023",
"q#	c #751B1D",
"r#	c #591214",
"s#	c #46000F",
"t#	c #64001A",
"u#	c #8E2325",
"v#	c #952528",
"w#	c #A0282C",
"x#	c #6A181A",
"y#	c #5E1416",
"z#	c #C53437",
"A#	c #922427",
"B#	c #7B1C1F",
"C#	c #420B0C",
"D#	c #2E0606",
"E#	c #120101",
"F#	c #240404",
"G#	c #B12E31",
"H#	c #440C0D",
"I#	c #852022",
"J#	c #230304",
"K#	c #7D1D20",
"L#	c #6D181B",
"                                                                                                    ",
"                                . . . . .                                                           ",
"                            . . . + @ . .   .                                                       ",
"                        . . . # $ % . . & & . . .                                                   ",
"                        . @ . * = - ; > . . & . . .                                                 ",
"                      . . . , ' ) ! ~ { ] $ ^ . . . .                                               ",
"                        . . / ( ~ ~ ~ _ ~ : < [ . } .                                               ",
"                    . . | . 1 2 ~ ~ ~ ~ ~ ~ 3 4 5 6 .                                               ",
"                    . . . 7 8 ! ~ ~ ~ ~ ~ ~ ! ! 9 0 . .                                             ",
"                    . . . ] : ~ ~ ~ ~ ~ ~ ~ ~ ~ 2 a b .                                             ",
"                    . # . c : ~ ~ ~ ~ ~ ~ ~ ~ ~ ) d e . .     . . . . .                             ",
"                    . . f g ~ ~ ~ ~ ~ ~ ~ ~ ~ ~ h i j k .   . . . . l . .                           ",
"                    . m . n _ ~ ~ ~ ~ ~ ~ ~ ~ ~ ~ ) o p . . . q . r . . .                           ",
"                    . . s o ) ~ ~ ~ ~ ~ ~ ~ ~ ~ ~ _ t u . . . . . v w . x .                         ",
"                      . . y z ! ~ ~ ~ ~ ~ : _ ~ ~ ~ _ A B . . . . C D . . .                         ",
"                      . . E F G ~ ~ ~ G ~ H I J K ~ ) L M . . . . . N O P .                         ",
"                        . Q R S ~ ~ ~ T U . . V L : 2 W X Y . . . . Z `  .. .                       ",
"                        . . ..= ) ~ _ +.. m . . @.#.i : $.%.. . . . r &.O *..                       ",
"                          . =.-.3 ~ ~ ;.% . . . . E >.,.'.).. . . . . !.!.~.. .                     ",
"                    . . . . . {.]._ : c . # . . . ^./.(.G _.:.. . . . <.[.}.. .                     ",
"                . . . . . . . |.1.G W 2.. . 3.4.5.. . 6.7.T 8.. . . . . 9.0.a..                     ",
"              . . . . . . . . b.c.d.) e.f.. g.h.i.. . j.) ~ k.l.. # . . m.n.o.. .                   ",
"              . x p.q.r.. . . . s.t.u.F v.. w.x.y.z.A.. ; B.C.D.. . x . E.F.G.H..                   ",
"              . . . I.J.. . . . K.L._ ~ M.. . N.x.O.P.. Q.R.(.S.T.U.. . V.W.X.Y.. .                 ",
"              . . . Z.`.. . . . .  +.+7.++. @+#+$+%+&+. . t ) *+=+-+;+. >+,+'+)+. .                 ",
"                . . !+~+{+. . . . ]+^+: t . . /+y.(+_+. . :+u.h ! z <+. [+. }+|+~.. .               ",
"                . . 1+2+'+. . . . . ++*+R.Q.. 3+4+5+6+# . 7+~ ~ ~ ! S 8+9+. . 0+a+b+.               ",
"                  . H.c+F.d+. . . . e+f+B.; . # . . . . g+h+S ~ ~ ~ _ (.i+j+. k+. . .               ",
"                  . . o.l+m+. . # . n+o+~ ) g+. . . Q.; ) ,.~ ~ ~ ~ ~ ~ ,.p+q+. & . . .             ",
"                    . a.0.9.. . . . r+s+h t+h+7+:+t u+K ~ ~ ~ ~ ~ ~ ~ ~ _ *+F . . . . .             ",
"                    . . }.[.v+. . . w+S ~ ~ S ~ u._ ~ ~ ~ ~ ~ ~ ~ ~ ~ ~ ~ ~ u+0 x+. . . .           ",
"                    . . ~.!.y+z+. A+B+~ ~ ~ ~ ~ ~ ~ ~ ~ ~ ~ ~ ~ ~ ~ ~ ~ ~ ! ! ).. # . C+. .         ",
"                      . *.O &.D+E+. F+W ~ ~ ~ ~ ~ ~ ~ ~ ~ ~ ~ ~ ~ ~ ~ _ ~ ! o G+. . H+I+. . .       ",
"                      . .  .J+K+. . L+: ~ ~ ~ ~ ~ ~ ~ ~ ~ ~ ) _ 3 u.~ T ) *+M+N+O+P+Q+R+. . .       ",
"                        . P S+T+. . U+W ~ ~ ~ ~ ~ ~ ~ ! ) ~ V+W+X+Y+Z+8./ . . . . `+ @W..@. .       ",
"                        . . +@@@. . p+,.~ ~ ~ ~ ~ ~ ) *+C.k.#@$@. . %@. . . . . . q . &@*@x .       ",
"                        . . =@-@. ;@>@~ ~ ~ ~ ~ ~ K .+).,@'@)@. . !@. ~@{@. . ]@  . . . . . .       ",
"                          . . . . . ^@) ~ ~ ~ ) ) /@(@. . _@:@<@[@}@|@1@2@. 3@. . . . . .           ",
"                          . . . & . 4@u+! ~ ~ V+5@6@. . 7@8@9@0@a@b@c@d@e@f@g@h@. . . . .           ",
"                            . . . + i@j@J 2 B.k@l@. m@n@8@o@x p@. q@r@s@t@u@2@v@w@. .               ",
"                            . . . . . x@y@z@j+. . A@B@C@D@. E@F@G@H@I@J@. . K@L@M@N@.               ",
"                              . . . # . . . . . . w@O@P@Q@R@S@T@T@U@V@W@X@. . Y@Z@`@7@.             ",
"                              . x .  #.#. . . . . +#@###$#%#T@T@&#*#=#-#;#O+>#,#'#)#<@!#            ",
"                              . . ~#m+{#. .   . ]#^#/#(#_#G@V@W@:#<#. . [#}#|#1#. 2#. . .           ",
"                              . . 3#[.C+. . . . 4#5#6#. 7#T@8#. . . 9#0#a#b#c#. . . .               ",
"                              . . . d#e#. . f#. g#h#. . . i#j#. k#l#m#)#n#. . . .                   ",
"                                . . o#. x . . . p#e@q#r#s#. t#u#v#w#x#.                             ",
"                                . . . . . . . . y#z#@#h#f@A#B#C#. D#E#.                             ",
"                                        .     . F#G#r#H#I#J#.     .                                 ",
"                                              . K#L#. . . . .                                       "};
