/* XPM */
static char * nave2_15_xpm[] = {
"50 50 201 2",
"  	c None",
". 	c #000000",
"+ 	c #1A001B",
"@ 	c #0C000D",
"# 	c #59005B",
"$ 	c #BB00BF",
"% 	c #C800CC",
"& 	c #BA00BE",
"* 	c #B800BC",
"= 	c #B900BD",
"- 	c #C200C6",
"; 	c #710074",
"> 	c #49004B",
", 	c #3E0040",
"' 	c #140014",
") 	c #9C009F",
"! 	c #E800ED",
"~ 	c #FA00FF",
"{ 	c #F500FA",
"] 	c #E000E5",
"^ 	c #D600DA",
"/ 	c #BF00C3",
"( 	c #7D0080",
"_ 	c #010100",
": 	c #C700CB",
"< 	c #F900FE",
"[ 	c #F100F6",
"} 	c #C300C7",
"| 	c #0B0901",
"1 	c #887820",
"2 	c #332C06",
"3 	c #8C7C22",
"4 	c #B39F2E",
"5 	c #373008",
"6 	c #443C0B",
"7 	c #968525",
"8 	c #B9A530",
"9 	c #978725",
"0 	c #5B5013",
"a 	c #BEAA32",
"b 	c #ED00F2",
"c 	c #B100B5",
"d 	c #960099",
"e 	c #CA00CE",
"f 	c #CD00D1",
"g 	c #EE00F3",
"h 	c #F200F7",
"i 	c #520054",
"j 	c #820085",
"k 	c #C100C5",
"l 	c #E700EC",
"m 	c #6B5F18",
"n 	c #AE9A2C",
"o 	c #BEA931",
"p 	c #5F0061",
"q 	c #DC00E0",
"r 	c #020003",
"s 	c #2D2705",
"t 	c #5F5414",
"u 	c #8D7D22",
"v 	c #908123",
"w 	c #1F0103",
"x 	c #09000A",
"y 	c #340035",
"z 	c #DB00E0",
"A 	c #8A008D",
"B 	c #6E0071",
"C 	c #160016",
"D 	c #2B002C",
"E 	c #0D0A01",
"F 	c #483F0D",
"G 	c #514710",
"H 	c #605514",
"I 	c #700619",
"J 	c #930B24",
"K 	c #3F020A",
"L 	c #DE00E3",
"M 	c #D700DB",
"N 	c #CB00CF",
"O 	c #8D0090",
"P 	c #760079",
"Q 	c #48004A",
"R 	c #C71434",
"S 	c #B5112F",
"T 	c #6C0618",
"U 	c #5D0413",
"V 	c #F800FD",
"W 	c #EA00EF",
"X 	c #BD00C1",
"Y 	c #A800AC",
"Z 	c #620064",
"` 	c #430045",
" .	c #C91435",
"..	c #BF1232",
"+.	c #990C26",
"@.	c #D900DE",
"#.	c #AE00B2",
"$.	c #6C006F",
"%.	c #3C003E",
"&.	c #8A0A21",
"*.	c #190002",
"=.	c #77007A",
"-.	c #EC00F1",
";.	c #F300F8",
">.	c #EF00F4",
",.	c #9F00A2",
"'.	c #280029",
").	c #BA1230",
"!.	c #6D0618",
"~.	c #0F0001",
"{.	c #D800DC",
"].	c #470049",
"^.	c #76691B",
"/.	c #695D17",
"(.	c #43020B",
"_.	c #C600CA",
":.	c #3F360A",
"<.	c #71631A",
"[.	c #BFAA32",
"}.	c #544A11",
"|.	c #250026",
"1.	c #443B0B",
"2.	c #4C430E",
"3.	c #DF00E4",
"4.	c #460048",
"5.	c #DB00DF",
"6.	c #A400A7",
"7.	c #F600FB",
"8.	c #B400B8",
"9.	c #310033",
"0.	c #F400F9",
"a.	c #531012",
"b.	c #3A080A",
"c.	c #3F0A0B",
"d.	c #0A0101",
"e.	c #840087",
"f.	c #761B1D",
"g.	c #801E21",
"h.	c #A72A2E",
"i.	c #B02D31",
"j.	c #972528",
"k.	c #9C272A",
"l.	c #932427",
"m.	c #751B1D",
"n.	c #551112",
"o.	c #410A0C",
"p.	c #2A0505",
"q.	c #781C1E",
"r.	c #C53438",
"s.	c #B72F33",
"t.	c #B12D31",
"u.	c #9B262A",
"v.	c #BC3135",
"w.	c #942427",
"x.	c #6D181B",
"y.	c #4D0E10",
"z.	c #8F2326",
"A.	c #8E2225",
"B.	c #791C1E",
"C.	c #5B1315",
"D.	c #541112",
"E.	c #5A1D13",
"F.	c #320607",
"G.	c #180202",
"H.	c #9D272A",
"I.	c #AA2B2F",
"J.	c #300607",
"K.	c #332600",
"L.	c #3F2F00",
"M.	c #896A00",
"N.	c #8E6E00",
"O.	c #806200",
"P.	c #755A00",
"Q.	c #070000",
"R.	c #A3292C",
"S.	c #350708",
"T.	c #2B0506",
"U.	c #C89B00",
"V.	c #E5B300",
"W.	c #FFC700",
"X.	c #F9C200",
"Y.	c #F3BE00",
"Z.	c #EAB600",
"`.	c #644D00",
" +	c #561113",
".+	c #AC2C2F",
"++	c #761B1E",
"@+	c #1A0202",
"#+	c #DAAA00",
"$+	c #715600",
"%+	c #685000",
"&+	c #621517",
"*+	c #A4292D",
"=+	c #521012",
"-+	c #8A2124",
";+	c #3E0A0B",
">+	c #661618",
",+	c #882123",
"'+	c #470C0E",
")+	c #811F21",
"!+	c #410B0C",
"                                                                                                    ",
"                                                                                                    ",
"                                                                                                    ",
"                                                                                                    ",
"                                                                                                    ",
"                  . . . . . . . .                                                                   ",
"                . . . . . . . . . . .                                                               ",
"              . . + . . . . . . @ . . .                 . .                                         ",
"            . . # $ % & * = $ - ; > , . .           . . . . .                                       ",
"          . . ' ) ! ~ ~ { { ~ ~ ] ^ / ( . .       . . . _ . . .                                     ",
"          . . . : ~ ~ ~ ~ ~ ~ ~ ~ < [ } ( . .     . . | 1 2 . . .                                   ",
"          . . . & ~ ~ ~ ~ ~ ~ ~ ~ ~ ~ [ } ( . . . . . . 3 4 5 6 . .                                 ",
"          . . . * { ~ ~ ~ ~ ~ ~ ~ ~ ~ ~ [ } ( . . . . . . 7 8 9 0 . .                               ",
"          . . . = { ~ ~ ~ ~ ~ ~ ~ ~ ~ ~ ~ [ } ( . . . . . . 7 a 9 0 . .                             ",
"          . . . $ ~ ~ ~ ~ ~ ~ ~ ~ ~ ~ ~ ~ ~ [ } ( . . . . . . 7 a 9 0 . .                           ",
"          . . . - ~ ~ ~ ~ ~ ~ ~ ~ ~ ~ ~ ~ ~ ~ [ } ( . . . . . . 7 a 9 0 . .                         ",
"          . . @ ; ] ~ ~ ~ ~ ~ ~ ~ ~ ~ b ~ ~ ~ ~ [ } ( . . . . . . 7 a 9 0 . .                       ",
"            . . > ^ < ~ ~ ~ ~ ~ ~ ~ c d e f g h ~ [ } ( . . . . . . 7 a 9 0 . .                     ",
"            . . , / [ ~ ~ ~ ~ ~ ~ c . . . i j k l ~ [ } ( . . . . . m n o 7 0 . .                   ",
"              . . ( } [ ~ ~ ~ ~ b d . . . . . p ( q ~ [ } ( . r . . s t u 7 v 0 . .                 ",
"                . . ( } [ ~ ~ ~ ~ e . . . . w . x y z ~ [ } A B C D . E . F G H . . .               ",
"                  . . ( } [ ~ ~ ~ f i . . I J K . . y z ~ h L M N O P Q . . . . . . . .             ",
"                    . . ( } [ ~ ~ g j . w J R S T U . y z ~ V ~ ~ g W X Y Z ` . . . . . .           ",
"                      . . ( } [ ~ h k p . K S  ...+.U . y z ~ ~ ~ ~ ~ ~ h @.#.$.%.. . . . . . .     ",
"                      . . . ( } [ ~ l ( x . T .. ...&.*.. =.-.~ ~ ~ ~ ~ ~ ~ ;.>.,.'.. . . . . . .   ",
"                  . . . . . . ( } [ ~ q y . U +...).!.~.. =.-.~ ~ ~ ~ ~ ~ ~ ~ < {.].. . ^./.. . .   ",
"                . . . . . . . . ( } [ ~ z y . U &.!.(.. y z ~ ~ ~ ~ ~ ~ ~ ~ ~ ~ _.. . :.<.[.}.. .   ",
"                . . | . . . . . . ( } [ ~ z y . *.~.. y z ~ ~ ~ ~ ~ ~ ~ ~ ~ ~ ~ = |.. . . 1.2.. .   ",
"              . . _ 1 3 . . . . . . ( } [ ~ z y . . y z ~ ~ ~ ~ ~ ~ ~ ~ ~ ~ b 3.4.. . . . . . . .   ",
"              . . . 2 4 7 . . . . . . ( } h ~ z =.=.z ~ ~ ~ ~ ~ ~ ~ ~ ~ ~ 5.6., . . . . . . . . .   ",
"                . . . 5 8 7 . . . . . . A L V ~ -.-.~ ~ ~ ~ ~ ~ ~ ~ 7.~ 8.; 9.. . . . . . . . .     ",
"                  . . 6 9 a 7 . . . . r B M ~ ~ ~ ~ ~ ~ ~ ~ ~ ~ ~ 0.: d . . . a.b.. c.d.. . .       ",
"                    . . 0 9 a 7 . . . . C N ~ ~ ~ ~ ~ ~ ~ ~ ~ ~ 0.: e.. . f.g.h.i.j.k.l.m.n.. .     ",
"                      . . 0 9 a 7 . . . D O g ~ ~ ~ ~ ~ ~ ~ ~ 0.: e.o.p.q.l.r.s.t.h.m.u.v.w.x.y..   ",
"                        . . 0 9 a 7 m s . P W ~ ~ ~ ~ ~ ~ ~ 7.: e.o.z.A.B.a.C.D.E.F.G.. H.r.I.g.J.. ",
"                          . . 0 9 a n t E Q X ~ ~ ~ ~ ~ ~ ~ ~ d . p.A.B.K.L.M.N.O.P.. Q.h.R.S.T.. . ",
"                            . . 0 9 o u . . Y h ~ ~ ~ ~ ~ ~ 8.. . q.B.K.U.V.W.X.Y.Z.`. +.+++@+. .   ",
"                              . . 0 7 7 F . Z @.~ ~ ~ ~ ~ 5.; . f.l.a.L.V.W.W.W.#+$+%+&+*+=+. .     ",
"                                . . 0 v G . ` #.;.~ ~ ~ b 6.9.. g.r.C.M.W.W.W.#+. . &+-+;+. .       ",
"                                  . . 0 H . . $.>.< ~ ~ 3., . a.h.s.D.N.X.W.#+. . >+-+;+  .         ",
"                                    . . . . . %.,.{._.= 4.. . b.i.t.E.O.Y.#+. . ,+s.'+.             ",
"                                      . . . . . '.].. |.. . . . j.h.F.P.Z.$+. >+s.)+!+.             ",
"                                        . . . . . . . . . . . c.k.m.G.. `.%+&+-+'+!+.               ",
"                                          . . . . . :.. . . . d.l.u.. Q. +&+-+;+. .                 ",
"                                            . . . ^.<.. . . . . m.v.H.h..+*+;+                      ",
"                                              . . /.[.1.. . . . n.w.r.R.++=+. .                     ",
"                                              . . . }.2.. . . . . x.I.S.@+. .                       ",
"                                              . . . . . . . .   . y.g.T.. .                         ",
"                                                . . . . . .       . J.. .                           ",
"                                                                    . .                             "};
