/* XPM */
static char * merry_12_xpm[] = {
"90 90 961 2",
"  	c None",
". 	c #251A1A",
"+ 	c #342424",
"@ 	c #4C3637",
"# 	c #563E3F",
"$ 	c #3D2B2B",
"% 	c #2C1E1E",
"& 	c #453131",
"* 	c #433030",
"= 	c #533C3C",
"- 	c #674B4B",
"; 	c #634848",
"> 	c #261A1A",
", 	c #282303",
"' 	c #191502",
") 	c #2D2219",
"! 	c #32251E",
"~ 	c #3F2D2B",
"{ 	c #523B3A",
"] 	c #4F3939",
"^ 	c #422F2F",
"/ 	c #584140",
"( 	c #5B4242",
"_ 	c #262203",
": 	c #2E2804",
"< 	c #393206",
"[ 	c #3E3607",
"} 	c #3D3507",
"| 	c #373006",
"1 	c #3F3708",
"2 	c #322B0A",
"3 	c #352B16",
"4 	c #483530",
"5 	c #5D4444",
"6 	c #6A4D4D",
"7 	c #473333",
"8 	c #292303",
"9 	c #3F3707",
"0 	c #423A08",
"a 	c #403807",
"b 	c #3B330A",
"c 	c #3A2D20",
"d 	c #412F2D",
"e 	c #5B4343",
"f 	c #553D3D",
"g 	c #1D1902",
"h 	c #393208",
"i 	c #403127",
"j 	c #473232",
"k 	c #312222",
"l 	c #231E03",
"m 	c #312B05",
"n 	c #3F3807",
"o 	c #413A08",
"p 	c #3C3315",
"q 	c #3E2C2C",
"r 	c #523B3B",
"s 	c #34311F",
"t 	c #595538",
"u 	c #9D9767",
"v 	c #918B5F",
"w 	c #7D7851",
"x 	c #4F4B31",
"y 	c #292403",
"z 	c #393306",
"A 	c #3B3406",
"B 	c #413908",
"C 	c #43312D",
"D 	c #584040",
"E 	c #43362E",
"F 	c #8E885C",
"G 	c #9E9868",
"H 	c #A39C6B",
"I 	c #CBC386",
"J 	c #EAE19C",
"K 	c #E4DB97",
"L 	c #EBE19C",
"M 	c #EAE19B",
"N 	c #4A462E",
"O 	c #272203",
"P 	c #3E3707",
"Q 	c #362F06",
"R 	c #262103",
"S 	c #2A2504",
"T 	c #322C05",
"U 	c #342D05",
"V 	c #423522",
"W 	c #645644",
"X 	c #C1B97F",
"Y 	c #ECE39D",
"Z 	c #FAF0A6",
"` 	c #F9EFA6",
" .	c #DED593",
"..	c #847F56",
"+.	c #493434",
"@.	c #4D3737",
"#.	c #2C2214",
"$.	c #3A3307",
"%.	c #3C3507",
"&.	c #2E2904",
"*.	c #2A2403",
"=.	c #403808",
"-.	c #171301",
";.	c #3C3407",
">.	c #3D3410",
",.	c #3D2D2B",
"'.	c #7E7852",
").	c #EFE69F",
"!.	c #F9EFA5",
"~.	c #D6CE8E",
"{.	c #656140",
"].	c #483434",
"^.	c #5E4444",
"/.	c #50393A",
"(.	c #382E16",
"_.	c #3D3607",
":.	c #3B3407",
"<.	c #302A05",
"[.	c #322B05",
"}.	c #2E2807",
"|.	c #463F2D",
"1.	c #BAB37C",
"2.	c #F5ECA3",
"3.	c #E9E09A",
"4.	c #555135",
"5.	c #1B1212",
"6.	c #463232",
"7.	c #614747",
"8.	c #6B4E4E",
"9.	c #624747",
"0.	c #3A2C21",
"a.	c #2D2704",
"b.	c #302A04",
"c.	c #3A3306",
"d.	c #383106",
"e.	c #2C2604",
"f.	c #362D14",
"g.	c #696245",
"h.	c #D7CF8F",
"i.	c #D4CC8C",
"j.	c #837E55",
"k.	c #352525",
"l.	c #4B3636",
"m.	c #3F2D2D",
"n.	c #503939",
"o.	c #604646",
"p.	c #503A3A",
"q.	c #513A3A",
"r.	c #4C3836",
"s.	c #3A3211",
"t.	c #342E05",
"u.	c #2D2804",
"v.	c #140F04",
"w.	c #888159",
"x.	c #DFD694",
"y.	c #373521",
"z.	c #443131",
"A.	c #402E2E",
"B.	c #493333",
"C.	c #3A2929",
"D.	c #392828",
"E.	c #573F3F",
"F.	c #32271D",
"G.	c #332C05",
"H.	c #2F2904",
"I.	c #383107",
"J.	c #231C10",
"K.	c #B1AA74",
"L.	c #F3E9A1",
"M.	c #DBD291",
"N.	c #857F56",
"O.	c #493535",
"P.	c #5C4343",
"Q.	c #664A4A",
"R.	c #654A4A",
"S.	c #412E2E",
"T.	c #6C4F4F",
"U.	c #33261C",
"V.	c #352F05",
"W.	c #363006",
"X.	c #241F03",
"Y.	c #352E05",
"Z.	c #332B0C",
"`.	c #564C38",
" +	c #C4BB81",
".+	c #DAD291",
"++	c #888259",
"@+	c #4A3535",
"#+	c #543D3D",
"$+	c #5A4141",
"%+	c #3F2C2C",
"&+	c #583F3F",
"*+	c #3F3026",
"=+	c #252003",
"-+	c #312A05",
";+	c #3B3307",
">+	c #332D05",
",+	c #282203",
"'+	c #35291E",
")+	c #60583F",
"!+	c #DDD392",
"~+	c #3C3A25",
"{+	c #1B1111",
"]+	c #694D4D",
"^+	c #5C4242",
"/+	c #382727",
"(+	c #2A1D1D",
"_+	c #543C3C",
":+	c #6D5050",
"<+	c #3C2D25",
"[+	c #362F05",
"}+	c #2A2503",
"|+	c #352E06",
"1+	c #2D2803",
"2+	c #44322F",
"3+	c #897F5B",
"4+	c #E3DA96",
"5+	c #A7A06D",
"6+	c #221616",
"7+	c #4F3838",
"8+	c #634747",
"9+	c #4B3535",
"0+	c #432F2F",
"a+	c #3B2A2A",
"b+	c #684B4B",
"c+	c #6A4E4E",
"d+	c #553E3E",
"e+	c #362C11",
"f+	c #322C04",
"g+	c #383109",
"h+	c #3B2C25",
"i+	c #5C4543",
"j+	c #7F7754",
"k+	c #F6EDA4",
"l+	c #EEE49D",
"m+	c #B4AC76",
"n+	c #090505",
"o+	c #291C1C",
"p+	c #463131",
"q+	c #4C3636",
"r+	c #664B4B",
"s+	c #5D4343",
"t+	c #634949",
"u+	c #4C3832",
"v+	c #352D0D",
"w+	c #2B230D",
"x+	c #372726",
"y+	c #9F9769",
"z+	c #EDE39D",
"A+	c #AAA370",
"B+	c #211515",
"C+	c #3B2929",
"D+	c #563E3E",
"E+	c #5F4545",
"F+	c #674C4C",
"G+	c #604546",
"H+	c #614646",
"I+	c #78695B",
"J+	c #494737",
"K+	c #2D270B",
"L+	c #4E4B2F",
"M+	c #3C3714",
"N+	c #443E1A",
"O+	c #352F09",
"P+	c #312910",
"Q+	c #42302E",
"R+	c #5E4545",
"S+	c #978E64",
"T+	c #F5EBA3",
"U+	c #FBF1A7",
"V+	c #CDC487",
"W+	c #000000",
"X+	c #684C4C",
"Y+	c #563F3F",
"Z+	c #694C4C",
"`+	c #756158",
" @	c #716656",
".@	c #4F483C",
"+@	c #A39F80",
"@@	c #C3C19B",
"#@	c #C7C79F",
"$@	c #CFCFA4",
"%@	c #D8D8AC",
"&@	c #BDBD96",
"*@	c #B4B48E",
"=@	c #8C8C6E",
"-@	c #939373",
";@	c #57563F",
">@	c #534F31",
",@	c #3C3504",
"'@	c #393010",
")@	c #493632",
"!@	c #9B9266",
"~@	c #F2E8A0",
"{@	c #F3E8A1",
"]@	c #17160B",
"^@	c #604747",
"/@	c #513B3B",
"(@	c #644949",
"_@	c #6E5151",
":@	c #6A5B50",
"<@	c #848068",
"[@	c #A7A684",
"}@	c #D1D1A7",
"|@	c #F3F3C2",
"1@	c #F5F5C3",
"2@	c #F6F6C4",
"3@	c #FFFFCB",
"4@	c #FEFECC",
"5@	c #FDFDCC",
"6@	c #EAEABC",
"7@	c #D5D5A9",
"8@	c #F4F4C2",
"9@	c #DADAAE",
"0@	c #BABA94",
"a@	c #898869",
"b@	c #484428",
"c@	c #443E19",
"d@	c #3E3025",
"e@	c #5E4544",
"f@	c #AEA474",
"g@	c #F1E7A0",
"h@	c #281B1B",
"i@	c #322222",
"j@	c #63534A",
"k@	c #6C6A54",
"l@	c #B0AF8C",
"m@	c #E3E3B6",
"n@	c #FFFFCC",
"o@	c #FFFFCE",
"p@	c #D8D8B2",
"q@	c #A4A490",
"r@	c #7E7E77",
"s@	c #B2B2A5",
"t@	c #B1B1AA",
"u@	c #A4A494",
"v@	c #BABAA0",
"w@	c #CFCFA5",
"x@	c #E8E8B8",
"y@	c #C5C59D",
"z@	c #818064",
"A@	c #383416",
"B@	c #423A09",
"C@	c #322B08",
"D@	c #523C3A",
"E@	c #664C49",
"F@	c #F4EBA2",
"G@	c #BBB47C",
"H@	c #362625",
"I@	c #533B3B",
"J@	c #4D3838",
"K@	c #695B4F",
"L@	c #B5B38F",
"M@	c #F1F1C1",
"N@	c #FFFFCD",
"O@	c #F8F8C5",
"P@	c #BABA99",
"Q@	c #6E6E69",
"R@	c #515151",
"S@	c #4F4F4F",
"T@	c #6F6F6F",
"U@	c #6A6A6A",
"V@	c #8F8F8F",
"W@	c #BBBBBA",
"X@	c #A5A597",
"Y@	c #F7F7C6",
"Z@	c #FAFAC7",
"`@	c #F0F0C0",
" #	c #B2B28C",
".#	c #727053",
"+#	c #3C3408",
"@#	c #3B320C",
"##	c #3F2E29",
"$#	c #6E5050",
"%#	c #422E2F",
"&#	c #9E9668",
"*#	c #E9DF9A",
"=#	c #D0C88A",
"-#	c #7C6D54",
";#	c #624848",
">#	c #644A49",
",#	c #736A59",
"'#	c #CACBA1",
")#	c #F2F3C1",
"!#	c #FEFECB",
"~#	c #F2F2C1",
"{#	c #A0A086",
"]#	c #606060",
"^#	c #212121",
"/#	c #020101",
"(#	c #010000",
"_#	c #989898",
":#	c #B2B2AE",
"<#	c #DEDEBB",
"[#	c #F2F2C0",
"}#	c #D0D0A5",
"|#	c #3B3404",
"1#	c #433B08",
"2#	c #382D1A",
"3#	c #594140",
"4#	c #523A3C",
"5#	c #908461",
"6#	c #E2D996",
"7#	c #E5DB97",
"8#	c #ABA073",
"9#	c #483333",
"0#	c #756D5A",
"a#	c #CAC9A1",
"b#	c #FBFBC9",
"c#	c #A5A58F",
"d#	c #5E5D5B",
"e#	c #333232",
"f#	c #303030",
"g#	c #9A9A9A",
"h#	c #D7D7D4",
"i#	c #C2C29E",
"j#	c #FCFCC9",
"k#	c #888768",
"l#	c #2C2914",
"m#	c #362724",
"n#	c #3C2B2B",
"o#	c #57443E",
"p#	c #E1D796",
"q#	c #F8EEA5",
"r#	c #F7EDA4",
"s#	c #C5BD82",
"t#	c #5E4D41",
"u#	c #5B4141",
"v#	c #6E6354",
"w#	c #C3C39B",
"x#	c #F8F8C6",
"y#	c #FEFECA",
"z#	c #D9D9B6",
"A#	c #989895",
"B#	c #949494",
"C#	c #777777",
"D#	c #717171",
"E#	c #8C8C8C",
"F#	c #ACACAC",
"G#	c #B4B4B4",
"H#	c #ABABA2",
"I#	c #E5E5B8",
"J#	c #FDFDCA",
"K#	c #FCFCC8",
"L#	c #DBDBAF",
"M#	c #76755C",
"N#	c #3D2B2C",
"O#	c #554839",
"P#	c #BFB77E",
"Q#	c #F6ECA3",
"R#	c #DCD392",
"S#	c #90895E",
"T#	c #2D1F1F",
"U#	c #100808",
"V#	c #322323",
"W#	c #3A2828",
"X#	c #6B5A50",
"Y#	c #B9B792",
"Z#	c #F9F9C7",
"`#	c #8F8F74",
" $	c #BDBDB3",
".$	c #C2C2BF",
"+$	c #D8D8D6",
"@$	c #B0B0AF",
"#$	c #A8A8A7",
"$$	c #C5C5B2",
"%$	c #E2E2B9",
"&$	c #C8C89F",
"*$	c #807763",
"=$	c #5C4B40",
"-$	c #978F63",
";$	c #F6ECA4",
">$	c #F0E69F",
",$	c #C0B97F",
"'$	c #121008",
")$	c #594141",
"!$	c #5D4243",
"~$	c #8C896E",
"{$	c #DBDBAE",
"]$	c #F1F1C0",
"^$	c #E0E0B3",
"/$	c #D9D9B3",
"($	c #B7B795",
"_$	c #CACAAA",
":$	c #EBEBC0",
"<$	c #F7F7C5",
"[$	c #FBFBC8",
"}$	c #D1CFA5",
"|$	c #66584D",
"1$	c #7E7353",
"2$	c #DDD492",
"3$	c #3C2A2A",
"4$	c #5F4745",
"5$	c #7D7861",
"6$	c #D4D4AA",
"7$	c #CBCBA1",
"8$	c #ABAB87",
"9$	c #EDEDBC",
"0$	c #8E8F71",
"a$	c #6C5850",
"b$	c #4E3838",
"c$	c #6D4F4F",
"d$	c #786653",
"e$	c #B5AD77",
"f$	c #D8CE8E",
"g$	c #494638",
"h$	c #FCFCCA",
"i$	c #ABAB88",
"j$	c #E4E4B5",
"k$	c #D2D2A7",
"l$	c #86826A",
"m$	c #837B56",
"n$	c #FDF2A8",
"o$	c #878257",
"p$	c #837E66",
"q$	c #E6E6B8",
"r$	c #B8B892",
"s$	c #B9B993",
"t$	c #776851",
"u$	c #C2B980",
"v$	c #FBF1A6",
"w$	c #D2C98A",
"x$	c #989163",
"y$	c #4A3434",
"z$	c #6B4F4F",
"A$	c #68574E",
"B$	c #B7B792",
"C$	c #F9F9C6",
"D$	c #E3E3B4",
"E$	c #9B9B7A",
"F$	c #DEDEB1",
"G$	c #948E74",
"H$	c #634748",
"I$	c #644F48",
"J$	c #7B7450",
"K$	c #CEC587",
"L$	c #49452D",
"M$	c #191010",
"N$	c #706756",
"O$	c #F4F4C3",
"P$	c #D7D7AA",
"Q$	c #BFBF97",
"R$	c #EDEDBD",
"S$	c #BCBB95",
"T$	c #533A3B",
"U$	c #4E3737",
"V$	c #514337",
"W$	c #C1B780",
"X$	c #EFE59F",
"Y$	c #EEE49E",
"Z$	c #ACA571",
"`$	c #524E33",
" %	c #4F3A3A",
".%	c #654B4A",
"+%	c #A4A181",
"@%	c #F3F3C1",
"#%	c #DCDCAF",
"$%	c #ABAB86",
"%%	c #DDDDAF",
"&%	c #D6D6AA",
"*%	c #6C6854",
"=%	c #644848",
"-%	c #807456",
";%	c #D3CA8C",
">%	c #938C60",
",%	c #372626",
"'%	c #67544D",
")%	c #BAB993",
"!%	c #FDFDC9",
"~%	c #969676",
"{%	c #E2E2B4",
"]%	c #959075",
"^%	c #989064",
"/%	c #DAD290",
"(%	c #938D60",
"_%	c #332323",
":%	c #654949",
"<%	c #4F3D39",
"[%	c #CACAA0",
"}%	c #B7B791",
"|%	c #E7E7B8",
"1%	c #B6B690",
"2%	c #ECECBC",
"3%	c #919173",
"4%	c #705552",
"5%	c #5B4A3F",
"6%	c #988F65",
"7%	c #E4DA97",
"8%	c #969062",
"9%	c #8C876D",
"0%	c #D1D1A6",
"a%	c #909071",
"b%	c #D0D0A6",
"c%	c #969677",
"d%	c #FBFBC7",
"e%	c #B7B590",
"f%	c #66534C",
"g%	c #594040",
"h%	c #56433F",
"i%	c #8E8E70",
"j%	c #CACAA1",
"k%	c #BBBB95",
"l%	c #D4D4A9",
"m%	c #D2D1A7",
"n%	c #381F26",
"o%	c #624F45",
"p%	c #998F65",
"q%	c #D7CD8E",
"r%	c #F8EFA5",
"s%	c #D9D190",
"t%	c #958F61",
"u%	c #C0BF98",
"v%	c #E1E1B3",
"w%	c #9A9A79",
"x%	c #C0C099",
"y%	c #A8A885",
"z%	c #4C4A39",
"A%	c #352721",
"B%	c #4E3938",
"C%	c #5D4443",
"D%	c #573F40",
"E%	c #3A2B28",
"F%	c #78714F",
"G%	c #D9D091",
"H%	c #F2E8A1",
"I%	c #EAE09B",
"J%	c #76714C",
"K%	c #5E4845",
"L%	c #B3B28E",
"M%	c #AEAE8B",
"N%	c #EAEABA",
"O%	c #A6A683",
"P%	c #929273",
"Q%	c #BDBD95",
"R%	c #2F2A0B",
"S%	c #383008",
"T%	c #38300F",
"U%	c #2E2610",
"V%	c #3E3024",
"W%	c #3B2A29",
"X%	c #543D3C",
"Y%	c #563F3E",
"Z%	c #56403E",
"`%	c #807556",
" &	c #B0A873",
".&	c #D3CA8B",
"+&	c #827D54",
"@&	c #6A524E",
"#&	c #949375",
"$&	c #EAEABB",
"%&	c #C4C49C",
"&&	c #DFDFB1",
"*&	c #BBBB94",
"=&	c #E9E9BA",
"-&	c #DFDFB2",
";&	c #AEAE8A",
">&	c #3E3605",
",&	c #3C340B",
"'&	c #2F2516",
")&	c #19110E",
"!&	c #34271F",
"~&	c #352722",
"{&	c #42302D",
"]&	c #4C3835",
"^&	c #5B4641",
"/&	c #938C61",
"(&	c #D4CB8D",
"_&	c #F0E7A0",
":&	c #CDC587",
"<&	c #402D2D",
"[&	c #4E3939",
"}&	c #979577",
"|&	c #BABA93",
"1&	c #AAAA87",
"2&	c #C8C89E",
"3&	c #EBEBBC",
"4&	c #F5F5C4",
"5&	c #908F6E",
"6&	c #443D15",
"7&	c #373005",
"8&	c #362D15",
"9&	c #34271E",
"0&	c #30241E",
"a&	c #6F6849",
"b&	c #A8A06F",
"c&	c #E1D895",
"d&	c #A39C6A",
"e&	c #232213",
"f&	c #7E7962",
"g&	c #DEDEB0",
"h&	c #CCCCA2",
"i&	c #A1A180",
"j&	c #F6F6C3",
"k&	c #6A684D",
"l&	c #3C3409",
"m&	c #362D0E",
"n&	c #32261E",
"o&	c #4A3934",
"p&	c #6D6647",
"q&	c #A8A06E",
"r&	c #E8DE99",
"s&	c #D2CA8A",
"t&	c #A09A69",
"u&	c #482D32",
"v&	c #DAD9AC",
"w&	c #EEEEBE",
"x&	c #C0C098",
"y&	c #D1D1A5",
"z&	c #CBCBA4",
"A&	c #D6D6B2",
"B&	c #D5D5AA",
"C&	c #403B20",
"D&	c #373007",
"E&	c #302714",
"F&	c #271C18",
"G&	c #59493D",
"H&	c #74684E",
"I&	c #989263",
"J&	c #868157",
"K&	c #573D3F",
"L&	c #B7B490",
"M&	c #C6C69D",
"N&	c #C3C3A8",
"O&	c #D7D7CC",
"P&	c #F0F0F0",
"Q&	c #BABABB",
"R&	c #B1B1A0",
"S&	c #EEEEC1",
"T&	c #AAAA86",
"U&	c #484223",
"V&	c #3C3508",
"W&	c #3A2F19",
"X&	c #4D3738",
"Y&	c #5A4242",
"Z&	c #110A09",
"`&	c #2B1D1D",
" *	c #694E4D",
".*	c #7E7A63",
"+*	c #E2E2B3",
"@*	c #A2A280",
"#*	c #DDDDB4",
"$*	c #C6C6BB",
"%*	c #D5D5D3",
"&*	c #A7A7A7",
"**	c #9E9E9E",
"=*	c #B1B1AD",
"-*	c #D7D7BA",
";*	c #E9E9B9",
">*	c #7B7A5D",
",*	c #43322A",
"'*	c #443030",
")*	c #6F6856",
"!*	c #D9D8AC",
"~*	c #CBCBA2",
"{*	c #BEBEA9",
"]*	c #BABAB9",
"^*	c #6D6D6D",
"/*	c #0B0B0B",
"(*	c #020202",
"_*	c #4A4A4A",
":*	c #B7B7B6",
"<*	c #919179",
"[*	c #CFCEA4",
"}*	c #585537",
"|*	c #403519",
"1*	c #6C4E4E",
"2*	c #67574E",
"3*	c #A8A685",
"4*	c #C7C79E",
"5*	c #D7D7AF",
"6*	c #A7A7A4",
"7*	c #919191",
"8*	c #060606",
"9*	c #A0A09E",
"0*	c #BCBC9B",
"a*	c #908F70",
"b*	c #45401D",
"c*	c #413907",
"d*	c #31231F",
"e*	c #79735E",
"f*	c #EAE9BA",
"g*	c #C3C39A",
"h*	c #D6D6AB",
"i*	c #B1B194",
"j*	c #A6A6A4",
"k*	c #4B4B4B",
"l*	c #010101",
"m*	c #525252",
"n*	c #A4A4A3",
"o*	c #B2B2A0",
"p*	c #BBBB96",
"q*	c #494834",
"r*	c #2C2703",
"s*	c #2B2504",
"t*	c #382B20",
"u*	c #463333",
"v*	c #736558",
"w*	c #D3D3B0",
"x*	c #81817B",
"y*	c #353533",
"z*	c #3C3B3B",
"A*	c #818181",
"B*	c #A9A9A5",
"C*	c #8B8B6E",
"D*	c #322D11",
"E*	c #3E3606",
"F*	c #2B2503",
"G*	c #241F02",
"H*	c #3E2D28",
"I*	c #1A1010",
"J*	c #674A4A",
"K*	c #453232",
"L*	c #4C3A38",
"M*	c #424033",
"N*	c #6E6E62",
"O*	c #5D5D5C",
"P*	c #7F7F76",
"Q*	c #B2B29A",
"R*	c #6D6C51",
"S*	c #383206",
"T*	c #201B02",
"U*	c #312A04",
"V*	c #363005",
"W*	c #312A08",
"X*	c #513B3A",
"Y*	c #523A3A",
"Z*	c #51353A",
"`*	c #B4B18E",
" =	c #A9A986",
".=	c #D3D3AA",
"+=	c #B0B093",
"@=	c #ADAD8E",
"#=	c #E0E0B2",
"$=	c #E2E2B5",
"%=	c #838265",
"&=	c #3E3712",
"*=	c #211D02",
"==	c #392F16",
"-=	c #43302F",
";=	c #392929",
">=	c #332424",
",=	c #261919",
"'=	c #746457",
")=	c #ACAC88",
"!=	c #ADAD89",
"~=	c #EBEBBB",
"{=	c #E5E5B6",
"]=	c #979778",
"^=	c #3A3516",
"/=	c #413807",
"(=	c #151202",
"_=	c #382828",
":=	c #372727",
"<=	c #675B4E",
"[=	c #A3A381",
"}=	c #C2C29A",
"|=	c #57553F",
"1=	c #302904",
"2=	c #403907",
"3=	c #382E17",
"4=	c #533C3B",
"5=	c #2E2020",
"6=	c #554B40",
"7=	c #88856B",
"8=	c #D3D3A9",
"9=	c #8D896F",
"0=	c #251F09",
"a=	c #2B2604",
"b=	c #413129",
"c=	c #1E1313",
"d=	c #6D5151",
"e=	c #847D67",
"f=	c #CDCCA2",
"g=	c #E0E0B5",
"h=	c #A0A07F",
"i=	c #ECECBD",
"j=	c #B9BA94",
"k=	c #867F69",
"l=	c #6F5953",
"m=	c #3D3022",
"n=	c #403908",
"o=	c #18100C",
"p=	c #160E0E",
"q=	c #69594F",
"r=	c #868369",
"s=	c #CDCDA3",
"t=	c #E8E8B9",
"u=	c #9E997C",
"v=	c #705A54",
"w=	c #42312A",
"x=	c #383006",
"y=	c #252103",
"z=	c #201C02",
"A=	c #251F03",
"B=	c #0B0703",
"C=	c #664B4A",
"D=	c #756F5B",
"E=	c #ABAA87",
"F=	c #C9C99F",
"G=	c #E6E6B7",
"H=	c #BCBA95",
"I=	c #908A71",
"J=	c #312812",
"K=	c #3B3306",
"L=	c #0B0A01",
"M=	c #533D3C",
"N=	c #473734",
"O=	c #5C5246",
"P=	c #483E35",
"Q=	c #9B9679",
"R=	c #918F72",
"S=	c #BDBC96",
"T=	c #C3C29A",
"U=	c #CAC8A0",
"V=	c #9E9B7D",
"W=	c #7F7A64",
"X=	c #8E866F",
"Y=	c #756558",
"Z=	c #513B37",
"`=	c #362E11",
" -	c #383105",
".-	c #65494A",
"+-	c #68504D",
"@-	c #5E4445",
"#-	c #6A5A50",
"$-	c #6D5B52",
"%-	c #51383A",
"&-	c #5C4342",
"*-	c #463332",
"=-	c #39320A",
"--	c #3E3609",
";-	c #3C3506",
">-	c #332D04",
",-	c #211616",
"'-	c #241818",
")-	c #2F2020",
"!-	c #453030",
"~-	c #342323",
"{-	c #513C39",
"]-	c #3D2D27",
"^-	c #322914",
"/-	c #2C2503",
"(-	c #302121",
"_-	c #604545",
":-	c #120E03",
"<-	c #3D2C2C",
"[-	c #644A4A",
"}-	c #573E3E",
"|-	c #150C0C",
"1-	c #291B1B",
"2-	c #1E1414",
"3-	c #030202",
"4-	c #412F2F",
"5-	c #4C3737",
"6-	c #4B3737",
"7-	c #1C1212",
"8-	c #040202",
"9-	c #0D0707",
"0-	c #362525",
"a-	c #2B1E1E",
"b-	c #271A1A",
"                                                                                                                                                                                    ",
"                                                                                                                                                                                    ",
"                                                                                                                                                                                    ",
"                                                                                                                                                                                    ",
"                                                                                                                                                                                    ",
"                                                                                                                                                                                    ",
"                                                                                                                                                                                    ",
"                                                                                                                        .                                                           ",
"                                                                                                                  + + @ # $                                                         ",
"                                                                                                            % & * = - ; = & >                                                       ",
"                                                                                                        , ' ) ! ~ { ] ^ / ( *                                                       ",
"                                                                                                _ : < [ < } } | 1 2 3 4 5 6 ( 7                                                     ",
"                                                                                            8 | 9 0 0 0 0 0 0 0 0 0 a b c d e f                                                     ",
"                                                                                        g | 0 0 0 0 0 0 0 0 0 0 0 0 0 0 } h i j k                                                   ",
"                                                                                      l m n 0 0 0 0 0 0 0 0 0 0 0 0 0 0 0 o p q r         s t u v w x                               ",
"                                                                                    y < 0 0 0 9 z 0 A 9 B 0 0 0 0 0 0 0 0 0 0 C D E F G H I J K L M N                               ",
"                                                                                  O P 0 0 0 o Q m R S T U B 0 0 0 0 0 0 0 0 0 V @ W X Y Z Z ` Z Z  ...                              ",
"                                                                            +.@.#.$.0 0 0 %.&.*.< P =.%.-.;.0 0 0 0 0 0 0 0 0 >.,.'.).Z Z Z Z Z !.~.{.                              ",
"                                                                        ].= ^./.(.a 0 0 n : | B 0 _.:.a <.[.0 0 0 0 0 0 0 0 0 }.|.1.2.Z Z Z Z Z Z 3.4.                              ",
"                                                                  k 5.6.7.8.9.0._.0 0 0 a.b.a 0 0 %.T c.d.e.0 0 0 0 0 0 0 0 n f.g.h.Z Z Z Z Z Z Z i.j.                              ",
"                                                              k.l.m.n.o.p.q.r.s.0 0 0 B t.t.0 0 0 B , z u.A 0 0 0 0 0 0 0 0 n v.w.J Z Z Z Z Z Z !.x.y.                              ",
"                                                        z.* A.B.C.D.z.7 E.= F.;.0 0 0 B G.:.B 0 0 B H.u.H.a 0 0 0 0 0 0 0 0 I.J.K.L.Z Z Z Z Z Z Z M.N.                              ",
"                                                    O.D P.Q.R.n.S.q.7.T.T.R.U.0 0 0 0 0 V.W.%.0 0 c.X.&.Y.0 0 0 0 0 0 0 0 B Z.`. +Z Z Z Z Z Z Z Z .+++                              ",
"                                                @+#+o.8.$+^ %+&+- T.T.T.T.T.*+A 0 0 0 0 P t.=+-+;+>+a.,+} 0 0 0 0 0 0 0 0 0 '+)+!+!.Z Z Z Z Z Z Z Y ~+                              ",
"                                            {+@.; ]+^+/+(+_+:+T.T.T.T.T.R.E.<+[+0 0 0 0 0 =.[+>+G.: }+|+B 0 0 0 0 0 0 0 a 1+2+3+4+Z Z Z Z Z Z Z Z M 5+                              ",
"                                          6+7+8+q.9+0+a+#+b+T.T.T.c+7.E.= d+6.e+9 0 0 0 0 0 0 B a V.f+B 0 0 0 0 0 0 0 0 g+h+i+j+k+Z Z Z Z Z Z Z Z l+m+                              ",
"                                        n+o+^ p+q+& @.o.T.T.T.r+s+r #+E.P.t+; u+v+B 0 0 0 0 0 < , , %.0 0 0 0 0 0 0 0 9 w+x+k.y+z+Z Z Z Z Z Z Z Z Z A+                              ",
"                                      B+C+= 9.9.= D+T.T.T.; D = d+D E+F+c+G+H+I+J+K+L+M+N+O+y : < 0 0 0 0 0 0 0 0 0 [ P+Q+P.R+S+T+Z Z Z Z Z Z Z Z U+V+W+                            ",
"                                      r X+c+e % &+- X+E+_+#+Y+$+E+Z+`+ @.@+@@@#@$@%@&@*@=@-@;@>@,@0 0 0 0 0 0 0 0 0 '@)@c+8.; !@~@Z Z Z Z Z Z Z Z Z {@]@                            ",
"                                    q - :+^@/@H+(@$+= f E.^.- _@:@<@[@}@|@1@2@3@4@5@6@7@8@9@9@0@a@b@c@B 0 0 0 0 0 o d@o.T.T.e@f@).Z Z Z Z Z Z Z Z Z g@G h@$+]+9.E+i@                ",
"                                  +.R.X+#+D._+o.#+f D 7.X+F+j@k@l@m@n@n@3@3@3@o@p@q@r@s@t@u@v@w@x@y@z@A@B@0 0 0 B C@D@]+T.T.E@w.F@Z Z Z Z Z Z Z Z Z g@G@H@; T.T.T.$+                ",
"                                k $+8.5 I@; D @+J@7.8.T.Q.K@L@M@N@n@3@3@3@3@O@P@Q@R@S@T@U@V@W@X@Y@Z@`@ #.#+#0 0 @###R.:+$#^.%#&#*#Z Z Z Z Z Z Z Z Z Z =#-#Z+T.T.T.o.                ",
"                                @+6 $+k.^ + @.;#T.T.T.>#,#'#)#!#3@3@3@3@3@3@~#{#]#^#/#(#(#W+_#:#<#3@3@[#}#;@|#1#2#3#(@#+D.& 4#5#6#Z Z Z Z Z Z Z Z Z Z 7#8#X+T.T.T.E+                ",
"                              9#b+9.C.i@q.Q.:+T.T.T.R.0#a#b#3@3@3@3@3@3@3@3@3@c#d#e#/#(#(#f#g#h#i#3@3@3@j#w@k#l#m#6.n#r (@:+8.o#p#q#Z Z Z Z Z Z Z Z Z r#s#t#9.Z+5 ^                 ",
"                            i@$+c+q.7 u#9.8.T.T.T.R.v#w#x#3@3@3@3@3@3@3@3@3@y#z#A#B#C#D#E#F#G#H#I#J#3@3@3@K#L#M#N#P.T.:+T.8.7.O#P#Q#Z Z Z Z Z Z Z Z Z Z R#S#H@T#0+                  ",
"                          U#].#+V#W#E+8.T.T.T.T.8.X#Y#!#3@3@3@3@3@3@3@3@3@3@3@Z#`# $.$+$@$#$$$%$3@3@3@3@3@3@n@&$*$r+T.T.:+Q.r =$-$;$Z Z Z Z Z Z Z Z Z Z >$,$'$                      ",
"                          & )$].S.f T.T.T.T.T.:+!$~${$]$O@y#3@3@3@3@3@3@3@3@3@3@Z@^$/$($_$:$<$[$3@3@3@3@3@3@3@2@}$|$$#Q.n.o+r - 1$2$Z Z Z Z Z Z Z Z Z Z Z .+F                       ",
"                        h@3$j & p.8.T.T.T.:+_@4$5$6$7$8$9$J#3@3@3@3@3@3@3@3@3@3@3@3@J#3@3@J#3@3@3@3@3@3@3@3@3@3@y#0$a$b$I@Q.T.c$d$e$!.Z Z Z Z Z Z Z Z Z Z q#f$W+                    ",
"                        {+q+5 & s+T.c$:+]+d+/+g$w#h$i$j$y#3@3@3@3@3@3@3@3@3@3@3@3@3@3@3@3@3@3@3@3@3@3@3@3@3@3@3@3@k$l$b$- T.T.T._@m$L ` Z Z Z Z Z Z Z Z Z Z n$o$                    ",
"                      % = (@_+q.c+T.9.].V#p.5 p$q$k$r$1@3@3@3@3@3@3@3@3@3@3@3@3@3@3@3@3@3@3@3@3@3@3@3@3@3@3@3@3@3@1@s$D+8.T.T.T.:+t$u$r#Z Z Z Z Z Z Z Z Z Z v$w$x$                  ",
"                      y$6 ; 9#X+]+D+@+E.8.z$A$B$C$D$E$J#3@3@3@3@3@3@3@3@3@3@3@3@3@3@3@3@3@3@3@3@3@3@3@3@3@3@3@3@3@3@F$G$H$c$8.; - I$J$>$!.Z Z Z Z Z Z Z Z Z Z T+K$L$                ",
"                    M$$+T.f f T.)$9+H+6 T.c+N$O$!#P$Q$R$3@3@3@3@3@3@3@3@3@3@3@3@3@3@3@3@3@3@3@3@3@3@3@3@3@3@3@3@3@3@[#S$T$U$l.q.q./+V$W$X$Z Z Z Z Z Z Z Z Z Z Z Y$Z$`$              ",
"                     %]+(@O.Y+l.6.^.T.T.T..%+%@%3@#%$%%%3@3@3@3@3@3@3@3@3@3@3@3@3@3@J#3@3@3@3@3@3@3@3@3@3@3@3@3@3@3@3@&%*%l.(@=%(@c$(@-%;%!.Z Z Z Z Z Z Z Z Z Z !.M >%              ",
"                    9.T.o.,%q.D+Q.T.T.T.T.'%)%!%3@Z@~%&$<$3@3@3@3@3@3@3@3@3@3@3@3@n@M@2@3@3@3@3@3@3@3@3@3@3@3@3@3@3@3@{%]%Q.8.T.T.T.7.& ^%R#r#Z Z Z Z Z Z Z Z Z Z Z /%(%            ",
"                  _%:%T.#+(+l.R.T.T.T.T.8.<%{$J#3@3@[%}%#%!#3@3@3@3@3@3@3@3@3@3@3@|%1%2%3@3@3@3@3@3@3@3@3@3@3@3@3@3@3@x#3%4%T.8.; r n.E.5%6%7%Z Z Z Z Z Z Z Z Z Z Z Q#x.8%          ",
"                  9#- ]+] * X+T.T.T.T.8.:%9%|%3@3@3@|@0%a%8@j#3@3@3@3@3@3@3@3@3@!%b%c%d%3@3@3@3@3@3@3@3@3@3@3@3@3@3@3@y#e%f%(@E+E.g%:%X+8.d+^%7%Q#Z Z Z Z Z Z Z Z Z Z Z M.F         ",
"                  7 T.( k u#8.T.T.8.6 =%h%i%j#3@3@3@3@n@j%k%l%!%3@3@3@3@3@3@3@3@C$}%7@y#3@3@3@3@3@3@3@3@3@3@3@3@3@3@3@K#m%n%f ] $+- T.T.T.X+o%p%q%Z Z Z Z Z Z Z Z Z Z Z r%s%t%W+    ",
"                W+D D+D.$ E.T.T.z$o.r 6.& u%C$3@3@3@3@3@O@v%w%x%!#3@3@3@3@3@y#[${%y%%@Z@y#3@3@3@3@3@3@3@3@3@3@3@3@3@3@3@x%z%A%B%C%H+6 8.T.- D%E%F%G%H%!.Z Z Z Z Z Z Z Z Z Z I%J%    ",
"                A.= b$E+/@5 6 )$W#@+^.8.K%L%j#3@3@3@3@3@3@3@x@M%w@]$3@3@y#!%N%[%O%*@P%&$v%O@3@3@3@3@3@3@3@3@3@3@3@3@3@[$Q%R%S%T%U%V%W%X%Y%O.@+P.Z%`% &7#!.Z Z Z Z Z Z Z Z g@.&+&    ",
"                n+(+#+8.* O.S.p.;#:+T.T.@&#&y#3@3@3@3@3@3@3@n@$&%&&@3@j#&&*&}%#%Z@3@=&&$s$-&3@3@3@3@3@3@3@3@3@3@3@3@3@<$;&>&0 o 0 } ,&a.'&)&!&~&{&]&^&/&(&_&q#Z Z Z Z !.L.:&F       ",
"                <&9.T.c+[&q $+c+:+T.T.T.g%}&|%3@3@3@3@3@3@3@3@3@8@y%|&1&2&=&3@3@3@3@!#3@3&4&3@3@3@3@3@3@3@3@3@3@3@3@3@]$5&6&0 0 0 0 0 B } %.7&A < 8&9&0&a&b&M.r#!.Z Z c&d&e&        ",
"                & 8.- E.n+= X+T.T.T.; )$].f&g&3@3@3@3@3@3@3@3@3@!%h&i&j&3@3@3@3@3@3@3@3@3@3@3@3@3@3@3@3@3@3@Z@[$3@3@3@L#k&B 0 0 0 0 0 0 0 0 0 0 0 n l&m&n&o&p&q&M.r&s&t&            ",
"                +.X+g%= ^ #+T.T.c+P.= D+)$u&v&K#3@3@3@3@3@3@3@3@y#w&x&x#3@3@3@3@3@3@3@3@3@3@3@3@3@3@3@3@2%y&z&A&j$3@!%B&C&B 0 0 0 0 0 0 0 0 0 0 0 0 0 1#D&E&F&G&H&I&J&              ",
"                n.= S.o.; 3$:+c+g%+.D (@T.K&L&y#3@3@3@3@3@3@3@3@3@7@M&C$3@3@3@3@3@3@3@3@3@3@3@3@3@3@x#7@N&O&P&Q&R&S&O@T&U&0 0 0 0 0 0 0 0 0 0 0 0 0 0 0 0 V&W&X&Y&Z&                ",
"                T#6.9.T.Z+$ 9#`&l.; T.T.T. *.*3@3@3@3@3@3@3@3@3@y#+*@*3@3@3@3@3@3@3@3@3@3@3@3@3@3@3@#*$*%*&*S@**=*-*;*>*B 0 0 0 0 0 0 0 0 0 0 0 0 0 0 0 0 0 B ,*d+&                 ",
"                (+f T.- D+D.'*]+:+T.T.8.]+t+)*!*3@3@3@3@3@3@3@3@3@w#~*C$3@3@3@3@3@3@3@3@3@3@3@3@3@]${*]*^*/*(*_*:*<*[*}*o 0 0 0 0 0 0 0 0 0 0 0 0 0 0 0 0 0 0 |*$ *                 ",
"                6.- 1*&+p.+.+.X+z$6 X+5 [&@+2*3*3@3@3@3@3@3@3@3@j#4*x&3@3@3@3@3@3@3@3@3@3@3@3@3@d%5*6*7*8*W+W+_*9*0*a*b*B 9 c*P B 0 0 0 0 0 0 0 0 0 0 0 0 0 0 B d*j +               ",
"                ].( C+& o.;#q.$+(@E.7 r 7.T.:+e*f*3@3@3@3@3@3@3@Z@g*h*y#3@3@3@3@3@3@3@3@3@3@3@3@y#i*j*k*l*W+m*n*o*p*q*>+r*|+s*O m G.c.9 0 0 0 0 0 0 0 0 0 0 0 } t*n.q+              ",
"                u*].$+8.8.Q.@.3$7 D r+T.T.T.T.v*k%y#3@3@3@3@3@3@!%*@%@3@3@3@3@3@3@3@3@3@3@3@3@3@J#w*x*y*W+z*A*B*x%C*D*V.:.c.%.E*}+F*G*a.t.P B 0 0 0 0 0 0 0 0 b H*Z+6.              ",
"                I*7 ; J*$+l.K*7 7.T.T.6 6 6 5 L*M*]$J#3@3@3@3@3@2@w#k$3@3@3@3@3@3@3@3@3@3@3@3@3@y#O$N*O*O*P*Q*I#b%R*S*P B B t.T*e.a.e.U*<.<.V*0 0 0 0 0 0 0 0 W*X*8.b$              ",
"                @+s+= * D+(@Q.E.I@; )$Y*$+9#S.( Z*`*$&3@3@3@3@3@y# =M&1@3@3@3@3@3@3@3@3@3@3@3@3@3@3@.=+=@=%&#=$=%=&=0 0 0 } b.:.0 9 Y.: < ;.*=P 0 0 0 0 0 0 B ==-=6.;=W+            ",
"                >=m.q.F+R.- (@@+,=* D $+( (@:+:+- '=)=y#y#3@3@3@3@h&!=%%3@3@3@3@3@3@3@3@3@3@3@3@3@3@j#<$~=3@{=]=^=c*0 0 0 V.b.B 0 0 B H.U /=8 d.0 0 0 0 0 0 A (=K*9.]+_=            ",
"                  :='*,%@.D+/+9#7 7 - 8.T.T.T.T.T.8.<=Y#j$J#3@3@3@]$[=}=j#3@3@3@3@3@3@3@3@3@3@3@3@3@3@3@n@Y@l@|=9 0 0 0 B 1=[+B 0 0 0 A _.2=b.d.0 0 0 0 0 B 3=4=r+r+g%C+            ",
"                    ,%D (@9.6 T.F+5=]+T.T.T.T.- 8.X+_+6=7=g&3@3@3@3@&%r$7@C$y#n@3@3@3@3@3@3@3@3@3@3@3@Z@8=9='*0=0 0 0 0 0 Y.V._.0 0 0 0 B d.a=9 0 0 0 0 B I.b=^.^.@.c=              ",
"                      & 6 o.c+6 d=@+p.(@Q.D+9+I@r 6.E.r+E+e=f=N%[$3@C$g=h=r$~=i=[$3@3@3@3@3@3@3@3@<$v%j=k=l=R.m=} 0 0 0 0 _.T u.n=_.[ [ 1=}+A B 0 0 0 B U o=C.A.                    ",
"                        p=n#u*b$] 5=<&D.T#@.u#^+E+8.T.T.T..%q=r=s$2@O@y#N%s=;&k$C$3@3@3@3@3@!#8@t=[*u=v=T.T.o.w=x=0 0 0 0 0 a H.y=&.H.z=H.[ 0 0 0 0 1#;.A=B=                        ",
"                          (+^.E+/@t+s+C+&+Q.6 T.T.T.T.T.T.T.c+C=q=D=E=F=N%G=O@x#3@y#!%n@M@L#}#H=I== o.c+9.q._%l.J=[ 0 0 0 0 0 9 [ _.K=o 1#0 0 0 0 _.b.L=                            ",
"                            J@o.T.T.6 E+l.r :+T.T.T.T.T.T.c$c$]+E+M=N=O=P=Q=R=S=T=h&U=V=W=X=Y=D ; T.)$A.3$g%8.]+Z=`=9 0 0 0 0 0 0 0 0 0 0 0 0 _. -u.y=                              ",
"                              $ ( g%( Y+E._%= (@7.Q.- P.E+H+7 7+r q.E.7.z$.-+-@-#-$-%-&-T.T.8.(@n.i@].o._@:+T.T.Z+*-3 =---9 0 B 0 0 B 1#9 ;-< >-                                    ",
"                                ,-<&^ @.r $ & '-n#q+)-q.7+6.d+5 P.R.T.T.T.T.T.T.T.8.T.8.T.P.!-~-= F+_@:+T.T.T.X+$+n#l.{-]-^-: S*Y.c.Y.=+/-H.                                        ",
"                                  `&'*;#Z+c$X+l.^ 9+R.R.b+T.T.8.T.T.T.T.T.T.T.T.8.8.Q._+(-^ P._@:+T.T.T.T.(@$+q.#+_-]+H+Y&k.:-W+                                                    ",
"                                      <-( - T.]+5 r '*#+o.c+X+8.z$T.T.T.:+Z+7.R.;##+3$I@; _@:+T.T.T.6 o.d+7 6.g%/@E.D 9+'-                                                          ",
"                                        /+6.9.T.z$8.[-p.q.n#@.] P.(@6 o.@+_%r [&J@5 8.T.c$6 (@X+^._+p.@.C+% +.S.V#_%                                                                ",
"                                            ,%@+D+E+R.X+D }-& V#|-O._%h@_=f /@J@5 #+r P.@+S.z.(-1-b$D = _+P.].2-3-                                                                  ",
"                                                  5=C.m.@+p.<&f E.d+D n.f J@& d+q+@.)$m.4-u*'*] ^.(@R._+m.W+3-                                                                      ",
"                                                        3$a+@./@D ;#r+8.T.Z+T.]+8.(@D+] 5-p.E+b+c$g%,%(#                                                                            ",
"                                                                o+(+'*p+f #+o.$+D+6.V#k.6-D ^.b$7-8-                                                                                ",
"                                                                            9-0-a-W+/#b-6.S.                                                                                        ",
"                                                                                                                                                                                    ",
"                                                                                                                                                                                    ",
"                                                                                                                                                                                    ",
"                                                                                                                                                                                    ",
"                                                                                                                                                                                    ",
"                                                                                                                                                                                    ",
"                                                                                                                                                                                    ",
"                                                                                                                                                                                    ",
"                                                                                                                                                                                    ",
"                                                                                                                                                                                    ",
"                                                                                                                                                                                    ",
"                                                                                                                                                                                    "};
