/* XPM */
static char * merry_11_xpm[] = {
"90 90 953 2",
"  	c None",
". 	c #2A1D1D",
"+ 	c #2F2121",
"@ 	c #342424",
"# 	c #443031",
"$ 	c #5F4545",
"% 	c #433030",
"& 	c #231717",
"* 	c #48452D",
"= 	c #4A462E",
"- 	c #453131",
"; 	c #6A4D4D",
"> 	c #513B3B",
", 	c #533B3B",
"' 	c #4D3838",
") 	c #412F2F",
"! 	c #5F5B3C",
"~ 	c #9E9768",
"{ 	c #CCC487",
"] 	c #A29B6A",
"^ 	c #412E2E",
"/ 	c #463232",
"( 	c #684C4C",
"_ 	c #543C3C",
": 	c #493434",
"< 	c #694D4D",
"[ 	c #5A4141",
"} 	c #4E3838",
"| 	c #635F3F",
"1 	c #D6CF8E",
"2 	c #E4DB97",
"3 	c #F8EEA5",
"4 	c #DAD291",
"5 	c #7C7750",
"6 	c #372727",
"7 	c #422F2F",
"8 	c #4A3635",
"9 	c #473331",
"0 	c #3D2E27",
"a 	c #47352F",
"b 	c #4D3836",
"c 	c #523C3B",
"d 	c #543D3C",
"e 	c #503A3A",
"f 	c #1B1111",
"g 	c #7B7650",
"h 	c #847E56",
"i 	c #E3DA96",
"j 	c #F4EAA2",
"k 	c #FAF0A6",
"l 	c #E6DC98",
"m 	c #6F6A47",
"n 	c #110D02",
"o 	c #2B2018",
"p 	c #27200B",
"q 	c #38300D",
"r 	c #383109",
"s 	c #3E3606",
"t 	c #362F0A",
"u 	c #332C07",
"v 	c #3D350E",
"w 	c #3B2C24",
"x 	c #3E2C2D",
"y 	c #573F3F",
"z 	c #231818",
"A 	c #868157",
"B 	c #B7B078",
"C 	c #EBE29C",
"D 	c #F6ECA3",
"E 	c #C9C184",
"F 	c #2A2503",
"G 	c #2E2804",
"H 	c #3D3507",
"I 	c #3D3607",
"J 	c #423A08",
"K 	c #413908",
"L 	c #413A08",
"M 	c #41390C",
"N 	c #43322A",
"O 	c #58443F",
"P 	c #8D865C",
"Q 	c #ECE29C",
"R 	c #D8D08F",
"S 	c #7B764F",
"T 	c #030200",
"U 	c #332D05",
"V 	c #3C3407",
"W 	c #42390E",
"X 	c #43322C",
"Y 	c #4F3C38",
"Z 	c #989164",
"` 	c #F3E9A1",
" .	c #F6ECA4",
"..	c #A9A26F",
"+.	c #262203",
"@.	c #373006",
"#.	c #433A08",
"$.	c #3E350D",
"%.	c #31231F",
"&.	c #989265",
"*.	c #F2E9A1",
"=.	c #D2C98A",
"-.	c #918B5E",
";.	c #262103",
">.	c #393206",
",.	c #3A3306",
"'.	c #30261C",
").	c #847E57",
"!.	c #F0E79F",
"~.	c #958F62",
"{.	c #252003",
"].	c #3F3707",
"^.	c #342C17",
"/.	c #615A3F",
"(.	c #E7DD99",
"_.	c #DCD392",
":.	c #706B48",
"<.	c #352E05",
"[.	c #3B3306",
"}.	c #272205",
"|.	c #77714D",
"1.	c #EEE49E",
"2.	c #C2BA80",
"3.	c #282303",
"4.	c #383106",
"5.	c #272203",
"6.	c #2F2904",
"7.	c #302A05",
"8.	c #211D02",
"9.	c #3C3507",
"0.	c #2E2806",
"a.	c #5E573C",
"b.	c #CFC789",
"c.	c #DDD492",
"d.	c #898459",
"e.	c #271A1A",
"f.	c #403908",
"g.	c #342D05",
"h.	c #352F05",
"i.	c #342D0B",
"j.	c #3C2D29",
"k.	c #C6BD83",
"l.	c #F7EDA4",
"m.	c #FBF1A7",
"n.	c #CFC688",
"o.	c #000000",
"p.	c #553E3E",
"q.	c #644949",
"r.	c #674C4C",
"s.	c #614747",
"t.	c #4F3939",
"u.	c #403808",
"v.	c #2D2704",
"w.	c #3A3207",
"x.	c #332C08",
"y.	c #514337",
"z.	c #A79F6E",
"A.	c #FBF0A7",
"B.	c #C6BE83",
"C.	c #432F2F",
"D.	c #6C4F4F",
"E.	c #604646",
"F.	c #3B3507",
"G.	c #332C05",
"H.	c #312B05",
"I.	c #3B3406",
"J.	c #383206",
"K.	c #4A3634",
"L.	c #8A805B",
"M.	c #EDE49D",
"N.	c #ADA672",
"O.	c #302221",
"P.	c #674B4B",
"Q.	c #513A3A",
"R.	c #1D1808",
"S.	c #312B04",
"T.	c #322C05",
"U.	c #2C2604",
"V.	c #403807",
"W.	c #372D19",
"X.	c #6C6447",
"Y.	c #D3CA8C",
"Z.	c #F9EFA5",
"`.	c #D8CF8F",
" +	c #A0966A",
".+	c #634848",
"++	c #6D4F4F",
"@+	c #624848",
"#+	c #473233",
"$+	c #312811",
"%+	c #2B2604",
"&+	c #2C2215",
"*+	c #3C2A2A",
"=+	c #3F2D2D",
"-+	c #B8AE7A",
";+	c #D6CE8E",
">+	c #A69A6F",
",+	c #5F4444",
"'+	c #4D3737",
")+	c #533C3C",
"!+	c #372C1B",
"~+	c #1C1802",
"{+	c #272103",
"]+	c #3C340B",
"^+	c #2A1E18",
"/+	c #664C4B",
"(+	c #736A4D",
"_+	c #E3DA97",
":+	c #D5CD8D",
"<+	c #9C9367",
"[+	c #2B1E1D",
"}+	c #040402",
"|+	c #624747",
"1+	c #5D4443",
"2+	c #332B0F",
"3+	c #3E3707",
"4+	c #3E3607",
"5+	c #302A04",
"6+	c #332C0B",
"7+	c #57403F",
"8+	c #6B4E4E",
"9+	c #6D5C4B",
"0+	c #D3C98B",
"a+	c #F5EBA2",
"b+	c #ACA571",
"c+	c #0F0E06",
"d+	c #3A2929",
"e+	c #654A4A",
"f+	c #5B4342",
"g+	c #3A3113",
"h+	c #2D2804",
"i+	c #2B2603",
"j+	c #392E1C",
"k+	c #5A4242",
"l+	c #614946",
"m+	c #827A55",
"n+	c #D9D190",
"o+	c #B6AF78",
"p+	c #1C1212",
"q+	c #5D4444",
"r+	c #4A3535",
"s+	c #3E2D2C",
"t+	c #2F2A04",
"u+	c #373005",
"v+	c #3F3807",
"w+	c #3C2F22",
"x+	c #664A4A",
"y+	c #654949",
"z+	c #756C4D",
"A+	c #C8BF84",
"B+	c #F9EFA6",
"C+	c #F8EEA4",
"D+	c #C9C084",
"E+	c #595538",
"F+	c #473333",
"G+	c #553D3D",
"H+	c #3E2C2C",
"I+	c #382C1A",
"J+	c #3E3608",
"K+	c #34281E",
"L+	c #664B4A",
"M+	c #684B4B",
"N+	c #3D2B2B",
"O+	c #483234",
"P+	c #9A8F67",
"Q+	c #E8DE9A",
"R+	c #FCF1A7",
"S+	c #D1C98A",
"T+	c #A09968",
"U+	c #3A2828",
"V+	c #6D5050",
"W+	c #493731",
"X+	c #332D04",
"Y+	c #3F3708",
"Z+	c #473530",
"`+	c #5D4743",
" @	c #ABA270",
".@	c #F2E8A1",
"+@	c #E5DB97",
"@@	c #6D6846",
"#@	c #595438",
"$@	c #291C1C",
"%@	c #4A3434",
"&@	c #563F3F",
"*@	c #382C1C",
"=@	c #3D3609",
"-@	c #292303",
";@	c #352E06",
">@	c #4C4626",
",@	c #3D360B",
"'@	c #433C14",
")@	c #3F380B",
"!@	c #362F07",
"~@	c #402D2D",
"{@	c #5C4242",
"]@	c #60563F",
"^@	c #BBB37C",
"/@	c #E9E09A",
"(@	c #A7A16E",
"_@	c #999364",
":@	c #483434",
"<@	c #5D4343",
"[@	c #5B4242",
"}@	c #5E4444",
"|@	c #473232",
"1@	c #423226",
"2@	c #342C09",
"3@	c #413C1D",
"4@	c #585539",
"5@	c #434331",
"6@	c #929172",
"7@	c #9C9C7A",
"8@	c #99997A",
"9@	c #949473",
"0@	c #939272",
"a@	c #7E7E62",
"b@	c #717055",
"c@	c #6A684B",
"d@	c #373008",
"e@	c #413909",
"f@	c #3F3806",
"g@	c #372E11",
"h@	c #563F3E",
"i@	c #7A6E51",
"j@	c #C0B87F",
"k@	c #E7DE99",
"l@	c #BCB47C",
"m@	c #9D9767",
"n@	c #2D2B1B",
"o@	c #584040",
"p@	c #52443B",
"q@	c #494735",
"r@	c #989777",
"s@	c #A3A381",
"t@	c #CBCBA2",
"u@	c #D8D8AC",
"v@	c #DBDBAF",
"w@	c #DDDDB1",
"x@	c #CFCFA4",
"y@	c #FAFAC7",
"z@	c #F2F2C1",
"A@	c #F1F1C0",
"B@	c #EEEDBD",
"C@	c #CFCFA5",
"D@	c #B0B08B",
"E@	c #8B8A6C",
"F@	c #4E4C33",
"G@	c #343121",
"H@	c #352625",
"I@	c #5B4141",
"J@	c #6E5050",
"K@	c #807556",
"L@	c #C2B980",
"M@	c #D3CB8B",
"N@	c #020201",
"O@	c #594040",
"P@	c #736257",
"Q@	c #AAA887",
"R@	c #FCFCC8",
"S@	c #CDCDA4",
"T@	c #CECEAF",
"U@	c #95958B",
"V@	c #A6A69F",
"W@	c #B1B1A3",
"X@	c #C5C5AB",
"Y@	c #FCFCC9",
"Z@	c #FFFFCB",
"`@	c #FEFECA",
" #	c #E9E9BA",
".#	c #DEDEB0",
"+#	c #908F72",
"@#	c #7A745F",
"##	c #5E4544",
"$#	c #362525",
"%#	c #614646",
"&#	c #6E5151",
"*#	c #7D7254",
"=#	c #BDB57D",
"-#	c #F5EBA3",
";#	c #ECE39D",
">#	c #817C54",
",#	c #1C1111",
"'#	c #614B47",
")#	c #6F6555",
"!#	c #CFCEA4",
"~#	c #FFFFCC",
"{#	c #FFFFCE",
"]#	c #B8B89C",
"^#	c #82827A",
"/#	c #B6B6B6",
"(#	c #818180",
"_#	c #818181",
":#	c #B7B7B7",
"<#	c #B2B2AD",
"[#	c #C7C7A9",
"}#	c #FEFECB",
"|#	c #F0F0BF",
"1#	c #D9D9AD",
"2#	c #AAA686",
"3#	c #695E51",
"4#	c #6D504F",
"5#	c #74694F",
"6#	c #B0A974",
"7#	c #EDE39E",
"8#	c #D7CF8F",
"9#	c #938C5F",
"0#	c #3B2A2A",
"a#	c #746558",
"b#	c #848368",
"c#	c #E2E2B4",
"d#	c #F7F7C5",
"e#	c #B6B69B",
"f#	c #646464",
"g#	c #4E4E4E",
"h#	c #393939",
"i#	c #010000",
"j#	c #464646",
"k#	c #CBCBCB",
"l#	c #C8C8B5",
"m#	c #F8F8C6",
"n#	c #FDFDC9",
"o#	c #BABA94",
"p#	c #878369",
"q#	c #504336",
"r#	c #A3996D",
"s#	c #D9CF90",
"t#	c #F1E7A0",
"u#	c #ECE39C",
"v#	c #1E1414",
"w#	c #3C2929",
"x#	c #543D3D",
"y#	c #634949",
"z#	c #7C6E5F",
"A#	c #9F9F7E",
"B#	c #EEEEBF",
"C#	c #FDFDCA",
"D#	c #D7D7AE",
"E#	c #70706A",
"F#	c #3D3D3D",
"G#	c #191818",
"H#	c #8E8E8E",
"I#	c #BBBBBA",
"J#	c #939381",
"K#	c #F3F3C2",
"L#	c #CECEA4",
"M#	c #A19E7F",
"N#	c #583F3F",
"O#	c #4B3636",
"P#	c #563E3E",
"Q#	c #887E5B",
"R#	c #ABA370",
"S#	c #DFD694",
"T#	c #1F1D10",
"U#	c #443030",
"V#	c #3D2A2A",
"W#	c #6A5C50",
"X#	c #989879",
"Y#	c #F0F0C0",
"Z#	c #848476",
"`#	c #464645",
" $	c #171616",
".$	c #262626",
"+$	c #8C8C8C",
"@$	c #ACACAC",
"#$	c #ACACAA",
"$$	c #E4E4BC",
"%$	c #E0E0B2",
"&$	c #B2AF8C",
"*$	c #583E3F",
"=$	c #594141",
"-$	c #4B3536",
";$	c #5B4C3F",
">$	c #70654B",
",$	c #AEA574",
"'$	c #CAC285",
")$	c #E9DF9B",
"!$	c #7B754F",
"~$	c #453030",
"{$	c #6D5C51",
"]$	c #8C8C6F",
"^$	c #EEEDBF",
"/$	c #F8F8C7",
"($	c #A9A992",
"_$	c #7B7B79",
":$	c #7A7979",
"<$	c #8F8F8F",
"[$	c #B9B9B9",
"}$	c #C3C3C2",
"|$	c #A9A9A7",
"1$	c #E3E3BC",
"2$	c #F9F9C7",
"3$	c #E3E3B4",
"4$	c #AFAD8B",
"5$	c #221216",
"6$	c #5C4343",
"7$	c #503939",
"8$	c #67504A",
"9$	c #524239",
"0$	c #90885F",
"a$	c #D9D091",
"b$	c #DBD291",
"c$	c #E8DE99",
"d$	c #F1E8A0",
"e$	c #B9B279",
"f$	c #2C1F1F",
"g$	c #694C4C",
"h$	c #7D7B62",
"i$	c #EDEDBE",
"j$	c #F5F5C5",
"k$	c #BBBBA8",
"l$	c #AEAEA6",
"m$	c #B4B4A9",
"n$	c #CFCFC1",
"o$	c #A1A188",
"p$	c #E4E4BA",
"q$	c #9E9B7C",
"r$	c #644848",
"s$	c #453232",
"t$	c #5A4640",
"u$	c #6D5F4B",
"v$	c #605540",
"w$	c #968C64",
"x$	c #ADA572",
"y$	c #C9C085",
"z$	c #CCC387",
"A$	c #C9C185",
"B$	c #D4CB8C",
"C$	c #C8C084",
"D$	c #938D60",
"E$	c #362626",
"F$	c #6D6052",
"G$	c #DBDAAE",
"H$	c #F7F7C6",
"I$	c #E1E1B4",
"J$	c #E1E1B3",
"K$	c #F4F4C2",
"L$	c #F2F2C0",
"M$	c #CACAA1",
"N$	c #827A65",
"O$	c #4C3736",
"P$	c #483531",
"Q$	c #3E2C2A",
"R$	c #392828",
"S$	c #32261F",
"T$	c #40342A",
"U$	c #504137",
"V$	c #514B34",
"W$	c #5C523D",
"X$	c #645345",
"Y$	c #5B553A",
"Z$	c #180F0F",
"`$	c #523B3B",
" %	c #664B4B",
".%	c #6B524F",
"+%	c #A4A282",
"@%	c #EDEDBD",
"#%	c #B5B38F",
"$%	c #594742",
"%%	c #634847",
"&%	c #5C4342",
"*%	c #261919",
"=%	c #312619",
"-%	c #2F280A",
";%	c #39310C",
">%	c #39300B",
",%	c #30290B",
"'%	c #352B15",
")%	c #261D11",
"!%	c #4E3936",
"~%	c #251919",
"{%	c #402E2E",
"]%	c #51423C",
"^%	c #CBCAA2",
"/%	c #8B886D",
"(%	c #312222",
"_%	c #342523",
":%	c #362920",
"<%	c #392E1B",
"[%	c #382E18",
"}%	c #302907",
"|%	c #3D350F",
"1%	c #43322B",
"2%	c #4E3839",
"3%	c #6B4F4F",
"4%	c #9D997C",
"5%	c #F4F4C3",
"6%	c #F7F7C4",
"7%	c #A6A684",
"8%	c #45422C",
"9%	c #382A21",
"0%	c #241818",
"a%	c #483333",
"b%	c #332323",
"c%	c #5C4543",
"d%	c #ACAB88",
"e%	c #49462C",
"f%	c #413907",
"g%	c #3F360B",
"h%	c #362821",
"i%	c #4B3535",
"j%	c #706255",
"k%	c #D8D7AB",
"l%	c #F5F5C3",
"m%	c #767559",
"n%	c #423B0D",
"o%	c #28210A",
"p%	c #5B4241",
"q%	c #3B2929",
"r%	c #1A1010",
"s%	c #645D4D",
"t%	c #DBDBAE",
"u%	c #D6D6A9",
"v%	c #FBFBC7",
"w%	c #F6F6C4",
"x%	c #8A8969",
"y%	c #372C16",
"z%	c #9C987B",
"A%	c #939374",
"B%	c #EBEBBB",
"C%	c #ECECBD",
"D%	c #B5B590",
"E%	c #929273",
"F%	c #383105",
"G%	c #352D10",
"H%	c #4D3C38",
"I%	c #A9A986",
"J%	c #B6B690",
"K%	c #EAEABA",
"L%	c #E4E4B5",
"M%	c #B9B993",
"N%	c #484221",
"O%	c #261C15",
"P%	c #422E2E",
"Q%	c #413A30",
"R%	c #BDBC96",
"S%	c #DCDCAE",
"T%	c #A1A17F",
"U%	c #F3F3C1",
"V%	c #EFEFBF",
"W%	c #E5E5B6",
"X%	c #C6C69D",
"Y%	c #474323",
"Z%	c #362F05",
"`%	c #120A0A",
" &	c #493535",
".&	c #4F3838",
"+&	c #4C3737",
"@&	c #65504B",
"#&	c #CCCCA2",
"$&	c #D9D9AC",
"%&	c #B9B992",
"&&	c #ECECBC",
"*&	c #D8D8AB",
"=&	c #C2C2A1",
"-&	c #B8B8B0",
";&	c #BDBDAE",
">&	c #C2C2A8",
",&	c #C4C49C",
"'&	c #4F4B2E",
")&	c #3F3808",
"!&	c #363006",
"~&	c #393106",
"{&	c #342E05",
"]&	c #362F06",
"^&	c #393013",
"/&	c #4C3636",
"(&	c #68574E",
"_&	c #C7C79E",
":&	c #C9C99F",
"<&	c #E9E9B9",
"[&	c #8C8C6E",
"}&	c #C5C59C",
"|&	c #A0A07E",
"1&	c #A0A07F",
"2&	c #CBCBA1",
"3&	c #E8E8BA",
"4&	c #BCBC9C",
"5&	c #E4E4DF",
"6&	c #B2B2B2",
"7&	c #C3C3C3",
"8&	c #ACACA8",
"9&	c #BDBDA0",
"0&	c #D2D1A7",
"a&	c #4A4627",
"b&	c #241F02",
"c&	c #312A05",
"d&	c #322B05",
"e&	c #352D12",
"f&	c #2D1F1F",
"g&	c #67544D",
"h&	c #C1C099",
"i&	c #A4A481",
"j&	c #C8C89F",
"k&	c #ECECBB",
"l&	c #EDEDBC",
"m&	c #ADAD89",
"n&	c #FBFBC8",
"o&	c #CACAA6",
"p&	c #E1E1DA",
"q&	c #A9A9A8",
"r&	c #090909",
"s&	c #414141",
"t&	c #B0B0B0",
"u&	c #AFAF9E",
"v&	c #BDBD97",
"w&	c #474325",
"x&	c #373105",
"y&	c #1F1B02",
"z&	c #2C2603",
"A&	c #3B3407",
"B&	c #1F1610",
"C&	c #634A48",
"D&	c #BEBD97",
"E&	c #F9F9C6",
"F&	c #D0D0A5",
"G&	c #B2B28D",
"H&	c #AEAE89",
"I&	c #E3E3B5",
"J&	c #EEEEBD",
"K&	c #F5F5C4",
"L&	c #BDBDB1",
"M&	c #ABABAB",
"N&	c #101010",
"O&	c #010101",
"P&	c #838383",
"Q&	c #89897F",
"R&	c #A5A584",
"S&	c #413E28",
"T&	c #3A3407",
"U&	c #3C3406",
"V&	c #211C02",
"W&	c #161203",
"X&	c #644B49",
"Y&	c #A6A583",
"Z&	c #E7E7B8",
"`&	c #AEAE8A",
" *	c #ABAB87",
".*	c #BDBD96",
"+*	c #E6E6B7",
"@*	c #EFEFBE",
"#*	c #DFDFB3",
"$*	c #C0C0BA",
"%*	c #A1A1A1",
"&*	c #1D1D1D",
"**	c #484848",
"=*	c #A5A5A5",
"-*	c #B2B297",
";*	c #ACAC88",
">*	c #35311A",
",*	c #2A2403",
"'*	c #999678",
")*	c #D5D5A9",
"!*	c #C4C49B",
"~*	c #D6D6AA",
"{*	c #DADAB2",
"]*	c #A8A8A5",
"^*	c #565656",
"/*	c #040404",
"(*	c #2E2E2E",
"_*	c #9D9D9B",
":*	c #CDCDAB",
"<*	c #C2C29A",
"[*	c #3E3A1E",
"}*	c #322B04",
"|*	c #0D0B01",
"1*	c #8D886F",
"2*	c #A7A784",
"3*	c #828266",
"4*	c #A4A49E",
"5*	c #6E6E6D",
"6*	c #0E0E0D",
"7*	c #181717",
"8*	c #727272",
"9*	c #B7B7A1",
"0*	c #E5E5B7",
"a*	c #8F8F71",
"b*	c #3E3712",
"c*	c #363005",
"d*	c #191502",
"e*	c #604545",
"f*	c #644948",
"g*	c #595244",
"h*	c #DDDDB0",
"i*	c #DFDFB1",
"j*	c #B3B39E",
"k*	c #73736D",
"l*	c #5C5C5C",
"m*	c #9A9A83",
"n*	c #F1F1C1",
"o*	c #838264",
"p*	c #3D3506",
"q*	c #433B08",
"r*	c #312A04",
"s*	c #170E0E",
"t*	c #4E3939",
"u*	c #5C5346",
"v*	c #D7D6AA",
"w*	c #DCDCAF",
"x*	c #CDCDA2",
"y*	c #9F9F84",
"z*	c #8E8E7B",
"A*	c #9E9E86",
"B*	c #484631",
"C*	c #2C2504",
"D*	c #2A2504",
"E*	c #5F4645",
"F*	c #848067",
"G*	c #858569",
"H*	c #AEAD8A",
"I*	c #2A2211",
"J*	c #736758",
"K*	c #B7B791",
"L*	c #F8F8C5",
"M*	c #DEDDB2",
"N*	c #463533",
"O*	c #3F2E2A",
"P*	c #2F2804",
"Q*	c #86846A",
"R*	c #C3C39C",
"S*	c #B4B48F",
"T*	c #E7E7B9",
"U*	c #848268",
"V*	c #6B554F",
"W*	c #403224",
"X*	c #2C2704",
"Y*	c #0F0D01",
"Z*	c #523C3C",
"`*	c #A4A081",
" =	c #BBBB94",
".=	c #B8B992",
"+=	c #7C6D5F",
"@=	c #3C2B2B",
"#=	c #3E2F23",
"$=	c #322B06",
"%=	c #4B2F35",
"&=	c #B7B490",
"*=	c #A2A280",
"==	c #F6F6C3",
"-=	c #D2D2A7",
";=	c #887E69",
">=	c #4C3833",
",=	c #3D2F24",
"'=	c #392F17",
")=	c #3B2E20",
"!=	c #322719",
"~=	c #211A0A",
"{=	c #0F0C01",
"]=	c #6A4E4E",
"^=	c #64584C",
"/=	c #C5C49C",
"(=	c #B4B48E",
"_=	c #DFDFB2",
":=	c #8D866E",
"<=	c #3C2B2A",
"[=	c #614847",
"}=	c #150C0C",
"|=	c #332424",
"1=	c #110909",
"2=	c #644B4A",
"3=	c #6F6B56",
"4=	c #C6C59D",
"5=	c #ACAC89",
"6=	c #C9C9A0",
"7=	c #DEDEB1",
"8=	c #8F886F",
"9=	c #443131",
"0=	c #573E3E",
"a=	c #261A1A",
"b=	c #302121",
"c=	c #5E4545",
"d=	c #614947",
"e=	c #79705E",
"f=	c #BFBF97",
"g=	c #888069",
"h=	c #2D1E1E",
"i=	c #322222",
"j=	c #6E5251",
"k=	c #776F5D",
"l=	c #BFBF98",
"m=	c #D3D3A7",
"n=	c #B5B58F",
"o=	c #AAAA87",
"p=	c #D2D2A8",
"q=	c #E2E2B5",
"r=	c #847766",
"s=	c #221616",
"t=	c #594241",
"u=	c #3C342D",
"v=	c #B0AD8A",
"w=	c #C1C199",
"x=	c #D5D4A9",
"y=	c #574F42",
"z=	c #715D55",
"A=	c #372626",
"B=	c #281B1B",
"C=	c #493333",
"D=	c #553A3C",
"E=	c #918A71",
"F=	c #F0F0BE",
"G=	c #C2C19A",
"H=	c #A7A484",
"I=	c #462E31",
"J=	c #5E4344",
"K=	c #191010",
"L=	c #66524C",
"M=	c #655C4D",
"N=	c #5F5B4A",
"O=	c #ACA988",
"P=	c #DADAAD",
"Q=	c #D4D4A8",
"R=	c #C0BF98",
"S=	c #7A755F",
"T=	c #7D7461",
"U=	c #56423F",
"V=	c #1F1515",
"W=	c #352525",
"X=	c #392929",
"Y=	c #6C4E4E",
"Z=	c #644A49",
"`=	c #644849",
" -	c #5C4643",
".-	c #67574D",
"+-	c #64554B",
"@-	c #6C6052",
"#-	c #685B4F",
"$-	c #5A5345",
"%-	c #50453C",
"&-	c #4E3A39",
"*-	c #69504D",
"=-	c #654849",
"--	c #563D3D",
";-	c #1F1414",
">-	c #100909",
",-	c #6C5050",
"'-	c #281C1C",
")-	c #211616",
"!-	c #271B1B",
"~-	c #2F2020",
"{-	c #463131",
"]-	c #251818",
"^-	c #1E1313",
"/-	c #1D1313",
"(-	c #352424",
"_-	c #3E2B2B",
":-	c #3F2C2C",
"<-	c #322323",
"[-	c #2B1D1D",
"}-	c #110A0A",
"|-	c #634747",
"1-	c #0C0707",
"2-	c #433131",
"3-	c #2B1E1E",
"4-	c #382727",
"                                                                                                                                                                                    ",
"                                                                                                                                                                                    ",
"                                                                                                                                                                                    ",
"                                                                                                                                                                                    ",
"                                                                                        . +                                                                                         ",
"                                                                                      @ # $ % &                       * =                                                           ",
"                                                                                    @ - ; > , ' )                 ! ~ { ]                                                           ",
"                                                                                  ^ / ( _ : < ( [ }             | 1 2 3 4 5                                                         ",
"                                                                                6 7 8 9 0 a b c d e - f     g h i j k k l m                                                         ",
"                                                                              n o p q r s s t u v w x y z A B C k k k k D E                                                         ",
"                                                                            F G H I J J J J J K L M N e O P Q k k k k k k R S                                                       ",
"                                                                        T U V K J J J J J J J J J J W X Y Z ` k k k k k k  ...                                                      ",
"                                                                      +.@.#.J J J J J J J J J J J J J $.%.&.*.k k k k k k 3 =.-.                                                    ",
"                                                                    ;.>.J J J J J J J J J J J J J J J ,.'.).C k k k k k k k !.~.                                                    ",
"                                                                  {.>.J J J J J J J J J J J J J J J J ].^./.(.k k k k k k k 3 _.:.                                                  ",
"                                                                  <.J J J J K ,.[.].K J J J J J J J J L }.|.(.k k k k k k k k 1.2.                                                  ",
"                                                                3.H J J I 4.5.6.7.8.9.K J J J J J J J L 0.a.b.k k k k k k k k k c.d.          7 e.                                  ",
"                                                                G K J f.g.7.h.K f.g.{.].J J J J J J J J i.j.k.l.k k k k k k k k m.n.o.    p.q.r.s.t.                                ",
"                                                              ;.u.J J f.v.,.K 9.w.].6.[.J J J J J J J J x.y.z.!.k k k k k k k k k A.B.o.C.q.D.D.D.E.                                ",
"                                                              F.K J K v.G.J J ,.H.I.6.J.J J J J J J J K F K.L.` k k k k k k k k k k M.N.O.q.D.D.D.P.Q.                              ",
"                                                            R.I.J J 9.S.u.J J J T.U.T.>.J J J J J J J V.W.y X.Y.Z.k k k k k k k k k Z.`. +.+D.D.++@+                                ",
"                                                          #+$+].J J 4.3.K J J J V.%+U.9.J J J J J J J ,.&+*+=+-+Z.k k k k k k k k k k Z.;+>+E..+,+C.                                ",
"                                                        '+)+!+K J J K 6.I.J J J I.~+{+4.J J J J J J J ]+^+[ /+(+_+k k k k k k k k k k k Z.:+<+[+}+                                  ",
"                                                      '+|+1+2+K J J u.U 4.3+J 4+@.5+6.V J J J J J J K 6+7+8+( 9+0+a+k k k k k k k k k k k Z.;+b+c+                                  ",
"                                                    d+E.e+f+g+J J J J H v.h+v.{.7.G i+K J J J J J J J j+k+D.D.l+m+Q k k k k k k k k k k k k Z.n+o+o.                                ",
"                                                  p+y q+r+s+t+J J J J J ].H @.9.].u+T.V.J J J J J J v+w+x+D.++y+z+A+j k k k k k k k k k k k k B+C+D+E+                              ",
"                                                F+C.G+H+E.Q.I+J J J J J J J J J 9.~+>.J J J J J J J J+K+L+++M+N+O+P+Q+C+k k k k k k k k k k k k k R+S+T+m                           ",
"                                              7 =+U+- .+D.V+W+X+J J J J J J J H 5.>.J J J J J J J J Y+Z+P.P.N+y ++`+ @.@B+k k k k k k k k k k k k k k +@=.@@#@                      ",
"                                            $@%@C.C.q.D.D.D.&@*@4.J J J J J =@-@;@>@,@V.'@)@J J J J !@K..+~@y ++D.{@]@^@l.k k k k k k k k k k k k k k k j /@(@_@o.                  ",
"                                          :@<@[@- .+D.D.D.}@Q.|@1@2@u.H 3@4@5@6@7@8@9@0@a@b@c@d@e@f@g@/ % [ V+D.x+)+h@i@j@Z.k k k k k k k k k k k k k k k k *.k@l@m@n@              ",
"                                        )+|+q+N+.+D.D.D.}@_ o@q..+p@q@r@s@t@u@v@w@x@y@z@A@B@C@D@E@F@G@H@I@V+D.V+I@H+x+J@K@L@3 B+k k k k k k k k k k k k k k k Z.k 2 M@-.5 N@        ",
"                                      ' q.O@f |+D.D.D.}@_ o@P..+P@Q@C@A@R@S@T@U@V@W@X@Y@Z@Z@`@Y@ #.#+#@###D.D.}@$#%#D.++&#*#=#-#Z.k k k k k k k k k k k k k k k k k Z.;#j >#        ",
"                                    '+|+<@,#Q.8+D.D.}@_ o@r.'#)#!# #~#{#]#^#/#(#_#:#<#[#`@Z@Z@Z@Z@}#|#1#2#3#< } }@8+D.D.++4#5#6#7# .k k k k k k k k k k k k k k k k k k 8#9#        ",
"                                  - |+@+C.0#q+D.D.}@_ o@( a#b#c#d#Z@{#e#f#g#h#i#i#j#k#l#m#Z@Z@Z@Z@Z@Z@`@n#o#p#: E.D.D.D.P.e+H+q#r#s#t#3 k k k k k k k k k k k k k k k u#o+o.        ",
"                                v#<@$ %@w#x#D.D.}@_ o@y#z#A#B#C#Z@Z@D#E#F#G#i#i#i#H#I#J#K#Z@Z@Z@Z@Z@Z@Z@Z@Z@L#M#N#P.++@+O#, y J@P#Q#R#S#1.k k k k k k k k k k k k k Z.;+T#          ",
"                                U#I@V#O#x#D.D.}@_ o@r.W#X#Y#Z@Z@Z@`@w@Z#`# $.$o.+$@$#$$$`@Z@Z@Z@Z@Z@Z@Z@Z@Z@Z@%$&$*$O@d+$ .+D.D.=$-$;$>$,$'$)$C+3 k k k k k k k k k 2 !$            ",
"                              o.@ ~$o@)+[@D.}@_ O@( {$]$^$~#Z@Z@Z@Z@/$($_$:$<$[$}$|$1$2$Z@Z@Z@Z@Z@Z@Z@Z@Z@Z@Z@Z@3$4$5$O@; D.D.6$7$.+( .+8$9$0$z.a$b$c$l.j l.Z.k C+d$e$              ",
"                              f$U#.+_ O#g$}@_ o@P.##h$i$~#Z@Z@Z@Z@Z@Z@j$k$l$m$n$o$p$2$Z@Z@Z@Z@Z@Z@Z@Z@Z@Z@Z@Z@Z@Z@%$q$q.++D.r$y }@< D.D.8+o@s$t$u$v$w$~ x$y$z$A$B$C$D$              ",
"                              E$q.q.r+y+$ )+o@P.P.F$G$C#Z@Z@Z@Z@Z@Z@Z@C#H$I$J$K$L$Z@Z@Z@Z@Z@Z@Z@Z@Z@Z@Z@Z@Z@Z@Z@Z@Z@M$N$V+e+[@7$x+D.D.D.q+:@p.O$P$Q$R$S$T$U$V$W$X$Y$                ",
"                            Z$E.D.E.'+$ x#`$ %D..%+%@%Z@Z@Z@Z@Z@Z@Z@Z@Z@Z@Z@Z@Z@Z@Z@Z@Z@Z@Z@Z@Z@Z@Z@Z@Z@Z@Z@Z@Z@Z@Z@Z@#%$%[@} $ |+%%&%Q.:@*%=%-%4.;%>%u+,%'%)%!%`$&@~%              ",
"                            {%P.P.*+G+6$% @+D.; ]%^%~#Z@Z@Z@Z@Z@Z@Z@Z@Z@Z@Z@Z@Z@Z@Z@Z@Z@Z@Z@Z@Z@Z@Z@Z@Z@Z@Z@Z@Z@Z@Z@Z@z@/%(%_%a :%<%[%i+}%H.>.J J J J J J K V |%1%2%F+p+            ",
"                            e 3%6$)+=$=+|+D.D.e+4%5%Z@Z@Z@Z@Z@Z@Z@Z@Z@Z@Z@Z@Z@Z@Z@Z@Z@Z@Z@Z@Z@Z@Z@Z@Z@Z@Z@Z@Z@Z@Z@Z@Z@6%7%8%d@3+3+].K J u.K J J J J J J J J J J W 9%N+: 0%          ",
"                            =$8+' a%b%$ D.D.D.c%d%Y@Z@Z@Z@Z@Z@Z@Z@Z@Z@Z@Z@Z@Z@Z@Z@Z@Z@Z@Z@Z@Z@Z@Z@Z@Z@Z@Z@Z@Z@Z@Z@Z@Z@~#u@e%f%J J J J J J J J J J J J J J J J J J g%h%7$i%          ",
"                          @ x+s.*+^ }@D.D.D.; j%k%l%6%n#Z@Z@Z@Z@Z@Z@Z@Z@Z@Z@Z@Z@Z@Z@`@Z@Z@Z@Z@Z@Z@Z@Z@Z@Z@Z@Z@Z@Z@Z@Z@Z@c#m%n%J J J J J J J J J J J J J J J J J J ].o%p%[@^         ",
"                          q%r$$ r%t..+D.D.D.P.s%t%x@u%v%Z@Z@Z@Z@Z@Z@Z@Z@Z@Z@Z@Z@Z@C# #w%Z@Z@Z@Z@Z@Z@Z@Z@Z@Z@Z@Z@Z@Z@Z@Z@z@x%V.J J J J J J J J J J J J J J J J J J J y%y < E$o.      ",
"                          } P.`$:@%#D.D.D.++g$z%1#A%B%Z@Z@Z@Z@Z@Z@Z@Z@Z@Z@Z@Z@Z@Z@C%D%l%Z@Z@Z@Z@Z@Z@Z@Z@Z@Z@Z@Z@Z@Z@Z@Z@m#E%F%J J J J J J J J J J J J J J J J J J J G%O$F+x#e       ",
"                          O#&#~@x#D.D.D.D.&#H%I%2$J%K%Z@Z@Z@Z@Z@Z@Z@Z@Z@Z@Z@Z@Z@Z@y@I%L%Z@Z@Z@Z@Z@Z@Z@Z@Z@Z@Z@Z@Z@Z@Z@Z@d#M%N%J J J J J J J J J J J J J J J J J J J H O%)+3%x#      ",
"                          [ P%$@}@D.D.D.&#O#Q%R%i$A%S%`@Z@Z@Z@Z@Z@Z@Z@Z@Z@Z@Z@Z@Z@z@T%3$Z@`@`@Z@Z@Z@Z@Z@Z@Z@Z@Z@U%V%W%C#R@X%Y%J J J J J J J K J J J J J J J J J J J Z%9 P..+:       ",
"                        `%)+ &.&.+D.D.&#+& &@&#&2$$&%&&&Z@Z@Z@Z@Z@Z@Z@Z@Z@Z@Z@Z@Z@A@D%t@*&t%B%d#Z@Z@Z@Z@Z@Z@Z@W%=&-&;&>&Y@,&'&J J J ].)&4.!&~&{&]&4.].K J J J J J J ^&O#.+r+        ",
"                        7 `$F+{%|+D.V+ &/&V+(&_&`@L%D@:&|#Z@Z@Z@Z@Z@Z@Z@Z@Z@Z@Z@n#<&[&}&|&1&2&3&Z@Z@Z@Z@Z@Z@W%4&5&6&7&8&9&0&a&J 4+[.5.5+{.b&-@c&7.d&b&9.J J J J J ].e&)+r+          ",
"                        f&*+[@e ; D.)+O#D.D.g&h&`@Z@x@i&j&k&`@Z@Z@Z@Z@Z@Z@Z@Z@`@l&m&c#Z@n&n&U%~#Z@Z@Z@Z@Z@l%o&p&q&r&s&t&u&v&w&x&T.7.>.Z%y&z&U.v.4.].g.;.u.J J J J A&B&f$            ",
"                        0%}@[@: 8+%#e x+8+8+C&D&E&Z@Z@F&G&H&u%I&`@`@Z@Z@Z@Z@`@J&m&c#Z@Z@Z@Z@Z@Z@Z@Z@Z@Z@Z@K&L&M&N&O&o.P&Q&R&S&7.T&3+U&V&>.v+J {&S.>.V.G I J J J K d&W&              ",
"                        =+ %[@} 3%N#: g$D.D.X&Y&l%Z@Z@Z@Z&I$`&D% *.*+*w%Z@Z@@*m&c#Z@Z@Z@Z@Z@Z@Z@Z@Z@Z@Z@`@#*$*%*&*o.**=*-*;*>*>.u.K u+U f.J J J ,.K A&G u.J J J J ,*                ",
"                        7$D.G+P#E.E$s.D.D.D.%#'*Z@Z@Z@Z@Z@Z@d#n&)*t@E%!*~*|#H&c#Z@Z@Z@Z@Z@Z@Z@Z@Z@Z@Z@Z@Z@{*]*^*/*o.(*_*:*<*[*3+J J G.5+J J J J J J <.}*K J J J H.|*                ",
"                        e D.y ' G+I@; D.D.D.( 1*J&Z@Z@Z@Z@Z@Z@Z@Z@~#B%J$2*3*c#Z@Z@Z@Z@Z@Z@Z@Z@Z@Z@Z@Z@Z@`@v@4*5*6*7*8*9*0*a*b*J J J I.}*4+J J J V.c*d*H J J J @.%+                  ",
"                        E.D.O@7 % e*D.D.D.8+f*g*h*Z@Z@Z@Z@Z@Z@Z@Z@Z@Z@C#U%;*i*Z@Z@Z@Z@Z@Z@Z@Z@Z@Z@Z@Z@Z@Z@w%j*k*j#l*m*C@n*o*p*J J J I G Z%J.f.!&g.b&9.q*J J I.r*                    ",
"                      s*<@D.q+@ t*D.D.D.8+g$} u*v*n&Z@Z@Z@Z@Z@Z@Z@Z@Z@Z@n&w*x*y@Z@Z@Z@Z@Z@Z@Z@Z@Z@Z@Z@Z@Z@`@K&y*z*A*#&E&j&B*K J J J J I G.C*D*v.g.4+J J J 9.U                       ",
"                        [@D.< N+o@3%D.3%< 7$y E*F*A@Z@Z@Z@Z@Z@Z@Z@Z@Z@Z@Z@+*G*@%Z@Z@Z@Z@Z@Z@Z@Z@Z@Z@Z@Z@Z@Z@Z@2$0*K%E&m#H*I*u.J J J J J K K ,.K K J J J I.h.                        ",
"                        |@< E.E${@8+D.8+O#N#D.V+J*K*L*Z@Z@Z@Z@Z@Z@Z@Z@Z@Z@Y@,&$&C#Z@Z@Z@Z@Z@Z@Z@Z@Z@Z@Z@Z@Z@Z@Z@Z@Z@~#M*N*O*X+J J J J J J J J J J K J G.P*                          ",
"                        ^ 8+6$@ ^ ( 3%: } D.D.D.y Q*~*n&Z@Z@Z@Z@Z@Z@Z@Z@Z@Z@R*S*Z@Z@Z@Z@Z@Z@Z@Z@Z@Z@Z@Z@Z@Z@Z@Z@Z@Z@T*U*V*E.W*4.J J J J J J J J V.V X*Y*                            ",
"                        ^ s.=+> > q.'+)+&#D.D. %Z*O+`*L$}#Z@Z@Z@Z@Z@Z@Z@Z@}#A@ =&&Z@Z@Z@Z@Z@Z@Z@Z@Z@Z@Z@Z@Z@Z@Z@Z@|#.=+=D..+@=#=$=J V.V.f%V.,.>.-@,*                                ",
"                        e.O@'+ %O#d+7$P.D.D. %)+&@$ %=&=Z@Z@Z@Z@Z@Z@Z@Z@Z@Z@K$*=t%Z@Z@Z@Z@Z@Z@Z@Z@Z@Z@Z@Z@Z@Z@Z@==-=;=D.P.C.y P.>=,='%'=)=!=~={=                                    ",
"                          6 a%V+r.0#e < D.]=[@_ E.D.8+^=/=Z@Z@Z@Z@Z@Z@Z@Z@Z@n#1#(=J&Z@Z@Z@Z@Z@Z@Z@Z@Z@Z@Z@Z@Z@6%_=:=E. %N+[ J@D.V+2%<=[=y O#}=                                      ",
"                          |=P.D.6$1=P#3%D.V+' O@D.D.]=2=3=4=Z@Z@Z@Z@Z@Z@Z@Z@Z@c#5=6=&&Z@Z@Z@Z@Z@Z@Z@Z@Z@Z@Z@U%7=8=q+ %0#y J@D.D.@+9=%#e+0=a=                                        ",
"                          - P.x+)+} b=c=V+- } D.D.]=@+F+d=e=4=Z@Z@Z@Z@Z@Z@Z@Z@Z@x@|&f=K%Z@Z@`@}#Z@Z@Z@Z@~#l&j&g=q+ %q%y &#D.D..+Q.[ I@p.a=                                          ",
"                          h=[ .+%@@+%#i=9=} V+D.; |+F+$ D.j=k=l=R@C#Z@Z@Z@Z@Z@Z@Z@m=n=o=)*i* #p=K$Z@Z@}#q=X#r=.+ %q%y &#D.D..+t., +&H+s=                                            ",
"                            N#`$Q.8+; F+i=.+V+; |+F+$ D.D.3%t=u=v=c#L*Z@Z@Z@Z@Z@Z@Z@<&w@i& *w=#&`@Z@@*x=y=z=D. %d+y &#D.D..+' (%F+A=`%                                              ",
"                            B=% G+D.E.O#: C=s.|+F+$ D.D.; P#*+P.D=E=*=w*L%E&Z@C#`@Z@}#C#d#H$K%F=I&G=H=I=J=D. %U+y &#D.D..+t.R$a%P#K=                                                ",
"                              + e+; p..&$ G+~$) $ D.8+s.[ F+( V+8+8+L=M=N=O=M%h*P=Q=v@w*6=R=d%S=T=U=x+P.8+y+A=y &#D.8+$ t*t.7$)+V=                                                  ",
"                              *+P.{@W=q.8+[ X=% .+Y=y _ x#( D.D.D.D.}@: Z=`= -.-+-@-#-$-%-&-*-=-D.D.D.8+y+~@_ J@D.g$x#b=&@{@--;-                                                    ",
"                              0#`$~$}@; .+F+y o@a%|@x#s.; D.D.D.q.<@: x+D.D.D.; ]=8+O@} P#< D.D.D.D.8+x+|@[ ++++O@r+s*`$y+E.;-                                                      ",
"                                9==+E.|+F+$ ]=E.W=& p.8+D.D.D._ 7$} x+D.D.D.D.++8+N#`$P#< D.D.D.D.P.q.' <@< < : ~@6 , e+y+0%                                                        ",
"                                >-: %#F+c= %q.C.+&k+b=6$( 8+:@'+}@( D.D.D.D.g$Y=N+7$O@< D.D.D.V+<@`$'+o@E./ r+0#' &@.+y+~%                                                          ",
"                                  O#% )+[ a%G+[ V+,-@+'-t.*+r+x+]=D.D.D.D.E.`$r+`$8+8+D.D.D.V+o@E$o@'+x#U+=$y e r+y q+*%                                                            ",
"                                  )-R$7 b=q+q.]=V+P.$ !-O#d+: [@x+]=D.$ O@$#[ $ D.D.3%; V+< p.. 9=: - 6$.+.+'+@=:@G+a=                                                              ",
"                                      o./ N#x+' ' / b%6$r.; _ } ~-} ^ H+{-6$q.g$( 6$[ e +&+&0%H+P#[ ]=]=.+t.]-^-b=                                                                  ",
"                                            & /-F+.+P.D.; .+)+e (-7$_-|@:-r+'+a%+&7 7 <-6 O#s..+8+8+q.[@{-[-o.                                                                      ",
"                                                }-O#)+r$7$+&: |-.+8+; ( s.q. %@+6$[@P%O#%# %$ q+7$/ =+}=                                                                            ",
"                                                    1-b=B=_-P#[@P.P.D.D.< ( q.E.2-.&a%P#9=7 3-                                                                                      ",
"                                                              6 4-R$7$t.~@- =+/-. *+B=                                                                                              ",
"                                                                                                                                                                                    ",
"                                                                                                                                                                                    ",
"                                                                                                                                                                                    ",
"                                                                                                                                                                                    ",
"                                                                                                                                                                                    ",
"                                                                                                                                                                                    ",
"                                                                                                                                                                                    ",
"                                                                                                                                                                                    ",
"                                                                                                                                                                                    ",
"                                                                                                                                                                                    "};
