/* XPM */
static char * merry_8_xpm[] = {
"90 90 961 2",
"  	c None",
". 	c #000000",
"+ 	c #76714C",
"@ 	c #827D54",
"# 	c #958F61",
"$ 	c #EAE09B",
"% 	c #D3CA8B",
"& 	c #8E885C",
"* 	c #D9D190",
"= 	c #FAF0A6",
"- 	c #F1E7A0",
"; 	c #CDC587",
"> 	c #232213",
", 	c #969062",
"' 	c #DBD291",
") 	c #F8EFA5",
"! 	c #F3E9A1",
"~ 	c #A39C6A",
"{ 	c #938D60",
"] 	c #DFD694",
"^ 	c #F9EFA5",
"/ 	c #E1D895",
"( 	c #A09A69",
"_ 	c #382828",
": 	c #3B2929",
"< 	c #524E33",
"[ 	c #938C60",
"} 	c #DAD290",
"| 	c #F6ECA3",
"1 	c #D2CA8A",
"2 	c #868157",
"3 	c #342424",
"4 	c #4C3636",
"5 	c #463232",
"6 	c #4E3838",
"7 	c #392929",
"8 	c #694D4D",
"9 	c #594040",
"0 	c #1E1313",
"a 	c #322222",
"b 	c #5A4141",
"c 	c #604646",
"d 	c #5F4545",
"e 	c #422F2F",
"f 	c #49452D",
"g 	c #ACA571",
"h 	c #EAE19B",
"i 	c #E8DE99",
"j 	c #989263",
"k 	c #110A09",
"l 	c #453131",
"m 	c #433030",
"n 	c #473232",
"o 	c #503939",
"p 	c #694C4C",
"q 	c #6B4E4E",
"r 	c #624747",
"s 	c #664B4B",
"t 	c #4D3737",
"u 	c #6C4F4F",
"v 	c #5D4444",
"w 	c #432F2F",
"x 	c #989163",
"y 	c #CEC587",
"z 	c #EEE49E",
"A 	c #74684E",
"B 	c #5A4242",
"C 	c #553E3E",
"D 	c #3D2B2B",
"E 	c #31231F",
"F 	c #382B20",
"G 	c #3E2D28",
"H 	c #513B3A",
"I 	c #43302F",
"J 	c #453232",
"K 	c #5E4444",
"L 	c #2D1F1F",
"M 	c #878257",
"N 	c #D2C98A",
"O 	c #F5EBA3",
"P 	c #F7EDA4",
"Q 	c #A8A06E",
"R 	c #59493D",
"S 	c #4D3738",
"T 	c #43322A",
"U 	c #403519",
"V 	c #413908",
"W 	c #3D3507",
"X 	c #3B330A",
"Y 	c #312A08",
"Z 	c #392F16",
"` 	c #151202",
" .	c #533C3B",
"..	c #402E2E",
"+.	c #362625",
"@.	c #121008",
"#.	c #D8CE8E",
"$.	c #FDF2A8",
"%.	c #FBF1A6",
"&.	c #F8EEA5",
"*.	c #6D6647",
"=.	c #271C18",
"-.	c #3A2F19",
";.	c #423A08",
">.	c #3B3406",
",.	c #382E17",
"'.	c #413129",
").	c #3A2929",
"!.	c #634848",
"~.	c #684C4C",
"{.	c #5E4D41",
"].	c #90895E",
"^.	c #C0B97F",
"/.	c #DAD291",
"(.	c #F0E7A0",
"_.	c #A8A06F",
":.	c #4A3934",
"<.	c #302714",
"[.	c #3C3508",
"}.	c #383107",
"|.	c #18100C",
"1.	c #0B0703",
"2.	c #281B1B",
"3.	c #7C6D54",
"4.	c #ABA073",
"5.	c #C5BD82",
"6.	c #DCD392",
"7.	c #F0E69F",
"8.	c #D4CB8D",
"9.	c #6F6849",
"0.	c #32261E",
"a.	c #373007",
"b.	c #342D05",
"c.	c #251F03",
"d.	c #17160B",
"e.	c #9E9868",
"f.	c #BBB47C",
"g.	c #D0C88A",
"h.	c #E5DB97",
"i.	c #938C61",
"j.	c #30241E",
"k.	c #362D0E",
"l.	c #433B08",
"m.	c #3C3407",
"n.	c #0B0A01",
"o.	c #4F4B31",
"p.	c #4A462E",
"q.	c #847F56",
"r.	c #656140",
"s.	c #555135",
"t.	c #837E55",
"u.	c #373521",
"v.	c #857F56",
"w.	c #888259",
"x.	c #3C3A25",
"y.	c #A7A06D",
"z.	c #B4AC76",
"A.	c #AAA370",
"B.	c #CDC487",
"C.	c #F3E8A1",
"D.	c #F2E8A1",
"E.	c #B0A873",
"F.	c #5B4641",
"G.	c #34271E",
"H.	c #3C3409",
"I.	c #302A04",
"J.	c #252103",
"K.	c #7D7851",
"L.	c #DED593",
"M.	c #D6CE8E",
"N.	c #E9E09A",
"O.	c #D4CC8C",
"P.	c #ECE39D",
"Q.	c #EEE49D",
"R.	c #FBF1A7",
"S.	c #D9D091",
"T.	c #807556",
"U.	c #4C3835",
"V.	c #362D15",
"W.	c #3F3807",
"X.	c #3D3607",
"Y.	c #2D2804",
"Z.	c #918B5F",
"`.	c #EBE19C",
" +	c #D7CD8E",
".+	c #78714F",
"++	c #56403E",
"@+	c #42302D",
"#+	c #393206",
"$+	c #383105",
"%+	c #9D9767",
"&+	c #E4DB97",
"*+	c #E4DA97",
"=+	c #998F65",
"-+	c #3A2B28",
";+	c #5C4343",
">+	c #352722",
",+	c #3E3707",
"'+	c #383106",
")+	c #3F3707",
"!+	c #332D04",
"~+	c #595538",
"{+	c #EAE19C",
"]+	c #F9EFA6",
"^+	c #F6EDA4",
"/+	c #989064",
"(+	c #624F45",
"_+	c #573F40",
":+	c #4A3535",
"<+	c #34271F",
"[+	c #373005",
"}+	c #363005",
"|+	c #211D02",
"1+	c #292303",
"2+	c #2B2604",
"3+	c #34311F",
"4+	c #CBC386",
"5+	c #988F65",
"6+	c #674B4B",
"7+	c #493535",
"8+	c #19110E",
"9+	c #3C3507",
"0+	c #302A05",
"a+	c #413807",
"b+	c #403907",
"c+	c #2A2503",
"d+	c #3E3607",
"e+	c #3C3506",
"f+	c #2F2904",
"g+	c #A39C6B",
"h+	c #EFE59F",
"i+	c #D3CA8C",
"j+	c #5B4A3F",
"k+	c #563F3E",
"l+	c #2F2516",
"m+	c #342E05",
"n+	c #302904",
"o+	c #2C2503",
"p+	c #C1B780",
"q+	c #807456",
"r+	c #573F3F",
"s+	c #543D3C",
"t+	c #2D2704",
"u+	c #312A04",
"v+	c #2E2804",
"w+	c #201C02",
"x+	c #413A08",
"y+	c #252003",
"z+	c #C1B97F",
"A+	c #EFE69F",
"B+	c #F5ECA3",
"C+	c #C2B980",
"D+	c #7B7450",
"E+	c #514337",
"F+	c #644949",
"G+	c #614747",
"H+	c #654949",
"I+	c #6A4D4D",
"J+	c #3B2A29",
"K+	c #3C340B",
"L+	c #3A3306",
"M+	c #241F02",
"N+	c #2C2604",
"O+	c #352E05",
"P+	c #3B3306",
"Q+	c #43362E",
"R+	c #645644",
"S+	c #7E7852",
"T+	c #BAB37C",
"U+	c #D7CF8F",
"V+	c #F6ECA4",
"W+	c #DDD492",
"X+	c #B5AD77",
"Y+	c #837B56",
"Z+	c #776851",
"`+	c #644F48",
" @	c #382727",
".@	c #6D4F4F",
"+@	c #523B3B",
"@@	c #614646",
"#@	c #3E3024",
"$@	c #332C05",
"%@	c #2B2503",
"&@	c #2E2904",
"*@	c #312222",
"=@	c #584040",
"-@	c #4C3637",
";@	c #3D2D2B",
">@	c #463F2D",
",@	c #696245",
"'@	c #888159",
")@	c #B1AA74",
"!@	c #C4BB81",
"~@	c #DDD392",
"{@	c #E3DA96",
"]@	c #EDE39D",
"^@	c #F2E8A0",
"/@	c #F4EBA2",
"(@	c #E9DF9A",
"_@	c #E2D996",
":@	c #E1D796",
"<@	c #BFB77E",
"[@	c #978F63",
"}@	c #7E7353",
"|@	c #786653",
"1@	c #6E5151",
"2@	c #6D5050",
"3@	c #513A3A",
"4@	c #5D4443",
"5@	c #2E2610",
"6@	c #312B05",
"7@	c #403908",
"8@	c #473333",
"9@	c #553D3D",
"0@	c #3E2C2C",
"a@	c #43312D",
"b@	c #423522",
"c@	c #3D3410",
"d@	c #2E2807",
"e@	c #362D14",
"f@	c #140F04",
"g@	c #231C10",
"h@	c #564C38",
"i@	c #60583F",
"j@	c #897F5B",
"k@	c #7F7754",
"l@	c #9F9769",
"m@	c #978E64",
"n@	c #9B9266",
"o@	c #AEA474",
"p@	c #9E9668",
"q@	c #908461",
"r@	c #57443E",
"s@	c #554839",
"t@	c #5C4B40",
"u@	c #644848",
"v@	c #4F3939",
"w@	c #4E3938",
"x@	c #38300F",
"y@	c #272203",
"z@	c #3E3606",
"A@	c #201B02",
"B@	c #3B3407",
"C@	c #383206",
"D@	c #261A1A",
"E@	c #5B4242",
"F@	c #5B4343",
"G@	c #403127",
"H@	c #3C3315",
"I@	c #332B0C",
"J@	c #35291E",
"K@	c #44322F",
"L@	c #5C4543",
"M@	c #352525",
"N@	c #5E4545",
"O@	c #5E4544",
"P@	c #664C49",
"Q@	c #422E2F",
"R@	c #523A3C",
"S@	c #4B3636",
"T@	c #352721",
"U@	c #383008",
"V@	c #413907",
"W@	c #2B2504",
"X@	c #362F05",
"Y@	c #352F05",
"Z@	c #322C05",
"`@	c #403807",
" #	c #120E03",
".#	c #412F2D",
"+#	c #393208",
"@#	c #2D2803",
"##	c #3B2C25",
"$#	c #372726",
"%#	c #664A4A",
"&#	c #291C1C",
"*#	c #4E3737",
"=#	c #705552",
"-#	c #66534C",
";#	c #381F26",
">#	c #4C4A39",
",#	c #2F2A0B",
"'#	c #3E3605",
")#	c #443D15",
"!#	c #352E06",
"~#	c #322914",
"{#	c #251A1A",
"]#	c #563E3F",
"^#	c #533C3C",
"/#	c #584140",
"(#	c #3A2D20",
"_#	c #383109",
":#	c #2B230D",
"<#	c #42302E",
"[#	c #6A4E4E",
"}#	c #6E5050",
"|#	c #392828",
"1#	c #533B3B",
"2#	c #634748",
"3#	c #533A3B",
"4#	c #6C6854",
"5#	c #959075",
"6#	c #919173",
"7#	c #B7B590",
"8#	c #D2D1A7",
"9#	c #C0C099",
"0#	c #BDBD95",
"a#	c #AEAE8A",
"b#	c #908F6E",
"c#	c #6A684D",
"d#	c #403B20",
"e#	c #484223",
"f#	c #2C2703",
"g#	c #3E3609",
"h#	c #3D2D27",
"i#	c #241818",
"j#	c #483530",
"k#	c #312910",
"l#	c #493632",
"m#	c #543D3D",
"n#	c #563E3E",
"o#	c #948E74",
"p#	c #BCBB95",
"q#	c #D6D6AA",
"r#	c #E2E2B4",
"s#	c #F8F8C6",
"t#	c #FEFECA",
"u#	c #FCFCC8",
"v#	c #FFFFCB",
"w#	c #FBFBC8",
"x#	c #F7F7C5",
"y#	c #F1F1C0",
"z#	c #DBDBAF",
"A#	c #D5D5AA",
"B#	c #AAAA86",
"C#	c #7B7A5D",
"D#	c #585537",
"E#	c #45401D",
"F#	c #332D05",
"G#	c #39320A",
"H#	c #513C39",
"I#	c #4B3535",
"J#	c #352B16",
"K#	c #393010",
"L#	c #3E3025",
"M#	c #523C3A",
"N#	c #654A4A",
"O#	c #3C2B2B",
"P#	c #6C5850",
"Q#	c #86826A",
"R#	c #B9B993",
"S#	c #DEDEB1",
"T#	c #F2F2C0",
"U#	c #FDFDC9",
"V#	c #F8F8C5",
"W#	c #E9E9B9",
"X#	c #CFCEA4",
"Y#	c #908F70",
"Z#	c #494834",
"`#	c #322D11",
" $	c #523B3A",
".$	c #322B0A",
"+$	c #322B08",
"@$	c #3F2E29",
"#$	c #594140",
"$$	c #66584D",
"%$	c #8E8F71",
"&$	c #D2D2A7",
"*$	c #F5F5C3",
"=$	c #EEEEC1",
"-$	c #D7D7BA",
";$	c #919179",
">$	c #BCBC9B",
",$	c #BBBB96",
"'$	c #8B8B6E",
")$	c #6D6C51",
"!$	c #3E3712",
"~$	c #362E11",
"{$	c #463332",
"]$	c #604545",
"^$	c #332323",
"/$	c #3F2D2B",
"($	c #3F3708",
"_$	c #3B320C",
":$	c #382D1A",
"<$	c #362724",
"[$	c #3D2B2C",
"}$	c #807763",
"|$	c #D1CFA5",
"1$	c #E4E4B5",
"2$	c #B1B1A0",
"3$	c #B1B1AD",
"4$	c #B7B7B6",
"5$	c #A0A09E",
"6$	c #B2B2A0",
"7$	c #D0D0A6",
"8$	c #838265",
"9$	c #3A3516",
"0$	c #383006",
"a$	c #312812",
"b$	c #513B37",
"c$	c #513B3B",
"d$	c #322323",
"e$	c #030202",
"f$	c #32251E",
"g$	c #373006",
"h$	c #2C2914",
"i$	c #76755C",
"j$	c #C8C89F",
"k$	c #F6F6C4",
"l$	c #D6D6B2",
"m$	c #BABABB",
"n$	c #9E9E9E",
"o$	c #4A4A4A",
"p$	c #A4A4A3",
"q$	c #A9A9A5",
"r$	c #E5E5B8",
"s$	c #E2E2B5",
"t$	c #979778",
"u$	c #57553F",
"v$	c #251F09",
"w$	c #3D3022",
"x$	c #42312A",
"y$	c #412E2E",
"z$	c #1E1414",
"A$	c #2C1E1E",
"B$	c #2D2219",
"C$	c #3B3404",
"D$	c #888768",
"E$	c #FFFFCC",
"F$	c #FAFAC7",
"G$	c #CBCBA4",
"H$	c #F0F0F0",
"I$	c #4F4F4F",
"J$	c #020202",
"K$	c #525252",
"L$	c #818181",
"M$	c #B2B29A",
"N$	c #E0E0B2",
"O$	c #E5E5B6",
"P$	c #B0AF8C",
"Q$	c #443030",
"R$	c #493434",
"S$	c #483434",
"T$	c #191502",
"U$	c #322B05",
"V$	c #3C3408",
"W$	c #57563F",
"X$	c #CFCFA5",
"Y$	c #D1D1A5",
"Z$	c #D7D7CC",
"`$	c #A7A7A7",
" %	c #0B0B0B",
".%	c #3C3B3B",
"+%	c #7F7F76",
"@%	c #C4C49C",
"#%	c #F7F7C6",
"$%	c #8D896F",
"%%	c #6F5953",
"&%	c #282303",
"*%	c #171301",
"=%	c #423A09",
"-%	c #727053",
";%	c #D0D0A5",
">%	c #FCFCC9",
",%	c #ECECBC",
"'%	c #C3C3A8",
")%	c #D5D5D3",
"!%	c #6D6D6D",
"~%	c #060606",
"{%	c #010101",
"]%	c #5D5D5C",
"^%	c #ADAD8E",
"/%	c #EBEBBB",
"(%	c #D3D3A9",
"_%	c #867F69",
":%	c #3C2A2A",
"<%	c #543C3C",
"[%	c #3F2D2D",
"}%	c #393306",
"|%	c #282203",
"1%	c #383416",
"2%	c #B2B28C",
"3%	c #D5D5A9",
"4%	c #C6C6BB",
"5%	c #BABAB9",
"6%	c #919191",
"7%	c #4B4B4B",
"8%	c #353533",
"9%	c #B0B093",
"0%	c #B9BA94",
"a%	c #705A54",
"b%	c #010000",
"c%	c #2A2504",
"d%	c #403808",
"e%	c #241F03",
"f%	c #322C04",
"g%	c #443E19",
"h%	c #818064",
"i%	c #F0F0C0",
"j%	c #DDDDB4",
"k%	c #BEBEA9",
"l%	c #A7A7A4",
"m%	c #A6A6A4",
"n%	c #81817B",
"o%	c #6E6E62",
"p%	c #D3D3AA",
"q%	c #E1E1B3",
"r%	c #9E997C",
"s%	c #594141",
"t%	c #503A3A",
"u%	c #372626",
"v%	c #262103",
"w%	c #484428",
"x%	c #C5C59D",
"y%	c #FDFDCA",
"z%	c #D7D7AF",
"A%	c #B1B194",
"B%	c #D3D3B0",
"C%	c #F4F4C3",
"D%	c #674C4C",
"E%	c #040202",
"F%	c #262203",
"G%	c #3B3307",
"H%	c #3C3504",
"I%	c #898869",
"J%	c #E8E8B8",
"K%	c #DEDEBB",
"L%	c #C2C29E",
"M%	c #FBFBC7",
"N%	c #E8E8B9",
"O%	c #908A71",
"P%	c #291B1B",
"Q%	c #1C1212",
"R%	c #362F06",
"S%	c #2A2403",
"T%	c #312A05",
"U%	c #534F31",
"V%	c #BABA94",
"W%	c #A5A597",
"X%	c #B2B2AE",
"Y%	c #D7D7D4",
"Z%	c #ABABA2",
"`%	c #E2E2B9",
" &	c #F4F4C2",
".&	c #BCBA95",
"+&	c #342323",
"@&	c #302121",
"#&	c #684B4B",
"$&	c #292403",
"%&	c #DADAAE",
"&&	c #BABAA0",
"*&	c #BBBBBA",
"=&	c #989898",
"-&	c #9A9A9A",
";&	c #B4B4B4",
">&	c #C5C5B2",
",&	c #FEFECB",
"'&	c #756558",
")&	c #453030",
"!&	c #443131",
"~&	c #363006",
"{&	c #352F09",
"]&	c #939373",
"^&	c #A4A494",
"/&	c #8F8F8F",
"(&	c #303030",
"_&	c #ACACAC",
":&	c #A8A8A7",
"<&	c #EBEBC0",
"[&	c #DFDFB2",
"}&	c #F5F5C4",
"|&	c #8E866F",
"1&	c #463333",
"2&	c #1D1902",
"3&	c #443E1A",
"4&	c #8C8C6E",
"5&	c #B1B1AA",
"6&	c #6A6A6A",
"7&	c #8C8C8C",
"8&	c #B0B0AF",
"9&	c #CACAAA",
"0&	c #EBEBBC",
"a&	c #F1F1C1",
"b&	c #7F7A64",
"c&	c #412F2F",
"d&	c #4C3737",
"e&	c #4B3737",
"f&	c #231E03",
"g&	c #3C3714",
"h&	c #B4B48E",
"i&	c #B2B2A5",
"j&	c #6F6F6F",
"k&	c #717171",
"l&	c #D8D8D6",
"m&	c #B7B795",
"n&	c #9E9B7D",
"o&	c #5C4342",
"p&	c #271A1A",
"q&	c #4E4B2F",
"r&	c #BDBD96",
"s&	c #EAEABC",
"t&	c #7E7E77",
"u&	c #020101",
"v&	c #777777",
"w&	c #C2C2BF",
"x&	c #D9D9B3",
"y&	c #B6B690",
"z&	c #969677",
"A&	c #D8D8AC",
"B&	c #929273",
"C&	c #E9E9BA",
"D&	c #CAC8A0",
"E&	c #51383A",
"F&	c #3A3307",
"G&	c #2D270B",
"H&	c #FDFDCC",
"I&	c #A4A490",
"J&	c #515151",
"K&	c #212121",
"L&	c #333232",
"M&	c #949494",
"N&	c #BDBDB3",
"O&	c #E0E0B3",
"P&	c #E7E7B8",
"Q&	c #B7B791",
"R&	c #A8A885",
"S&	c #CCCCA2",
"T&	c #6D5B52",
"U&	c #2C2214",
"V&	c #382E16",
"W&	c #352D0D",
"X&	c #494737",
"Y&	c #CFCFA4",
"Z&	c #FEFECC",
"`&	c #D8D8B2",
" *	c #6E6E69",
".*	c #606060",
"+*	c #5E5D5B",
"@*	c #989895",
"#*	c #8F8F74",
"$*	c #F9F9C6",
"%*	c #A6A683",
"&*	c #C3C29A",
"**	c #6A5A50",
"=*	c #624848",
"-*	c #4D3838",
";*	c #2B1E1E",
">*	c #50393A",
",*	c #3A2C21",
"'*	c #3A3211",
")*	c #362C11",
"!*	c #4C3832",
"~*	c #78695B",
"{*	c #C7C79F",
"]*	c #FFFFCE",
"^*	c #BABA99",
"/*	c #A0A086",
"(*	c #A5A58F",
"_*	c #D9D9B6",
":*	c #F9F9C7",
"<*	c #CACAA0",
"[*	c #DCDCAF",
"}*	c #ECECBD",
"|*	c #BDBC96",
"1*	c #5E4445",
"2*	c #4E3939",
"3*	c #362525",
"4*	c #4C3836",
"5*	c #32271D",
"6*	c #33261C",
"7*	c #3F3026",
"8*	c #3C2D25",
"9*	c #C3C19B",
"0*	c #F2F2C1",
"a*	c #EAEABA",
"b*	c #918F72",
"c*	c #68504D",
"d*	c #0D0707",
"e*	c #634949",
"f*	c #604546",
"g*	c #A39F80",
"h*	c #BBBB94",
"i*	c #B8B892",
"j*	c #CDCDA3",
"k*	c #E6E6B7",
"l*	c #9B9679",
"m*	c #65494A",
"n*	c #4F483C",
"o*	c #F3F3C2",
"p*	c #DFDFB1",
"q*	c #C8C89E",
"r*	c #A0A07F",
"s*	c #483E35",
"t*	c #6B4F4F",
"u*	c #716656",
"v*	c #D1D1A7",
"w*	c #AAAA87",
"x*	c #F6F6C3",
"y*	c #DDDDAF",
"z*	c #C2C29A",
"A*	c #E0E0B5",
"B*	c #C9C99F",
"C*	c #5C5246",
"D*	c #463131",
"E*	c #1B1212",
"F*	c #756158",
"G*	c #A7A684",
"H*	c #BABA93",
"I*	c #A1A180",
"J*	c #C0C098",
"K*	c #C6C69D",
"L*	c #A2A280",
"M*	c #CBCBA2",
"N*	c #D6D6AB",
"O*	c #ADAD89",
"P*	c #A3A381",
"Q*	c #ABAA87",
"R*	c #473734",
"S*	c #848068",
"T*	c #E3E3B6",
"U*	c #EEEEBE",
"V*	c #E2E2B3",
"W*	c #C3C39B",
"X*	c #C7C79E",
"Y*	c #C3C39A",
"Z*	c #A9A986",
"`*	c #756F5B",
" =	c #533D3C",
".=	c #2A1D1D",
"+=	c #5D4343",
"@=	c #6A5B50",
"#=	c #FFFFCD",
"$=	c #69594F",
"%=	c #150C0C",
"&=	c #493333",
"*=	c #583F3F",
"==	c #6C6A54",
"-=	c #AEAE8B",
";=	c #EAEABB",
">=	c #868269",
",=	c #664B4A",
"'=	c #4F3838",
")=	c #3F2C2C",
"!=	c #563F3F",
"~=	c #63534A",
"{=	c #B5B38F",
"]=	c #F2F3C1",
"^=	c #D4D4A9",
"/=	c #9A9A79",
"(=	c #CDCCA2",
"_=	c #402D2D",
":=	c #695B4F",
"<=	c #CACBA1",
"[=	c #FBFBC9",
"}=	c #BBBB95",
"|=	c #DEDEB0",
"1=	c #847D67",
"2=	c #654B4A",
"3=	c #573E3E",
"4=	c #3B2A2A",
"5=	c #736A59",
"6=	c #CAC9A1",
"7=	c #EDEDBC",
"8=	c #909071",
"9=	c #CACAA1",
"0=	c #88856B",
"a=	c #644A49",
"b=	c #756D5A",
"c=	c #ABAB87",
"d=	c #EDEDBD",
"e=	c #D1D1A6",
"f=	c #B9B792",
"g=	c #554B40",
"h=	c #5C4242",
"i=	c #6E6354",
"j=	c #DBDBAE",
"k=	c #CBCBA1",
"l=	c #ABAB88",
"m=	c #9B9B7A",
"n=	c #BFBF97",
"o=	c #ABAB86",
"p=	c #969676",
"q=	c #ACAC88",
"r=	c #675B4E",
"s=	c #2F2020",
"t=	c #644A4A",
"u=	c #6B5A50",
"v=	c #8C896E",
"w=	c #D4D4AA",
"x=	c #FCFCCA",
"y=	c #E3E3B4",
"z=	c #D7D7AA",
"A=	c #B4B18E",
"B=	c #746457",
"C=	c #2E2020",
"D=	c #5D4243",
"E=	c #7D7861",
"F=	c #E6E6B8",
"G=	c #EAE9BA",
"H=	c #424033",
"I=	c #51353A",
"J=	c #634747",
"K=	c #5F4745",
"L=	c #494638",
"M=	c #837E66",
"N=	c #B7B792",
"O=	c #F3F3C1",
"P=	c #D9D8AC",
"Q=	c #A8A685",
"R=	c #79735E",
"S=	c #736558",
"T=	c #4C3A38",
"U=	c #1B1111",
"V=	c #68574E",
"W=	c #706756",
"X=	c #A4A181",
"Y=	c #BAB993",
"Z=	c #DAD9AC",
"`=	c #B7B490",
" -	c #7E7A63",
".-	c #6F6856",
"+-	c #67574E",
"@-	c #5B4141",
"#-	c #221616",
"$-	c #604747",
"%-	c #67544D",
"&-	c #4F3D39",
"*-	c #8C876D",
"=-	c #8E8E70",
"--	c #C0BF98",
";-	c #B3B28E",
">-	c #949375",
",-	c #979577",
"'-	c #7E7962",
")-	c #482D32",
"!-	c #573D3F",
"~-	c #694E4D",
"{-	c #483333",
"]-	c #090505",
"^-	c #56433F",
"/-	c #5E4845",
"(-	c #6A524E",
"_-	c #211515",
":-	c #523A3A",
"<-	c #3D2C2C",
"[-	c #3A2828",
"}-	c #2B1D1D",
"|-	c #261919",
"1-	c #6D5151",
"2-	c #211616",
"3-	c #100808",
"4-	c #160E0E",
"5-	c #4A3434",
"6-	c #674A4A",
"7-	c #191010",
"8-	c #4F3A3A",
"9-	c #6C4E4E",
"0-	c #372727",
"a-	c #1A1010",
"b-	c #332424",
"                                                                                                                                                                                    ",
"                                                                                                                                                                                    ",
"                                                                                            . + @                                                                                   ",
"                                                                                            # $ % &                                                                                 ",
"                                                                                          & * = - ; >                                                                               ",
"                                                                                        , ' ) = = ! ~                                                                               ",
"                                                                                      { ] = = = = ^ / (                 . _ :                                                       ",
"                                                                                  < [ } | = = = = = = 1 2       3 4 5 6 7 8 9 0                                                     ",
"                                                          a b c d e             f g h = = = = = = = = i j k l m n o p q 5 r s t                                                     ",
"                                                          d u u u v w         x y z ^ = = = = = = = ^ ' A B C D E F G H I J s K                                                     ",
"                                                          r u u u p L     . M N O = = = = = = = = = P Q R S T U V W X Y Z `  .K ..                                                  ",
"                                                          8 u u u r +.@.& #.$.%.= = = = = = = = = &.' *.=.-.V ;.;.;.;.;.V >.,.'.).                                                  ",
"                                                          b !.p ~.{.].^./.&.= = = = = = = = = = = (._.:.<.[.;.;.;.;.;.;.;.;.V }.|.1.                                                ",
"                                                          2.+.3.4.5.6.7.= = = = = = = = = = = = ^ 8.9.0.a.;.;.;.;.;.;.;.;.;.;.V b.c.                                                ",
"                                                      . d.e.f.g.h.P = = = = = = = = = = = = = ^ h.i.j.k.l.;.;.;.;.;.;.;.;.;.;.;.V m.n.                                              ",
"                            o.p.q.r.s.t.u.v.w.x.y.z.A.B.C.- - = = = = = = = = = = = = = = = = D.E.F.G.H.;.;.;.;.;.;.;.;.;.;.;.;.;.l.I.J.                                            ",
"                            K.h L.M.N.O.] ' /.P.h Q.= R.= = = = = = = = = = = = = = = = = = = S.T.U.V.W.;.;.;.;.;.;.;.;.;.;.;.;.;.;.X.Y.                                            ",
"                            Z.`.= ^ = = ^ = = = = = = = = = = = = = = = = = = = = = = = = |  +.+++@+#+;.;.;.;.;.;.;.;.;.;.;.;.;.;.;.;.$+                                            ",
"                            %+&+= = = = = = = = = = = = = = = = = = = = = = = = = = = = = *+=+-+;+>+>.;.;.;.;.;.;.;.;.;.,+'+'+)+V ;.;.X.!+                                          ",
"                            ~+{+]+= = = = = = = = = = = = = = = = = = = = = = = = = = ^+*+/+(+_+:+<+[+;.;.;.;.;.;.;.V }+|+1+I.2+>.;.;.;.#+                                          ",
"                            3+4+= = = = = = = = = = = = = = = = = = = = = = = = = = ^ 6.5+C ~.6+7+8+9+;.;.;.;.;.;.;.,+0+m.a+b+'+c+d+;.;.e+f+                                        ",
"                              g+= = = = = = = = = = = = = = = = = = = = = = = = ^ h+i+/+j+q u u k+l+W ;.;.;.;.;.;.;.m+0+#+b.X.V n+f+l.;.)+o+                                        ",
"                              e.P.= = = = = = = = = = = = = = = = = = = = = ]+P 7.p+q+l r+~.u q s+t+V ;.;.;.;.;.;.)+t+u+v+f+>.;.d+w+x+;.l.y+                                        ",
"                              & z+A+B+= = = = = = = = = = = = = = = = = = ^ `.C+D+E+F+G+o H+u I+J+K+;.;.;.;.;.;.;.L+M+N+O+V ;.;.d+f+P+;.V O+                                        ",
"                              Q+R+S+T+U+{+! = ^ = = = = = = = = = &.| V+W+X+Y+Z+`+ @.@u +@9 6+@@#@W ;.;.;.;.;.;.;.$@%@t+)+;.;.;.X.&@X.;.;.L+                                        ",
"                          *@+@=@-@;@>@,@'@)@!@~@{@^+]@O ^@A+/@(@_@:@<@[@}@|@1@2@6+3@F+u !.r+b 4@5@;.;.;.;.;.;.;.V 6@c+N+;.;.;.;.7@J.d+;.;.O+                                        ",
"                      8@9@n 0@a@b@c@d@e@f@g@h@i@j@k@l@m@n@o@'@p@q@r@s@t@6+.@u u !.3@u@u q d v@w@x@x+;.;.;.;.;.;.,+y@z@A@B@V V X.Y.f+)+;.V C@.                                       ",
"                  D@m E@F@G@H@;.;.;.;.W.W.}.I@J@K@L@M@N@!.O@P@Q@R@q G++@+@u u u q S@F+q u F+9@T@U@;.;.;.;.;.;.;.V@W@9+m+I.I.X@Y@Z@`@;.;.;.v+ #                                      ",
"                D l E@I+.#+#x+;.;.;.;.;.;.;.V ;.@###$#;+q u u K l 2@q %#&#%#u u .@*#S@%#=#-#;#>#,#'#)#V V ;.;.;.)+!#L+V W Y@n+O+X.;.;.;.)+~#M@                                      ",
"              {#]#^#/#v (#W ;.;.;.;.;.;.;.;.;.;.`@_#:#<#[#u u }#|#F+u 2@o 1#6+q 2#3#4#5#6#7#8#9#0#a#b#c#d#e#V x+V f#B@V ;.;.V ;.;.;.;.;.g#h#B i#                                    ",
"                -@!.e j#X ;.;.;.;.;.;.;.;.;.;.;.;.;.)+k#l#c 8 2@m#+@2@u %#6 6 n#o#p#q#r#s#t#u#v#w#x#y#z#A#B#C#D#E#F#Y@,+;.;.;.;.;.;.;.;.G#H#@@I#                                    ",
"                3 6+v@J#`@;.;.;.;.;.;.;.;.;.;.;.;.;.;.d+K#L#M#N#F+O#u u }#P#Q#R#S#T#v#v#v#v#v#v#v#v#v#v#U#V#W#X#Y#Z#`#C@;.;.;.;.;.;.;.)+J#S@8 =@                                    ",
"                3 ^# $.$;.;.;.;.;.;.;.;.;.;.;.;.;.;.;.;.;.x++$@$#$5 ;+s $$%$&$*$v#v#v#v#v#v#v#v#v#v#v#v#v#=$-$;$>$,$'$)$!$V@;.;.;.;.d+~${$O#]$r+^$                                  ",
"                  m /$($;.;.;.;.;.;.;.;.;.;.;.;.;.;.;.;.;.;.V _$:$<$[$}$|$t#v#v#v#v#v#v#v#v#v#v#v#v#v#v#1$2$3$4$5$6$9#7$8$9$)+;.W 0$a$b$p b m#c$d$e$                                ",
"                  l f$g$;.;.;.;.;.;.;.;.;.;.;.;.;.;.;.;.;.;.;.;.l.h$i$j$k$v#v#v#v#v#v#v#v#v#v#v#v#v#v#w#l$m$n$o$o$p$q$r$s$t$u$v$w$x$S@8 u ~.3@9 y$z$                                ",
"                  A$B$W ;.;.;.;.;.;.;.;.;.;.;.;.;.;.;.;.;.;.;.;.C$D$z#E$v#v#v#v#v#v#v#v#v#v#v#v#v#v#v#F$G$H$I$J$. K$L$M$N$O$P$Q$N#c ^$q u u b 5 R$S$e$                              ",
"                    T$W ;.;.;.;.V m.U$N+>.`@;.;.;.;.;.;.;.;.;.V$W$X$u#v#v#v#v#v#v#v#v#v#v#v#v#v#v#v#v#v#Y$Z$`$ %. . .%+%@%v##%$%%%u 3@9 2@u F+8@A$;+.                               ",
"                    &%#+;.;.;.V b.*%0+'+Y.f+O+W V ;.;.;.;.;.=%-%;%>%v#v#v#v#v#v#v#v#v#v#v#v#v#v#v#v#v#v#,%'%)%!%~%{%. ]%^%/%E$(%_%u r :%1@u u C : <%[%                              ",
"                      d+;.;.;.)+Z@9+`@L+}%Y.&@|%!#V ;.;.;.V 1%2%T#v#v#v#v#v#v#v#v#v#v#v#v#v#v#v#v#v#v#v#v#3%4%5%6%7%8%]%9%x#v#F$0%a%[#..c 2@u c t ^#<%b%                            ",
"                      #+;.;.;.>.c%d%B@Z@&%f+e%t+c+f%9+;.;.g%h%i%v#v#v#v#v#v#v#v#v#v#v#v#v#v#v#v#v#v#v#v#v#s#j%k%l%m%n%o%p%>%v#v#q%r%c s%S$1@u I+t%=@N#u%                            ",
"                      v+;.;.;.;.v%,+X.9+V V L+F#v+Y@&%;.;.w%x%F$v#v#y%v#v#v#v#v#v#v#v#v#v#v#v#v#v#v#v#v#v#v#v#y#z%A%B%C%v#v#v#v#x#X#^#u a D%u u <%6 F+9 E%                          ",
"                      F%)+;.;.}%6@#+;.;.;.;.;.G%$@`@&%#+H%I%J%#%K%L%r$v#v#v#v#v#v#v#v#v#v#v#v#v#v#v#v#v#v#v#v#v#M%t#y%t#v#v#v#v#v#N%O%!.o ^#2@u K P%K .@Q%                          ",
"                        g$;.;.)+R%S%V ;.;.;.;.T%F#V #+v+U%V%X$W%X%Y%Z%`%w#v#v#v#v#v#v#v#v#v#v#v#v#v#v#v#v#v#v#v#v#v#v#v#v#v#v#v#v# &.&=@F++&1@u ~.@&v@#&6                           ",
"                        1+;.;.;.x+&@g$`@;.V 9+y+X@;.;.$&W$%&&&*&=&-&;&>&x#v#v#v#v#v#v#v#v#v#v#v#v#v#v#v#v#v#v#v#v#v#v#v#v#v#v#v#v#,&;%'&q )&;+2@F+!&Q$d K                           ",
"                          g$W.;.;.9+v+I.m+B@~&m+d%;.;.{&]&%&^&/&. (&_&:&<&y%v#v#v#v#v#v#v#v#v#v#V#[&}&v#v#v#v#v#v#v#v#v#v#v#v#v#v#v#z#|&u ;+e 1@I+y$1&t%=@y$                        ",
"                          2&6@;.;.;.W.t+m+$@Y@,+;.;.;.3&4& &5&6&b%b%7&8&9&v#v#v#v#v#v#v#v#v#v#t#q%R#0&v#v#v#v#v#v#v#v#v#v#v#v#v#v#v#a&b&u u @&!..@:+c&d&e&5                         ",
"                            f&#+;.;.;.;.V V ;.;.;.;.;.g&h&3%i&j&b%b%k&l&m&v#v#v#v#v#v#k$,%M%t#F$j$j$v#v#v#v#v#v#v#v#v#v#v#v#v#v#v#v#E$n&o&q <%1#u ;+[%v@M@p&                        ",
"                              $&,+;.;.;.;.;.;.;.;.;.;.q&r&s&t&I$u&u&v&w&x&y%v#v#v#v#y%a&y&z&3%A&B&C&,&v#v#v#v#v#v#v#v#v#v#v#v#v#v#v#U#D&E&u %#:%q +@s%n#d$u&                        ",
"                                y@F&`@;.;.;.;.;.;.;.V G&A&H&I&J&K&L&M&N&O&v#v#v#v#v#v#E$P&7$Q&R&h&v#v#v#v#v#v#v#v#v#v#v#v#v#v#v#v#v#t#S&T&q q m#v m#t F+5 .                         ",
"                                  U&V&X.;.;.;.;.;.)+W&X&Y&Z&`& *.*+*@*#*F$v#v#v#v#v#v#v#v#U#$*r#%*F$v#v#v#v#v#v#v#v#v#v#v#v#v#v#w#$*v#&***u q =*-*v 4 q n#;*                        ",
"                                  t >*,*'*m.;.>.X@)*!*~*{*v#]*^*/*(*_*:*v#v#v#v#v#v#v#v#v#v#v#w#<*[*v#v#v#v#v#v#v#v#v#v#v#v#v#E$}*&$s#|*1*u u N#2*-*C 8 b 3*                        ",
"                                  R$K r 4*5*6*7*8*5 !.@@9*k$v#V#0*v#t#v#v#v#v#v#v#v#v#v#v#v#v#t#a*Q&v#v#v#v#v#v#v#v#v#v#v#v#v#t#/%a#V#b*c*u u G++@c$l u c d*                        ",
"                                    ^#q 3@^#N#u r+C e*f*g**$v#v#v#v#v#v#v#v#v#v#v#v#v#v#v#v#v#v#U#h*C&v#v#v#v#v#v#v#v#v#v#v#v#$*i*j*k*l*m*u u p ^$9@-*p m#                          ",
"                                    S$G+t%r+u u N#^#;+[#n*o*v#v#v#v#v#v#v#v#v#v#v#v#v#v#v#v#v#v#t#p*q*v#v#v#v#v#v#v#v#v#v#v#>%3%r*a*a*s*t*u u 2@:+_ 9@u 9@                          ",
"                                      5 c 8@u u u r+r+D%u*v*E$v#v#v#v#v#v#v#v#v#v#v#v#v#v#v#v#v#v#>%w*x*s#$*v#$*v#t#v#v#*$y*z*i*A*t#B*C*G+u u u c 2.o q D*                          ",
"                                      E*o !&G+u u G+m#d F*G*E$v#v#v#v#v#v#v#v#v#v#v#v#v#v#v#v#v#v#v#H*I*J*K*L*M*J*N*A&&$K*O*P*q#$*V#Q*R*r+u u u I+^$=@s Q$                          ",
"                                      *@[%|#3@u u [#+@=@p S*T*E$v#v#v#v#v#v#v#v#v#v#v#v#v#v#v#v#y#r&R&S&U*3%V*W*X*Y*h&W*Z*S&y#v#v#k$`* =3@N#u u F+7+C =*.=                          ",
"                                        S@).y$6+u u +=C d @=P$#=v#v#v#v#v#v#v#v#v#v#v#v#v#v#v#,&X$@% &U#t#v#t#v#>%F$U#k$t#v#v#v#w#R#$=d +@;+u t*;+%=r+=@&#                          ",
"                                        M@&=o *=u u s ^#b 1@==a&,&v#v#v#v#v#v#v#v#v#v#v#v#v#U#9#-=;=v#v#v#v#v#v#v#v#v#v#v#v#v#v#a*>=,=8 '=v q q v@d$9@c$                            ",
"                                          ..N#)=2@u u =@!=6+~={=]=v#v#v#v#v#v#v#v#v#v#v#v#>%^=/=J%E$v#v#v#v#v#v#v#v#v#v#v#v#v#v#(=$=[#.@8@C u ~.t l _=t                             ",
"                                          m %#e <%#&u !.m#K D%:=<=[=v#v#t#y%v#v#v#v#v#v#,& &}=q%v#v#v#v#v#v#v#v#v#v#v#v#v#v#y%|=1=2=u .@@@5 u [#O#3=t%4=                            ",
"                                          !&;+b .=m#u u <%r+~.%#5=6=s#v#V#7=t#v#v#v#v#x#[*8=9=V#v#v#v#v#v#v#v#v#v#v#v#v#v#t#1$0=d u u u d '=#&c 3@=@:+:%                            ",
"                                            =@q  @4=c u d 9@G+u a=b=W*,&y#c=1$*$y%d=y*j$Q&e=E$v#v#v#v#v#v#v#v#v#v#v#v#v#v#t#f=g=s u u u ;+3@N#m#t%~.[%                              ",
"                                            7+c h=w t u ~.^#=@q u N#i=f=j=k=l=i*m=n=o=p=<*o*v#v#v#v#v#v#v#v#v#v#v#v#v#y%;=q=r=<%r+u u u 6+s=N#Q$t=N#).                              ",
"                                              m#8 I#l n#6+b 9@G+u u N#u=v=w=x=&$y=z=[*F$v#v#v#v#v#v#v#v#v#v#v#v#v#v#t#y#A=B=q ~.5 q u u %#4 I#+@q d C=                              ",
"                                              :+!.3@4 ^#*=F+m#-*u u u q D=E=W*F=$*,&v#v#v#v#v#v#v#v#v#v#v#v#v#v#v#G=}=H=I=6+u q +@d u u G+O#e v t*n#                                ",
"                                                t J=D*r A$@@c :+=*u u u 2@K=L=M=N=C%O=U#y%v#v#v#v#v#v#v#u#t#v#P=Q=R=S=T=E@2@u 6+1#h=u u F+i#S@8 u :+                                ",
"                                                U='=e r F@c$<%=@t 2@u u u 1@ @v V=W=X=Y=j=P&>%$*>%t#P&|=Z=`= -.-+-2@u v y$2@u u I#@-I+2@^#l ~.u r u%                                ",
"                                                  #-&#^#[#$-|#!.3 %#q u u 2@C t%t*[#2=%-&-*-=---;->-,-'-)-!-~-e*:+u u I+{-F+u u n#t %#+@^$D .@6+5                                   ",
"                                                    ]-: ~.2@m#1#e 3@r u u u 8 d$q u u u q H+^-l /-(-9 S$s%u u 8 2*G+u I+b E@u u %#L *=S@r++@p E@ @                                  ",
"                                                      _-+@6+~.v M@a @-q u u 2@S$r+I+u u u q u@5 q u u s%n#F+u q v +@u I+:-b q u F+|#: d !=t =*<-                                    ",
"                                                          0@N#q b ).8@d u u .@r :+@@u u u u I++@K u u !.^#=@u u ~.8@s u s%=@6+8 t%_=+=I+E@e Q$                                      ",
"                                                            R$b I+r 3@[-9@q u u n#I#K u u u q c :+2@u u ;+R$!.u I+r+=@u !.m 8@C=:+C=e*u 9 _=}-                                      ",
"                                                              *@:+#&[#d$y$t%+=[#8 s%5 %#u u u t*[-=*2@u [#9 S@2@t*F+8@G+1#|-8@D%1-v@c$u E@2-                                        ",
"                                                                  {-b m#S$l l 3@~.u S@n#N#u u u s%t%[#u u [#}-8 ~.b :%8@r+:+{-u I+6 d c D                                           ",
"                                                                    a S$s%n v <%{-9@!=3@S@~.q u I+y$b ~.u 2@{-Q$R$3@t J %#F+ @I+[#1&K -*                                            ",
"                                                                      3-l :%4 F+!.9@7+u%.=m @-r+v 7+0@^#m#:%D |#R$=*%#S@F+6+n#r c O#.=                                              ",
"                                                                          2.U=^#I+u F+c m#v@*@D c$m 2*]-e !.p n#t%c q b n#N#t F+I+4-                                                ",
"                                                                              A$5-b 8 u u 8 E@|#d q [#r+^#c u 6+*=l q 6-m D%u%=@l                                                   ",
"                                                                                  7-8-r H+6+u n#6 m#u 6+9 y$r u 9-: b !.^#3@Q$u%                                                    ",
"                                                                                        ^${-8@=@^#.=r q ~.^#5 9@6+E@S$8@+=[%0-                                                      ",
"                                                                                              . ..]-_=l R$o L .=5 S$1&a-:+b-                                                        ",
"                                                                                                                                                                                    ",
"                                                                                                                                                                                    ",
"                                                                                                                                                                                    ",
"                                                                                                                                                                                    ",
"                                                                                                                                                                                    ",
"                                                                                                                                                                                    ",
"                                                                                                                                                                                    ",
"                                                                                                                                                                                    "};
