/* XPM */
static char * merry_14_xpm[] = {
"90 90 955 2",
"  	c None",
". 	c #0D0707",
"+ 	c #000000",
"@ 	c #180F0F",
"# 	c #302121",
"$ 	c #140B0B",
"% 	c #392727",
"& 	c #402D2D",
"* 	c #483333",
"= 	c #513B3B",
"- 	c #503A3A",
"; 	c #5E4545",
"> 	c #4C3636",
", 	c #453131",
"' 	c #463232",
") 	c #604646",
"! 	c #563E3E",
"~ 	c #4D3737",
"{ 	c #4A3535",
"] 	c #2E2020",
"^ 	c #3B2A2A",
"/ 	c #322323",
"( 	c #4C3737",
"_ 	c #614646",
": 	c #5F4545",
"< 	c #694D4D",
"[ 	c #694C4C",
"} 	c #6A4E4E",
"| 	c #6B4F4F",
"1 	c #6C4F4F",
"2 	c #684C4C",
"3 	c #594141",
"4 	c #473232",
"5 	c #5E4444",
"6 	c #614747",
"7 	c #553E3E",
"8 	c #543D3D",
"9 	c #473333",
"0 	c #2F2020",
"a 	c #2B1D1D",
"b 	c #2A1C1C",
"c 	c #4B3636",
"d 	c #674B4B",
"e 	c #604545",
"f 	c #543C3C",
"g 	c #553D3D",
"h 	c #5A4242",
"i 	c #594040",
"j 	c #4E3838",
"k 	c #4F3939",
"l 	c #664A4A",
"m 	c #5A4141",
"n 	c #291C1C",
"o 	c #191010",
"p 	c #483434",
"q 	c #584040",
"r 	c #5C4343",
"s 	c #644949",
"t 	c #5B4242",
"u 	c #422F2F",
"v 	c #1C1212",
"w 	c #3A2929",
"x 	c #1F1414",
"y 	c #362525",
"z 	c #513A3A",
"A 	c #433030",
"B 	c #573F3F",
"C 	c #493434",
"D 	c #523B3B",
"E 	c #392828",
"F 	c #3E2C2C",
"G 	c #382727",
"H 	c #4B3535",
"I 	c #3C2A2A",
"J 	c #664B4B",
"K 	c #6B4E4E",
"L 	c #654A4A",
"M 	c #4D3838",
"N 	c #533C3C",
"O 	c #5C4444",
"P 	c #493535",
"Q 	c #634848",
"R 	c #654949",
"S 	c #624747",
"T 	c #443131",
"U 	c #443030",
"V 	c #3D2B2B",
"W 	c #1D1313",
"X 	c #251919",
"Y 	c #271A1A",
"Z 	c #503939",
"` 	c #6A4D4D",
" .	c #3F2C2C",
"..	c #6D5050",
"+.	c #5D4444",
"@.	c #3B2929",
"#.	c #533B3B",
"$.	c #010000",
"%.	c #2E1F1F",
"&.	c #523C3C",
"*.	c #342424",
"=.	c #281A1A",
"-.	c #6E5151",
";.	c #5D4443",
">.	c #58403E",
",.	c #392925",
"'.	c #29220A",
").	c #242002",
"!.	c #352F05",
"~.	c #292304",
"{.	c #231E03",
"].	c #282303",
"^.	c #171401",
"/.	c #412E2E",
"(.	c #3F2D2D",
"_.	c #6C5050",
":.	c #2E231D",
"<.	c #3B2F1C",
"[.	c #372F0C",
"}.	c #3D340D",
"|.	c #3F3707",
"1.	c #413908",
"2.	c #403908",
"3.	c #3E3607",
"4.	c #3A3306",
"5.	c #423A08",
"6.	c #3C3507",
"7.	c #322C05",
"8.	c #262103",
"9.	c #312222",
"0.	c #674D4B",
"a.	c #5D4243",
"b.	c #66564D",
"c.	c #5A4742",
"d.	c #756B5A",
"e.	c #817A64",
"f.	c #5A5145",
"g.	c #837A66",
"h.	c #716456",
"i.	c #53423D",
"j.	c #6B5850",
"k.	c #5B4342",
"l.	c #372B1B",
"m.	c #3C3407",
"n.	c #362F05",
"o.	c #0D0A00",
"p.	c #271B1B",
"q.	c #674C4C",
"r.	c #68514D",
"s.	c #5D4D45",
"t.	c #77765D",
"u.	c #86866B",
"v.	c #B2B08E",
"w.	c #B6B690",
"x.	c #D9D9AC",
"y.	c #DADAAE",
"z.	c #EBEBBB",
"A.	c #EAEABC",
"B.	c #DBDBAF",
"C.	c #E4E4B6",
"D.	c #D5D4A9",
"E.	c #A9A986",
"F.	c #716E57",
"G.	c #736858",
"H.	c #725B55",
"I.	c #3B2E20",
"J.	c #3A3205",
"K.	c #433B08",
"L.	c #423908",
"M.	c #332D05",
"N.	c #261A1A",
"O.	c #281B1B",
"P.	c #190F0F",
"Q.	c #362626",
"R.	c #674C4B",
"S.	c #66594E",
"T.	c #908E72",
"U.	c #CDCDA3",
"V.	c #E2E2B4",
"W.	c #F5F5C4",
"X.	c #D2D2A8",
"Y.	c #DBDBAE",
"Z.	c #EEEEBD",
"`.	c #FCFCC9",
" +	c #FFFFCB",
".+	c #FFFFCC",
"++	c #EFEFC0",
"@+	c #C9C9A1",
"#+	c #999879",
"$+	c #7A725E",
"%+	c #6A554F",
"&+	c #634949",
"*+	c #412F2B",
"=+	c #342D05",
"-+	c #342E05",
";+	c #292403",
">+	c #393306",
",+	c #362F06",
"'+	c #3D3507",
")+	c #3D3607",
"!+	c #2F2904",
"~+	c #171302",
"{+	c #221616",
"]+	c #392929",
"^+	c #9B987A",
"/+	c #CECEA4",
"(+	c #F9F9C6",
"_+	c #FBFBC8",
":+	c #F4F4C2",
"<+	c #A8A886",
"[+	c #ACAC89",
"}+	c #A6A683",
"|+	c #DBDBAD",
"1+	c #FAFAC7",
"2+	c #FEFECC",
"3+	c #D7D7AC",
"4+	c #8F8D71",
"5+	c #503B3A",
"6+	c #433328",
"7+	c #393206",
"8+	c #252002",
"9+	c #302A04",
"0+	c #302A05",
"a+	c #352E05",
"b+	c #332C05",
"c+	c #362823",
"d+	c #3C2B2B",
"e+	c #624848",
"f+	c #5E4644",
"g+	c #858168",
"h+	c #CBCAA0",
"i+	c #EEEEBE",
"j+	c #E9E9B9",
"k+	c #C1C198",
"l+	c #B7B791",
"m+	c #FDFDCA",
"n+	c #FEFECA",
"o+	c #F5F5C3",
"p+	c #D0CEA5",
"q+	c #978F76",
"r+	c #2D2414",
"s+	c #403808",
"t+	c #383106",
"u+	c #2C2704",
"v+	c #403807",
"w+	c #2C2509",
"x+	c #3B2A28",
"y+	c #4F3838",
"z+	c #261919",
"A+	c #322222",
"B+	c #6E6955",
"C+	c #ADAC89",
"D+	c #E4E4B5",
"E+	c #B0B08A",
"F+	c #C0C098",
"G+	c #F0F0BF",
"H+	c #D8D8AC",
"I+	c #919073",
"J+	c #423E2B",
"K+	c #3E3707",
"L+	c #312C05",
"M+	c #3B3407",
"N+	c #413907",
"O+	c #392D1D",
"P+	c #6C4E4E",
"Q+	c #5B4142",
"R+	c #422E2F",
"S+	c #5B4141",
"T+	c #684B4B",
"U+	c #6E5050",
"V+	c #54473F",
"W+	c #D7D6AA",
"X+	c #F4F5C3",
"Y+	c #DCDCAF",
"Z+	c #A9A985",
"`+	c #FFFFCD",
" @	c #9F9F7D",
".@	c #454020",
"+@	c #2D2704",
"@@	c #393106",
"#@	c #2E2804",
"$@	c #3A3309",
"%@	c #3E2E28",
"&@	c #402E2E",
"*@	c #776C5B",
"=@	c #B3B38E",
"-@	c #FCFCC8",
";@	c #B4B48F",
">@	c #BFBF97",
",@	c #EFEFBE",
"'@	c #ECECBD",
")@	c #CBCBA4",
"!@	c #C5C5A3",
"~@	c #F0F0C3",
"{@	c #FCFCCB",
"]@	c #4B4B38",
"^@	c #3C350A",
"/@	c #373006",
"(@	c #2B2504",
"_@	c #3B3406",
":@	c #413A08",
"<@	c #1A1602",
"[@	c #392E1B",
"}@	c #533D3C",
"|@	c #090505",
"1@	c #5D4343",
"2@	c #382728",
"3@	c #A3A282",
"4@	c #EAEABA",
"5@	c #BBBB94",
"6@	c #C9C99F",
"7@	c #FEFECB",
"8@	c #A7A78C",
"9@	c #7D7D74",
"0@	c #656562",
"a@	c #717171",
"b@	c #B3B398",
"c@	c #E2E2B5",
"d@	c #69684D",
"e@	c #3E370A",
"f@	c #372F06",
"g@	c #373105",
"h@	c #312A04",
"i@	c #2E2704",
"j@	c #322B0C",
"k@	c #58413F",
"l@	c #2C1E1E",
"m@	c #372626",
"n@	c #3E2B2B",
"o@	c #5A4041",
"p@	c #807762",
"q@	c #D7D7AB",
"r@	c #BDBD96",
"s@	c #D3D3A8",
"t@	c #FDFDC9",
"u@	c #E1E1B9",
"v@	c #7B7B78",
"w@	c #474746",
"x@	c #2B2B2B",
"y@	c #3B3A3A",
"z@	c #787874",
"A@	c #BCBCA2",
"B@	c #E5E5B6",
"C@	c #403E2A",
"D@	c #251F03",
"E@	c #2A2403",
"F@	c #402F2C",
"G@	c #5C4242",
"H@	c #503739",
"I@	c #C3C19A",
"J@	c #B2B28D",
"K@	c #DFDFB1",
"L@	c #BFBFA4",
"M@	c #8A8988",
"N@	c #3F3E3E",
"O@	c #141313",
"P@	c #6A6A6A",
"Q@	c #B3B3B3",
"R@	c #B0B099",
"S@	c #D6D6AA",
"T@	c #686750",
"U@	c #36300B",
"V@	c #221D02",
"W@	c #302904",
"X@	c #403223",
"Y@	c #422E2E",
"Z@	c #6B524F",
"`@	c #736C59",
" #	c #CFCFA5",
".#	c #C1C19D",
"+#	c #CFCFCF",
"@#	c #777777",
"##	c #171717",
"$#	c #797979",
"%#	c #A2A29B",
"&#	c #CDCDA8",
"*#	c #CFCFA4",
"=#	c #646146",
"-#	c #3F3708",
";#	c #3C2E23",
">#	c #160E0E",
",#	c #563F3F",
"'#	c #696051",
")#	c #C5C49C",
"!#	c #C2C29A",
"~#	c #B4B4A8",
"{#	c #B6B6B5",
"]#	c #5E5E5E",
"^#	c #202020",
"/#	c #B9B9B9",
"(#	c #AFAF94",
"_#	c #7F7E60",
":#	c #3F380B",
"<#	c #423815",
"[#	c #473434",
"}#	c #79745F",
"|#	c #E1E1B3",
"1#	c #8D8D70",
"2#	c #FBFBC9",
"3#	c #D1D1AC",
"4#	c #C3C3BD",
"5#	c #C2C2C2",
"6#	c #949494",
"7#	c #6D6D6D",
"8#	c #B4B4B1",
"9#	c #C3C3A9",
"0#	c #F6F6C4",
"a#	c #A09F7E",
"b#	c #40380B",
"c#	c #423425",
"d#	c #726257",
"e#	c #B1B08D",
"f#	c #B8B892",
"g#	c #FAFAC8",
"h#	c #F2F2C1",
"i#	c #C1C1A1",
"j#	c #A8A8A6",
"k#	c #AAAAA9",
"l#	c #DADADA",
"m#	c #B7B7AD",
"n#	c #E8E8C1",
"o#	c #FBFBC7",
"p#	c #4E4B32",
"q#	c #3F370B",
"r#	c #432F2F",
"s#	c #776F5D",
"t#	c #E0E0B2",
"u#	c #DEDEB0",
"v#	c #C3C39B",
"w#	c #F1F1C2",
"x#	c #D7D7B8",
"y#	c #B7B7A8",
"z#	c #B4B4A0",
"A#	c #CDCDA6",
"B#	c #F0F0C0",
"C#	c #757458",
"D#	c #40380C",
"E#	c #352D0E",
"F#	c #281F13",
"G#	c #524637",
"H#	c #74694E",
"I#	c #847E55",
"J#	c #A09A68",
"K#	c #382828",
"L#	c #372727",
"M#	c #3B2D2A",
"N#	c #807F65",
"O#	c #E6E6B7",
"P#	c #AFAF8A",
"Q#	c #8E8D6E",
"R#	c #231D05",
"S#	c #3A2E25",
"T#	c #5D583D",
"U#	c #AEA773",
"V#	c #DAD190",
"W#	c #E6DD99",
"X#	c #CAC285",
"Y#	c #79744F",
"Z#	c #45432B",
"`#	c #4E3737",
" $	c #53373B",
".$	c #BCBA94",
"+$	c #A8A885",
"@$	c #A2A280",
"#$	c #E9E9BA",
"$$	c #F7F7C5",
"%$	c #9E9D7B",
"&$	c #3B3408",
"*$	c #3F3807",
"=$	c #31280F",
"-$	c #211A0E",
";$	c #6F6947",
">$	c #A29A6A",
",$	c #DAD191",
"'$	c #F4EAA2",
")$	c #FAF0A6",
"!$	c #F2E8A0",
"~$	c #BBB47B",
"{$	c #736E4A",
"]$	c #1B1111",
"^$	c #553B3C",
"/$	c #D4D3A8",
"($	c #DADAAD",
"_$	c #BBBB95",
":$	c #F8F8C5",
"<$	c #C3C39C",
"[$	c #9B9B7B",
"}$	c #453F1C",
"|$	c #38310B",
"1$	c #38300A",
"2$	c #2F2808",
"3$	c #372D17",
"4$	c #221B0E",
"5$	c #43312E",
"6$	c #4A4031",
"7$	c #958D62",
"8$	c #D4CB8C",
"9$	c #F0E79F",
"0$	c #F7EEA4",
"a$	c #F3EAA2",
"b$	c #E1D995",
"c$	c #A29C6B",
"d$	c #796B5C",
"e$	c #C9C9A0",
"f$	c #C7C79D",
"g$	c #E3E3B4",
"h$	c #ECECBC",
"i$	c #CBCBA1",
"j$	c #A5A583",
"k$	c #CCCCA2",
"l$	c #E8E8B9",
"m$	c #A6A684",
"n$	c #CECEA3",
"o$	c #BABA93",
"p$	c #38310A",
"q$	c #3D3509",
"r$	c #312B09",
"s$	c #3A2E1F",
"t$	c #3D2D28",
"u$	c #4D3934",
"v$	c #362724",
"w$	c #332421",
"x$	c #584140",
"y$	c #7B7052",
"z$	c #AFA873",
"A$	c #EBE19C",
"B$	c #DED593",
"C$	c #928C5F",
"D$	c #070603",
"E$	c #D2D2A7",
"F$	c #F4F4C3",
"G$	c #A4A482",
"H$	c #ADAD89",
"I$	c #F8F8C6",
"J$	c #ABAB87",
"K$	c #8D8D6F",
"L$	c #AFAF8B",
"M$	c #A7A784",
"N$	c #322F1F",
"O$	c #372B1E",
"P$	c #41312A",
"Q$	c #4A3534",
"R$	c #57403E",
"S$	c #372726",
"T$	c #7C7551",
"U$	c #D0C789",
"V$	c #EFE59E",
"W$	c #F9EFA5",
"X$	c #EEE59E",
"Y$	c #A9A26F",
"Z$	c #6D4F4F",
"`$	c #55483F",
" %	c #C3C29B",
".%	c #C1C199",
"+%	c #B5B590",
"@%	c #A2A281",
"#%	c #342525",
"$%	c #655048",
"%%	c #89805B",
"&%	c #DBD292",
"*%	c #F8EEA5",
"=%	c #E9E09A",
"-%	c #AEA873",
";%	c #5E4A45",
">%	c #B2B08D",
",%	c #EFEFBF",
"'%	c #9A9A79",
")%	c #D4D4A9",
"!%	c #F3F3C1",
"~%	c #C8C89F",
"{%	c #F6F6C3",
"]%	c #ADA988",
"^%	c #594140",
"/%	c #9E9469",
"(%	c #D8CF8F",
"_%	c #F7EDA4",
":%	c #E9E09B",
"<%	c #AAA370",
"[%	c #625E3E",
"}%	c #AAA987",
"|%	c #DDDDB0",
"1%	c #B9B993",
"2%	c #C4C49C",
"3%	c #989878",
"4%	c #F1F1C0",
"5%	c #868169",
"6%	c #684E4C",
"7%	c #644F46",
"8%	c #7D7552",
"9%	c #E5DB97",
"0%	c #EDE49E",
"a%	c #A09A69",
"b%	c #3C3924",
"c%	c #2A1D1D",
"d%	c #827D65",
"e%	c #C0C099",
"f%	c #746F5B",
"g%	c #463132",
"h%	c #928B60",
"i%	c #F6ECA3",
"j%	c #E4DB97",
"k%	c #B2AB75",
"l%	c #383522",
"m%	c #655B4D",
"n%	c #9F9F7E",
"o%	c #CDCDA2",
"p%	c #C5C59C",
"q%	c #786E5C",
"r%	c #694D4C",
"s%	c #675748",
"t%	c #CEC588",
"u%	c #F6EDA4",
"v%	c #F9EFA6",
"w%	c #A8A16F",
"x%	c #583F3F",
"y%	c #634A48",
"z%	c #F9F9C7",
"A%	c #E3E3B5",
"B%	c #B5B48F",
"C%	c #463131",
"D%	c #352424",
"E%	c #57473C",
"F%	c #B0A674",
"G%	c #EEE49E",
"H%	c #F0E69F",
"I%	c #BEB67D",
"J%	c #5D593B",
"K%	c #8C876E",
"L%	c #E7E7B8",
"M%	c #A4A080",
"N%	c #6D6647",
"O%	c #E2D996",
"P%	c #868157",
"Q%	c #605749",
"R%	c #C6C69E",
"S%	c #D9D9AE",
"T%	c #AAAA87",
"U%	c #D5D5A9",
"V%	c #756859",
"W%	c #766251",
"X%	c #B0A773",
"Y%	c #F6ECA4",
"Z%	c #E2D895",
"`%	c #A29B6A",
" &	c #4E3939",
".&	c #463332",
"+&	c #5F5E4B",
"@&	c #B2B18D",
"#&	c #553C3D",
"$&	c #817656",
"%&	c #DDD492",
"&&	c #FCF1A7",
"*&	c #A8A16E",
"=&	c #2D1F1F",
"-&	c #584B42",
";&	c #BEBD96",
">&	c #D0D0A6",
",&	c #7D7761",
"'&	c #2C1D1E",
")&	c #745E52",
"!&	c #9F9768",
"~&	c #E7DE9A",
"{&	c #352525",
"]&	c #89816A",
"^&	c #C7C79E",
"/&	c #E8E8BA",
"(&	c #EAEABD",
"_&	c #928F73",
":&	c #796B52",
"<&	c #CCC387",
"[&	c #604546",
"}&	c #6C6B55",
"|&	c #B8B89F",
"1&	c #BFBFB2",
"2&	c #B2B2AF",
"3&	c #D3D3C8",
"4&	c #C8C8B2",
"5&	c #BCBC94",
"6&	c #B6B490",
"7&	c #736357",
"8&	c #56413E",
"9&	c #78714F",
"0&	c #C9C185",
"a&	c #45412B",
"b&	c #3D2C2C",
"c&	c #68544E",
"d&	c #B4B28E",
"e&	c #E5E5BA",
"f&	c #93938B",
"g&	c #ABABAA",
"h&	c #B4B4B4",
"i&	c #929292",
"j&	c #9A9A98",
"k&	c #CFCFCE",
"l&	c #E9E9E5",
"m&	c #CCCCB6",
"n&	c #F6F6C5",
"o&	c #392327",
"p&	c #634948",
"q&	c #4C3E34",
"r&	c #A69F6D",
"s&	c #A59C6E",
"t&	c #674B4C",
"u&	c #786D5C",
"v&	c #C0BF98",
"w&	c #BDBDA0",
"x&	c #72726C",
"y&	c #535352",
"z&	c #0B0B0B",
"A&	c #1E1E1E",
"B&	c #090909",
"C&	c #0D0D0D",
"D&	c #8A8A8A",
"E&	c #BCBCBB",
"F&	c #CFCFA6",
"G&	c #B6B58F",
"H&	c #67664E",
"I&	c #332324",
"J&	c #533F3C",
"K&	c #CFC58A",
"L&	c #F5EBA3",
"M&	c #88755E",
"N&	c #54403D",
"O&	c #A8A685",
"P&	c #909079",
"Q&	c #4D4D4C",
"R&	c #131312",
"S&	c #828282",
"T&	c #BCBCB8",
"U&	c #C8C8A9",
"V&	c #D4D4A8",
"W&	c #89896C",
"X&	c #4F4B2F",
"Y&	c #383107",
"Z&	c #2A2014",
"`&	c #4F3938",
" *	c #75694F",
".*	c #ECE39D",
"+*	c #B3AA76",
"@*	c #251818",
"#*	c #5A4441",
"$*	c #746D5B",
"%*	c #BCBC96",
"&*	c #BABA99",
"**	c #686868",
"=*	c #4F4F4F",
"-*	c #323232",
";*	c #5B5B5B",
">*	c #121212",
",*	c #B2B2B2",
"'*	c #ADADA5",
")*	c #EDEDC2",
"!*	c #AFAE8A",
"~*	c #6B694E",
"{*	c #423A13",
"]*	c #39320D",
"^*	c #4D3835",
"/*	c #644848",
"(*	c #D9D190",
"_*	c #857E57",
":*	c #847866",
"<*	c #B1AF8C",
"[*	c #DEDEB1",
"}*	c #B7B793",
"|*	c #9A9A83",
"1*	c #93938F",
"2*	c #949493",
"3*	c #A5A5A0",
"4*	c #A9A9A7",
"5*	c #ABAB9E",
"6*	c #AEAE8E",
"7*	c #5D5C45",
"8*	c #494427",
"9*	c #372C1A",
"0*	c #585339",
"a*	c #C6BF83",
"b*	c #242114",
"c*	c #634747",
"d*	c #5A4142",
"e*	c #B3B08D",
"f*	c #D9D8AC",
"g*	c #DBDBB8",
"h*	c #B9B997",
"i*	c #C6C6A0",
"j*	c #ACAC8B",
"k*	c #9C9B7B",
"l*	c #7E7C5E",
"m*	c #4F4B2E",
"n*	c #423A0D",
"o*	c #3C2D27",
"p*	c #644948",
"q*	c #938862",
"r*	c #E8DE9A",
"s*	c #F3E9A1",
"t*	c #1A1010",
"u*	c #332323",
"v*	c #523D3C",
"w*	c #968F75",
"x*	c #B0AE8B",
"y*	c #B2B38E",
"z*	c #D1D0A7",
"A*	c #727259",
"B*	c #464531",
"C*	c #3C350C",
"D*	c #423B0F",
"E*	c #382F12",
"F*	c #513B3A",
"G*	c #847A57",
"H*	c #E5DC98",
"I*	c #FBF0A6",
"J*	c #77724D",
"K*	c #412F2F",
"L*	c #756358",
"M*	c #6F6255",
"N*	c #423030",
"O*	c #78775F",
"P*	c #605F48",
"Q*	c #5D5B42",
"R*	c #58553A",
"S*	c #373212",
"T*	c #373211",
"U*	c #32261E",
"V*	c #70664B",
"W*	c #FBF1A6",
"X*	c #393722",
"Y*	c #6D5151",
"Z*	c #543D3B",
"`*	c #2A240A",
" =	c #3B3306",
".=	c #7F7754",
"+=	c #443232",
"@=	c #3E3121",
"#=	c #201C02",
"$=	c #312B05",
"%=	c #2D260C",
"&=	c #645944",
"*=	c #F4EBA2",
"==	c #B9B179",
"-=	c #523A3A",
";=	c #150C0C",
">=	c #3D2C28",
",=	c #3C3506",
"'=	c #332A15",
")=	c #72654E",
"!=	c #D4CB8D",
"~=	c #EFE59F",
"{=	c #B7AF78",
"]=	c #352626",
"^=	c #493630",
"/=	c #373005",
"(=	c #312B04",
"_=	c #201B02",
":=	c #292303",
"<=	c #3A3406",
"[=	c #392B23",
"}=	c #58493C",
"|=	c #C0B77E",
"1=	c #7D7750",
"2=	c #0F0808",
"3=	c #30241A",
"4=	c #3F3709",
"5=	c #1C1801",
"6=	c #342B12",
"7=	c #4B3835",
"8=	c #ABA371",
"9=	c #F5EBA2",
"0=	c #7A754F",
"a=	c #040202",
"b=	c #332424",
"c=	c #413129",
"d=	c #312A05",
"e=	c #383206",
"f=	c #39300B",
"g=	c #31251D",
"h=	c #89825A",
"i=	c #DFD694",
"j=	c #958F61",
"k=	c #362723",
"l=	c #3A320F",
"m=	c #34281E",
"n=	c #5D553D",
"o=	c #DBD191",
"p=	c #ECE29C",
"q=	c #3C3925",
"r=	c #3E311F",
"s=	c #322B05",
"t=	c #363006",
"u=	c #3F3808",
"v=	c #2F2612",
"w=	c #57493B",
"x=	c #C8BF85",
"y=	c #44322E",
"z=	c #322C03",
"A=	c #1E1A02",
"B=	c #373106",
"C=	c #3C3406",
"D=	c #2C2603",
"E=	c #322A0E",
"F=	c #3A3325",
"G=	c #A29B6B",
"H=	c #E2D995",
"I=	c #79744E",
"J=	c #453232",
"K=	c #2C2312",
"L=	c #272103",
"M=	c #43302F",
"N=	c #6F664A",
"O=	c #DDD392",
"P=	c #E5DD98",
"Q=	c #5A5639",
"R=	c #110E01",
"S=	c #363005",
"T=	c #221E02",
"U=	c #2E2904",
"V=	c #2A2504",
"W=	c #42361D",
"X=	c #604F43",
"Y=	c #B2AA75",
"Z=	c #F1E7A0",
"`=	c #DAD290",
" -	c #847F55",
".-	c #181401",
"+-	c #423228",
"@-	c #553D3E",
"#-	c #BBB37B",
"$-	c #C0B87E",
"%-	c #DDD592",
"&-	c #E0D794",
"*-	c #595639",
"=-	c #3F360F",
"--	c #533D3D",
";-	c #35321F",
">-	c #79734E",
",-	c #999364",
"'-	c #888258",
")-	c #3F3C26",
"!-	c #362B1A",
"~-	c #2B2503",
"{-	c #3E3609",
"]-	c #322A0C",
"^-	c #35271F",
"/-	c #332D04",
"(-	c #352A18",
"_-	c #4E3937",
":-	c #201D02",
"<-	c #252003",
"[-	c #2F2804",
"}-	c #231D04",
"|-	c #2E2612",
"1-	c #3A2B26",
"2-	c #44312F",
"3-	c #2C1F1F",
"4-	c #0A0603",
"5-	c #5E4445",
"6-	c #1A1111",
"                                                                                                                                                                                    ",
"                                                                                                                                                                                    ",
"                                                                                                                                                                                    ",
"                                                                                                                                                                                    ",
"                                                                                                                                                                                    ",
"                                                                                                                                                                                    ",
"                                                                                                                                                                                    ",
"                                                                                                                                                                                    ",
"                                                                                                                                                                                    ",
"                                                                                                                                                                                    ",
"                                                                                                                                                                                    ",
"                                                                                                                                                                                    ",
"                                                                                                                                                                                    ",
"                                                                                                                                                                                    ",
"                                                                                . +   @ #                                                                                           ",
"                                                                $ % & * = - ; > , # ' ) ! ~ {                                                                                       ",
"                                                      ] ^ / ( ~ _ : < [ } | 1 1 2 3 4 > 5 | 6 7 8 9                                                                                 ",
"                                                  0 a b c 3 ( : d e 6 f 3 g = : h i : j , k i l d m 9 n                                                                             ",
"                                          o ' p q r s t ~ ( u v w u x y & q z A B C { D * % E x F 5 2 k G H I                                                                       ",
"                                        E ) J K 1 L e f M F N z 6 O q - P E B Q : l < R 1 S 8 f D T ' D U V V W X                                                                   ",
"                                    Y Z : K ` L 7 >  .B s L 2 1 1 1 } l K ) N A j N B S K 1 1 K K ..Q g  .I > +.N ~ {                                                               ",
"                                  @.5 K ` ..B ' k q < } K 1 1 1 1 1 1 1 1 1 1 [ 5 m B 8 #.5 d 1 1 1 1 1 < t C C r 1 S ! > n                                                         ",
"                              $.%.z 8 7 &.P *.=.j - ' g g g S -...1 1 1 1 1 1 1 1 1 l ; q ! N 3 Q 1 1 1 1 1 1 ; > 3 ;.>.,.'.).!.~.{.].^.                                            ",
"                            # N z /.B { Y C i Q t _ r ( m q I (.m _.....1 K } K d ..K [ ` Q m ! 8 g : [ 1 1 1 1 u :.<.[.}.|.1.2.1.3.4.5.6.7.8.                                      ",
"                          * q } K ..L z p [ 1 1 1 1 | 1 K } 1 _ { 9.j 0.a.b.c.d.e.f.g.h.i.j...) r B g D t L 1 k.l.m.1.5.5.5.5.5.5.5.5.5.5.5.|.n.o.                                  ",
"                        p.5 Q 6 Q q.( P L 1 1 1 1 1 1 1 1 1 1 ` r.s.t.u.v.w.x.y.z.A.B.C.D.E.F.G.H.< 6 q ! N ( I.J.5.5.5.5.5.5.1.5.K.5.5.5.5.5.5.L.M.                                ",
"                      N.O.j G Z j P.Q.* { t K K K 1 1 1 1 } R.S.T.U.V.W.X.Y.Z.`. + + + + +.+++@+#+$+%+K &+B *+=+5.5.5.5.5.5.-+M.;+7.>+,+'+5.5.5.5.)+!+~+{+                          ",
"                    ]+i 5 e 2 s > 9 t +.: j b ! s ` ` 1 ) h.^+/+(+_+:+<+[+}+|+1+ + + + + + + +.+2+3+4+5+Q Q 6+4.5.5.5.5.1.7+8+n.'+=+9+0+a+K.5.5.5.5.5.b+c+9 (.                      ",
"                  d+= ` 1 < 1 K I e+| 1 1 ..d m * k k.f+g+h+i+_+ +j+k+l+z. +(+m+ + + + + + + + + +n+o+p+q+d r+s+5.5.5.5.t+-+4.5.5.5.5.m.].u+v+5.5.5.5.)+w+x+y+E *.                  ",
"                z+] { A+c i g ~ u ..1 1 1 1 1 1 1 D B+C+D+ + + +m+E+F+G+ + + + + + + + + + + + + + + +o+H+I+J+s+5.5.5.5.b+4.2.5.5.5.|.K+K+L+M+5.5.5.5.5.N+O+i P+Q+R+X               ",
"              / g S+5 T+q = p G 9.( 6 q.&+` 1 1 U+V+W+X+n+ + + +Y+Z+x. + + + + + + + + + + + + + +n+ +`+.+Z. @.@5.5.5.1.a++@5.5.5.5.a+@@1.#@a+5.5.5.5.5.5.$@%@, B _ &@              ",
"              Q.&@N _ < K 2 8 > } g & { N D r +.*@=@-@ + + + + +;@>@,@ + + + + + + + + + + + + + +'@)@!@~@{@B.]@^@5.5.5./@(@'+5.1._@u+7+:@<@6.5.5.5.5.5.5.v+[@8 }@y+|@              ",
"              *.D 3 c j 1@5 Z t ..1 1 Q +.q 7 2@3@4@ + + + + +:+5@6@ + + + + + + + + + + + + + +7@8@9@0@a@b@c@U.d@e@5.5.5.M.f@t+M.(@7.g@h@i@1.5.5.5.5.5.5.5.j@k@l j ]               ",
"              l@m@B } S D ^ n@: ` K 1 1 1 ` o@p@q@ + + + + + +.+r@s@ + + + + + + + + + + + + +t@u@v@w@x@y@z@A@B@;@C@9+4.5.6.#@9+D@7.E@u+4.K+5.5.5.5.5.5.5.1.t+F@2 (                 ",
"              D G@Z r 2 R &.p p - 5 2 } | 1 H@I@:+ + + + + + + +J@K@n+ + + + + + + + + + + + +7@L@M@N@$.O@P@Q@R@S@T@U@#@V@7.+@(@#@W@7+v+5.5.5.5.5.5.5.5.5.5.1.X@3 c                 ",
"              Y@P+5 j ~ q y+Q 1 : Z P 3 L Z@`@t@7@ + + + + + +`. #>@ + + + + + + + + + + + + +_+.#+#@###$.$.$#%#&#*#=#N+6.a+_@_@-#1.5.5.5.5.5.5.5.5.5.5.5.5.:@;#Z '                 ",
"              >#8 < d k n *.S 1 1 1 L ,#T '#)# + + + + + + + + +!#U.m+ + + + + + + + + + + + + +V.~#{#]#+ $.^#/#(#D+_#:#5.5.5.5.5.5.5.5.5.5.5.5.5.5.5.5.5.5.<#d+^                   ",
"              v [#Q 1 ` p T k f Q 1 1 1 | }#G+ + + + + + + + +n+|#1#2# + + + + + + + + + + + + +n+3#4#5#6#P@7#8#9#0#a#b#5.5.5.5.5.5.5.5.5.5.5.5.5.5.5.5.5.5.c#z k                   ",
"              ' N T K | ] s e+B i 2 K 1 d#e# + + + + + + + + + +H+f#g# + + + + + + + + + + + + + +h#i#j#k#{#l#m#n#o#U.p#1.5.5.5.5.5.5.5.5.5.5.5.5.5.5.5.1.q#, B 9.                  ",
"              p 6 r#P k p 1 1 l g & j L s#t# + + + + + + + + + +u#v#o+ + + + + + + + + + + + + + + +`.w#x#y#z#A# + +B#C#D#5.5.5.5.5.5.5.5.5.5.5.5.5.5.3.E#F#G#H#I#J#                ",
"              K#| ` N L#8 < 1 1 1 2 N M#N#n+ + + + + + + + + +m+O#P# + + + + + + + + + + + + + + + + +n+1+-@h#`. + +G+Q#|.5.5.5.5.5.5.5.5.5.5.5.5.s+)+R#S#T#U#V#W#X#Y#Z#            ",
"              V _ 1 2 `#G G@..1 1 1 .. $.$`. + + + + + + + + +(++$@$#$n+n+ + + + + + +.+`.n+ + + + + + + + + + + + +$$%$&$5.5.5.5.5.5.5.1.5.v+*$n.=$-$;$>$,$'$)$)$)$!$~${$          ",
"              ]$' +.` C A & u r ` 1 K ^$/$-@ + + + + + + + +$$($[+Y._$l+Y.:$t@m+ +o+O#<$j+ + + + + + + + + + + + + +7@[$}$5.5.5.5.K+'+|$1$2$3$4$5$6$7$8$9$0$)$)$)$)$)$a$b$c$        ",
"              O.U P +.C r l m Z : K 1 d$e$ + + + + + + + +(+f$F+g$ + +h$i$j$k$l$t#5@m$n$h$ + + + + + + + + + + + + +1+o$p$N+&$q$r$s$t$u$v$w$' x$y$z$A$)$)$)$)$)$)$)$)$)$)$B$C$D$    ",
"                i i H k D 1 2 1@, q l s.E$ + + + + + +m+F$G$H$G+m+ + + + +I$($J$K$L$t@`. + + + + + + + + + + + + + +7@M$N$O$P$Q$R$Q d K K ; S$T$U$V$W$)$)$)$)$)$)$)$)$)$)$X$Y$      ",
"                9 d Z O.g Z$1 1 2 m p `$ %7@ + + + + +V..%w.,@ + + + + + + + +n++%H+ + + + + + + + + + + + + + + + +0#@%#%F t d K 1 1 1 2 $%%%&%)$)$)$)$)$)$)$)$)$)$)$*%=%-%+       ",
"                U T+P+D 9 | 1 1 1 1 1 ;%>%t@ + + +t@,%'%)%!% + + + + + + + + + +~%~%1+ + + + + + + + + + + + + + + +{%]%a.G@9 u i 1 ..1 ^%/%(%_%)$)$)$)$)$)$)$)$)$)$)$:%<%[%        ",
"                m@Q 1 ! l@{ l 1 1 1 1 s }%X+ + + +|%1%2% + + + + + + + + + + +7@D+3%4% + + + + + + + + + + + + + + +t@5%6%Z$.._ c 9.y+7%8%9%)$)$)$)$)$)$)$)$)$)$)$W$0%a%b%          ",
"                c%e 1 6 u 4 ! 1 1 1 1 J d%:$ + + +H$e%,@ + + + + + + + + + + + +h#3+Z. + + + + + + + + + + + + + + +V.f%U+1 1 1 ..2 g%h%8$i%)$)$)$)$)$)$)$)$)$)$)$j%k%l%            ",
"                  k 1 d u f * U ) 1 1 2 m%q@n+ +j+n%o% + + + + + + + + + + + + +.+.+n+ + + + + + + + + + + + + + + +p%q%t : ..` [ r%s%t%u%)$)$)$)$)$)$)$)$)$)$v%_%w%                ",
"                  %.+.} D N l x%N [ ..1 y%=@z% +S@l+A% + + + + + + + + + + + + + + + + + + + + + + + + + + + + + +$$B%&@! C%D%z g E%F%G%)$)$)$)$)$)$)$)$)$)$)$H%I%J%                ",
"                    , d 2 { R d f n z l 6%K%h#n+c@+$I$ + + + + + + + + + + + + + + + + + + + + + + + + + + + + + +L%M%: 2 K Q x%g N%O%_%)$)$)$)$)$)$)$)$)$)$)$8$P%                  ",
"                    9.i } g i 1 1 2 N N x%Q%R%_+S%T%(+ + + + + + + + + + + + + + + + + + + + + + + + + + + + + + +U%V%d 1 1 1 Z$W%X%Y%)$)$)$)$)$)$)$)$)$)$)$Z%`%                    ",
"                      L# &7 V G@K K _ N z .&+&h$4@+$l$ + + + + + + + + + + + + + + + + + + + + + + + + + + + + +Z.@&#&..1 1 1 U+$&%&W$)$)$)$)$)$)$)$)$)$)$&&*&                      ",
"                      =&j B - P l 1 1 1 &+i -&;&F$~%>&2+ + + + + + + + + + + + + + + + + + + + + + + + + + + + +e$,&'&> S 1 Z$)&!&W$)$)$)$)$)$)$)$)$)$)$*%~&+                       ",
"                         .' {&*.7 ..1 1 1 1 J ]&t#4@^&O# + + + + + + + + + + +_+$$/&(&Y.O#7@ + + + + + + + + +z._&s 2 +.- ) K :&<&W$)$)$)$)$)$)$)$)$)$)$:%<%                        ",
"                          ! 1@F (.&+1 1 1 1 1 [&}&L%n+t@ + + + + + + + + + +n+S%|&1&2&3&4&5&|#-@ + + + + + +$$6&7&..1 2 t H 8&9&V$v%)$)$)$)$)$)$)$)$)$_%0&a&                        ",
"                          c%,#h b&4 Q ..1 1 1 1 c&d&0# + + + + + + + + + +m+e&f&g&h&i&j&k&l&m&B# + + + +n+n&~%o&p&< 1 1 1 S q&r&'$)$)$)$)$)$)$)$)$)$)$j%s&z : 2 N                   ",
"                            T L S I p.T +.1 1 1 t&u&v&!%7@ + + + + + + + +7@w&x&y&z&A&B&C&D&E&F&`. + +`.h$G&H&I&7 1@) Q K Z$J&K&L&)$)$)$)$)$)$)$)$)$)$U$M&< 1 K : V                 ",
"                              ! d q /.* 9 B 2 1 1 d N&O&/&.+ + + + + + + +$$P&Q&R&+ + + + S&T&U&7@n+$$V&W&X&Y&Z&`&= g g C N  *,$)$)$)$)$)$)$)$)$)$)$.*+*6 1 1 1 ..,                 ",
"                              @*m 1 x%9 ! - t [ K K [ #*$*%*z. + + + + + +0#&***=*-*x@;*>*,*'*)*(+A%!*~*{*N+5.]*^*K L /*) D %%%&)$)$)$)$)$)$)$)$)$)$(*_*N K 1 1 d k                 ",
"                                , e+< N ' 7 8 9 #.S K 1 1 :*<*Y.G+_+ + + + +[*}*|*1*2*3*4*5*6*i+F+7*8*|.5.5.5.3.9*B K 1 } e+0*A$v%)$)$)$)$)$)$)$)$'$a*b* .c*..2 7                   ",
"                                  = < 2 B c : < q  .@.m 1 < d*q%e*f*A%G+ +.+ +h#Y.U.g*h*i*j*k*l*m*n*5.5.5.5.5.5.7+o*p*1 1 e+q*r*)$)$)$)$)$)$)$)$)$s*k%    A 9 N                     ",
"                                  t*H s K q ' ) P+U+1@, u*z l J r v*w*x*y*z*B#V.|#[*!#v&A*B*C*D*5.5.5.5.5.5.5.5.1.E*F*K 1 J G*H*)$)$)$)$)$)$)$)$)$I*J*                              ",
"                                    m@p g 1@,#K*S+Z$..-.J z A+9 5 } l 1 L*M*N*O*P*Q*R*S*T*7.#@t+1.5.5.5.5.5.5.5.5.7+U*z h : V*G%)$)$)$)$)$)$)$)$W*B$X*                              ",
"                                      + {+u - ' w > Q | 1 ..Y*t /.@.! < 1 2 Z*`*3.*$K.5.|.)+4.-+ =1.5.5.5.5.5.5.5.v+8.n C A .=B$)$)$)$)$)$)$)$)$)$~$                                ",
"                                        . / +=~ { Q.{ L K 1 1 ..-.&+M G k N @=_@5.5.5.5.5.5.1.t+#=$=2.5.5.5.5.5.5.5.)+%=5$s &=O%)$)$)$)$)$)$)$)$*===                                ",
"                                          & 7 x%+.-=G ;=D J 1 1 1 ....K B >=a+5.5.5.5.5.5.|.7+_@|.9+6.5.5.5.5.5.5.5.5.,='=c )=!=)$)$)$)$)$)$)$)$~={=                                ",
"                                            ]=&.T+[ S i - z q Q 1 1 1 1 ` ^=/=5.5.5.5.1. =#=(=(@_=:=#@|.5.5.5.5.5.5.5.5.<=[=}=|=i%)$)$)$)$)$)$)$i%1=                                ",
"                                                2=H /*< +.Z T ' N ; 2 1 Z$3=4=5.5.5.5.7+(=/=K+1.4.i@5=4.5.5.5.5.5.5.5.5.s+6=7=8=9=)$)$)$)$)$)$)$j%0=                                ",
"                                                    a=E ~ G@y+b=m@Z z 7 ,#c='+5.5.5.5.d=e=s+5.5.|.!+;+9+s+5.5.5.5.5.5.5.5.f=g=h=:%)$)$)$)$)$)$)$i=j=                                ",
"                                                        + W A t > `#r ! p k=l=5.5.5.1.a+n.5.5.5.5.;+t+!+_@5.5.5.5.5.5.5.5.|.m=n=o=W$)$)$)$)$)$)$p=q=                                ",
"                                                              a=n # 9 5 } ) r=1.5.5.5.s=M.:@5.5.3.!+t+7.t=1.5.5.5.5.5.5.5.u=v=w=x=W$)$)$)$)$)$)$%&P%                                ",
"                                                                    O.( m r y=z=5.5.5./@A=B=2.5.'+a+C=a+D=5.5.5.5.5.5.5.5.1.E=F=G=i%)$)$)$)$)$)$H=I=                                ",
"                                                                          J=& K=_@5.5.1.7+(=4.5.5.5.v+L=g@1.5.5.5.5.5.5.5.5.9+M=N=O=*%)$)$)$)$)$P=Q=                                ",
"                                                                              R=7.1.5.5.2.S=T=8.,+7.U=V=1.5.5.5.5.5.5.5.5.5.W=k X=Y=Z=_%W$W$)$)$`= -                                ",
"                                                                                .-U=3.1.5.5.K./@s=t+7+K+5.5.5.5.5.5.5.5.5.5.+-@-A {$#-z$$-%-&-O%Y%*-                                ",
"                                                                                    $=3.5.5.5.5.5.1.5.5.5.5.5.5.5.5.5.5.1.=-G --          ;->-,-'-)-                                ",
"                                                                                      R=n.|.5.5.5.5.5.5.5.5.5.5.5.5.5.5.t+!-V F                                                     ",
"                                                                                        ~-!._@)+5.5.5.5.5.5.5.5.5.5.{-]-^-C D %.                                                    ",
"                                                                                              /-a+t+K+5.s+1.v+K+'+=+(-_-: 6 c                                                       ",
"                                                                                                  ;+:-<-[-}-|-9*1-2-3-{ ) D                                                         ",
"                                                                                                          4-c%N 5-R } r F 6-                                                        ",
"                                                                                                                ' m s 6 (                                                           ",
"                                                                                                                    {&&                                                             ",
"                                                                                                                                                                                    ",
"                                                                                                                                                                                    ",
"                                                                                                                                                                                    ",
"                                                                                                                                                                                    ",
"                                                                                                                                                                                    "};
