/* XPM */
static char * monstro2c_xpm[] = {
"180 180 589 2",
"  	c None",
". 	c #C0D7C7",
"+ 	c #BBCBBC",
"@ 	c #B8C5B5",
"# 	c #C4D9C9",
"$ 	c #A6B4A0",
"% 	c #E9F2EC",
"& 	c #D7E3D6",
"* 	c #BEBFAF",
"= 	c #DEE0D0",
"- 	c #8C9A86",
"; 	c #E2F0E2",
"> 	c #ECE9E3",
", 	c #CDC5B7",
"' 	c #C39D8B",
") 	c #DDD4C7",
"! 	c #E5E7DB",
"~ 	c #9EAC98",
"{ 	c #DEE3D3",
"] 	c #EFF4E6",
"^ 	c #E3D3C6",
"/ 	c #D6B2A2",
"( 	c #D09486",
"_ 	c #F2E5D8",
": 	c #DBD8C7",
"< 	c #A8BBA9",
"[ 	c #ECE6E0",
"} 	c #EEDAD5",
"| 	c #E7C4B8",
"1 	c #DCA697",
"2 	c #D89084",
"3 	c #D78D7F",
"4 	c #F1B5AB",
"5 	c #FBD4D4",
"6 	c #A4A995",
"7 	c #CAC8BB",
"8 	c #EFD3CE",
"9 	c #F1C8C3",
"0 	c #EDB2A5",
"a 	c #E5A69A",
"b 	c #D38171",
"c 	c #DE998D",
"d 	c #DB978A",
"e 	c #F6C6BB",
"f 	c #EDC6BB",
"g 	c #D2B9A8",
"h 	c #AC9685",
"i 	c #CFBCAB",
"j 	c #EDC3B8",
"k 	c #F6C3B8",
"l 	c #EEAB9F",
"m 	c #EDB0A5",
"n 	c #D58778",
"o 	c #D99285",
"p 	c #FBBEBE",
"q 	c #F4B6B2",
"r 	c #E9ADA4",
"s 	c #F0B9AE",
"t 	c #D8A498",
"u 	c #B78F7E",
"v 	c #A7A692",
"w 	c #D1A89B",
"x 	c #F7BFB4",
"y 	c #EDB3A8",
"z 	c #DFA091",
"A 	c #EBA79B",
"B 	c #D49689",
"C 	c #BB8170",
"D 	c #B79B89",
"E 	c #CF8576",
"F 	c #CA6E62",
"G 	c #F4BDB3",
"H 	c #C6635B",
"I 	c #C19382",
"J 	c #E6ACA1",
"K 	c #F2BDB1",
"L 	c #D1796A",
"M 	c #C65A50",
"N 	c #CA8B7B",
"O 	c #E2A497",
"P 	c #F1B7AE",
"Q 	c #CA6058",
"R 	c #C44F45",
"S 	c #C35B51",
"T 	c #C7665A",
"U 	c #CC7364",
"V 	c #D8756D",
"W 	c #E0A296",
"X 	c #C1433A",
"Y 	c #C9594F",
"Z 	c #C04037",
"` 	c #C34B41",
" .	c #FFC0C0",
"..	c #C75248",
"+.	c #E2857C",
"@.	c #CD7F6F",
"#.	c #C07969",
"$.	c #C4897A",
"%.	c #C28274",
"&.	c #BE3C33",
"*.	c #CF9090",
"=.	c #BA5D4B",
"-.	c #B75444",
";.	c #BD372E",
">.	c #B85547",
",.	c #D89D9E",
"'.	c #B75343",
").	c #F1BBAF",
"!.	c #BC6559",
"~.	c #B95543",
"{.	c #B9513F",
"].	c #BB2E24",
"^.	c #C25049",
"/.	c #C2473D",
"(.	c #B74C3D",
"_.	c #B74032",
":.	c #B73325",
"<.	c #B72C21",
"[.	c #B84838",
"}.	c #B73122",
"|.	c #B83224",
"1.	c #B73D2E",
"2.	c #BF4844",
"3.	c #BC332D",
"4.	c #DA796F",
"5.	c #D1695D",
"6.	c #B72316",
"7.	c #D56F66",
"8.	c #B9231B",
"9.	c #F4533C",
"0.	c #FF0100",
"a.	c #FF0000",
"b.	c #F55946",
"c.	c #C04939",
"d.	c #EC645A",
"e.	c #FB4F48",
"f.	c #FE1B18",
"g.	c #FE1A17",
"h.	c #F7372F",
"i.	c #DF3023",
"j.	c #BE5040",
"k.	c #FE1305",
"l.	c #FE1306",
"m.	c #B74534",
"n.	c #D53D38",
"o.	c #FD5552",
"p.	c #F5221E",
"q.	c #D13F32",
"r.	c #B94E3C",
"s.	c #F93924",
"t.	c #F93A24",
"u.	c #C44637",
"v.	c #FC4A44",
"w.	c #F51815",
"x.	c #C42E22",
"y.	c #E62E2B",
"z.	c #E41A13",
"A.	c #FA2B24",
"B.	c #F70703",
"C.	c #F8150D",
"D.	c #F70905",
"E.	c #B7281B",
"F.	c #E4372A",
"G.	c #C44D3D",
"H.	c #F51C14",
"I.	c #F40602",
"J.	c #C4281E",
"K.	c #FE1406",
"L.	c #E88E80",
"M.	c #D14E3D",
"N.	c #F41915",
"O.	c #F40B05",
"P.	c #D1231A",
"Q.	c #B71A0D",
"R.	c #F55A47",
"S.	c #DE7E76",
"T.	c #FC8F7E",
"U.	c #F9A183",
"V.	c #FC9383",
"W.	c #F9856F",
"X.	c #C33D36",
"Y.	c #DF362A",
"Z.	c #F41C14",
"`.	c #FD0202",
" +	c #F30B05",
".+	c #DF1D15",
"++	c #BF291F",
"@+	c #BB4039",
"#+	c #EB715D",
"$+	c #B70302",
"%+	c #B73828",
"&+	c #FDA694",
"*+	c #FEB29F",
"=+	c #B91E15",
"-+	c #B72D1E",
";+	c #E86650",
">+	c #E15E4C",
",+	c #C23A1D",
"'+	c #CA4826",
")+	c #B70E05",
"!+	c #D15627",
"~+	c #D4602D",
"{+	c #C4401E",
"]+	c #C6421E",
"^+	c #F27862",
"/+	c #CE4B1D",
"(+	c #CC542D",
"_+	c #B7130D",
":+	c #CA4E25",
"<+	c #C64627",
"[+	c #E48243",
"}+	c #C33D1D",
"|+	c #D97039",
"1+	c #D79E91",
"2+	c #BA2820",
"3+	c #BD2D13",
"4+	c #E8FAED",
"5+	c #EDE2D6",
"6+	c #F1C4B7",
"7+	c #F8FCFB",
"8+	c #EEDED2",
"9+	c #F2C0B3",
"0+	c #BD2912",
"a+	c #E88C54",
"b+	c #EFFDEF",
"c+	c #E3F3E7",
"d+	c #EEDACE",
"e+	c #FFFFFF",
"f+	c #DBE9DB",
"g+	c #BDD4C1",
"h+	c #EDDACC",
"i+	c #C9DCCC",
"j+	c #EBD8CB",
"k+	c #B9180F",
"l+	c #FFDFDF",
"m+	c #C0341B",
"n+	c #EFBBBF",
"o+	c #FADCDB",
"p+	c #D8AAB4",
"q+	c #E1B0B8",
"r+	c #EBB7BD",
"s+	c #D2A7B3",
"t+	c #C8A1AE",
"u+	c #140D08",
"v+	c #F6BDC0",
"w+	c #CCA6B1",
"x+	c #CFA6B1",
"y+	c #CBA3AF",
"z+	c #E6B8BD",
"A+	c #F2BCBF",
"B+	c #E5B4BB",
"C+	c #DAADB6",
"D+	c #CAA2AF",
"E+	c #C29BAB",
"F+	c #ADD1D2",
"G+	c #D6F3FA",
"H+	c #9FB9BA",
"I+	c #CCB0B0",
"J+	c #C098AA",
"K+	c #C49CAB",
"L+	c #9CDEED",
"M+	c #C4E6F1",
"N+	c #B1B7C6",
"O+	c #DCEDDF",
"P+	c #7DD6E7",
"Q+	c #B4C0CC",
"R+	c #C69EAD",
"S+	c #C1E9F4",
"T+	c #B4A9AA",
"U+	c #ACB0B1",
"V+	c #E6F8FD",
"W+	c #93A4CB",
"X+	c #CEE4D5",
"Y+	c #99BCBD",
"Z+	c #D3ABB4",
"`+	c #87D8E8",
" @	c #B1E6F1",
".@	c #94DDEB",
"+@	c #C982A1",
"@@	c #DFF7FE",
"#@	c #93BFC0",
"$@	c #76D2E6",
"%@	c #D4E6D9",
"&@	c #E6EADF",
"*@	c #ADE1EE",
"=@	c #B988A2",
"-@	c #DFA99C",
";@	c #FFC4C4",
">@	c #B7749B",
",@	c #B70E06",
"'@	c #FBCCCB",
")@	c #BD6F9A",
"!@	c #E9D5C9",
"~@	c #FFC8C8",
"{@	c #B75A8F",
"]@	c #B70200",
"^@	c #D9EAF1",
"/@	c #FFD7D7",
"(@	c #B76F97",
"_@	c #B70902",
":@	c #BB1F0B",
"<@	c #FFEAEA",
"[@	c #FFCCCC",
"}@	c #EDFAFF",
"|@	c #F8F9F8",
"1@	c #FFE3E3",
"2@	c #F3BEB9",
"3@	c #B76391",
"4@	c #B77C9D",
"5@	c #B70B06",
"6@	c #FBC5C5",
"7@	c #FFF6F6",
"8@	c #F0D0CA",
"9@	c #B66396",
"0@	c #B76B95",
"a@	c #FBC2C1",
"b@	c #FFDBDB",
"c@	c #F8ECEB",
"d@	c #C49B9C",
"e@	c #E0C1CA",
"f@	c #DCE4EA",
"g@	c #B5C8B8",
"h@	c #B0DEEB",
"i@	c #F1DEE3",
"j@	c #E9BFC4",
"k@	c #DEB6BF",
"l@	c #8FA9C3",
"m@	c #CDEBF4",
"n@	c #F8F3F2",
"o@	c #B70A05",
"p@	c #EDD8DD",
"q@	c #5FB1D3",
"r@	c #CAEEF7",
"s@	c #7EADD6",
"t@	c #FBD8D8",
"u@	c #B7508B",
"v@	c #C5A4B2",
"w@	c #9A9DBA",
"x@	c #E2EEF5",
"y@	c #ABC0B0",
"z@	c #D8DECD",
"A@	c #E2EBF2",
"B@	c #EED1D5",
"C@	c #B90D04",
"D@	c #BB8FA6",
"E@	c #EEBEC4",
"F@	c #A8AABD",
"G@	c #5D89BD",
"H@	c #028FC6",
"I@	c #83D7E8",
"J@	c #8CDCEA",
"K@	c #9FE2EF",
"L@	c #3CB7D9",
"M@	c #B8D5E2",
"N@	c #E5CDD3",
"O@	c #F3BAB5",
"P@	c #B73581",
"Q@	c #B73D83",
"R@	c #BD94A7",
"S@	c #F3D3D7",
"T@	c #FFF3F3",
"U@	c #037BBE",
"V@	c #14A6D1",
"W@	c #039BCD",
"X@	c #7EB9CF",
"Y@	c #F0CACD",
"Z@	c #BA6393",
"`@	c #A44A92",
" #	c #6995C1",
".#	c #0269B7",
"+#	c #6FD0E3",
"@#	c #4FC5DE",
"##	c #2FB5D7",
"$#	c #4F94CC",
"%#	c #5E91C9",
"&#	c #F9E4E3",
"*#	c #C27467",
"=#	c #B7789B",
"-#	c #D3A7A8",
";#	c #CFD3DC",
">#	c #B0CECF",
",#	c #03A6D2",
"'#	c #E6F5FA",
")#	c #F2C7BD",
"!#	c #B882A1",
"~#	c #DCB9C3",
"{#	c #03A0CE",
"]#	c #0371BC",
"^#	c #42BEDC",
"/#	c #F0E2E7",
"(#	c #BB89A4",
"_#	c #B7538D",
":#	c #CBB1BD",
"<#	c #B7C9D6",
"[#	c #8DD5E5",
"}#	c #67CEE3",
"|#	c #859283",
"1#	c #0253AF",
"2#	c #015DB4",
"3#	c #ECE0E5",
"4#	c #AEA0B4",
"5#	c #BC9BAD",
"6#	c #B74487",
"7#	c #B74E89",
"8#	c #B70704",
"9#	c #C2CCD7",
"0#	c #51B4D6",
"a#	c #D9F0F7",
"b#	c #7E8BBF",
"c#	c #99679F",
"d#	c #B3518E",
"e#	c #E0B3BC",
"f#	c #A09AB7",
"g#	c #6991C0",
"h#	c #3793C6",
"i#	c #0396C9",
"j#	c #0149AC",
"k#	c #5CCAE1",
"l#	c #ADD6E3",
"m#	c #B9709C",
"n#	c #F5C0C4",
"o#	c #D7C4CD",
"p#	c #5D6BB3",
"q#	c #013EA6",
"r#	c #23ADD5",
"s#	c #DCE7EE",
"t#	c #C1BECB",
"u#	c #B390A9",
"v#	c #DFE1D3",
"w#	c #D6B4BD",
"x#	c #B72176",
"y#	c #AE5190",
"z#	c #B8A6A7",
"A#	c #8DA7D0",
"B#	c #FFCFCF",
"C#	c #A481A7",
"D#	c #A1B8CA",
"E#	c #B5DBE5",
"F#	c #0384C1",
"G#	c #D3DFE8",
"H#	c #EED5D9",
"I#	c #AE6697",
"J#	c #9A70A8",
"K#	c #697BB5",
"L#	c #376EB9",
"M#	c #3984C4",
"N#	c #74C4DB",
"O#	c #D3B4BE",
"P#	c #C5AFBA",
"Q#	c #4D89C0",
"R#	c #1E6CB9",
"S#	c #3798CA",
"T#	c #7598BF",
"U#	c #B69AAE",
"V#	c #B086A7",
"W#	c #9C91B3",
"X#	c #9AC0D4",
"Y#	c #92D9E7",
"Z#	c #4D95C7",
"`#	c #8689B6",
" $	c #A47DA6",
".$	c #B2779D",
"+$	c #C3A1B1",
"@$	c #F4CACF",
"#$	c #C5C8D3",
"$$	c #379DCB",
"%$	c #9389B1",
"&$	c #AE7CA1",
"*$	c #B77C9E",
"=$	c #C6A9B5",
"-$	c #BCBDC9",
";$	c #FFEFEF",
">$	c #4D78B8",
",$	c #7D6FAC",
"'$	c #996EA2",
")$	c #AE78A0",
"!$	c #B72D7C",
"~$	c #B2B0C2",
"{$	c #A7C2D2",
"]$	c #C7E0EB",
"^$	c #8675AB",
"/$	c #A46A9D",
"($	c #B26394",
"_$	c #94D2DF",
":$	c #98A18E",
"<$	c #3781BE",
"[$	c #6986BA",
"}$	c #8E90B6",
"|$	c #DAC1CA",
"1$	c #AE5F94",
"2$	c #9F4C94",
"3$	c #8C7CAD",
"4$	c #9DC8D9",
"5$	c #FFE7E7",
"6$	c #E7B4A9",
"7$	c #B691B4",
"8$	c #7D80B3",
"9$	c #5D97C5",
"0$	c #E9EFF4",
"a$	c #B1C8D4",
"b$	c #BFBAC6",
"c$	c #C8A6B3",
"d$	c #F4C7CC",
"e$	c #82CADC",
"f$	c #86B5CC",
"g$	c #A6B5C6",
"h$	c #BBB2C0",
"i$	c #B791A9",
"j$	c #C7A5B3",
"k$	c #BFAAB8",
"l$	c #B8B1BF",
"m$	c #B0BBCB",
"n$	c #CEE5EE",
"o$	c #9ADAE8",
"p$	c #6EB5D0",
"q$	c #789EC3",
"r$	c #8C87B3",
"s$	c #9F84AA",
"t$	c #A97FA4",
"u$	c #B484A4",
"v$	c #D6ADB7",
"w$	c #BCB2C0",
"x$	c #ACBACA",
"y$	c #9EC4D5",
"z$	c #93CBDB",
"A$	c #86D3E4",
"B$	c #B0C3B2",
"C$	c #7FCFE3",
"D$	c #868EB7",
"E$	c #9986AD",
"F$	c #AB89AA",
"G$	c #C4A8B5",
"H$	c #F2BFC3",
"I$	c #ECDCE1",
"J$	c #EBE4E8",
"K$	c #E9ECF1",
"L$	c #7493BD",
"M$	c #7D8CB9",
"N$	c #A4BACC",
"O$	c #B5B9C6",
"P$	c #B3ACBC",
"Q$	c #B2799E",
"R$	c #B26D98",
"S$	c #A9719D",
"T$	c #A089AD",
"U$	c #B194B7",
"V$	c #7FA8C7",
"W$	c #03ACD3",
"X$	c #9ED0DE",
"Y$	c #8684B2",
"Z$	c #9AACC2",
"`$	c #C9C1CC",
" %	c #CCBDC8",
".%	c #CFBAC4",
"+%	c #B1A3B7",
"@%	c #B39DB1",
"#%	c #D5A4A5",
"$%	c #AE759C",
"%%	c #AE6E9B",
"&%	c #A95895",
"*%	c #A65695",
"=%	c #CFADAE",
"-%	c #D7B5A7",
";%	c #DEC4B6",
">%	c #DACFD8",
",%	c #E0D8DE",
"'%	c #D4DBE3",
")%	c #BBDAE5",
"!%	c #42AAD2",
"~%	c #4D7FBB",
"{%	c #7483B6",
"]%	c #7D87B5",
"^%	c #87A5C4",
"/%	c #D2CFD9",
"(%	c #D3CCD5",
"_%	c #E2D4DA",
":%	c #BDC2CE",
"<%	c #8C82AF",
"[%	c #865DA2",
"}%	c #7D4A9D",
"|%	c #7D54A2",
"1%	c #744CA0",
"2%	c #748DC3",
"3%	c #5269B3",
"4%	c #365AB1",
"5%	c #80786B",
"6%	c #868176",
"7%	c #B1A196",
"8%	c #B9A89D",
"                                                                                                                                                                                                                                                                                                                                                                        ",
"                                                                                                                                                                                                                                                                                                                                                                        ",
"                                                                                                                                                                                                                                                                                                                                                                        ",
"                                                                                                                                                                                                                                                                                                                                                                        ",
"                                                                                                                                                                                                                                                                                                                                                                        ",
"                                                                                                                                                                                                                                                                                                                                                                        ",
"                                                                                                                              . + @                                                                                                   # + $                                                                                                                             ",
"                                                                                                                          % & *                                                                                                           = # $ -                                                                                                                       ",
"                                                                                                                      ; > , '                                                                                                               ) ! + $ ~                                                                                                                   ",
"                                                                                                                  { ] ^ / (                                                                                                                     _ : < ~                                                                                                                 ",
"                                                                                                                [ } | 1 2                                                       3 4                                                               5 ^ * 6 ~                                                                                                             ",
"                                                                                                            7 8 9 0 a b                                                         c 4                                                               d e f g h 6                                                                                                           ",
"                                                                                                          i j k l m n                                               o         p 3 q d                                                               r q s t u v                                                                                                         ",
"                                                                                                        w 0 x m y z                                                 z 3 l A p q b q d                                                                 l x m B C D                                                                                                       ",
"                                                                                                      E A m q l y n                                                 4 F x q q q b x c                                                                   4 G A b H I                                                                                                     ",
"                                                                                                      3 l q m m J                                                   3 3 m q q G b x o                                                                   A K 4 c L M N                                                                                                   ",
"                                                                                                    n o l G l m O                                                   o O c q q G 2 q o                                                                   a P G A b Q F E                                                                                                 ",
"                                                                                                  b b d l q l y c                                                   o r b q q q c q c                                                                     4 x A o L R b                                                                                                 ",
"                                                                                                  b L c l q l P n                                                   O y F P q q c 4 O                                                                     a x m O S T F                                                                                                 ",
"                                                                                                  3 U c l G l q b                                                 l c 4 n z q q c y O                                                                     z G m A T U R L                                                                                               ",
"                                                                                                  b F o l q m q V                                                 4 O P z b q q a 4 W                                                                     c G m A F U X L                                                                                               ",
"                                                                                                L b Q 3 l 4 q 4 c                                               l p a z o U 3 3 o z c A A A l       Y                                                     a x r a F F Z U                                                                                               ",
"                                                                                                b b ` b A l x l a                                           A n a z l 4 p  . . . .p p p p x x G x x p q r m A                                             P x A o U Q Z U                                                                                               ",
"                                                                                                b L ..L c l P 4 P +.                                      @.#.p  . . .p x x x q q q q q q q q q q q q q q m z r O A                                     r G P A b S ` Z U                                                                                               ",
"                                                                                                L n Y Q n A l G 4 y                                   @.$.%.%.n p G q q q q q q q q q q q q q q q q q q q q P a c c J m                               z P x A c S Y &.` U                                                                                               ",
"                                                                                                  n U R b 2 l m x m y d                           *.$.%.%.#.=.-.L x q q q q q q q q q q q q q q q q q q q q q q J c c c a r                         r P x r a U Y &.;.Q                                                                                                 ",
"                                                                                                  L b Y Y n o l m x 4 m A                     *.*.%.%.#.>.-.-.-.-.T G q q q q q q q q q q q q q q q q q q q q q q J c c c c r                   a m P P A a Q S &.&.` L                                                                                                 ",
"                                                                                                    n L ..F n 3 A m q x 4 4 A A             ,.$.%.#.=.>.-.-.-.-.-.'.d q q q q q q q q q q q q q q q q q q q q P q q a c c c d y d           O 4 q G m a 3 T Y Z &.&.F T                                                                                                 ",
"                                                                                                    n b F Q Q n n z l m q x P 4 P J z c T *.%.%.#.>.>.>.-.-.-.-.-.-.F x q q q q q q q q q q q q q q q q q q q q q q ).z d d d d r b a x x x x P l a o U T &.&.&.&.F                                                                                                     ",
"                                                                                                      n b Q ....L b n z A l y P G x x c 2 %.%.!.>.>.>.>.!.#.%.%.#.=.~.q q q q q q q q q q q q q q q q q q q q q q q q m d d d d d r b P m A W 3 L Y U ..&.&.&.&.F                                                                                                       ",
"                                                                                                        n n F Y Y R Q L b 3 d z a A o 3 %.%.!.>.>.>.!.%.%.%.%.%.%.#.{.q q q q q q q q q q q q q q q q q q q q q q q q q O d d d d d r L b L U S Q &.].&.&.;.^.U S                                                                                                       ",
"                                                                                                          b n L Q ....` R Y F F L U *.%.%.!.>.>.-.#.%.%.%.%.%.%.%.=.S x q q q q q q q q q q q q q q q q q q q q q q q q m d d d d d d c Y ../.&.&.&.&.;.` F U                                                                                                           ",
"                                                                                                              n b L Q ..` /.R R R @.$.%.!.{.>.>.=.%.%.%.%.%.%.%.#.(.W q q q q q q q q q q q q q q q q q q q q q q q q P P c d c d o o J T /.Z Z &.Z ..F U                                                                                                               ",
"                                                                                                                  U b b L F Y ..R *.%.#.{.>.>.>.#.%.%.%.%.%.%.%.>.L x q q q q q q q q q q q q q q q q q q q q q x q P A O n U F @.2 d o c &./...F U U                                                                                                                   ",
"                                                                                                                        F b L n *.%.%.=.{.>.>.>.#.%.%.%.%.%.%.=.U q q q q q q q q q q q q q q q q q q q q q q o F ~.(.(.(._.:.:.:.<.T d r T F U                                                                                                                         ",
"                                                                                                                                *.%.#.{.~.>.>.>.!.%.%.%.%.%.=.-.~.x q q q q q q q q q q q q q q q q q q x 3 [.'.'.'.'.'.(.(.:.:.:.:.<.^.c A                                                                                                                             ",
"                                                                                                                            #.F %.%.~.>.>.>.>.>.>.!.#.#.=.-.-.-.(.A q q q q q q q q q q q q q q q q P q T '.'.'.'.'.(.(.(.(.:.:.:.:.<.<.S O <.:.}.                                                                                                                      ",
"                                                                                                                    #.#.#.=.[.@.%.#.{.>.>.>.>.>.>.>.>.-.-.-.-.-.'.z q q q q q q q q q q q q q q q q q S '.'.'.'.'.'.'.'.(.(.:.:.:.<.:.<.<.n |.<.:.:.:.:.:.                                                                                                              ",
"                                                                                                        %.#.#.%.#.!.=.~.~.=.].*.%.~.>.>.>.>.>.>.>.>.>.-.-.-.-.-.'.c q q q q q q q q q q q q q q q G F '.'.'.'.'.'.'.(.(.(.(.:.:.:.<.<.<.<.1.].<.<.<.<.<.<.:._._._._.                                                                                                    ",
"                                                                                                      #.~.{.~.~.~.~.~.~.~.2.F $.#.{.>.>.>.>.>.>.>.-.-.-.-.-.-.-.(.O q q q q q q q q q q q q q q q z (.'.'.'.'.'.'.'.'.(.(._.:.:.:.<.<.<.<.:.3.Z <.<.<.<.<.<.:.:.:.(.                                                                                                    ",
"                                                                                                      $.=.~.~.~.~.~.~.=.R 4.@.%.!.>.>.>.>.>.>.>.>.>.-.-.-.-.-.-._.P q q q q q q q q q q q q q q q S '.'.'.'.'.'.'.'.'.'.(._.:.:.:.<.<.<.<.:.1.5.` 6.<.<.<.<.:.:.:.(.                                                                                                    ",
"                                                                                                        $.=.{.{.{.=.!.5.V 7.#.%.>.>.>.>.>.>.>.>.>.>.-.-.-.-.-.'.n x q q q q q q q q q q q q q q l (.'.'.'.'.'.'.'.'.(.(.(._.:.:.<.<.<.<.<.:._.  Q Y 8.:.:.:.:._.(.                                                                                                      ",
"                                                                                                          $.$.%.#.          $.#.>.>.>.>.>.>.>.2.T T S =.=.=.T c x q q q q q q q q q q q q q q q 2 '.'.'.'.'.'.'.'.(.(.(.(.:.:.:.<.<.<.<.<.<._.          <.:._._.                                                                                                        ",
"                                                                                                                            %.#.>.>.>.>.>.>.F q x x x q q q x q q q q q q q q q q q q q q q q x T '.'.'.'.'.'.'.'.(.(.(.(.:.:.<.<.<.<.<.<.<._.                                                                                                                          ",
"                                                                                                                            %.!.>.~.>.>.-.~.q q q q x r a m p q q q q q q q q q q q q q q q q l -.'.'.'.'._._.(.'.(.(.(._.:.:.<.<.<.<.<.<.<._.                                                                                                                          ",
"                                                                                                                            %.=.~.>.>.>.-.c q q q 9.0.a.a.a.a.0.b.q q q q q q q q q q q q q x b '.'.'.c.d.e.f.g.h.i.j.(._.:.<.<.<.<.<.<.<.<._.                                                                                                                          ",
"                                                                                                                            $.>.>.~.~.>.T x q q k.a.a.a.a.a.a.a.a.l.q q q q q q q q q q q q x m.'.'.n.o.a.a.a.a.a.a.p.q.:.<.<.<.<.<.<.<.<.<._.                                                                                                                          ",
"                                                                                                                            %.r.~.~.>.~.y q q s.a.a.a.a.a.a.a.a.a.a.t.q q q q q q q q q q q m (.'.u.v.a.a.a.a.a.a.a.a.w.x.<.<.<.<.<.<.<.<.:.:.                                                                                                                          ",
"                                                                                                                            %.m.-.[.T m q q q a.a.a.a.a.a.a.a.a.a.a.a.q q q q q q q q q q q r (.'.y.a.a.a.a.a.a.a.a.a.a.z.<.<.<.<.<.<.<.<.:.|.                                                                                                                          ",
"                                                                                                                            z b W m x q q q q a.a.a.a.a.a.a.a.a.a.a.a.q q q q q q q q q q q m (.'.A.a.a.a.a.a.a.a.a.a.a.B.<.<.<.<.<.<.<.<._.                                                                                                                            ",
"                                                                                                                            4 z J ).q q q q q a.a.a.a.a.a.a.a.a.a.a.a.q q q q q q q q q q q x r.'.a.a.a.a.a.a.a.a.a.a.a.a.<.<.<.<.<.<.<.<.:.                                                                                                                            ",
"                                                                                                                              a c P q q q q q a.a.a.a.a.a.a.a.a.a.a.a.q q q q q q q q q q q x n '.C.a.a.a.a.a.a.a.a.a.a.D.<.<.<.<.E.<.E.<.1.                                                                                                                            ",
"                                                                                                                              m c O q q q q q a.a.a.a.a.a.a.a.a.a.a.a.q q q q q q q q q q q q r (.F.a.a.a.a.a.a.a.a.a.a.z.<.<.<.E.<.E.E._.E.                                                                                                                            ",
"                                                                                                                              z c c r q q p x t.a.a.a.a.a.a.a.a.a.a.s.q q q q q q q G G G q q G L G.H.a.a.a.a.a.a.a.a.I.J.<.<.<.<.E.E.E.:.                                                                                                                              ",
"                                                                                                                                c c c c 2 T m.~.k.a.a.a.a.a.a.a.a.K.q x 4 J W d o L.L.+.L.L.o c A ^.M.N.a.a.a.a.a.a.O.P.<.6.S ^.Q.E.E.:.<.                                                                                                                              ",
"                                                                                                                              2.m 2 |.1.r.-.>.>.S R.0.a.a.a.a.0.b.A +.5.S.L.T.U.U.U.V.V.V.U.U.V.W.S.Q X.Y.Z.`.`. +.+++|.S 3 o o b ^.|.@+E.                                                                                                                              ",
"                                                                                                                            *.F F 1.1.1.1.m.>.>.(.l q q q q q c 4.T.V.V.V.V.V.V.V.V.V.V.V.V.V.V.V.V.V.V.7.|.@+|.|.@+@.o o 3 3 3 3 2 a T Q.3.                                                                                                                            ",
"                                                                                                                          T 2 @+}.[.1.1.1.1.1.[.-.3 q q q P 4.V.V.V.V.V.V.V.V.V.V.V.V.V.V.V.V.V.V.V.T.T.T.#+U c o d 2 2 3 3 3 3 3 2 O $+6.3.d                                                                                                                           ",
"                                                                                                                          d ^.#.%+%+m.1.1.1.m.1.m.T P q 4 V U.V.&+*+U.V.V.V.V.V.V.V.V.V.V.V.V.V.V.V.T.T.T.#+#+F d 2 2 3 3 3 3 3 3 A =+Q.-+E.3 F                                                                                                                         ",
"                                                                                                                        ,.S {.!.m.}.m.1.1.1.m.1.%+2.z a 4.U.V.*+*+&+V.V.V.V.V.V.V.V.V.V.V.V.V.V.T.T.T.T.T.#+;+>+L o 2 3 3 3 3 3 a Q Q.E.E.3 L c                                                                                                                         ",
"                                                                                                                      3 F ~.~.=.~.%+}.m.1.1.1.|.1.@+z b T.V.*+*+&+V.V.V.V.V.V.V.V.V.V.V.V.V.V.V.T.T.T.T.T.#+;+>+,+n 2 3 2 3 3 W U Q.6.-+|.J c W 3                                                                                                                       ",
"                                                                                                                    U 2 {.~.~.~.~.r.%+}.[.1.1.1.1.@+c 5.V.V.V.V.V.V.V.V.V.V.V.V.V.V.V.V.V.V.V.T.T.T.T.T.T.#+;+;+'+S b 2 2 2 z L )+Q.E.-+n O W O c $+                                                                                                                    ",
"                                                                                                                  T d {.~.~.~.~.~.~.1.|.F [.1.1.1.2.W >+T.V.V.V.V.V.V.V.V.V.V.V.V.V.V.V.V.V.T.T.T.T.T.T.T.#+;+;+!+&.T F U 2 U @+Q.E.-+6.c W W W J S                                                                                                                     ",
"                                                                                                                  c S {.~.~.~.~.~.~.~.:.n T m.m.1.T z >+T.V.V.V.V.V.V.V.V.V.V.V.V.V.V.V.V.V.T.T.T.T.T.T.T.;+;+;+~+{+T T o F T 8.E.-+-+6.W O W W O z 6.                                                                                                                  ",
"                                                                                                                ,.T {.{.~.~.~.~.~.~.~.[.n b F r.1.3 c >+W.V.V.V.V.V.V.V.V.V.V.V.V.V.V.V.V.V.T.T.T.T.T.T.W.;+;+;+~+]+@.2 2.^.@+E.-+-+-+S J O W O O r S 8.                                                                                                                ",
"                                                                                                                n r.{.{.~.~.{.~.~.~.~.o q n U L ^.A a >+#+T.V.V.V.V.V.V.V.V.V.V.V.V.V.V.V.T.T.T.T.T.T.T.;+;+;+;+~+'+2.2.S @+E.}.-+-+<.d W O O O O W o %+                                                                                                                ",
"                                                                                                              ,.~.{.{.{.{.r.[.~.~.~.T p G G 3 F U T b 5.#+^+T.V.V.V.V.V.V.V.V.V.V.V.V.V.V.V.T.T.T.T.T.#+;+;+;+;+/+(+2.^.T _+}.}.}.6.S a O O O O O O W -+%+                                                                                                              ",
"                                                                                                              b r.{.{.{.{.1.r.~.~.~.T p G y G 3 F U L ^.^+#+#+W.T.V.V.T.T.T.T.T.T.T.T.T.T.T.T.T.T.W.;+;+;+;+;+>+:+'+S n @.6.-+-+T z J O O O O a O O a 1.%+                                                                                                              ",
"                                                                                  O O       c               d =.{.{.{.{.[.|.{.~.~.~.@+p G y m d J T F F >+#+#+#+#+^+^+W.W.T.T.T.T.T.T.T.T.W.W.#+;+;+>+;+;+;+;+>+~+Z z a Z 6.E.U J O O O O O O d O O J @+}.|.                                                                                                            ",
"                                                                              l y r m 2 q r J a c o       %.3 r.{.{.{.{.m.}.~.~.~.~.2.x G G a b r 2 O L S #+#+#+#+4.7.>+;+;+;+;+;+;+;+;+;+;+;+;+;+~+L.(+#+;+;+(+(+T O c )+E.L a W O O O O O a b a O O -+}.%+}.                                                                                                          ",
"                                                                        l m a y m r a c r J J z 2 d F     2 !.{.{.{.{.{.1.1.=.~.~.~.o x G G y S a J n O F Y ^+^+S.U.!+<+;+;+;+;+;+;+;+;+;+;+;+;+;+(+*+L.'+;+!+~+S @.b n Q.T r W W O O O O O a o a O z E.}.}.%+                                                                                                          ",
"                                    O m m m                           q y c 4 m m m b y J J J o 2 2 3     2 [.{.{.{.{.r.%+{.r.~.~.{.A G G G ).T W m 2 a b F R Y A [+:+^+;+;+;+;+;+;+;+;+;+;+;+;+;+>+L.U.}+>+(+^.S O F F $+y J W W O O O O O W d W O a ^.}.}.%+%+                                                                                                        ",
"                                  4 G ).K ).x a     q y r           q y q b 4 m r J 3 r J J c 2 2 2 n   2 S {.{.{.{.{._.T =.{.~.~.m.4 G G G G L n @+3 n J U F ;.*+|+(+^+^+#+;+;+;+;+;+;+;+;+;+;+;+#+5.&+'+=+S ^.n c n |.=+x J W W W O O O O O J 2 O O O 6.}.}.%+                                                                                                        ",
"                          1+c d p G K ).K ).).).m b q P P q r       q y m 2 y m m c A J J a 2 2 2 o     3 m.r.{.2.S S r a ~.{.~.2.a x G G G G c |.|.}.n o O U 2.*+|+=+2+,+(+>+>+;+;+;+;+;+;+>+>+(+3+2+*+'+2+S b J F T Q.T p J W W O O O O O O r 3 O O d <.}.}.}.|.                                                                                                      ",
"                      ; _ e K r n A G K ).).).).P r 3 G P P P a   A 4 y a O m m r 3 4 J J c 2 2 d ^.  @.T r.r.S q x x m d =.~.U r G G G G G G r $+|.|.@+2 J J F U.L.=+2+].2+].].8.=+8.8.8.=+2+2+8.8.Z &+]+3.2 O d L 6.T n x J W W O O O a O O a b r J ^.}.}.}.}.%+                                                                                                      ",
"                    % 4+5+6+K K 4 c o x ).).).).).P a d P P 4 4   r y y d r m r 4 n r J a 2 2 d F     2 r.r.O G G G G m L c 4 x G G G G G G G G 3.}.}.-+c b J n |+&+<+8.].2+2+8.].8.].8.].2+8.=+].8.+.+.<+U a J F 3.S d n K J W O O O O a O O O 2 z a L }.}.}.}.}.%+                                                                                                    ",
"                  7+4+4+8+9+K K G 4 J n x ).).).).).y 2 q P 4 4 a r y y 2 4 m r 4 b r J c 2 o L     n @.U 4 G G G G G r 3 x G G G G x p p p x 4 F -+}.}.T J n o 0+a+A 3.` X ].&.;.;.8.3.;.;.2+&.Z }+&+(+,+b O 3 S |.O 3 2 G J W O O O O O O O O o 3 O c <.}.}.}.}.%+%+                                                                                                  ",
"                b+# c+4+d+K K K K K ).m n G ).).).P P y n P 4 4 m b 4 y 3 4 m r J 3 J J o 2 2       A x x G G G G G ).O O G G G G 4 F 2.~.@+b 4 3 -+}.}.Q.a z n =+:+#+U.Q Z Y ..Y ..Z Y ..R ..Z R A |+(+8.L W U Q.n W @.z G J W O O O O O O O a F @.O a E.}.}.}.}.}.T                         P                                                                         ",
"                e+f+g+% h+K K K K K K K 4 n G ).).P P ).d q 4 4 4 b 4 y o m r r W c J z 2 d ^.      m G G G G G G G y d P G G G x F ~.{.r.r.r.2 o 6.}.}.@+J W c =+_+(+|+L.U.4...Q ..5...5.R Q S.U.|+(+8.2+L F n 2.a c F A K J O O O O a O O O r 1.S O J |.}.}.}.}.6.r b                        .                                                                        ",
"                7+e+b+i+j+x K K K K K ).).y 3 G P P P P y c 4 4 y c m y c a r r c W J o 2 b       b 3 x G G G G G G r d x G G x m ~.{.{.r.r.r.1.W U S ^.z m W W ].k+2+}+~+|+a+L.U.U.U.U.U.L.L.>+!+:+8.2+].&.O ^.2 W d T P K J O O O O O O O O c 6.}.W a @+}.}.}.|.n a a                     q  .                                                                        ",
"                ; e+e+e+l+m a x K K K ).).).A c ).P P P G b G y y m W y a W r r d a W 2 c S       @.S x G G G G G x r 3 x G G m [.{.{.r.r.r.r.[.F L r J W y m W ].3.=+].=+{+:+~+~+|+~+~+~+!+:+]+m+_+2+].2+T 3 ^.J W 3 T p K J O O O a O O O a S -+:.3 a c S Q.F a a O m T                   p  .                                                                        ",
"                  ; 7+e+l+ .q c 4 G K ).).).G c 4 P P P P a r 4 y 4 c y J o r r 2 J d 2 n       T F _.m G G G G G K J o G G p F {.{.{.>.{.r.r.[.%+T a W W r G m ].X ;._+8.2+8._+=+2+3+3+8._+k+].].=+8.8.;.T 2.3 W W n U x G a O O O O O O O z <.-+%+F O W J a J O O O O A                 P  .n+                                                                        ",
"                      { o+ . . .a a G ).).).).G b q P P 4 q c y y 4 n 4 P L m r 2 J o 2 F       b ~.r.^.A x G G G 4 c A G G r m.{.{.{.{.r.r.r.[.%+^.a O W J K 4 ` ..;.3.3.=+_+8.2+2+=+2+2+8.8.2+2+8.;.&.X /.|.a W O n o x G a O O O O O O O n -+-+%+^.z W W W O O O O O r             O 4  . .p+                                                                        ",
"                          a 4  . .q c G K ).).).4 O P P 4 P n q y y m m m J r r r c 2 d F       q 2.r.r.m.r G G G r n p G x n {.{.{.{.{.{.r.r.r.%+@+J O O O G G 7...Q /.X ;.&.2+].8.2+].].2+].&.3./.;.Z Q &.@.O W W 3 d G G O O O O a O O O n -+-+}.@+o O W W O O O O O a o       a p  . . .q+*.                                                                        ",
"                                m  .p z y K ).).).3 4 4 4 4 r 4 y y m m r r r J J o 2 c X     3 p n r.r.m.m G G G J d x G x ~.{.{.{.{.{.{.>.[.r.1.E.J O O O K P 7...V V R Q ` &.Z Z /.;.Z X /.;./.R Y Q V R z W W z b a G G O O O a a O O O d E.-+-+<.b W W O W O O O O O m     y  . . .r+s+t+*.                                                                        ",
"                u+u+                4  .q O G P P q o ).4 4 y y y y m m r r r J O o 2 c       m G o {.r.m.r G G ).r d G G c [.r.{.{.>.[.3 d a ^.:.T c a a O P m Q 5.V V Y 7.V 5.` Q ../.X ..Q ` Y 5.5.V X 5.z W W z U m G G O O a O a O O O O -+-+-+}.F z W W O W P a O O J n q  .v+q+w+*.x+y+z+                                                                        ",
"                            2           p m a ).P P y P 4 4 y y y m m m r r r J c 2 2 c       x G o {.r.[.a x G m c l G x T {.r.{.{.S y G G G y z r d a a O 4 O V V 5.5.4.5.4.Q 5.V S.Q Q 4.7.5.5.Q V 5.Y 7.o W W c U P K ).O O a a a O O O a 3.-+-+%+2.d W W W W r+,.O O O A+ .B+t+*.      2 p+q+                                                                      ",
"                            q+            x m r P P P 4 4 4 y y y m m y y y m m d 2 2 c &.  b x K 2 {.r.r.c G G J b p G x T r.r.[.n x x G G G G m a 3 a a a 4 n 4.4...4.V 5.5.4.4.Q 5.4.4.Q Q V 5.Q V 5.7.5.b O O c T p K ).O a a a a O O O a @+-+-+-+3.n O W W J A+p+O W r+p C+D+*.                                                                                    ",
"                            O *.            q q P P P 4 4 y y y y 4 a b T @+|.@+T o 2 o T   d G x F r.r.r.o G ).a d x G G 2 r.m.A x x c x G G G y a @.J a a y L S.7.5.4.4.7.5.4.4.7.5.4.4.Q 7.4.Q 5.5.Q V ..Y J O c F p K ).O a a a a O O O a S -+-+-+-+L z W W r v+s+O r+ .C+y+                                                                                        ",
"                  i+        A p+              p q P P 4 4 4 y y 4 b _.m.m.1.1.}.6.3.o 2 U   4 K x 1.r.r.r.S p m J O G G G m [.m G x F m.c G G G y J U r a a J V 5.5.4.7.7.7.5.4.V 7.5.4.4.7.5.7.V 4.R 4.V Y Z O O d b p K K a a a a a O O O W z 6.-+-+%+F o W W A+v+E+q+ .B+D+a                                                                                         ",
"                  f+F+      4 A+*.              x P P 4 4 y y y y @+m.m.m.1.1.-+E.6.U 2 b   p K a 1.r.r.r._.x a o 4 G G G G x n+G r (.r.L x G G 4 J U r a a z 4.R S.4.Q 7.4.V 7.5.S.S.Q Q 4.7.Q 4.4.Q 5.V Q ;.d O d c x G P a a a a a a O O W J 2.E.<.}.2.3 O W p v+E+s+B+y+a r                                                                                         ",
"                    G+F+H+I+p A+w+*.            q K 4 4 4 y y y m 1.m.m.1.1.%+E.E.E.2.o d L x G 2 [.r.r.[._.4 J @.x G G G G G A+n+q T 2 q G G G P J b J a a 3 5.7.V S.5.7.4.S.Y S.4.S.Y V 4.5.5.4.5.4.Q 7.7./.b O d c x G P a a a a a a O O W J @+-+E.-+|.b c r+ .v+J+K+y+a O O                                                                                         ",
"                    7+L+M+N+y+    F               p P 4 4 y y 4 3 m.m.1.%+1.%+E.E.6.|.2 o 2 G x b [.[.[.[.m.o a c G G G G G G A+v+G x G G G G G ).a 3 a a r Q 4.4.5.7.4.5.S.V V 7.4.7.V 5.S.5.7.4.Q 4.4...V /.S J d O x G P a a a a a a O O W J |.-+-+E.}.U ,. . .r+J+y+a W O r                                                                                         ",
"                    O+7+P+Q+                      q q 4 4 y y P F 1.F c W o @+6.6.E.2.2 b a K x n [.[.[.[.m.3.c q K G G G G G A+p G G G G G G G ).a o O a W 5.4.4.5.7.S.5.V 5.S.5.V 5.S.7.Q 4.4.Q V V V Y 7.` ].W 2 A x G P a a a a a a O O O a Q.-+E.E.}.S q  .A+R+y+O W W W m                                                                                         ",
"                    # e+S+T+                      A x 4 y y y y P P 4 r J r W b 2.S o 3 U 4 K G 2 m.[.[.[.1.}.S x K K G G G G G p C+x G G G G G P O d O J n Q S.S.Y V 4.S.Y S.4.S...S.4.4.Q S.4.5.7.V 5.7.Q /.Z n n m x G 4 a a a a a a a O O J -+-+<.E.E.T  .p R+D+O W W W W a a                                                                                       ",
"                    ~ e+e+U+                        x P 4 y y y m m r r r J o 2 d o 3 3 F p K G 3 m.[.[.[.%+<.c G K G K G G G n+p D+n+G G G G G ).O d W J /...S.5.7.7.4.S...S.4.7.Q S.4.7.5.4.S.Q 5.4.5.S.R &.R F n q x G 4 a a a a a a a O O J 3.-+-+E.E.c  .C+K+O W W W W W W A                                                                                       ",
"                    g+e+V+W+                        q r+y y y y m r r r J O 2 2 2 3 3 3 S P K K m %+m.[.m.}.6.x K K G K G G G n+p D+w+B+G G G G ).O d z 3 R ..V 5.S.5.4.5.7.V S.Q V 7.S.Q S.5.4.5.7.V 5.V ..3./.X 3 q x G 4 a a a a a a a O O O Q.-+-+E.6.m v+J+p+W W W W W W W r                                                                                       ",
"                    X+e+L+Y+                        A A+q+4 r n 4 r r r r d 2 2 2 3 3 o ^.d G K p T m.m.%+}.L x K G K G G G G A+v+Z+D+t+B+G G G ).O c a T ..R Q 4.4.5.7.7.S.5.7.V S.5.7.V 4.V Y 4.4.Q 7.V ` /.&.X T q x G 4 a a a a a a a O a b E.-+-+E.-+v+q+D+b W W W W W W W a                                                                                       ",
"                      7+L+`+                          p p+A 1.m.@.y r r a o 2 2 2 3 2 d @+n K K x F m.1.}.E.a G K G K G G G G n+r+r+p s+s+G G G ).O c c /.` ..5.4.4.5.7.4.4.5.V 4.4.7.Q 4.4.7.Q 4.4.5.5.5./././.X Z q x G 4 a a a a a a a O J 2.}.-+-+E.!. .R+*.@.c W W W W W W J                                                                                       ",
"                      ;  @.@                          v+s+@+m.m.1.y r r z d d n L U T @.-+b G K x T m.%+}.@+p K K K G K G G G v+B+G A+r+t+G G G P O c U Z /...Q S.V 7.7.4.S.Q 7.4.S.5.5.4.4.5.V V S.5.7.Y &.` ` X 8.q x G 4 a a a a a a a a z E.}.-+-+E.b A++@T @.n O W W W W W J n                                                                                     ",
"                      i+@@`+                          J @.m.m.1.1.r r m n S -+Q.6.6.6.6.}.U G K x S 1.-+}.o x K K K G G G G G v+B+G G p D+r+G G P O c 2.R R R 5.4.5.S.Q S.5.S.Q S.5.4.4.5.S.5.S.Q 7.7.V X /.` ` Z 8.q x G 4 a a a a a a a a @.}.}.-+-+6.c q+#.1.b @.d W W W W W a O                                                                                     ",
"                        % `+                          U =.m.m.1.b m r d Q.6.6.6.6.6.6.6.-+2.x K p S %+-+E.4 G K K G K G G G G G r+G G A+q+q+G G ).a c &./.R R 7.Q 4.4.S.Y 4.4.4.Y 7.4.4.5.5.4.4.5.5.4.5./.&.R ` Z _+q x G 4 a a a a a a a J F }.}.-+-+6.r s+Q.}.T @.n O W W W W W c                                                                                     ",
"                        O+ @#@                        #.!.m.m.:.a r P S E.6.6.6.6.6.6.Q.-+6.4 K G 3 }.-+F p K K K K G G G G G G r+G G K r+p+G G P a c ` X R ..Y 7.4.4.7.Q S.4.4.Y S.4.4.Q 7.4.S.Q 5.S...X X ` R Z =+q x G P a a a a a a a a 2 }.}.}.-+6.q %.E.-+|.b @.c W W W W W O                                                                                     ",
"                          G+.@                          =.m.m.S P y T 6.6.6.6.6.6.6.6.Q.-+%+n G G y -+6.l x K K K K G G G G G G G G G G A+s+x G P a d ` X ..X Q 5.S.4.5.5.S.S.5.7.V 4.4.7.5.4.4.5.5.5.R &.R Z /./.=+4 x G K a a a a a a a a W <.}.-+-+1.r+>.E.E.%+F @.n W W W W W a                                                                                     ",
"                          c+$@        W         q+      *.%+%+z r r )+E.6.6.6.6.6.6.6.Q.-+%+^.x P O F 2.p G K K K G G G G G G G G G G G G B+G G 4 a o ` /.Z ` ..5.S.7.4.V 7.4.7.S.5.4.5.S.5.4.V V S./././.` R 3.` =+A x G ).a a a a a a a a J 2.}.}.-+^.r )+E.E.-+|.b @.c W W W O O                                                                                     ",
"                          c+S+      W  .                $.%+n 4 r 2 Q.6.6.6.6.6.6.6.6.Q.}.}.T G O W 3 c p 4 x G K G G G G G G G G G G G G A+B+G y a 3 ` X /...` V Y 7.4.4.5.5.4.4.5.7.7.4.S.5.5.4.7./.&.R ` /.&.` 8.c x G G a a a a a a a a J S }.}.-+@.3 6.E.E.E.%+T @.n W W W O d               y                                                                     ",
"                            @@         .q               =.b 4 m z o 8.6.6.6.Q.Q.Q.6.6.Q.}.E.U O z W 2 q F :.L x K G G G G G G G G G G G G n+B+G y a b /./.X R R 7...S.4.4.5.V 4.4.S...S.4.4.5.5.4...Z ` R ` Z R &.8.d x G G a a a a a a a a J T }.}.E.c S E.E.E.E.-+|.b @.c W W W 3             *.*.              y a                                                   ",
"                            % `+      B+ .              ~.4 y z d d c F T b 3 3 @.S Q.Q.}.6.U O W a F ^.m.m.1.3 x G G G G G G G G G G G G G p n+m a F /.R ` /.R X 7.7.4.S.5.Q 4.4.V Q 7.4.4.7.5.5.R X /./.R X R /.=+L p G G J a a a a a a a a 3 <.}.Q.r :.E.E.E.E.E.%+T @.n O z W n                               A+m                                                   ",
"                              S+        q y             T m z d d d o d d 2 2 3 3 o b @+}.Q.o z W 2 !.m.m.m.m._.A G G G G G G G G G G G G G v+A+m J T R ` R Z /.X 7.Q 4.7.7.5.S.4.5.S.Q 4.7.7.7...X ` R Z /./.` /.k+Z p G G r a a a a a a a a J }.}.1.a 6.-+E.E.E.E.-+|.b @.c W z n o                 3           m P                                                   ",
"                              O+#@      J  .            E.c c d d d o o 2 2 2 3 3 3 3 @.6.@+J z J T !.1.m.m.m.[.T x G G G G G G G G G K G G A+A+J J S R ` ` Z R R Y V 5.5.4.4.Q 7.7.V 7.7.5.4.Y &./.` ` R 3.R ` /.=+k+p G G P O a O a a a a a a F }.F b E.-+E.E.E.E.E.%+S b n O d b o                             r v+                %@#@                              ",
"                                F+        x P           Q.3 d d d o o o 2 2 2 3 3 3 3 @.n W z z d !.[.m.@.{.[.[.3 x G G G G G G G G G G K G n+v+a J X R ` R ;.` R ` 5.Q 7.4.4.V Q 4.4.4.Y 4.5.R Z /.` ` R Z /.` X 8.k+l G G G a O O O a a a a O z 6.F 1.-+-+E.E.E.E.E.E.|.b @.3 b n                               P v+              &@V+#@                              ",
"                                S+        P  .          Q.d d d d o o o 2 2 2 3 3 3 3 b c z z O T !.1.#. .!.[.^.q G G G G G G G G G K G K K K n+a a &./.` /.R /.` R R Q 5.4.V 5.5.4.V V 7.Y ` R &.Z R ` /.` &.R Z 8.8.o x G G J O O a O a O O O J T }.}.-+-+-+E.E.E.E.E.}.^.b @.@.3                               P m               #@#@                                ",
"                                  *@      J  .p         F z d d d d o o 2 2 2 3 3 3 3 3 o z z z !.r.1.@. .=.2.q G G G G G G G G G G K K K G G G a a Z Z /.X R &.R R ` ` R S.4.Q 4.5.V 5.5.Z R ` /.` &./.Z ` ` Z ].8.8.Z  .m d c a O O O O y J O O z 6.}.-+-+-+E.E.E.E.E.E.-+@.@.@.d                               A+                                                    ",
"                                            p  .p       o c d d d c o o 2 2 2 3 2 3 3 o o z a T !.1.m.2 p _.l G G G G G G G G G K K K G K G G P W O ;.Z &.R ` ` Z ` Z R ` Y 5.V 4.5.7./.` R Z Z ` ` R 3./.` ` X ].8.8.$+n %+m.1.o O O O O B+p+O O J L <.}.-+-+E.E.E.E.E.E.}.2.b @.O                               r                                                     ",
"                                            r  . .O       z d d c ^.b o 2 2 3 a r 3 3 3 b a c !.r.m.:.y J c G G G G G G G G G G G K G K K K K P O c =+/.X /.` ` X &.R ` ` X &...Y ..3.` ` ` X &.` ` ` X &.` ` Z ].8.=+8.=.[.m.m.@+r O O O O a O O O a b 3.6.-+E.E.E.E.E.E.E.}.F @.a                               a                         #                           ",
"                                            a n+ .p     P d d c 2.6.E.d 2 2 3 q r 3 3 3 F m T !.m.m.!.p r x G G G G G G G G G G G G K K K K K m W d 2+/.` &.` ` Z /./.` ` Z X R ` X ` &.` ` Z ` ` R &.` Z /./.Z 8.k+k+8.|.!.m.m.%+3 O O O O O O O O O a a 2 6.-+E.E.E.6.6.E.-+3.b c                               m                         #@                          ",
"                                              p q+A+O   A+z c b 6.6.6.b 2 2 3 v+d 3 3 o 3 L F S 1.1.W  .G x ).G G G G G G G x o x K K r+K K K r W 3 2+/./.Z X &.` ` &.` ` X ` Z R &.R X ` ` Z ` Z Z X /./.&.&.X =+8._+=+k+!.1.m.1.@+a O O J 3 a O O O O W O c b L b n 3 2 2.E.}.T a                             r r                                                     ",
"                                              P p+y+p   A W c b 6.6.6.F o 2 2 v+3 o T ^.2.L p x x v+ .v+G d 4 G G G G G G G q o G K n+p r+K G J a U 8././.Z ;.R /.` ` Z &.R ` X 3.` ` ` ;.&.` /.` 3.` /./.X ;.Z =+=+=+=+=+[.m.%+d :.S J W O 3 a O a W O O W W W W z z z z O @+E.1.F                   q J       y r                                                     ",
"                                              A+v+=@A+q 2 r+d n Q.6.6.@.2 2 ,.A+T ].6.6.)+P G K G A+ .A+x d x G G G G G G G d q K G v+A+K K G O J 2.=+X U U &./.` ` /.` Z ` ` X &.` /.` &.&.` /.X &.Z /.X &.;.2.3 k+=+k+=+=+~.%+p !.<.L a W a 3 O q y W O W W d O z z z z z c ^.|.Q.                  n+*.      x r                                                     ",
"                                              -@p y+,. .p p d c Q.6.2+o 2 3 y O )+6.6.6.n x K G r+p  .n+d 4 G G G G G G K x d G K r+p n+K K ).O a 8.k+;.r O &./././.Z ` Z /./.Z ` Z /./.Z Z Z /.Z /.&./.U A+F @+F _+=+=+_+k+=.:.A+@.}.E.b a a b a J  .J W W W O n O z z z z z A+J r Q                 *.         .y                                                     ",
"                                                ;@B+>@r+ . .J W 2.Q.3 o 2 2 B+c Q.6.6._+q K G A+n+ .p G o x G G G G G G G m a K K A+p K K K 4 z W k+k+8.4 J Z Z /./.&./.` &.` ;./.&.` &././.;.` 3.X X 3.d r+T =+,@=+=+=+_+=+1.m.O W %+-+E.3.c a o z r+v+W W W W d c z z z z z B+v+z m 3.                      y A+m                                                     ",
"                          c+                    '@ .=@)@v+A+v+d b @+c 2 z v+Z+W Q.6.Q.3 x K n+p p  .v+o q G G G G G G K G b x K K p n+K K K r W d _+k+=+q r ;.;.Z 3.` X /.&.;./.X /.3.&.X X Z 3.Z X X &.Z ^.;.k+=+_+=+_+=+k+k+r.@.x m.}.-+-+3.a b J W v+r+W W W O b O z z z z z r+r+z m                       v+C+q                                                     ",
"                            F+        i+O+      !@~@p+{@+@q+ .v+J d o 2 r+q+x+c Q.6.3.x K G n+ . .p y o G G G G G G K G 4 c K G n+ .n+K K K J W 3 _+=+]@A+r ]./.Z Z X X /.&./.&.X /.&.;./.X ;./.3.X X ;.X 3.3.k+=+_+_+k+=+_+=+[._.A+2 %+-+-+-+F a 2 W J  .J W W W J b a z z z z W p J a c           a         p s+v+                            # G+                    ",
"                                      X+e+      ^@/@ .+@(@p+B+ . .p W ,.n+J+C+a |.Q.c x K G  . .A+A+2 x G G G G G G G K o q K n+p p ).K K K O z b =+=+_@v+y ]./.X X ]./.;.X X ;./.;.X Z Z X ;.Z Z &.3.Z Z &.k+=+k+k+_+=+k+k+_+|.%+O B+^.}.-+-+E.z n r W v+p W W W W O n W z z z z B+p W a c     :@  A+      J A+q+p                           # 7+                      ",
"              %@O+                      %@%       <@[@,.(@E+,. .q+ . . .B+E+p+ .!.^.p K G A+p v+n+y c G G G G G G G G m 3 x n+ . .v+).K K P z a S k+=+_+p y ].Z Z ;.X &.&.Z Z &.].Z Z Z ;.].Z Z Z ;.;.&.Z ].k+=+_+k+k+k+=+=+=+_+m.b q+J E.-+-+-+3 O 3 W B+ .n+W W W z c c z z z z W p p ,.J o       m A     y q+r+[@                          7++                       ",
"                7+%                       }@O+    |@1@2@3@J+*.A+4@,. . .r+R+q+ .Q.a G K n+ .v+A+r+o x G G G G G G G y o P ).p  . .n+K K K y z r 8._+=+|.v+B+&.&.X ;.Z Z 3.X X ;.&.&.Z Z 3.;.Z Z ;.&.3.Z &.].k+_+_+k+=+_+5@c S _+1.~.v+B+@.}.E.E.F a 3 r W p  .B+W W W O 2 a z z z z r+ .p W m n     r r     p C+6@1@                        % O+                        ",
"                  % %                     %@e+i+  % 7@8@9@)@q  .(@0@E+ .v+p+n+A+F p K G p  .r+Z+q a K G G G G G G G J 3 G n+ . . .r+K K K a z z ]@_+=+T v+r+L 3.3.Z Z Z Z ].;.Z Z 3.X &.&.Z ;.Z 3.&.Z ].;.8.k+_+_+k+k+_+Q.v+2.k+_+%+J p+q :.-+-+^.J O 3 O q  . .J W W W O b r z z z J  . .A+W r n     q   z A+a@b@7@.                     c+}@                          ",
"                    }@O+                    e+7+  ; 7+c@d@,.A+ .(@0@3@r+ .n+p O 4 K G A+ . .p+C+A+x G G G G G G G r ,.q r+p  . . .r+K K ).W z 3 _+k+5@d A+r+q ].;.&.Z &.;.3.Z &.&.&.2+;.&.&.3.3.&.&.Z 2+;.k+k+k+k+k+k+k+b q 8.=+_+1.@.A+q+c -+E.E.a W 2 r J  .q+v+W W W W a n J z z z v+ . .n+W r 3   p a 4 C+e@f@e+%                   c+e+g@                          ",
"                      7+}@                  % e+7+G+e+h@i@j@p B+4@0@0@,. . .p c x G n+p p n+t+A+v+G G G G G G G P q A+G A+ .n+p p G K K y z z @.=+_+_+r v+q+p 2.3.Z &.Z 3.&.;.&.&.3.;.Z 2.b ;.3.&.&.&.3._+k+k+_+k+_+_+@+p a ,@k+k+|.^.p t+p ~.E.6.d W a 3 J v+A+B+n+z W W W a n J z z r+ . . .A+,.J o q+p p k@l@m@e+%                 % e+#                             ",
"                        b+7+%@              %@e+S+7+}@F+n@l+2@+@(@0@{@K+ .C+*.x G n+p r+B+r+y+p G G G n+G G G G r+p r+v+ . .q+q+v+K K K J z O S ,@k+2+v+p D+ .3 &.3.&.3.&.Z 3.&.Z 3.&.].a W ;.;.&.&.3.3.k+k+_+k+k+k+o@y  .@._+k+k+k+{.x K+r+r <.-+b W W c a y  .p+q+P W W W W W o a z r  .v+p  .v+O q+r+C+k@p@q@r@@@7+        X+    % e+O+                              ",
"                          b+e+% i+            b+G+*@e+*@s@7@t@9@0@p+u@=@r+)@q G A+p  .q+n+r+s+v+G G G v+G G G r+p  .p  .v+C+R+A+v+K K K W z a $+y 8.^. .n+J+p q ].Z 8.Z &.&.;.3.].&.&.3.p c ;.&.3.3.].k+k+_+_+k+k+_+O  .p |.k+k+_+S [.v+y+q+ .@.E.@+J W a n P p C+R+A+B+W W W O J c a O  .p p+y+v+p A+t+v@w@x@s@$@*@e+y@    c+%@  % }@7+                                ",
"                            7+7+G+% z@        f+7+P+r@e+#@r@A@B@9@v+u@(@{@O G G v+p v+q+B+n+B+A+G G A+A+G G n+p w+ .v+v+q+K+J+ .v+K K r+z z 2 @.4 ,@*. .n+J+r+ .@+;.;.;.&.;.&.3.].&.;.S p U &.;.;.3.k+k+k+_+_+k+C@3  . .J _+k+k+$+a F q s+q+ .p 2.Q.a W W a 3 p n+R+C+ .r+z W W B+z O J  . .y+D@B+ . .E@F@G@S+`+H@I@G+f+~ b+7++ 7+V+G+#                                 ",
"                              7+S+J@@@}@X+7+X+# e+K@$@@@e+s@L@M@N@O@P@Q@n x G v+ .B+C+p+E+r+v+v+G n+p G G n+p Z+q+p C+ .R@0@y+ .A+K G r+z O T q W o@O  .v+R+Z+ .F ].Z 3.&.;.&.3.;.;.;.b p S 3.&.3._+k+_+=+_+k+_+S p  . .n k+k+_+_+d A+p p+B+ . .y Q.O W W W z J  .y+K+q+ .n+W W W A+d a  .p  .v+p B+E@S@T@S+*@V+U@V@*@}@7+e+e+e+G+K@;                                   ",
"                              i+7+I@P+K@ @$@V+V+e+S+I@I@}@7+s@W@X@Y@Q@F x G v+ .,.E+n+K+>@+@A+p r+p  .r+n+ .q+t+p x+v+p Z@0@s+ .A+K n+y z z O v+2 $+P  . .D+y+ .q @.8.].&.&.].&.&.3.3.q B+;.2+8._+k+k+k+_+k+k+)+y p p p E._+k+k+_+T p p v+q+p  . .W a W O O W r  .v+=@K+r+ .v+O W a p y  .B+n+ .*.+@`@ #s@}@e+e+*@.#I@7+V+V+7+K@P+c+                                    ",
"                                c+r@+#@#.@J@##S+e+ @+#`+`+}@7+$#%#&#*#x G v+ .p+0@y+A+>@=#Z@B+v+ .p A+ . .n+w+v+s+s+v+q +@R@p  .v+n+ .J W n+v+q+n |.p  .p B+E+A+ .c k+k+k+=+].].].2+2 A+q+8.k+_+_+k+k+k+_+_+,@o  .p+p d 5@k+_+_+k+@+v+p+ .A+B+p  . .r W W q W O p  .p++@E+v+ .p r ,.v+p+q+q+B+n+p -#;#>#s@*@}@*@7+G+7+}@I@}@.@P+G+                                      ",
"          V+7+i+                  7+s@,###$@I@$#e+ @@#`+`+J@7+}@% '#&#)#v+ . .q+4@y+C+>@>@3@A+q+ .r+C+ . .C+A+r+(@r+C+p p p p B+ . . .r+p p R+B+n F  . .B+ .q+A+ .4 _+k+_+_+k+k+k+T  .q+q+@+k+_+_+k+k+k+_+$+3  .q+D+ .T _+&.S o@k+_+p x+A+ .C+C+ . .p J z v+J O A+ .r+r+!#D+ . . .p A+A+ . . .p ~#;#>#e+e+7+}@r@S+7+}@`+I@.@P+r@%                                       ",
"            X+7+% i+              %@G+.#{#]#L@{#r@7+I@^#J@I@K@e+e+F+'#/#[@r+r+v+(#(@q+!#0@_#B+q+ .q+q+ .n+A+n+R@0@r+p+ .v+A+y+r+ . . . .n+n+R@A+r 4  . .x+ .p r+v+ .@+k+_+_+k+k+S p  .+@B+T k+_+k+_+k+k+@+A  .v+R@B+p @+k+2.v+3._+$+A+B+q+ .r+=@B+ .p v+a P P r v+ .q+ .r+D+q+v+p  . . . . .A+:#<#[#}#@#####V@ @e+}@P+I@I@I@.@e+                                        ",
"                O+7+; . |#          % F+1#U@2#1#S+e+}@$@L@J@`+ @e+S+@@'#3#4#5#q+v+y+r+)@6#7#,.p +@D+p s+4@y+E+(@Z@n+E+B+C+K+K+p  .p+v+x+r+ .+@r+ . . .q+R@v+A+D+B+ .2 5@k+,@k+2.p  . .p+p L k+_+k+k+_+8#a  . . .R+A+A+J $+S d r =+$+r+B+R@r+r+>@J+A+s+ . .q+ .r+ .p C+y+q+v+p+A+R+n+n+ .v+a@Y@9#0#V@{#{#{#$#G+e+@@P+I@I@`+P+r@}@                        g@%@            ",
"                    % e+e+}@}@e+b+c+% V+S+S+G+V+e+e+e+}@+#V@P+I@S+r@`+}@a#b#c#d#p v+p )@Q@=#)@p+(@n+r+t+J+0@(@0@p+q+!#+@K+u@y+ .r+E+t+(#C+p 3@q+ . .v+s+3@C+A+s+R+A+q |.|.3 $+r p  . .y+ .d _+@+J $+_+@. . . . .A+p R+p 3 a O q+r z p +@,.n+p )@,.s+B+r+ .r+ . . .p w+D@Z@y+B+p+q+(#x+ .e#f#g#h#i#2#2#j#F+7+e+S+P+I@I@I@I@I@e+O+                  X+% % z@              ",
"                      i+V+r@V+V+}@e+e+e+e+e+e+e+e+}@S+*@I@I@V@$@.@I@k#L+e+V+l#F@m#+@v+4@7#_#>@4@s+y+4@>@(@p+q+r+v++@v++@(@7#q+ .w+!#(#0@p+B+3@p+ . .p+!#_#s+A+R+4@n+ .2 z P F  .s+r+ .p  . .2 J q+$+T p p C+D+n+n+p R@+@v+p q+B+R+p x+R+r+p n+q+A+p  .E+B+ .A+ . .B+t+E++@r+=#p+ .A+p+n#o#p#]#.#1#q##@V+e+7+*@P+P+$@$@I@I@ @7+%@      i+O+}@{ }@7+e+% .                 ",
"                          r@$@P+P+`+r@}@7+e+e+e+e+e+e+7+G+*@`+i#r#$@I@r#s@}@e+s#t#u#r+(@=#6#(@=#(@(@+@+@r+*.0@{@_#7#A+n+)@+@ .v+R@>@0@3@+@)@(@J+v+p+E+3@{@+@v+R+)@p  . .v+p  .r+J+x+ .v+ . . .r+q+y p  .n+J+y++@x+p Z@4@+@n+y+J+E++@n+p v+p+p+q P ,. .q+R+q+ .A+p s+R+C+ .+@{@(@+@r+6@b@v#s@j#$##@% }@e+e+e+e+7+7+}@S+P+I@G+}@e+e+e+7+V+r@G+ @*@G+%@                    ",
"                            %@`+I@+#@#k#$@.@L+L+.@`+.@*@r@}@7+G+S+s@$@`+}###r@e+7@p@w#y+(#>@7#>@(#K+v+p y+Z@7#u@)@!#B+p v+ .n+y+_#7#_#{@{@7#7#!#t+r+p+3@_#,.A+q+)@q+n+A+ .B+ .s+4@(#s+x+v+ . .y+B+A+q+ . .K+!#y+A+n+{@3@3@Z@A+B+K+!#+@A+x+y+(#x+q+x#a p K+t+B+p n+R+q+ .r+t+R@3@_#y#z#A#G+F+V+V+S+ @@@*@.@.@`+P+I@@#^#`+P+7+*@@@*@@#L@}#I@.@V+O+                        ",
"                              V+L+P+$@^#{#W@W@W@{#,#,#,#{#{#r#L@s@*@G+V+L+L+L@s@G+7@1@B#a@B+y+u@{@!#R+ .B+C+s+n+B+B+B+p r+q+R+D+R+R@!#(@(@4@=@x+r+ . .+@3@A+v+q+r+A+q+p A+s+y+r+Z@3@3@J+ . .A+J+t+J++@A+p s+s+B+ .q+3@_#P@B+)@p+A++@u@R@+@(@(@7#Q@Q@)@ .q+R+R+A+v+v+p B+(#J+w+v@C#D#E#r@S+.@I@*@}@r@P+I@I@I@I@`+r#{#$@`+*@V+@#V@{#V@}#`+r@c+                            ",
"                                % *@I@J@`+P++#k#r#W@]#]#U@F#,#{#{#U@.#s@F+*@$@F#{#}#h@G#H#~@ .p B+q+p+r+p  .p  .p p r+v+p R+K+E+R@+@s+q+v+ .v+r+p+C+v+ .A+ .q+y+ . . . .q+J+E+p+p+q+r+A+ .q+K+E+(#3@{@q+ . .A+ . .B+{@(@,.A+u@Q@Z@q+p p+4@0@3@0@7#6#B+A++@Z@t+B+p p x+q+D+(#I#J#K#L#1#M#k#`+G+@@L+P+I@I@I@`+I@L@W@}#`+`+r@*@i#U@M#k#$@G+%@                              ",
"                                  7+S+P+`+`+`+`+.@`+P+P++#$#2#H@,#,#H@.#s@`+F#.#{#{#W@##N#D#O#B+r+A+v+v+v+v+A+n+B+Z+x+p  .C+R+t+t+D+K+R@=#(@0@(#t+R+E+x+q+ .,.B+A+q+p  .R+K+Z@,. .A+A+ .q+4@J+(#3@0@3@x+v+ . .v+r+ .r+p  .+@(@(@0@0@(#s+p+s+!#{@(#q+ .C+t+p+A+ . .C+q+E+y+P#l@Q#i#]#R#I@G+e+G+}#}#+#`+I@J@}#{#{#^#J@J@k#e+s@1#U@F#$#c+~ i+%@+                           ",
"                                  % e+S+I@`+`+`+`+`+`+J@J@`+k#H@U@H@{#{#i#% % s@U@,#{#i#{#S#T#f#U#J+J+E+K+R+R+t+D+t+t+p n+p x+y+R+(#4@=@R@D@=@4@>@K+t+J+R+w+p  .r+R@B+A+J+0@0@+@p+,.v+v+Z@(@0@3@0@7#Z@p+p p s+R+p  . .C+v+q+,.p+B+A+ . . .p p  . . .p B+p  . . . .w+B+V#W#X#Y#`+s@s@.@r@G+K@k#W@@#J@`+I@##{#{#V@J@J@+#S+e+F+s@F+F+@@V+7+X+                . b+%         ",
"                                  f+e+e+L+I@`+`+`+J@+#L@V@{#{#{#{#i#2#.#$#7+e+7+%@M#{#W@U@W@{#Z#`# $.$>@>@>@>@>@4@!#R@ .A+r+v+J+E+R+D+J+0@>@=#>@>@(@R@(#J+D+R@B+(#D@!#)@0@0@(@6#Z@,.p Z@0@3@0@3@+@B+p B+y+K+R+v+n+q+y+E+p p A+p++@)@)@)@x+r+p+p  .A+v+ . . . .p p++$@$#$^@G+V@+#S+*@.@`+P+##W@@#J@J@@#{#{#{#W@I@+#@#s@e+e+e+e+7+@@ @S+F+F+X+X+# %@V+% 7+7+c+#           ",
"                                r@e+e+e+ @J@J@.@P+}#H@]#]#,#{#{#{#{#]##@}@*@`+`+L+r@s@]#{#U@U@i#$$ #%$&$=#>@>@>@>@>@+@ .v+y+ .v+)@{@0@>@=@p+3@=#=#>@3@(#=@R@J+7#(@0@{@3@(@3@Q@6#)@+@)@3@0@0@_#r B+q+w+E+R@E+q+y+K+D+D+t+J+*$3@_#_#=@K+x+q+B+q+x+A+ . .v+q+s++@!#=$-$;$a#S+s@W@{#k#`+}###{#F#k#+#k#V@{#{#{#i#+#$@{#s@7+e+e+S+.@I@P+*@e+e+e+e+}@G+G+e+% X+                ",
"                  f+z@z@z@{ ; % 7+V+r@.@k#@#L@V@{#W@W@i#H@F#{#{#H@s@O+7+.@I@I@I@ @7+G+F+R#F#U@1#2#.#>$,$'$)$=#=#=#(@p+ .v+t+q+ .p +@7#6#Q@A+p+!${@(@=#{@)@0@+@y  .P p+J *.Q@0@0@{@{@3@,.,.q+,.u@(@(#!#J+w+J+!#(@(@4@4@+@*._#*.q+A+r+q+,.s+p+B+ . .p p+>@=#*$)$~${$]$K@J@V+V@V@@#L@W@H@F#.#{#,#{#,#,#{#W@s@S+.@r#s@7+e+V+J@`+`+.@$@+#K@.@`+$@J@r@% %@                    ",
"                  c+f+; % }@}@S+.@k#}#+#r#,#s@W@W@W@{#W@F#1#$#F+% e+7+.@`+I@P+J@L+V+7+.@G+F+M#j#1#1#2#H@Q#^$/$($3@,. . .A+R+t+C+p  .r+s++@r+v+q+,.Z@)@+@*.J ,.+@Q@!$!$*.r B+,.,.,.)@3@)@*.Z@Q@(@(#R@y+q+0@0@0@0@0@0@Z@y J  .A+q+K+(#D+q+p  .p A+p+=@=#*$.$/$D#_$I@P+I@.@7+$#U@]#2#2#2#2#2#.#.#]#]#]#{#s@e+ @L@`+7+c+*@I@J@I@+###W@`+I@`+P+S+7+%@                        ",
"                            :$  %@V+G+F+M#]#F+V+S+*@`+*@S+}@e+e+e+7+K@I@`+`+$@r#L@.@.@.@P+S+7+X+$#1#1#1#2#<$[$}$|$~@ . .B+t+D+R+y+q+v+ . . .B+C+p A++@Z@3@6#Q@Q@Q@Q@Q@6#_#3@Z@)@P q ,.,.+@P@7#)@,.B+r J ,.,.r q x q A+ .A+Z+R+s+B+v+p r+p++@!#(@0@3@1$2$3$4$Y#`+`+`+P+r@7+s@W@H@U@1#1#R#R#1#U@W@{#,#V@G+.@}#F+e+F+$@J@P+L@{#,#F#$@`+I@I@@@7+                            ",
"                                    $ i+}@S+$#$#r@e+e+e+7+G+G+V+e+S+P+I@I@I@`+I@r#W@$@`+I@P+K@7+e+% F+$#R#R#s@'#T@5$/@6@y+D+D+w+(#y+D+x+A+ .v+R+D+B+p ,.u@3@Z@6#Q@6#6#_#_#u@)@K+K+(#(@3@u@_#3@+@Z@_#4@R@!#>@4@)@+@R+y+x+C+r+B+,.+@R@D+p+q+r+A+q 6$7$8$9$$$V@L@@#@#P+ @e+e+7+}@G+S+G+V+}@}@V+S+$#F#F#H@@#{#$#7+i+s@P+L@{#{#{#]#+#J@`+I@V+%                               ",
"                                          f+V+r@S+e+e+e+}@S+P+P+.@G+7+G+S+J@P+P+`+@#W@k#J@I@I@J@G+e+e+e+e+7+e+e+e+e+0$a$b$P#c$D+R+!#y+y+t+B+ .p+D+t+x+B+v+B+s+t+R+J+J+J+K+t+R@!#>@0@0@4@=@D@R@R@(#>@(@K+q+r+B+B+r+A+r+r+B+B+B+C+q+r+r+A+ .;@d$/@5$7@V+F+W@W@{#+#`+`+`+ @S+r@V+e+e+e+e+e+e+e+e+% j#R#s@i#$#@@% M#,#{#{#,#H@U@P+J@I@L+}@%@                                ",
"                                    z@% ; { % 7+7+V+r@S+$@L@W@i#W@{#s@S+G+V+V+V+r@*@}#{#L@$@J@`+P+.@S+}@e+e+e+e+e+e+V+S+e$f$g$h$P#i$!#R+w+D+p+v+x+D+D+t+D+Z+q+r+A+A+v+v+n+r+r+B+q+C+Z+x+y+t+t+t+y+y+R+y+p+B+n+r+C+t+K+R+D+D+y+y+D+D+j$k$l$m$X#n$e+G+S+V+7+F+}#+#$@P+J@`+`+`+P+J@S+V+e+e+e+e+e+e+F+s@F+F+% X+H@,#{#,#{#]#F#J@`+P+*@7+#                                   ",
"                  %@V+V+% % V+S+ @*@*@*@L+J@P+P+$@P+I@`+`+`+J@$@}#@#L@r#W@i#V@##}#L+V@{#,#]#L@`+`+`+I@r#@#*@S+@@}@}@}@e+e+@@o$p$q$r$s$t$u$R+w+y+r+p+K+R+R+R+R+D+D+t+y+s+q+q+y+R+D+D+D+D+D+D+y+R+t+p+r+r+q+q+s+R+>@>@R@R+y+Z+p+v$:#w$x$y$z$A$$@V+7+V@W@W@.@V+7+S+s@L@r#`+J@`+`+`+`+`+J@r@}@e+e+e+e+s@1#2#M#{#,#,#W@U@1#F#W@{###k#}@i+                                    ",
"                  B$S+        < G+# # %@V+z@V+G+G+r@J@P+P+`+.@*@ @K@`+J@I@k#V@W@i#U@]#.#U@i#H@V@$@J@`+J@P+$@+#r#W@{#r#s@S+V+7+V+.@C$p$T#D$E$F$G$v@p+B+R@=#=#=#=#4@!#D@J+J+K+R+K+R@R@D@(#(#(#=@p+q+y+R+y+D+x+,.,.q+q+r+H$6@[@5 I$J$K$|@7+}@V+V+7+e+V+@#{#.#.#$#s@S+@@G+L+}#+#$@$@}#^#@#P+I@L+G+e+e+7+M#.#U@.#2#2#2#2#U@M#L@$@K@@@e+O+                *@                  ",
"                                              }@e+e+e+}@}@7+e+e+V+.@$@P+ @r@r@*@`+V@W@{#{#H@U@1#1#V@L@k#+#$@J@L+`+k#V@{#W@W@##s@*@S+@@S+F+q@L$M$N$O$P$t$Q$=#>@>@)@B+ . .B+!#>@>@>@>@=#*$*$=#=#(@6#_#{@0@0@{@6#R$S$T$U$i@9#V$q@^#@#@#*@7+e+e+7+S+S+r@7+F+H@W$W$,#{#{#@#*@S+*@*@r@@#{#L@P+`+`+P+K@}@e+c+1#2#1#F#L@I@I@J@`+J@ @S+*@*@c+f+                                  ",
"                             @F+                c+e+e+e+e+7+*@s@W@W@##F+F+s@s@L+e+e+S+s@##s@*@r@c+% V+*@*@r@*@$@V@##V@i#i#W@W@W@i#H@i#r#k#@#,#{#{#C$X$q$Y$Z$`$ %.%+%@%#%6@n#+@>@>@>@3@{@3@3@R$$%%%&%*%=%-%;%>%,%'%)%a# @+#I@I@I@I@P+$@.@}@e+}@$#2#2#M#F+F+1#.#]#1#1#2#.#.#2#2#2#M#+#J@`+`+`+`+`+`+V+e+F+2#W@{#,#@#+#+#P+P+I@J@J@G+7+X+                                  ",
"                      f+%@                      X+e+e+7+*@{#L@s@.@L+`+*@ @*@G+e+e+e+e+e+7+V+S+F+*@.@V@W@i#{#I@S+r@S+*@r@G+@@V+G+S+*@S+r#{#H@F#{#V@$#$#s@*@*@!%~%9$g#{%]%^%/%(%_%p@p@o+:%<%<%[%}%|%1%b#2%3%4%j#H@i#W@k#$@$@J@`+`+`+`+`+`+J@e+e+V+{#,#i#]#2#]#U@U@U@U@F#F#$#@#+#I@.@`+`+`+`+`+`+`+`+J@7+e+`+W@,#,#{#{#{#{#W@L@^#^#}#r@%                                   ",
"                    #@K@#@                    # 7+e+G+##L@s@}@e+7+G+F+@#r#V@r###L@k#+#$@k#k#k#k#M#F#,#{#{#,#,#W@F#s@F+s@M#R#.#]#,#{#$#]#M#L@^#^#+#r@*@s@R#2#1#2#1#U@W@r#r#L@L@V@i#W@$#G+s@R#1#1#F#W@i#i#{#r#r#U@2#.#H@,#{#L@P+J@`+`+`+`+I@r@e+e+s@W@{#F#W@,#,#{#{#{#{#V@@#$@`+J@J@`+J@`+`+`+`+`+`+`+*@e+e+#@1#2#2#2#2#H@$@J@`+`+J@P+`+G+%@                              ",
"                                            . 7+e+ @I@`+K@ @L++#k#.@*@S+r@G+G+G+@@G+G+G+G+G+V+r@J@+#2#.#R#R#R#M#s@+#i#W@{#H@2#]#]#U@L@P+J@J@J@J@`+P+P+`+J@J@$@s@$@P+P+ @}@e+e+}@G+`+k#r#s@ @G+F+.#r@s@I@I@I@K@S+*@s@R#.#{#{#{#L@I@J@`+`+`+I@V+e+7+s@{#,#i#]#F#i#F#F#U@F#F#H@{#r#^#@#k#}#I@J@J@`+`+`+I@L+7+e+F+]#H@i#@#P+P+J@*@*@L+.@J@P+ @}@X+                          ",
"                                          %@e+V+.@I@I@P+ @@@}@e+e+e+e+e+e+e+e+7+V+% 7+e+e+}@*@*@r@@@V+b+e+e+e+7+.@r#{#,#H@1#j#U@+#L+*@I@`+I@P+L+S+@@V+r@K@J@I@I@P+S+}@e+e+e+e+e+e+e+G+.@+#r#{#^#k#S+7+ @$@G+e+e+e+e+e+G+F+I@{#i#W@@#+#J@J@`+I@r@e+7+F+.#.#]#.#.#.#.#M#@#+#s@s@$#F#i#{#{#W@V@@#+#J@J@`+`+J@@@e+r@r@@@V+%@X+z@i+z@i+%@% }@V+G+e+}@X+                      ",
"                                        O+7+S+P+I@`+S+7+e+e+e+e+7+% ; c+%@            % e+V+e+e+7+}@}@e+e+V+ @I@L@W@F#H@s@F+r@}@e+e+e+I@J@r@}@% ; z@; }@e+L+`+ @}@% % %@X+  %@% 7+e+e+e+S+J@J@`+`+I@V+e+@@ @e+; ; % % e+e+e+e+G+*@`+##W@}#J@I@I@L+V+e+G+@#{#W@@#`+L+L++#@#k#$@J@J@+#k#k#F+@#i#W@{#@#$@`+J@I@r@e+V+<                           i+O+O+                    ",
"                                      ; V+`+P+J@r@7+% % z@. + $                     X+}@% X+    5%6%}@}@K@I@J@##U@$#S+% % %@    7%7+G+r@b+f+8%        i+V+@@% f+                  O+7+e+e+}@.@I@`+`+S+e+7+V+7+#         %@% % 7+e+e+e+@@*@s@P+P+`+P+S+7+e+.@G+e+e+e+e+e+V+@@G+G+r@r@ @.@r@e+G+I@@#L@r#W@L@+#I@S+7+.                                 O+% V+              ",
"                                  . @@*@`+S+@@7+X+<                               % i+:$          % @@I@J@$@M#s@G+O+            g+7+% .             + 7+%                             %@7+e+e+*@P+I@r@e+B$    % %@                . i+}@e+e+7+G+K@I@I@I@G+e+}@% @@X+B$B$B$.   i+% % V+}@}@G+r@G+V+ @J@I@+#^#r#I@*@7+i+                                  %@              ",
"                                O+@@S+}@7+%@.             y@                                    7+G+P+`+k#S+i+                  %@z@              + }@{                                   c+e+e+S+P+S+%                                   O+%@7+e+7+G+*@$@.@@@7+c+                        i+z@G+r@S+}@7+7+}@V+r@S+*@e+%                                                 ",
"                            g+% e+% f+                  G+`+                                g@7+S+$@K@S+O+                                                                                  X+% e+S+ @{                                           c+%@7+7+r@.@*@}@O+                              ; S+G+}@O+O+% %@}@e+e+7+i+                                            ",
"                          c+7+%@                                                          X+}@*@*@G+X+                                                                                          % e+r@7+            z@G+                                  O+% @@L+S+c+                                z@O+% .         %@% e+%                                           ",
"                          F+g+              #@L+                                        X+@@ @O++                                                                                                 O+e+e+O+            f+G+#@        %@                          f+V+S+V+i+                  i+              O+%             X+7+V+X+y@                                  ",
"                                          y@S+F+                  X+                  % r@*@                                                                                                        O+e+7+              % @@L+                                      f+z@7+% g@              + }@*@#@                              X+7+%                                 ",
"                                            @@r@ @$@I@J@L+F+O+O+;                 %@7+%@                                                                                                              O+e+X+              7+}@F+                                          %@7+%@              % e+ @#@                                                                  ",
"                                            X+7+S+G+}@7+% O+B$                r@% 7+O+                                                                                                                  }@                + }@ @.@                                          # b+c+            + G+V+`+                                                                  ",
"                                            % % { i+                        %@% %@                                                                                                                      %@%                   .@L+                                              ;                 `+#@                                                                  ",
"                                            +                                                                                                                                                             %                                                                                                                                                             ",
"                                                                                                                                                                                                                                                                                                                                                                        ",
"                                                                                                                                                                                                                                                                                                                                                                        ",
"                                                                                                                                                                                                                                                                                                                                                                        ",
"                                                                                                                                                                                                                                                                                                                                                                        ",
"                                                                                                                                                                                                                                                                                                                                                                        ",
"                                                                                                                                                                                                                                                                                                                                                                        "};
