/* XPM */
static char * sunny_7_xpm[] = {
"90 90 1578 2",
"  	c None",
". 	c #080404",
"+ 	c #000000",
"@ 	c #625E3F",
"# 	c #090904",
"$ 	c #0E0707",
"% 	c #3F2C2C",
"& 	c #362525",
"* 	c #C6BF83",
"= 	c #BDB57C",
"- 	c #403E28",
"; 	c #190F0F",
"> 	c #543C3C",
", 	c #644949",
"' 	c #3E2C2C",
") 	c #79744E",
"! 	c #E8DE99",
"~ 	c #EEE49E",
"{ 	c #DAD291",
"] 	c #878157",
"^ 	c #211616",
"/ 	c #221616",
"( 	c #4D3737",
"_ 	c #6A4E4E",
": 	c #C6BE82",
"< 	c #F9EFA5",
"[ 	c #FAF0A6",
"} 	c #F8EFA5",
"| 	c #E8DF9A",
"1 	c #CBC386",
"2 	c #938C60",
"3 	c #221717",
"4 	c #513A3A",
"5 	c #604646",
"6 	c #2E2020",
"7 	c #807B53",
"8 	c #D7CE8E",
"9 	c #F1E8A0",
"0 	c #E7DE9A",
"a 	c #A29C6A",
"b 	c #4C3737",
"c 	c #694D4D",
"d 	c #5F4545",
"e 	c #624747",
"f 	c #AAA370",
"g 	c #F9EFA6",
"h 	c #F7EEA4",
"i 	c #F2E9A2",
"j 	c #7A754F",
"k 	c #422F2F",
"l 	c #6B4E4E",
"m 	c #6C4F4F",
"n 	c #5B4242",
"o 	c #392828",
"p 	c #D4CC8C",
"q 	c #F7EDA4",
"r 	c #E4DB97",
"s 	c #120A0A",
"t 	c #4F3939",
"u 	c #684C4C",
"v 	c #402E2E",
"w 	c #473232",
"x 	c #543D3D",
"y 	c #4A3535",
"z 	c #0D0606",
"A 	c #6A6644",
"B 	c #E6DD98",
"C 	c #E6DD99",
"D 	c #433030",
"E 	c #493434",
"F 	c #694C4C",
"G 	c #412E2E",
"H 	c #372727",
"I 	c #170E0E",
"J 	c #3C3924",
"K 	c #D4CB8C",
"L 	c #EDE49D",
"M 	c #706C49",
"N 	c #463232",
"O 	c #624848",
"P 	c #573F3F",
"Q 	c #2D1F1F",
"R 	c #B1A974",
"S 	c #E5DC98",
"T 	c #DDD492",
"U 	c #6E6449",
"V 	c #5D4444",
"W 	c #6A4D4D",
"X 	c #584040",
"Y 	c #5A4040",
"Z 	c #432F2F",
"` 	c #858056",
" .	c #D2C98A",
"..	c #CDC488",
"+.	c #584B3C",
"@.	c #3D2B2B",
"#.	c #553E3E",
"$.	c #BBB37C",
"%.	c #F8EEA5",
"&.	c #C6BD83",
"*.	c #5F4F42",
"=.	c #674B4B",
"-.	c #664A4A",
";.	c #342525",
">.	c #503A3A",
",.	c #4B3636",
"'.	c #5A4141",
").	c #ADA672",
"!.	c #ECE29D",
"~.	c #F2E8A1",
"{.	c #ABA470",
"].	c #635145",
"^.	c #5C4343",
"/.	c #43302F",
"(.	c #352525",
"_.	c #4C3531",
":.	c #37221D",
"<.	c #201413",
"[.	c #402A27",
"}.	c #372626",
"|.	c #2B1D1D",
"1.	c #634848",
"2.	c #A19B69",
"3.	c #C4BC81",
"4.	c #F5EBA2",
"5.	c #F1E7A0",
"6.	c #979063",
"7.	c #271B1A",
"8.	c #45302E",
"9.	c #83592F",
"0.	c #81582D",
"a.	c #805329",
"b.	c #5E3413",
"c.	c #7A441C",
"d.	c #4D2A14",
"e.	c #583D3A",
"f.	c #4C3636",
"g.	c #AFA873",
"h.	c #F0E7A0",
"i.	c #E5DB98",
"j.	c #877E5A",
"k.	c #271A1A",
"l.	c #614646",
"m.	c #9D6D45",
"n.	c #BB8145",
"o.	c #DE9A53",
"p.	c #9F6936",
"q.	c #844C20",
"r.	c #B7682E",
"s.	c #784420",
"t.	c #6D4537",
"u.	c #573E3E",
"v.	c #563E3E",
"w.	c #594040",
"x.	c #281304",
"y.	c #48260B",
"z.	c #563F3F",
"A.	c #5E4444",
"B.	c #625A41",
"C.	c #9F9867",
"D.	c #D2C98B",
"E.	c #58493C",
"F.	c #5D4544",
"G.	c #4E3838",
"H.	c #9C6C45",
"I.	c #CE8E4C",
"J.	c #F7AC5E",
"K.	c #A16C38",
"L.	c #975726",
"M.	c #BF6D30",
"N.	c #A05B26",
"O.	c #7D492B",
"P.	c #473231",
"Q.	c #674A4A",
"R.	c #654A4A",
"S.	c #302121",
"T.	c #453131",
"U.	c #291908",
"V.	c #6E401A",
"W.	c #84491D",
"X.	c #6D5A4C",
"Y.	c #908A5E",
"Z.	c #ECE39D",
"`.	c #B1A975",
" +	c #665447",
".+	c #A37042",
"++	c #DF9B54",
"@+	c #A06B37",
"#+	c #965625",
"$+	c #C26F30",
"%+	c #B6682D",
"&+	c #884E24",
"*+	c #402B28",
"=+	c #5F4444",
"-+	c #3C2A2A",
";+	c #533C3C",
">+	c #0F0702",
",+	c #9C6B38",
"'+	c #8C5628",
")+	c #945322",
"!+	c #613513",
"~+	c #725D50",
"{+	c #978C65",
"]+	c #EAE09B",
"^+	c #EFE59E",
"/+	c #897F5B",
"(+	c #5E4544",
"_+	c #4E3737",
":+	c #261A1A",
"<+	c #634747",
"[+	c #352422",
"}+	c #B87F45",
"|+	c #F3A95C",
"1+	c #F4A95D",
"2+	c #A56B36",
"3+	c #AA6129",
"4+	c #C47031",
"5+	c #8F5123",
"6+	c #412A26",
"7+	c #443030",
"8+	c #523C3C",
"9+	c #5A4242",
"0+	c #020101",
"a+	c #48301E",
"b+	c #A4713C",
"c+	c #88572A",
"d+	c #BB6B2E",
"e+	c #925222",
"f+	c #645645",
"g+	c #90895F",
"h+	c #EAE19B",
"i+	c #C9C085",
"j+	c #70634D",
"k+	c #5C4242",
"l+	c #523B3B",
"m+	c #45302F",
"n+	c #543820",
"o+	c #CF8F4D",
"p+	c #D69450",
"q+	c #AC6A33",
"r+	c #BD6C2F",
"s+	c #C57131",
"t+	c #C87332",
"u+	c #905223",
"v+	c #35211C",
"w+	c #553D3D",
"x+	c #604545",
"y+	c #201515",
"z+	c #6E4C34",
"A+	c #D2924F",
"B+	c #A26934",
"C+	c #B5682C",
"D+	c #B3662B",
"E+	c #7B441B",
"F+	c #989163",
"G+	c #EBE19C",
"H+	c #EFE59F",
"I+	c #ADA373",
"J+	c #5A4241",
"K+	c #1C1212",
"L+	c #5E423C",
"M+	c #B67E45",
"N+	c #F0A75B",
"O+	c #E9A158",
"P+	c #B67D42",
"Q+	c #BA7034",
"R+	c #C37031",
"S+	c #905122",
"T+	c #331F1A",
"U+	c #493535",
"V+	c #3B2929",
"W+	c #684623",
"X+	c #E09B55",
"Y+	c #A66C37",
"Z+	c #B4672C",
"`+	c #BF6E2F",
" @	c #8C4F20",
".@	c #B7AF78",
"+@	c #EEE49D",
"@@	c #D2C88B",
"#@	c #635942",
"$@	c #654A49",
"%@	c #332323",
"&@	c #1A1111",
"*@	c #5D4343",
"=@	c #5F4443",
"-@	c #825935",
";@	c #EBA359",
">@	c #F8AC5E",
",@	c #E59E56",
"'@	c #B66A2E",
")@	c #C77332",
"!@	c #8B4F23",
"~@	c #432D2B",
"{@	c #463131",
"]@	c #573E3C",
"^@	c #A2703D",
"/@	c #DE9953",
"(@	c #946131",
"_@	c #B86A2E",
":@	c #B8692D",
"<@	c #663815",
"[@	c #E7DE99",
"}@	c #AFA574",
"|@	c #69544A",
"1@	c #503939",
"2@	c #291B1B",
"3@	c #382727",
"4@	c #6B4A3A",
"5@	c #BD8346",
"6@	c #F5AA5D",
"7@	c #DD9851",
"8@	c #8C5123",
"9@	c #BF6D2F",
"0@	c #884D25",
"a@	c #452F2D",
"b@	c #443131",
"c@	c #332219",
"d@	c #B77F44",
"e@	c #EAA358",
"f@	c #986433",
"g@	c #B7692D",
"h@	c #C06E2F",
"i@	c #83491E",
"j@	c #C2BA7F",
"k@	c #EEE59E",
"l@	c #F4EAA2",
"m@	c #EAE19C",
"n@	c #F5EBA3",
"o@	c #F0E6A0",
"p@	c #D0C78A",
"q@	c #5F563F",
"r@	c #241818",
"s@	c #362626",
"t@	c #AE7841",
"u@	c #E39D55",
"v@	c #A46C37",
"w@	c #C06E30",
"x@	c #BE6D2F",
"y@	c #824A26",
"z@	c #4F3838",
"A@	c #67472D",
"B@	c #CE8F4D",
"C@	c #EDA459",
"D@	c #9E6532",
"E@	c #B7682D",
"F@	c #C67231",
"G@	c #9D5925",
"H@	c #2C1505",
"I@	c #B3AC76",
"J@	c #D0C88A",
"K@	c #A49C6C",
"L@	c #92885D",
"M@	c #AFA26E",
"N@	c #BFAC74",
"O@	c #B6AC77",
"P@	c #C0B67E",
"Q@	c #6E6748",
"R@	c #493833",
"S@	c #4B3535",
"T@	c #1F120B",
"U@	c #9D6B39",
"V@	c #F0A65B",
"W@	c #F7AB5D",
"X@	c #B77E43",
"Y@	c #9E5C28",
"Z@	c #C37030",
"`@	c #A65F28",
" #	c #714634",
".#	c #6E4B30",
"+#	c #E59F56",
"@#	c #8A5225",
"##	c #AE632A",
"$#	c #633613",
"%#	c #8C875C",
"&#	c #7F7A52",
"*#	c #DBD290",
"=#	c #DFD694",
"-#	c #79724D",
";#	c #2F1F0D",
">#	c #D0924F",
",#	c #D59753",
"'#	c #C88C4E",
")#	c #8E6537",
"!#	c #7E5A34",
"~#	c #593D2C",
"{#	c #312222",
"]#	c #5E4343",
"^#	c #402C2C",
"/#	c #4F3834",
"(#	c #80572D",
"_#	c #F7AB5E",
":#	c #DF9A54",
"<#	c #A66832",
"[#	c #BC6C2F",
"}#	c #77431D",
"|#	c #5A3F3D",
"1#	c #654842",
"2#	c #8E6134",
"3#	c #E8A158",
"4#	c #CA8A4A",
"5#	c #975523",
"6#	c #6E3C17",
"7#	c #959061",
"8#	c #AEA772",
"9#	c #DED693",
"0#	c #DCD391",
"a#	c #6A5534",
"b#	c #834A1E",
"c#	c #85592D",
"d#	c #F1A95C",
"e#	c #F5AB5E",
"f#	c #EFA65B",
"g#	c #B87F44",
"h#	c #8F6234",
"i#	c #5B3E23",
"j#	c #593E34",
"k#	c #5B4141",
"l#	c #583F3F",
"m#	c #96673B",
"n#	c #E9A258",
"o#	c #815429",
"p#	c #B0642B",
"q#	c #A55E29",
"r#	c #533631",
"s#	c #573D30",
"t#	c #CD8E4E",
"u#	c #EFA65A",
"v#	c #956635",
"w#	c #B1662C",
"x#	c #B5672C",
"y#	c #683916",
"z#	c #7F7952",
"A#	c #9B9565",
"B#	c #CEC588",
"C#	c #DED492",
"D#	c #8A653C",
"E#	c #B96A2E",
"F#	c #935422",
"G#	c #885B2E",
"H#	c #F9AD5F",
"I#	c #F6AB5D",
"J#	c #E39E56",
"K#	c #D3924F",
"L#	c #C3874A",
"M#	c #78522E",
"N#	c #694831",
"O#	c #3B271C",
"P#	c #593F3F",
"Q#	c #97673A",
"R#	c #F2A85B",
"S#	c #F1A75B",
"T#	c #B77C42",
"U#	c #AC642C",
"V#	c #C47131",
"W#	c #A96029",
"X#	c #4D2B18",
"Y#	c #503938",
"Z#	c #BC824B",
"`#	c #EEA55A",
" $	c #905D2E",
".$	c #B4662C",
"+$	c #562E10",
"@$	c #514D33",
"#$	c #E9DF9B",
"$$	c #E9E09A",
"%$	c #AA9260",
"&$	c #E8A157",
"*$	c #C78B4B",
"=$	c #815938",
"-$	c #513A38",
";$	c #684B4B",
">$	c #5F4440",
",$	c #875C32",
"'$	c #C28447",
")$	c #975524",
"!$	c #72401C",
"~$	c #2C1E1E",
"{$	c #473333",
"]$	c #8D613B",
"^$	c #D89651",
"/$	c #A86731",
"($	c #C16F30",
"_$	c #703E18",
":$	c #AAA36F",
"<$	c #9F9364",
"[$	c #A4602C",
"}$	c #C06F2F",
"|$	c #CD8E4C",
"1$	c #A47140",
"2$	c #493227",
"3$	c #62453F",
"4$	c #543B3A",
"5$	c #B27B44",
"6$	c #C98B4B",
"7$	c #995A28",
"8$	c #714125",
"9$	c #4D3635",
"0$	c #4C3320",
"a$	c #B37B42",
"b$	c #B97B40",
"c$	c #A49D6B",
"d$	c #E2D996",
"e$	c #D1C78A",
"f$	c #6F6748",
"g$	c #955627",
"h$	c #C27030",
"i$	c #F1A85C",
"j$	c #E7A057",
"k$	c #D49350",
"l$	c #996937",
"m$	c #7A553E",
"n$	c #583C2F",
"o$	c #C6894A",
"p$	c #985E2D",
"q$	c #B9692D",
"r$	c #BA6B2E",
"s$	c #63371C",
"t$	c #4C3430",
"u$	c #99693C",
"v$	c #F6AA5D",
"w$	c #F9AD5E",
"x$	c #CC8C4B",
"y$	c #885124",
"z$	c #B3662C",
"A$	c #5D3312",
"B$	c #B4AC76",
"C$	c #F3E9A1",
"D$	c #D3CA8C",
"E$	c #ABA471",
"F$	c #59423C",
"G$	c #5B3217",
"H$	c #B2652B",
"I$	c #C58949",
"J$	c #8C603F",
"K$	c #523A38",
"L$	c #765135",
"M$	c #DD9953",
"N$	c #965E2E",
"O$	c #BC6B2F",
"P$	c #72401E",
"Q$	c #865C37",
"R$	c #E09B54",
"S$	c #DD9A54",
"T$	c #9D6936",
"U$	c #B3682D",
"V$	c #522C0F",
"W$	c #C5BD82",
"X$	c #F2E7A1",
"Y$	c #ADA372",
"Z$	c #71654C",
"`$	c #604E43",
" %	c #5F3E35",
".%	c #A86029",
"+%	c #935323",
"@%	c #DD9952",
"#%	c #8D613A",
"$%	c #744F28",
"%%	c #E8A259",
"&%	c #E29D55",
"*%	c #E19C55",
"=%	c #CC8D4C",
"-%	c #B68041",
";%	c #6D4116",
">%	c #A65E27",
",%	c #B5692C",
"'%	c #B86A2D",
")%	c #8E592B",
"!%	c #CB8C4C",
"~%	c #EFA55A",
"{%	c #CF8F4C",
"]%	c #A5622C",
"^%	c #BC6C2E",
"/%	c #B2652C",
"(%	c #4D290D",
"_%	c #7E7952",
":%	c #CEC688",
"<%	c #F4EBA2",
"[%	c #E3DA96",
"}%	c #B8AF7A",
"|%	c #8F845F",
"1%	c #7B6C54",
"2%	c #594140",
"3%	c #7F4923",
"4%	c #935322",
"5%	c #F1A85B",
"6%	c #E19C54",
"7%	c #D1934D",
"8%	c #785824",
"9%	c #AA8333",
"0%	c #99762B",
"a%	c #896C24",
"b%	c #8A6D48",
"c%	c #85725D",
"d%	c #85763D",
"e%	c #8D7E4C",
"f%	c #987A1B",
"g%	c #8E7218",
"h%	c #8B6A1A",
"i%	c #9F6E21",
"j%	c #8A4F21",
"k%	c #7C532A",
"l%	c #E69F57",
"m%	c #975F2D",
"n%	c #B2662B",
"o%	c #9A5724",
"p%	c #341906",
"q%	c #020100",
"r%	c #B4AD76",
"s%	c #D8CF8F",
"t%	c #E3DB97",
"u%	c #CCC387",
"v%	c #B2AB75",
"w%	c #9F9669",
"x%	c #8F855F",
"y%	c #6E594D",
"z%	c #693A16",
"A%	c #B6682C",
"B%	c #C16F2F",
"C%	c #945422",
"D%	c #CB9148",
"E%	c #B08438",
"F%	c #B79829",
"G%	c #CBB025",
"H%	c #C5AA24",
"I%	c #B29A21",
"J%	c #A09573",
"K%	c #918C7F",
"L%	c #A4A29C",
"M%	c #B0AEA8",
"N%	c #ACAAA3",
"O%	c #B1A57F",
"P%	c #AE961D",
"Q%	c #E6C72A",
"R%	c #CDB024",
"S%	c #B1961F",
"T%	c #A67F2F",
"U%	c #EBA557",
"V%	c #A26F3A",
"W%	c #A8632C",
"X%	c #854A1E",
"Y%	c #190902",
"Z%	c #878158",
"`%	c #9F9868",
" &	c #716C49",
".&	c #6B6645",
"+&	c #797050",
"@&	c #6B5E48",
"#&	c #514338",
"$&	c #594D3C",
"%&	c #4C3A36",
"&&	c #261919",
"*&	c #9B5724",
"=&	c #C67131",
"-&	c #885B2D",
";&	c #C28947",
">&	c #C89E3A",
",&	c #BCA122",
"'&	c #E7C72B",
")&	c #EBCB2B",
"!&	c #F0D02D",
"~&	c #B19A23",
"{&	c #9E967F",
"]&	c #706F6E",
"^&	c #373636",
"/&	c #464646",
"(&	c #6B6B6B",
"_&	c #757575",
":&	c #DFDFDF",
"<&	c #BFB598",
"[&	c #D0B325",
"}&	c #F7D52E",
"|&	c #F4D32D",
"1&	c #DABB2A",
"2&	c #C19E2F",
"3&	c #B68240",
"4&	c #BA6A2E",
"5&	c #562D10",
"6&	c #2E1E1C",
"7&	c #16150B",
"8&	c #3F2E2D",
"9&	c #644848",
"0&	c #573D3B",
"a&	c #7A4521",
"b&	c #C48B47",
"c&	c #CCA635",
"d&	c #EECE2C",
"e&	c #F3D22D",
"f&	c #F8D62E",
"g&	c #F0D02C",
"h&	c #B8A459",
"i&	c #A5A5A4",
"j&	c #4C4C4C",
"k&	c #010101",
"l&	c #1E1E1E",
"m&	c #A1A1A1",
"n&	c #D7D7D7",
"o&	c #CAB463",
"p&	c #F4D22D",
"q&	c #DEC028",
"r&	c #B99924",
"s&	c #B6702B",
"t&	c #6C3E24",
"u&	c #5B4241",
"v&	c #654949",
"w&	c #483434",
"x&	c #4A2812",
"y&	c #B1652B",
"z&	c #885A2D",
"A&	c #BE8946",
"B&	c #CDA736",
"C&	c #F2D12C",
"D&	c #F7D62E",
"E&	c #CEB65C",
"F&	c #ABA9A6",
"G&	c #979797",
"H&	c #6A6A6A",
"I&	c #353535",
"J&	c #010100",
"K&	c #787878",
"L&	c #ACACAC",
"M&	c #CDCCCA",
"N&	c #C5AF5A",
"O&	c #F1D02C",
"P&	c #DFC028",
"Q&	c #C6A325",
"R&	c #BF762E",
"S&	c #59372C",
"T&	c #1B1111",
"U&	c #382828",
"V&	c #634949",
"W&	c #483333",
"X&	c #322222",
"Y&	c #4B312B",
"Z&	c #7E461C",
"`&	c #7D4F1A",
" *	c #B59924",
".*	c #F6D52E",
"+*	c #D8C894",
"@*	c #B0ADA6",
"#*	c #C3C2C0",
"$*	c #91908D",
"%*	c #8C8B88",
"&*	c #A09D97",
"**	c #BCBAB4",
"=*	c #C1B073",
"-*	c #D9BB27",
";*	c #E3C429",
">*	c #C4A125",
",*	c #BD742E",
"'*	c #8F5225",
")*	c #4C3534",
"!*	c #664949",
"~*	c #100808",
"{*	c #251919",
"]*	c #3E2D2D",
"^*	c #402D2D",
"/*	c #6F432D",
"(*	c #AC622A",
"_*	c #A06225",
":*	c #C09B25",
"<*	c #E3C52E",
"[*	c #AF9E60",
"}*	c #958859",
"|*	c #AD9B5E",
"1*	c #AB9D6C",
"2*	c #BEA853",
"3*	c #DEC24F",
"4*	c #E2C329",
"5*	c #DEBF28",
"6*	c #9D771E",
"7*	c #BD6D2F",
"8*	c #B2662C",
"9*	c #5D3418",
"0*	c #573D3C",
"a*	c #050303",
"b*	c #0D0707",
"c*	c #3E2B2B",
"d*	c #4D3636",
"e*	c #874D26",
"f*	c #C47030",
"g*	c #A06125",
"h*	c #C19C25",
"i*	c #F1D02D",
"j*	c #E8C92B",
"k*	c #CAB25C",
"l*	c #AEA27E",
"m*	c #AAA7A0",
"n*	c #B1ADA1",
"o*	c #AAA390",
"p*	c #979590",
"q*	c #BAAE82",
"r*	c #BDA63D",
"s*	c #F9D72F",
"t*	c #C1A124",
"u*	c #995724",
"v*	c #A75F29",
"w*	c #462611",
"x*	c #251818",
"y*	c #231716",
"z*	c #644428",
"A*	c #674942",
"B*	c #5E3929",
"C*	c #A35C27",
"D*	c #A66028",
"E*	c #BE9925",
"F*	c #F1D12C",
"G*	c #E1C229",
"H*	c #C7AC23",
"I*	c #9D891A",
"J*	c #C3B790",
"K*	c #BCBBB9",
"L*	c #F2F2F1",
"M*	c #F6F6F6",
"N*	c #FDFDFD",
"O*	c #F2F2F2",
"P*	c #F0F0EF",
"Q*	c #EFEFEF",
"R*	c #A8A6A2",
"S*	c #B39F55",
"T*	c #F5D42E",
"U*	c #D5B926",
"V*	c #A47722",
"W*	c #75421C",
"X*	c #4A3534",
"Y*	c #3A2828",
"Z*	c #3F2D2D",
"`*	c #010000",
" =	c #191010",
".=	c #6B4F4F",
"+=	c #5B3F28",
"@=	c #936535",
"#=	c #835A33",
"$=	c #674A42",
"%=	c #2F2020",
"&=	c #513938",
"*=	c #804925",
"==	c #A57224",
"-=	c #D0B425",
";=	c #A38E1B",
">=	c #564A09",
",=	c #3C382D",
"'=	c #989898",
")=	c #F8F8F8",
"!=	c #FFFFFF",
"~=	c #F9F9F9",
"{=	c #8B877E",
"]=	c #B59E32",
"^=	c #FAD92F",
"/=	c #A68C1C",
"(=	c #A56426",
"_=	c #6F432E",
":=	c #1A1010",
"<=	c #3A2929",
"[=	c #4D3838",
"}=	c #2F1C17",
"|=	c #CD8E4D",
"1=	c #8B6036",
"2=	c #6A4B3F",
"3=	c #422E2E",
"4=	c #382624",
"5=	c #905226",
"6=	c #AE642A",
"7=	c #876D17",
"8=	c #EACB2B",
"9=	c #EDCD2C",
"0=	c #504508",
"a=	c #454545",
"b=	c #EEEEEE",
"c=	c #E5E5E5",
"d=	c #A0A0A0",
"e=	c #A49F91",
"f=	c #BEA749",
"g=	c #F9D82F",
"h=	c #E3C32A",
"i=	c #A57324",
"j=	c #8E5124",
"k=	c #3C2929",
"l=	c #030202",
"m=	c #3D2A2A",
"n=	c #2A170F",
"o=	c #74461F",
"p=	c #E19B54",
"q=	c #DB9853",
"r=	c #B98146",
"s=	c #6F4C2C",
"t=	c #49322A",
"u=	c #31201E",
"v=	c #9E5927",
"w=	c #AA6927",
"x=	c #C9AA24",
"y=	c #E9C92B",
"z=	c #6C5D0E",
"A=	c #030200",
"B=	c #3E3E3E",
"C=	c #7A7A7A",
"D=	c #DDDDDD",
"E=	c #FAFAFA",
"F=	c #D9D9D9",
"G=	c #B7B7B7",
"H=	c #F1F1F1",
"I=	c #AFAA9E",
"J=	c #BEA63E",
"K=	c #EACA2B",
"L=	c #8F7718",
"M=	c #854E1D",
"N=	c #4D2E20",
"O=	c #644747",
"P=	c #211515",
"Q=	c #1F1414",
"R=	c #5B3C1D",
"S=	c #442A12",
"T=	c #614747",
"U=	c #512C10",
"V=	c #945726",
"W=	c #A86D37",
"X=	c #E49D55",
"Y=	c #E49E56",
"Z=	c #906233",
"`=	c #855C3B",
" -	c #3C2A27",
".-	c #442F2E",
"+-	c #533B3B",
"@-	c #654848",
"#-	c #624646",
"$-	c #573D38",
"%-	c #553A2A",
"&-	c #251506",
"*-	c #86691A",
"=-	c #DABC27",
"--	c #D9BF28",
";-	c #A29B7B",
">-	c #515151",
",-	c #8F8F8F",
"'-	c #DADADA",
")-	c #FEFEFE",
"!-	c #E1E1E1",
"~-	c #7C7C7C",
"{-	c #E4E4E4",
"]-	c #EDEDED",
"^-	c #BFAD73",
"/-	c #EBCB2C",
"(-	c #B89E1F",
"_-	c #301F14",
":-	c #5C4140",
"<-	c #352424",
"[-	c #271A17",
"}-	c #100802",
"|-	c #B17A41",
"1-	c #9B6A38",
"2-	c #855529",
"3-	c #42250D",
"4-	c #170C0A",
"5-	c #8D5021",
"6-	c #B96E32",
"7-	c #A86E37",
"8-	c #E39C54",
"9-	c #DC9953",
"0-	c #B27B43",
"a-	c #996A38",
"b-	c #614120",
"c-	c #6E4B31",
"d-	c #644530",
"e-	c #644431",
"f-	c #6F4D37",
"g-	c #573B28",
"h-	c #8D6138",
"i-	c #AD7841",
"j-	c #BB8146",
"k-	c #C4884A",
"l-	c #A2891F",
"m-	c #DFC029",
"n-	c #D4B727",
"o-	c #CFB329",
"p-	c #EBCC35",
"q-	c #F5D32D",
"r-	c #CAB777",
"s-	c #D0D0D0",
"t-	c #E0E0E0",
"u-	c #E3E3E3",
"v-	c #A4A4A4",
"w-	c #D4D4D4",
"x-	c #ACA07E",
"y-	c #C0A521",
"z-	c #41341B",
"A-	c #5F443F",
"B-	c #5D4342",
"C-	c #442F2D",
"D-	c #51361F",
"E-	c #583B1C",
"F-	c #BF8446",
"G-	c #C28648",
"H-	c #9C6937",
"I-	c #412C2C",
"J-	c #522F1C",
"K-	c #A65E28",
"L-	c #BC6F32",
"M-	c #9D6632",
"N-	c #DC9751",
"O-	c #E8A258",
"P-	c #D59450",
"Q-	c #DC9853",
"R-	c #F5AB5D",
"S-	c #CE914C",
"T-	c #9E861F",
"U-	c #B09923",
"V-	c #A79F87",
"W-	c #A59E8B",
"X-	c #A19676",
"Y-	c #E4C749",
"Z-	c #D3B636",
"`-	c #AEA897",
" ;	c #FCFCFC",
".;	c #EAEAEA",
"+;	c #CBCBCB",
"@;	c #ECECEC",
"#;	c #BDB59E",
"$;	c #EECE2D",
"%;	c #AC931D",
"&;	c #A57539",
"*;	c #BC8248",
"=;	c #956838",
"-;	c #7F5732",
";;	c #644424",
">;	c #7D552D",
",;	c #A16E3E",
"';	c #A8733E",
");	c #C68949",
"!;	c #DB9752",
"~;	c #A06C38",
"{;	c #B96D31",
"];	c #2E1F1F",
"^;	c #60423F",
"/;	c #7E4822",
"(;	c #B5682E",
"_;	c #7B451B",
":;	c #C18244",
"<;	c #DB9852",
"[;	c #D3934E",
"};	c #AE9523",
"|;	c #9E9473",
"1;	c #6C6C6C",
"2;	c #8E8E8E",
"3;	c #A8A7A3",
"4;	c #A69A75",
"5;	c #BBA654",
"6;	c #D2D1CE",
"7;	c #C1C1C1",
"8;	c #DBDBDB",
"9;	c #B5B0A2",
"0;	c #DCBF33",
"a;	c #C8A92A",
"b;	c #CA8D4A",
"c;	c #EDA55A",
"d;	c #ECA45A",
"e;	c #E6A057",
"f;	c #F4A95C",
"g;	c #BA6E32",
"h;	c #78431A",
"i;	c #5B392E",
"j;	c #AF642D",
"k;	c #AC713A",
"l;	c #C28748",
"m;	c #F3A85C",
"n;	c #C18647",
"o;	c #7E6B42",
"p;	c #79766E",
"q;	c #0C0A0A",
"r;	c #121212",
"s;	c #AEA899",
"t;	c #92824A",
"u;	c #D3D3D1",
"v;	c #BDBDBD",
"w;	c #C8C8C8",
"x;	c #A6A5A2",
"y;	c #D2B734",
"z;	c #C5A828",
"A;	c #B67E43",
"B;	c #47250B",
"C;	c #1B1212",
"D;	c #3B2A2A",
"E;	c #332424",
"F;	c #6E4029",
"G;	c #955B2B",
"H;	c #B4783E",
"I;	c #ECA459",
"J;	c #AC763F",
"K;	c #7C766E",
"L;	c #908F8F",
"M;	c #2B2B2B",
"N;	c #565656",
"O;	c #ACA79D",
"P;	c #A09363",
"Q;	c #BDBCBA",
"R;	c #C7C7C7",
"S;	c #D3D3D3",
"T;	c #C1BCAE",
"U;	c #DEC02E",
"V;	c #F5D42D",
"W;	c #B29A1E",
"X;	c #CF934B",
"Y;	c #F6AC5E",
"Z;	c #D3914E",
"`;	c #9B6735",
" >	c #C06F30",
".>	c #9C5925",
"+>	c #5E3312",
"@>	c #160D0D",
"#>	c #67453D",
"$>	c #80481F",
"%>	c #A85F28",
"&>	c #A8652F",
"*>	c #8B582B",
"=>	c #B2783E",
"->	c #C78949",
";>	c #D79551",
">>	c #A87A3A",
",>	c #9D957E",
"'>	c #969695",
")>	c #282828",
"!>	c #616161",
"~>	c #9C998F",
"{>	c #A7985D",
"]>	c #C3C3C3",
"^>	c #B8B8B8",
"/>	c #CACACA",
"(>	c #E6E6E6",
"_>	c #9F967D",
":>	c #E7C832",
"<>	c #AB8C29",
"[>	c #D5944F",
"}>	c #D99651",
"|>	c #B27A40",
"1>	c #AE7139",
"2>	c #8C5022",
"3>	c #B76A2E",
"4>	c #864B1F",
"5>	c #6C463A",
"6>	c #854B1E",
"7>	c #B2672D",
"8>	c #8F5223",
"9>	c #A16430",
"0>	c #99602F",
"a>	c #81542A",
"b>	c #A7703A",
"c>	c #A46E38",
"d>	c #42380C",
"e>	c #978F79",
"f>	c #A8A6A5",
"g>	c #020202",
"h>	c #828282",
"i>	c #A49E8C",
"j>	c #BAA226",
"k>	c #C9C6BC",
"l>	c #E8E8E8",
"m>	c #C6C6C6",
"n>	c #C5C4C1",
"o>	c #DAC15F",
"p>	c #D7B927",
"q>	c #AD8434",
"r>	c #E7A157",
"s>	c #BC8044",
"t>	c #A66E38",
"u>	c #76461F",
"v>	c #A96730",
"w>	c #A35F29",
"x>	c #894D1F",
"y>	c #1F1515",
"z>	c #6D463A",
"A>	c #864B1E",
"B>	c #C36F30",
"C>	c #BC6B2E",
"D>	c #B3672C",
"E>	c #A25C27",
"F>	c #A45D27",
"G>	c #8C5D1D",
"H>	c #9F8D44",
"I>	c #D9D6CE",
"J>	c #B2B2B2",
"K>	c #A3A3A3",
"L>	c #ACA48F",
"M>	c #D1B640",
"N>	c #9C9276",
"O>	c #EAEAE8",
"P>	c #F5F5F5",
"Q>	c #838383",
"R>	c #DDDCDA",
"S>	c #B3A470",
"T>	c #DCBF28",
"U>	c #CBAE24",
"V>	c #8E632C",
"W>	c #8F5B2C",
"X>	c #A2622E",
"Y>	c #BB6C2F",
"Z>	c #41220A",
"`>	c #5E3827",
" ,	c #A06524",
".,	c #9F892E",
"+,	c #AEA073",
"@,	c #E3E1DB",
"#,	c #CDCDCD",
"$,	c #D5D4D2",
"%,	c #C7B46B",
"&,	c #ECCC2C",
"*,	c #DBC260",
"=,	c #959493",
"-,	c #B9B8B5",
";,	c #C0C0C0",
">,	c #DEDEDE",
",,	c #ECEBEA",
"',	c #B1A480",
"),	c #CEB226",
"!,	c #EECD2C",
"~,	c #BB9D22",
"{,	c #B1692B",
"],	c #8B4E20",
"^,	c #45240B",
"/,	c #633F35",
"(,	c #7E4827",
"_,	c #BC6C30",
":,	c #AD642A",
"<,	c #B89B20",
"[,	c #D8BD47",
"},	c #B8A667",
"|,	c #BEB7A1",
"1,	c #BDAB70",
"2,	c #D7BA27",
"3,	c #D7BC48",
"4,	c #8F8566",
"5,	c #D3D2CD",
"6,	c #F4F4F4",
"7,	c #E8E7E6",
"8,	c #B2A581",
"9,	c #CDB129",
"0,	c #FAD82F",
"a,	c #F9D72E",
"b,	c #E5C42A",
"c,	c #976E1E",
"d,	c #3D1F08",
"e,	c #2A1D1D",
"f,	c #6A463F",
"g,	c #804B2B",
"h,	c #B4672E",
"i,	c #A58A1D",
"j,	c #ECCC2B",
"k,	c #EACB32",
"l,	c #F6D42D",
"m,	c #E4CA5F",
"n,	c #BAB29C",
"o,	c #EBEAE6",
"p,	c #D2D1CF",
"q,	c #B2A477",
"r,	c #CEB228",
"s,	c #988319",
"t,	c #A36326",
"u,	c #8B4D1F",
"v,	c #3E200B",
"w,	c #60423E",
"x,	c #5B3728",
"y,	c #854C23",
"z,	c #A75F28",
"A,	c #A27621",
"B,	c #ECCB2B",
"C,	c #E3C75B",
"D,	c #A69A79",
"E,	c #C3BEB0",
"F,	c #CBC8BE",
"G,	c #D3D2CF",
"H,	c #DADAD8",
"I,	c #D1D0CE",
"J,	c #D0CECA",
"K,	c #A5A29A",
"L,	c #CBB768",
"M,	c #D7BB27",
"N,	c #F2D12D",
"O,	c #AD961D",
"P,	c #A46E25",
"Q,	c #82491E",
"R,	c #301C15",
"S,	c #5D403C",
"T,	c #4B2B1C",
"U,	c #723F19",
"V,	c #7D461C",
"W,	c #945423",
"X,	c #9A5827",
"Y,	c #915222",
"Z,	c #8F5021",
"`,	c #9E5E2A",
" '	c #7C5621",
".'	c #AE941E",
"+'	c #F7D52D",
"@'	c #E4C634",
"#'	c #D7BA2B",
"$'	c #C5AC34",
"%'	c #C2A943",
"&'	c #C0A94C",
"*'	c #AD973D",
"='	c #B59E3E",
"-'	c #E2C442",
";'	c #CCB024",
">'	c #B98828",
",'	c #7D4724",
"''	c #533122",
")'	c #391F13",
"!'	c #070303",
"~'	c #322323",
"{'	c #180F0F",
"]'	c #2E1D1A",
"^'	c #513732",
"/'	c #513937",
"('	c #412921",
"_'	c #835830",
":'	c #C08447",
"<'	c #D5934F",
"['	c #C0923C",
"}'	c #C6AC23",
"|'	c #9D7D20",
"1'	c #8C4F21",
"2'	c #874C24",
"3'	c #82481D",
"4'	c #71401F",
"5'	c #73452D",
"6'	c #4B3331",
"7'	c #4A3434",
"8'	c #060303",
"9'	c #51382F",
"0'	c #90643B",
"a'	c #D59350",
"b'	c #EDA45A",
"c'	c #CF8E4D",
"d'	c #AC8C2D",
"e'	c #C9AF24",
"f'	c #927B2E",
"g'	c #462F2C",
"h'	c #5B3D36",
"i'	c #523B3A",
"j'	c #35221F",
"k'	c #5B4140",
"l'	c #2A1C1C",
"m'	c #714C28",
"n'	c #AB753F",
"o'	c #F1A75C",
"p'	c #F2A85C",
"q'	c #965C2C",
"r'	c #A98421",
"s'	c #D2B726",
"t'	c #CCAF24",
"u'	c #90781F",
"v'	c #2B1E1E",
"w'	c #140C0C",
"x'	c #241717",
"y'	c #130B0B",
"z'	c #110909",
"A'	c #674A47",
"B'	c #503834",
"C'	c #AB7645",
"D'	c #E49F57",
"E'	c #8F5E30",
"F'	c #AA662F",
"G'	c #B8692E",
"H'	c #B38D24",
"I'	c #D1B525",
"J'	c #F8D72E",
"K'	c #EFCE2C",
"L'	c #C0A621",
"M'	c #B08424",
"N'	c #6A3C1E",
"O'	c #5E4443",
"P'	c #594141",
"Q'	c #352626",
"R'	c #3E2B2A",
"S'	c #573E3A",
"T'	c #694939",
"U'	c #755030",
"V'	c #C78A4C",
"W'	c #EDA559",
"X'	c #F4AA5D",
"Y'	c #D4924F",
"Z'	c #AD763E",
"`'	c #9F5F2C",
" )	c #C16E30",
".)	c #A35D27",
"+)	c #AC8523",
"@)	c #B0971E",
"#)	c #F0CF2C",
"$)	c #E8CA2B",
"%)	c #9F8B1A",
"&)	c #A37024",
"*)	c #734120",
"=)	c #040202",
"-)	c #1F1207",
";)	c #3D2913",
">)	c #412B18",
",)	c #6A4829",
"')	c #9B6A39",
"))	c #AE7840",
"!)	c #C18245",
"~)	c #845428",
"{)	c #B0662D",
"])	c #A16625",
"^)	c #A37821",
"/)	c #B59A20",
"()	c #DDBE28",
"_)	c #D7B827",
":)	c #8B6F18",
"<)	c #A46925",
"[)	c #6F4128",
"})	c #100909",
"|)	c #271708",
"1)	c #926434",
"2)	c #AA763F",
"3)	c #DE9A54",
"4)	c #D99751",
"5)	c #CA8B4B",
"6)	c #AA733C",
"7)	c #B17138",
"8)	c #BB6B2F",
"9)	c #C67232",
"0)	c #AC6A28",
"a)	c #775317",
"b)	c #B99922",
"c)	c #E2C32A",
"d)	c #DEC029",
"e)	c #B49922",
"f)	c #A98C27",
"g)	c #89671F",
"h)	c #A96C27",
"i)	c #AD6429",
"j)	c #502E1E",
"k)	c #46250C",
"l)	c #684320",
"m)	c #B1783F",
"n)	c #B07A41",
"o)	c #C18446",
"p)	c #C08446",
"q)	c #BA8044",
"r)	c #AC743C",
"s)	c #A56C36",
"t)	c #854E23",
"u)	c #A5612C",
"v)	c #A6602A",
"w)	c #A55E27",
"x)	c #815E18",
"y)	c #726013",
"z)	c #544708",
"A)	c #A27B31",
"B)	c #B58A38",
"C)	c #936C2E",
"D)	c #BD8B3F",
"E)	c #C18846",
"F)	c #955626",
"G)	c #AF642A",
"H)	c #472918",
"I)	c #5D3212",
"J)	c #874D20",
"K)	c #9F5A26",
"L)	c #A7622B",
"M)	c #9F5B27",
"N)	c #AB652D",
"O)	c #A96129",
"P)	c #8F5121",
"Q)	c #5A3421",
"R)	c #422D2C",
"S)	c #724E2C",
"T)	c #EEA65B",
"U)	c #B17941",
"V)	c #A45F2A",
"W)	c #502C12",
"X)	c #281B1B",
"Y)	c #723F18",
"Z)	c #82491D",
"`)	c #8D4F21",
" !	c #804B2A",
".!	c #422C29",
"+!	c #634746",
"@!	c #6E4C37",
"#!	c #D3914F",
"$!	c #B0743C",
"%!	c #AF632B",
"&!	c #5D3C32",
"*!	c #513B3B",
"=!	c #673815",
"-!	c #79441C",
";!	c #5D3620",
">!	c #553832",
",!	c #BF8348",
"'!	c #D89551",
")!	c #91592B",
"!!	c #8B5029",
"~!	c #342424",
"{!	c #3C2B2B",
"]!	c #110A0A",
"^!	c #6F3D18",
"/!	c #965523",
"(!	c #AA6029",
"_!	c #C67132",
":!	c #BD6C2E",
"<!	c #683E27",
"[!	c #3F2926",
"}!	c #38221C",
"|!	c #5C423D",
"1!	c #AA753F",
"2!	c #D08F4D",
"3!	c #9A5926",
"4!	c #5F3928",
"5!	c #6D3C17",
"6!	c #8E5021",
"7!	c #844A1D",
"8!	c #80481D",
"9!	c #77421A",
"0!	c #744019",
"a!	c #271204",
"b!	c #503530",
"c!	c #523A39",
"d!	c #4B342D",
"e!	c #A06D3A",
"f!	c #B87E43",
"g!	c #AB642C",
"h!	c #4F332E",
"i!	c #251104",
"j!	c #1E0D03",
"k!	c #060200",
"l!	c #1E1414",
"m!	c #412C21",
"n!	c #B97F44",
"o!	c #A96F39",
"p!	c #6E3D1A",
"q!	c #543B38",
"r!	c #2F2121",
"s!	c #1D1313",
"t!	c #412D2D",
"u!	c #513932",
"v!	c #C4874A",
"w!	c #9F632F",
"x!	c #AB6129",
"y!	c #542D0F",
"z!	c #090404",
"A!	c #271B1B",
"B!	c #6C4C3A",
"C!	c #C7894A",
"D!	c #CB8A49",
"E!	c #975624",
"F!	c #180B07",
"G!	c #291C1C",
"H!	c #6E4C2E",
"I!	c #DA9752",
"J!	c #925D2E",
"K!	c #BA6B2F",
"L!	c #442618",
"M!	c #513939",
"N!	c #0C0707",
"O!	c #3F2B24",
"P!	c #77502A",
"Q!	c #B96C31",
"R!	c #3C1F08",
"S!	c #0B0505",
"T!	c #0F0808",
"U!	c #0E0808",
"V!	c #2B1A0B",
"W!	c #CA8C4B",
"X!	c #A26E39",
"Y!	c #3E2009",
"Z!	c #AD7840",
"`!	c #CB8D4C",
" ~	c #44230A",
".~	c #8D6132",
"+~	c #AD773F",
"@~	c #BE6C2F",
"#~	c #AB622A",
"$~	c #6D4722",
"%~	c #926031",
"&~	c #A9642D",
"*~	c #9E5A25",
"=~	c #985624",
"-~	c #2B1908",
";~	c #653B19",
">~	c #744119",
",~	c #371C07",
"                                                                                                                                                                                    ",
"                                                                                          . +                                                                                       ",
"                                                            @ #                         $ % & +                                                                                     ",
"                                                            * = -                       ; > , ' +                                                                                   ",
"                                                          ) ! ~ { ]                   ^ / ( _ , ' +                                                                                 ",
"                                                          : < [ } | 1 2             3 4 5 6 ( _ , ' +                                                                               ",
"                                                        7 8 [ [ [ [ 9 0 a         . b _ c 5 6 b d e ' +                                                                             ",
"                                                        f g [ [ [ [ [ h i j     + k , l m c 5 6 k n e o +                                                                           ",
"                                                        p q [ [ [ [ [ [ r j   + s t e l l l u , v w x y z +                                                                         ",
"                                                      A B [ [ [ [ [ [ [ C ] + D E 6 4 e l l l l F G H I x ' +                                                                       ",
"                                                    J K < [ [ [ [ [ [ [ L M N O F P H 4 e l l l l 5 Q ' n e ' +                                                                     ",
"                                                    R S [ [ [ [ [ [ [ < T U V W l l X H 4 e l l F Y o Z > n e ' +                                                                   ",
"                                                  `  .[ [ [ [ [ [ [ [ g ..+.u l l l l X H 4 e l l @.k c #.> n e ' +                                                                 ",
"                                                  $.%.[ [ [ [ [ [ [ [ %.&.*.F l l l =.-.x ;.>.e ,.D '.c c #.> n e @.+                                                               ",
"                                  ,.N           ).!.g [ [ [ [ [ [ [ [ ~.{.].l l l ^./.(._.:.<.[.}.x =.l l c #.> '.b |.+                                                             ",
"                                d c =.1.      2.3.4.[ [ [ [ [ [ [ [ [ 5.6.7.d l W n 8.9.0.a.b.c.d.e.F l l l c #.y v f.@.+                                                           ",
"                              P l m m l d     g.h.[ [ [ [ [ [ [ [ [ [ i.j.% k.d l c l.m.n.o.p.q.r.s.t.u.W l l W v.N w.e ' +           x.y.                                          ",
"                              z.l m m m A.B.C.L [ [ [ [ [ [ [ [ [ [ < D.E.F.G.k.d W u l.H.I.J.K.L.M.N.O.P.Q.F l R.S.T.n e ' +         U.V.W.                                        ",
"                              x m m m m X.Y.Z.[ [ [ [ [ [ [ [ [ [ [ 5.`. +_ O G.k.A.W u ^..+++J.@+#+$+%+&+*+e =.=+(.-+;+n e ' +     >+,+'+)+!+                                      ",
"                              b ^.m c ~+{+]+< [ [ [ [ [ [ [ [ [ [ g ^+/+(+l W e _+:+A.W <+[+}+|+1+2+3+4+4+5+6+e 7+H R.x 8+9+e ' 0+  a+b+c+d+e+                                      ",
"                                @.,.f+g+h+< [ [ [ [ [ [ [ [ [ [ [ < i+j+c W W W e _+:+k+l+m+n+o+|+p+q+r+s+t+u+v+}.w+u F x 8+x x+@.y+z+A+B+C+D+E+                                    ",
"                                  ) F+G+< [ [ [ [ [ [ [ [ [ [ [ [ H+I+J+F W W W W e ( K+% ,.L+M+N+O+P+Q+R+s+t+S+T+A.W W u x U+w A.V+W+X+Y+Z+`+ @                                    ",
"                                2..@+@g [ [ [ [ [ [ [ [ [ [ [ [ < @@#@$@W W W W W W x+%@&@*@=@-@;@>@,@p.'@s+s+)@!@~@u W W u x N {@]@^@/@(@_@s+:@<@                                  ",
"                              {.: 5.[ [ [ [ [ [ [ [ [ [ [ [ [ [ [@}@|@-.W W W W W F 1@2@3@:+k+4@5@6@>@7@8@d+s+s+9@0@a@u W W u x b@c@d@e@f@g@s+h@i@                                  ",
"                          ` j@k@l@[ [ [ [ [ [ [ [ q q m@5.< n@o@p@q@w.W W W W W F ;+-+( w.( r@s@t@J.>@u@v@w@s+s+4+x@y@z@c W W u x A@B@C@D@E@s+F@G@H@                                ",
"                      J I@J@%.< [ [ [ [ [ [ [ [ [ 5.K@L@M@N@O@P@Q@R@S@=+F W F F ;+@.( l.F l.f.T@U@V@>@W@X@Y@s+s+s+Z@`@ #-.W W W *@.#+#p+@#$+s+s+##$#                                ",
"                  %#&#*#| [ [ [ [ [ [ [ [ [ [ [ [ =#-#;#>#,#'#)#!#~#{#w ]#F F A.T.^#x+F F F l./#(#;@>@_#:#<#[#s+s+s+x@}#|#W W W 1#2#3#4#5#$+s+s+M.6#                                ",
"              7#8#9#h+< [ [ [ [ [ [ [ [ [ [ [ [ [ 0#a#b#c#d#e#;@f#g#h#i#j#u.k+b %@k#F F F F F l#m#V@>@>@n#o#p#s+s+s+s+q#r#x+W , s#t#u#v#w#s+s+s+x#y#                                ",
"        z#A#B#T < %.[ [ [ [ [ [ [ [ [ [ [ [ [ [ [ C#D#E#F#G#d#H#>@I#J#K#L#M#N#O#Y -.F F F F F P#Q#R#>@>@S#T#U#V#s+s+s+W#X#Y#A.> Z#V@`# $%+s+s+s+.$+$                                ",
"      @$p@#$%.[ [ [ [ [ [ [ [ [ [ [ [ [ [ [ [ [ [ $$%$d+h@F#G#S#H#>@>@>@S#&$*$t@=$-$x+;$F F F >$,$C@>@>@H#'$)$4+s+s+s+x@!$~${$]$^$_#I./$R+s+s+s+($_$                                ",
"        :$9 [ [ [ [ [ [ [ [ [ [ [ [ [ [ [ [ [ [ [ 5.<$[$V#}$F#G#d#H#>@>@>@>@6@J.|$1$2$3$<+;$=.4$5$|+>@>@_#6$7$4+s+V#s+r+8$9$0$a$>@`#b$##4+s+s+s+E#y#                                ",
"        c$d$q [ [ [ [ [ [ [ [ [ [ [ [ [ [ [ [ g | e$f$g$h$V#}$F#G#i$H#>@>@>@>@J.>@j$k$l$m$w.Q.n$o$J.>@>@_#;@p$q$s+s+s+r$s$t$u$v$w$x$y$9@s+s+s+s+z$A$                                ",
"          B$C$[ [ [ [ [ [ [ [ [ [ [ [ [ [ %.^+D$E$#@F$G$H$s+V#}$F#G#i$H#>@J.>@>@>@>@J.j$I$J$K$L$3#>@>@>@>@M$N$O$s+s+s+r+P$Q$R$6@S$T$U$Z@s+s+s+s+%+V$+                               ",
"            W$< [ [ [ [ [ [ [ [ [ [ g ~.X$e$Y$Z$`$r@w  %.%Z@s+V#($+%G#i$H#>@>@>@>@>@>@>@u#@%#%$%%%j$&%*%=%-%;%>%,%'%Z@Z+)%!%~%|+{%]%^%s+s+s+s+V#/%(%+                               ",
"            _%:%[ [ [ [ [ < q 4.<%[%8 }%|%1%2%=.-.*@:+|.3%R+s+s+s+h@4%G#5%H#>@>@>@>@>@>@W@6%7%8%9%0%a%b%c%d%e%f%g%h%i%j%k%l%>@l%m%n%s+s+s+s+s+s+o%p%q%+                             ",
"              r%s%~ [@t%*#K u%v%w%x%f+y%*@W W W W =.^.:+z%A%s+s+s+V#B%C%G#i$w$>@>@>@J.&%D%E%F%G%H%I%J%K%L%M%N%O%P%Q%R%S%T%U%n#V%W%s+s+s+s+s+s+9@X%Y%+ +                             ",
"                Z%`% &.&+&@&#&$&%&F =.W l W W W W W =.^.&&*&=&s+s+s+s+}$F#-&d#H#>@_#;&>&,&'&)&!&~&{&]&^&/&(&_&:&<&[&}&|&1&2&3&q+x@=&s+s+s+s+s+4&5&6&+ +                             ",
"                    7&8&x u 9&t E #.l l W W W W W W W -.0&a&E#s+s+V#s+V#}$F#G#i$>@b&c&d&e&f&f&g&h&i&j&k&k&+ l&m&n&o&p&f&f&q&r&s&($s+s+V#s+s+s+r$t&u&3@+ +                           ",
"                  + N l._ l l v&t w&#.l W W W W W F F A.E x&y&s+s+s+s+s+V#}$F#z&A&B&C&}&f&f&f&D&E&F&G&H&I&J&K&L&M&N&O&f&f&f&P&Q&R&$+s+s+s+s+s+G@S&-.t T&+                           ",
"                + U&V&l m l l l , G.W&w+W W W W F F k#b X&Y&Z&x@s+s+s+s+s+s+h@`& *e&}&f&f&f&f&f&.*+*@*#*$*%*&***=*-*f&f&f&f&f&;*>*,*R+s+s+s+h@'*)*!*k+~*+                           ",
"              + {*]*l.m m l l e , 9&G.W&w+W W F F ;+^*X&w.k#/*(*Z@s+s+s+s+V#_*:*C&}&f&f&f&f&f&D&.*<*[*}*|*1*2*3*4*f&f&f&f&f&f&f&5*6*7*s+s+s+8*9*0*-.1.7+a*                          ",
"            b*N *@k.f.;$m W A.Q P v&9&G.W&x F F ;+c*{$k+;$;$d*e*f*s+s+s+V#g*h*e&}&f&f&f&f&i*|&j*k*l*m*n*o*p*q*r*e&.*f&f&f&f&f&f&s*t*u*$+s+R+v*w*c*=+=.4 b*+                         ",
"          x*>.R.l 1.&&G.Q.W ^.y*z*A*v&9&_+N l+S@V+( 5 F ;$Q.Q.B*C*s+s+s+D*E*F*}&f&f&f&f&G*H*I*J*K*L*M*N*O*P*Q*R*S*T*f&f&f&f&f&f&}&U*V*9@s+R+W*X*Y*% =+v&Z*`*                        ",
"         =,..=m m m 1.&&( v&x++=@=#=$=, x+V+%=y+b l.F F Q.Q.!*&=*=##s+($==-=.*f&f&f&f&q&;=>=,='=)=!=!=!=!=!=N*~={=]=^=f&f&f&f&f&f&|&/=(=s+n%_=x+Q.V+Z*A.X&:=+                       ",
"    a*T&<=[=e m m m m 1.{*( w.}=X@|=1=2=E 3=3@V+( F F ;$Q.Q.Q.*@4=5=:@6=7=8=f&f&f&f&9=P%0=+ a=m&b=!=!=!=!=!=!=c=d=e=f=g=f&f&f&f&f&}&h=i=x#j=9$!*;$;$k=y+c*7+T&                      ",
"    l=w ^.( [=e m m m l e {*m=n=o=p=q=r=s=t=V S@w > ;$;$Q.Q.Q.Q.'.u=v=w=x=e&f&f&f&f&y=z=A=B=C=D=!=!=!=!=!=!=E=F=G=H=I=J=f&f&f&f&f&f&K=L=M=N=O=;$;$;$E P=k f.Q=    R=S=+             ",
"      Q=T=A.( [=e m l l l l.{*U=V=W=X=`#Y=Z=`= -.-<=+-@-<+#-=+O=$-%-&-*-=-}&}&f&f&}&--;->-,-'-)-!=!=!=!=!=)-!-~-{-N*]-^-/-f&f&f&f&f&}&(-_-:-!*;$;$z@k Z <-6 [-}-|-1-2-3-            ",
"        y+T=V {#x u l l l l 7+4-5-6-7-8-_#V@9-0-a-b-c-d-e-f-g-h-i-j-k-l-m-n-o-p-q-p&r-s-t-u-)-!=!=!=!=!=!=O*v-w-N*!=Q*x-Q%f&f&f&f&f&f&y-z-.-A-B-4 V+C-W&^*D-E-F-G-H-7$(%            ",
"          y+T=( Q d u =.c E % I-J-K-L-M-N-V@_#I#O-&%Y=P-p+,@Q-J#I#R-S-T-U-V-W-X-Y-Z-`-)=!=!=!=!=!=!=!=!= ;.;+;@;!=!=H=#;$;D&f&f&f&f&q-%;&;*;=;-@-;;;>;,;';);!;P-~;{;e+              ",
"            y+T=( ];w.l+}.m=x v&^;/;%+(;_;:;<;>@>@>@_#>@>@W@>@J.>@I#[;};|;1;2;3;4;5;6; ;!=!=!=!=!=!=!=!=~=7;8;!=!=!=)=9;0;f&f&f&f&f&}&a;b;I#c;d;e;e;n#6@I#f;Q-~;g;E@h;              ",
"              y+T=k Q=Z E d -.W =+i;j;s+E@N.k;l;R-6@>@>@>@>@>@>@>@m;n;o;p;q;r;m&s;t;u;N*!=!=!=!=!=!=!=!=v;w;!=!=!=!=E=x;y;f&f&f&f&f&.*z;A;v$>@>@>@>@>@>@>@Q-~;g;h$8*B;              ",
"                &@C;D;E;u W l W W w.F;[#s+9@4&G;H;I.j$I;>@>@>@>@>@_#J;K;L;M;`*N;O;P;Q;N*!=!=!=!=!=N* ;R;S;!=!=!=!=!=M*T;U;.*f&f&f&f&V;W;X;J.>@>@J.Y;J.l%Z;`;g;Z@ >.>+>              ",
"                  @>'.;+G u l l W W #>$>r+s+V#s+%>&>*>=>->;>j$&$f;u#>>,>'>)>k&!>~>{>]> ;!=!=!=!=M*b=^>/>!=!=!=!=!=!=(>_>:>f&f&f&f&f&D&<>[>I#J.e@*%}>|>1>2>3>R+Z@%+4>                ",
"                    y+T=;+G u l W W F 5>6>r+s+s+s+$+z$7>8>9>0>a>b>c>d>e>f>I&g>h>i>j>k>~=!=!= ;l>7;m>s-!=!=!=!=!=!=H=n>o>.*f&f&f&f&f&p>q>r>p+s>t>u>v>w>r+x@s+s+$+x>                  ",
"                      y>5 +-G u W W W u z>A>r+s+s+s+s+4+$+B>C>D>E>F>G>H>I>J>C=K>L>M>N>O>!=P>8;Q>s-t-!=!=!=!=!=!=~=R>S>T>f&f&f&f&f&}&U>V>W>X>o%Y>O$4+s+V#s+s+s+ @Z>                  ",
"                        Q=5 +-G u W F W > `>A>[#s+s+s+s+s+s+s+s+s+s+ ,.,+,@,#,$,%,&,*,=,-,;,'=>,)=!=!=!=!=!=!=E=,,',),f&f&f&f&f&f&!,~,{,n%($4+s+s+s+s+s+s+s+],^,                    ",
"                          Q=x+( v l.v.^*X&-+/,(,_,s+s+s+s+s+s+s+s+4+:,<,[,},|,1,2,f&i*3,4,5,Q*!=!=!=!=!=!=!=6,7,8,9,0,a,f&f&f&f&}&b,c,A%s+s+s+s+s+s+s+s+s+],d,+                     ",
"                            K+^*e,Q=%@c*k##-F f,g,h,d+s+s+s+s+s+s+4+:,i,j,K=k,4*f&f&f&l,m,n,o,~=!=N* ;!=)-@;p,q,r,a,f&f&f&f&f&f&!,s,t,s+s+s+s+V#s+s+x@:@u,v,+                       ",
"                              . z.b@%=u u F F F w,x,y,z,4&4+h$h$4+4+p#A,B,}&f&f&f&f&f&f&l,C,D,E,F,G,H,I,J,K,L,M,a,f&f&f&f&f&f&N,O,P,$+s+s+s+s+V#E#x#Q,<@R,^ a*                      ",
"                                &@t N G =.F F F F k#S,T,U,V,W,X,Y,Z,`, '.'|&f&f&f&f&f&f&f&+'@'#'$'%'&'*'='-'N,f&f&f&f&f&f&f&N,;'>'g@4+f*`+`+x#W,,''')'!'Q ~'!'                      ",
"                                  {'t N ^*=.F F F F Q.x+r@]'^'/'('_':'<'['}'V;f&f&f&f&f&f&f&f&}&D&|&N,|&N,f&f&f&f&f&f&f&f&N,;'|'1'5#2'3'!$4'5'6'B-]#7'8'l+' +                       ",
"                                    {'t N ^*=.W W F F F x+3 w 9'0'a'b'6@c'd'e'V;f&f&f&f&f&f&f&f&f&f&f&f&f&f&f&f&f&f&f&f&N,;'f'^*g'h'i'& j'k'x+=.F x+@.l'k Q=                        ",
"                                      {'t T.^*=.W W W F 9&f.m'n'o'p'6@O+J;q'r's'V;f&f&f&f&f&f&f&f&f&f&f&f&f&f&f&f&f&f&N,t'u'_+=.=.=.W =.%@y W W ;$v.v'w'x'y'                        ",
"                                      z'{'G.T.^*Q.c -.A'B'C'o$H#>@D'M$E'F'G'F>H'I'q-}&f&f&f&f&f&f&f&f&f&f&f&f&f&f&J'K'L'M'N'O'W W W W u P'Q'l#W W (.-+6 8'+                         ",
"                                          {'S@R'' S'T'U'V'W'J.X'Y'Z'`'##s+s+ ).)+)@)/-#)f&f&f&f&f&f&f&f&f&f&f&f&p&$)%)&)##*)'.c W W W W l.s@S@9&4 o *@4 =)+                         ",
"                                        -);)>),)')))*$Q-p'I#!;!)~){):@s+V#s+s+($z$])^)/)-*#)f&f&f&f&f&f&D&f&9=()_):)<)9@w@[)^.W W W W W W P })z@D N =.k#%=                          ",
"                                    |)1)1-2)A+3)c;S#*%4)5)6)7).)8)$+s+s+s+s+s+s+4+9)x#0)a)b)t'4*G*-*P&c)d)e)f)g)h)i)4+s+n%j)*@W W W W W W 9&N b*l', l A.3                           ",
"                                  k)l)@+m)n)o)p)q)r)s)t)u)v)7*$+s+s+s+s+s+s+s+s+s+s+s+$+g@w)x)y)z)A)B)C)D)E)5)F)^%s+s+s+G)H)W&5 W W W W W 1.G s u.W v&@.y>                          ",
"                                  I)J)K)v)L)K)M)N)O)d+^%$+s+s+s+s+s+s+s+V#s+s+s+s+s+s+Z@:@P)Q)R)S)R$f;n#T)1+U)V)F@s+s+s+:@W)& @.w.-.W W F 8+K+X)G l A.Q                             ",
"                                    Y)Z)E#$+4+s+s+s+s+s+s+s+s+s+s+s+s+s+s+s+s+s+s+d+g@`) !.!+!v&@!#!>@>@>@m;$!%!s+s+s+4+N.&!> N T&f.l#1.G.6 *!> 3=y v 8'                            ",
"                                        =!%>H$4+s+s+s+s+s+s+s+s+s+s+s+s+Z@$+4+p#E>-!;!>!'.v&W ;$f.,!f;>@>@'!)!($s+s+s+Z@!!+-F e X ~!{!s@y'[=, ;$'.@.]!+                             ",
"                                            ^!/!(!C>r+s+$+($s+_!w@9@:!W#E>Y,V,<![!}!( e ;$W W W |!1!f;>@_#2!3!$+s+s+s+##4!v&W W W > (.; k.' 1.m u w&`*                              ",
"                                                ^!5!_;P)6!7!],`)8!9!0!V$a!b!c!l.9&y o '.R.W W 1@d!e!f;>@S#f!g!V#s+s+f*q#h!-.=.F b k |.e 4 {$(.O d k !'                              ",
"                                                              + i!j!+ k!l!w l.Q.F F ,.<=n -.4 T.m!n!|+>@p'o!##s+s+s+d+p!q!d G.{#@.> R.l l w.3@{*r!s!                                ",
"                                                                  + + + + &&(.1@l#l W f.<=-+t!z@u!v!_#>@<'w!Z@s+s+Z@x!y!<=6 X)~!w.u W e u.{!&&+                                     ",
"                                                                        + + $ z!; 7+'.=.A!k.~'^.B!C!J.I#D!E!($s+s+s+8!F!$ ~!Q={'@.G.v.~$:++                                         ",
"                                                                              + + `*S.G!^*>.T.-+H!S$>@I!J!K!s+s+s+],L!%@M!f.6 N!0+Q=:=                                              ",
"                                                                                    + + X)v 3@O!P!+#M$K.Q!4+s+F@],R!S!y+%@})T!+ +                                                   ",
"                                                                                        + U!+ V!W!<;X!g;B>4+R+ @Y!+ + k&                                                            ",
"                                                                                              Z!`!X!g;B>$+r+x> ~                                                                    ",
"                                                                                            .~+~K.g;9@@~#~ @                                                                        ",
"                                                                                            $~%~&~*~=~z%h;                                                                          ",
"                                                                                            -~;~>~,~                                                                                ",
"                                                                                                                                                                                    ",
"                                                                                                                                                                                    ",
"                                                                                                                                                                                    ",
"                                                                                                                                                                                    ",
"                                                                                                                                                                                    ",
"                                                                                                                                                                                    ",
"                                                                                                                                                                                    "};
