/* XPM */
static char * sunny_4_xpm[] = {
"90 90 1583 2",
"  	c None",
". 	c #000000",
"+ 	c #2A1909",
"@ 	c #66411E",
"# 	c #502B0F",
"$ 	c #7E451C",
"% 	c #5A3011",
"& 	c #864B1E",
"* 	c #945322",
"= 	c #8A4D1F",
"- 	c #9E5925",
"; 	c #945423",
"> 	c #844A1E",
", 	c #874C1E",
"' 	c #623513",
") 	c #562E10",
"! 	c #634221",
"~ 	c #8E6031",
"{ 	c #9C602D",
"] 	c #8C4F20",
"^ 	c #583011",
"/ 	c #44230A",
"( 	c #76431B",
"_ 	c #8D5122",
": 	c #B5672C",
"< 	c #BB6B2E",
"[ 	c #BD6C2F",
"} 	c #C57131",
"| 	c #C47031",
"1 	c #C26F30",
"2 	c #C47131",
"3 	c #BC6C2E",
"4 	c #BF6E30",
"5 	c #9B5725",
"6 	c #733F19",
"7 	c #B57D43",
"8 	c #A26A37",
"9 	c #BA6A2E",
"0 	c #985624",
"a 	c #391D07",
"b 	c #2A1606",
"c 	c #4D3015",
"d 	c #986533",
"e 	c #8B582A",
"f 	c #9F5E2A",
"g 	c #AD632A",
"h 	c #C37030",
"i 	c #B96A2D",
"j 	c #AE642A",
"k 	c #8F5121",
"l 	c #5B3111",
"m 	c #1C0B02",
"n 	c #0B0606",
"o 	c #CE8F4D",
"p 	c #AD773F",
"q 	c #B86D33",
"r 	c #BE6C2F",
"s 	c #A35D27",
"t 	c #7E461C",
"u 	c #150B03",
"v 	c #976836",
"w 	c #C68949",
"x 	c #B87F44",
"y 	c #AD733B",
"z 	c #995E2C",
"A 	c #A9632C",
"B 	c #B8692D",
"C 	c #B0642B",
"D 	c #82491D",
"E 	c #5E3312",
"F 	c #261103",
"G 	c #0E0707",
"H 	c #271A1A",
"I 	c #1D1313",
"J 	c #0D0707",
"K 	c #040202",
"L 	c #0F0808",
"M 	c #312121",
"N 	c #302121",
"O 	c #2B1D1D",
"P 	c #271912",
"Q 	c #B07940",
"R 	c #D3924F",
"S 	c #AA6D36",
"T 	c #AC622A",
"U 	c #251104",
"V 	c #432D1D",
"W 	c #825A36",
"X 	c #B07A41",
"Y 	c #DE9A54",
"Z 	c #E09B54",
"` 	c #A5713C",
" .	c #7D481E",
"..	c #C06E30",
"+.	c #AA6129",
"@.	c #6B3B16",
"#.	c #1B0C05",
"$.	c #453030",
"%.	c #5F4545",
"&.	c #573E3E",
"*.	c #573F3F",
"=.	c #553E3E",
"-.	c #533B3B",
";.	c #5D4343",
">.	c #432F2F",
",.	c #382727",
"'.	c #5A4141",
").	c #392828",
"!.	c #362318",
"~.	c #F5A95D",
"{.	c #A2703B",
"].	c #BD6F31",
"^.	c #030201",
"/.	c #A8733F",
"(.	c #E19C55",
"_.	c #ECA459",
":.	c #C78949",
"<.	c #AC6F38",
"[.	c #A55F29",
"}.	c #C06E2F",
"|.	c #B1652B",
"1.	c #643C2A",
"2.	c #563D3C",
"3.	c #654949",
"4.	c #674A4A",
"5.	c #684B4B",
"6.	c #644949",
"7.	c #513A3A",
"8.	c #060303",
"9.	c #1E1414",
"0.	c #2E1F1F",
"a.	c #B67E44",
"b.	c #F1A75B",
"c.	c #CA8C4B",
"d.	c #B06D35",
"e.	c #C36F30",
"f.	c #49270C",
"g.	c #010000",
"h.	c #261A1A",
"i.	c #483333",
"j.	c #594040",
"k.	c #52392E",
"l.	c #8B5F32",
"m.	c #C98B4B",
"n.	c #EAA258",
"o.	c #986635",
"p.	c #8A4E20",
"q.	c #BF6D2F",
"r.	c #A65F29",
"s.	c #673B21",
"t.	c #4D3635",
"u.	c #624646",
"v.	c #4D3737",
"w.	c #342424",
"x.	c #281B1B",
"y.	c #362626",
"z.	c #392727",
"A.	c #4A3434",
"B.	c #664632",
"C.	c #C48849",
"D.	c #F8AC5E",
"E.	c #9B6634",
"F.	c #C37031",
"G.	c #703E18",
"H.	c #2C1404",
"I.	c #382828",
"J.	c #533C3C",
"K.	c #604545",
"L.	c #443030",
"M.	c #402D2D",
"N.	c #3E2C2B",
"O.	c #B87F45",
"P.	c #E9A158",
"Q.	c #EAA259",
"R.	c #B97E43",
"S.	c #B16D34",
"T.	c #AB6129",
"U.	c #703F1C",
"V.	c #4C3027",
"W.	c #221616",
"X.	c #563D3D",
"Y.	c #5F4444",
"Z.	c #412E2E",
"`.	c #473231",
" +	c #68472D",
".+	c #EDA459",
"++	c #F6AB5D",
"@+	c #A36B37",
"#+	c #B2662C",
"$+	c #9F5A26",
"%+	c #3B1E08",
"&+	c #1D1212",
"*+	c #453131",
"=+	c #5C4343",
"-+	c #604646",
";+	c #4A3535",
">+	c #493535",
",+	c #523B3B",
"'+	c #5E4444",
")+	c #5C4242",
"!+	c #6D4B39",
"~+	c #B37B44",
"{+	c #F2A85C",
"]+	c #C58647",
"^+	c #915424",
"/+	c #AF642B",
"(+	c #7D461D",
"_+	c #322222",
":+	c #634747",
"<+	c #362524",
"[+	c #9A6A39",
"}+	c #EBA258",
"|+	c #B4773E",
"1+	c #C16F30",
"2+	c #512C0E",
"3+	c #1B0D08",
"4+	c #241818",
"5+	c #503939",
"6+	c #634848",
"7+	c #5B4242",
"8+	c #563F3F",
"9+	c #4C3737",
"0+	c #624747",
"a+	c #6A4D4D",
"b+	c #694D4D",
"c+	c #684C4A",
"d+	c #583D31",
"e+	c #DF9B55",
"f+	c #F4A95C",
"g+	c #EEA55A",
"h+	c #A6703B",
"i+	c #A8642D",
"j+	c #BE6D2F",
"k+	c #703F1B",
"l+	c #5D3E38",
"m+	c #614646",
"n+	c #5B4141",
"o+	c #48322A",
"p+	c #B77E43",
"q+	c #F5AA5D",
"r+	c #F3A95C",
"s+	c #86592C",
"t+	c #BB6C2F",
"u+	c #8F5021",
"v+	c #371F15",
"w+	c #312222",
"x+	c #2C1E1E",
"y+	c #0B0505",
"z+	c #0C0707",
"A+	c #402E2E",
"B+	c #553D3D",
"C+	c #5A4040",
"D+	c #503A3A",
"E+	c #664A4A",
"F+	c #9C6C42",
"G+	c #D69450",
"H+	c #DE9A53",
"I+	c #A76F38",
"J+	c #C67231",
"K+	c #B3662C",
"L+	c #92542C",
"M+	c #4D3533",
"N+	c #5C4141",
"O+	c #51361F",
"P+	c #F7AB5D",
"Q+	c #F7AC5E",
"R+	c #E7A158",
"S+	c #AD7038",
"T+	c #A65E27",
"U+	c #1F100A",
"V+	c #2F2020",
"W+	c #140C0C",
"X+	c #4C3636",
"Y+	c #463232",
"Z+	c #6B4E4E",
"`+	c #694C4C",
" @	c #5D4136",
".@	c #916334",
"+@	c #D39450",
"@@	c #A46631",
"#@	c #B7692D",
"$@	c #C67131",
"%@	c #593011",
"&@	c #614442",
"*@	c #6F4E39",
"=@	c #C3884A",
"-@	c #905829",
";@	c #9C5925",
">@	c #41220B",
",@	c #080404",
"'@	c #1B1111",
")@	c #3B2929",
"!@	c #563E3E",
"~@	c #4F3939",
"{@	c #4E3838",
"]@	c #4F3838",
"^@	c #614544",
"/@	c #543D3D",
"(@	c #472F20",
"_@	c #C6894B",
":@	c #F0A75B",
"<@	c #CA8A4A",
"[@	c #955A29",
"}@	c #C06F30",
"|@	c #C16E30",
"1@	c #B0662B",
"2@	c #BA6D2D",
"3@	c #AB6429",
"4@	c #814C1C",
"5@	c #462E27",
"6@	c #47322F",
"7@	c #A2703F",
"8@	c #EBA359",
"9@	c #D0904E",
"0@	c #A6632D",
"a@	c #A35C27",
"b@	c #3E2112",
"c@	c #3F2C2C",
"d@	c #020101",
"e@	c #191010",
"f@	c #201515",
"g@	c #6A4E4E",
"h@	c #6C4F4F",
"i@	c #543C3C",
"j@	c #322323",
"k@	c #5D4342",
"l@	c #4C3534",
"m@	c #36211B",
"n@	c #764426",
"o@	c #834C29",
"p@	c #74411C",
"q@	c #7D4827",
"r@	c #5B3217",
"s@	c #5B3216",
"t@	c #482F29",
"u@	c #553C3A",
"v@	c #835A37",
"w@	c #DC9852",
"x@	c #9E6C39",
"y@	c #B2682E",
"z@	c #BF782E",
"A@	c #C08F29",
"B@	c #A6851E",
"C@	c #A98720",
"D@	c #B29022",
"E@	c #937C18",
"F@	c #B69621",
"G@	c #BB9C22",
"H@	c #907A16",
"I@	c #887516",
"J@	c #211A05",
"K@	c #BE8446",
"L@	c #C48748",
"M@	c #A05E2A",
"N@	c #AA612A",
"O@	c #402A28",
"P@	c #664949",
"Q@	c #352525",
"R@	c #513B3B",
"S@	c #2A1C1C",
"T@	c #473333",
"U@	c #594141",
"V@	c #342220",
"W@	c #311D17",
"X@	c #5E3419",
"Y@	c #945426",
"Z@	c #B7692E",
"`@	c #955525",
" #	c #5D341A",
".#	c #4C2D20",
"+#	c #B27F30",
"@#	c #BD9525",
"##	c #CBAF24",
"$#	c #DEBF28",
"%#	c #EECE2C",
"&#	c #F6D52E",
"*#	c #EACA2B",
"=#	c #F6D42E",
"-#	c #F5D32D",
";#	c #F0CF2C",
">#	c #F6D52D",
",#	c #E3C429",
"'#	c #BFA421",
")#	c #B69130",
"!#	c #B88B3B",
"~#	c #C28748",
"{#	c #E9A258",
"]#	c #C78849",
"^#	c #A05B26",
"/#	c #975524",
"(#	c #583A34",
"_#	c #614747",
":#	c #684C4C",
"<#	c #3D2C2C",
"[#	c #422F2F",
"}#	c #493434",
"|#	c #2A1D1D",
"1#	c #3F2D2D",
"2#	c #5E4343",
"3#	c #4B3331",
"4#	c #331E16",
"5#	c #7E471E",
"6#	c #B96A2E",
"7#	c #9C5825",
"8#	c #955C2C",
"9#	c #AE773F",
"0#	c #D69D49",
"a#	c #C09E2E",
"b#	c #E2C329",
"c#	c #F7D52E",
"d#	c #F8D62E",
"e#	c #F0CF2D",
"f#	c #D7BA27",
"g#	c #9F891C",
"h#	c #B0803C",
"i#	c #E5A056",
"j#	c #A56F3A",
"k#	c #AD642C",
"l#	c #A15C29",
"m#	c #4C3533",
"n#	c #372727",
"o#	c #190F0F",
"p#	c #664B4B",
"q#	c #332323",
"r#	c #493332",
"s#	c #4F2D19",
"t#	c #935324",
"u#	c #C77232",
"v#	c #9F5B26",
"w#	c #4A270C",
"x#	c #C7A829",
"y#	c #F2D22D",
"z#	c #C9AB28",
"A#	c #AD8434",
"B#	c #8F5D2E",
"C#	c #985724",
"D#	c #5B3D38",
"E#	c #674B4B",
"F#	c #433030",
"G#	c #5E4545",
"H#	c #160D0D",
"I#	c #694132",
"J#	c #925429",
"K#	c #BC6C2F",
"L#	c #9F6F21",
"M#	c #C6AA23",
"N#	c #F1D02C",
"O#	c #F1D02D",
"P#	c #D5B827",
"Q#	c #7C6516",
"R#	c #AD6729",
"S#	c #874D24",
"T#	c #593E3B",
"U#	c #584040",
"V#	c #070303",
"W#	c #332424",
"X#	c #2E2020",
"Y#	c #5A3F3C",
"Z#	c #663D28",
"`#	c #9B5825",
" $	c #BF6F31",
".$	c #AB632B",
"+$	c #A75F28",
"@$	c #B4672C",
"#$	c #A16125",
"$$	c #B0941F",
"%$	c #EFCE2C",
"&$	c #F3D22D",
"*$	c #B69223",
"=$	c #A15F25",
"-$	c #B7692C",
";$	c #542E17",
">$	c #180E0E",
",$	c #3B2A2A",
"'$	c #170E0E",
")$	c #583F3F",
"!$	c #443131",
"~$	c #3D2B2B",
"{$	c #654A4A",
"]$	c #211616",
"^$	c #764320",
"/$	c #B2652D",
"($	c #BF6D30",
"_$	c #A25D28",
":$	c #965524",
"<$	c #AC6932",
"[$	c #B6763B",
"}$	c #A7713B",
"|$	c #C08144",
"1$	c #BB7F43",
"2$	c #A4703B",
"3$	c #BE8043",
"4$	c #9E6A37",
"5$	c #A06835",
"6$	c #A06532",
"7$	c #965726",
"8$	c #A45F2A",
"9$	c #B1662B",
"0$	c #735713",
"a$	c #B9A020",
"b$	c #B59C1F",
"c$	c #CBB352",
"d$	c #D9BE4E",
"e$	c #EBCA2B",
"f$	c #E4C42A",
"g$	c #7A6115",
"h$	c #965523",
"i$	c #3A2015",
"j$	c #1F1414",
"k$	c #453232",
"l$	c #181010",
"m$	c #291C1C",
"n$	c #422B27",
"o$	c #6C3C18",
"p$	c #975624",
"q$	c #905324",
"r$	c #6C421E",
"s$	c #B27940",
"t$	c #D6924F",
"u$	c #D4924F",
"v$	c #DF9A54",
"w$	c #EFA65B",
"x$	c #EDA55A",
"y$	c #E09B55",
"z$	c #CD8F4D",
"A$	c #B47B41",
"B$	c #A26C38",
"C$	c #975B2A",
"D$	c #90641E",
"E$	c #9D861A",
"F$	c #B3A67F",
"G$	c #D8D4C9",
"H$	c #D5D5D5",
"I$	c #BEB6A2",
"J$	c #C8AD23",
"K$	c #F9D72E",
"L$	c #FAD82F",
"M$	c #EDCE34",
"N$	c #D9BC32",
"O$	c #E8C82B",
"P$	c #EDCD2C",
"Q$	c #B39B1F",
"R$	c #A66E26",
"S$	c #894E27",
"T$	c #533C3B",
"U$	c #3E2C2C",
"V$	c #4D3838",
"W$	c #4B3636",
"X$	c #1A1111",
"Y$	c #010101",
"Z$	c #4F3A3A",
"`$	c #674C4C",
" %	c #2B1E1E",
".%	c #381D0D",
"+%	c #643916",
"@%	c #905E2F",
"#%	c #F7AB5E",
"$%	c #E8A158",
"%%	c #C08547",
"&%	c #726334",
"*%	c #A29B88",
"=%	c #B1B1B1",
"-%	c #9D9D9D",
";%	c #999999",
">%	c #CCCCCC",
",%	c #C3AE60",
"'%	c #EECD2C",
")%	c #F4D32D",
"!%	c #F5D42E",
"~%	c #DDC035",
"{%	c #B49F4B",
"]%	c #888065",
"^%	c #BCB5A2",
"/%	c #B5AB8E",
"(%	c #B8A460",
"_%	c #C1A839",
":%	c #EECE2E",
"<%	c #B79523",
"[%	c #A75F29",
"}%	c #673A1D",
"|%	c #090505",
"1%	c #3A2929",
"2%	c #4E3737",
"3%	c #6C4727",
"4%	c #BD8145",
"5%	c #E29D55",
"6%	c #DF9B54",
"7%	c #D49350",
"8%	c #B57C42",
"9%	c #C18548",
"0%	c #DC9853",
"a%	c #E6A057",
"b%	c #B97F44",
"c%	c #938462",
"d%	c #B0AEA9",
"e%	c #6C6C6C",
"f%	c #242424",
"g%	c #747474",
"h%	c #A9A8A5",
"i%	c #C7B475",
"j%	c #EECE2F",
"k%	c #C5AC47",
"l%	c #918459",
"m%	c #6E674E",
"n%	c #C1BEB8",
"o%	c #F7F7F7",
"p%	c #F8F8F8",
"q%	c #F0F0F0",
"r%	c #DEDEDE",
"s%	c #C9C6BF",
"t%	c #A29E92",
"u%	c #B5A466",
"v%	c #D5B935",
"w%	c #CCB024",
"x%	c #946920",
"y%	c #54352C",
"z%	c #644848",
"A%	c #130B0B",
"B%	c #4B3535",
"C%	c #3C2A2A",
"D%	c #3B2823",
"E%	c #875C2F",
"F%	c #BC8245",
"G%	c #9F6E42",
"H%	c #6D4A2D",
"I%	c #422B1E",
"J%	c #5D4032",
"K%	c #5A3F36",
"L%	c #624437",
"M%	c #6A4938",
"N%	c #604127",
"O%	c #8E6133",
"P%	c #AA743E",
"Q%	c #DB9752",
"R%	c #F3A85C",
"S%	c #EDA45A",
"T%	c #9E6D39",
"U%	c #8D867B",
"V%	c #8F8E8C",
"W%	c #070707",
"X%	c #4C4C4C",
"Y%	c #A09D97",
"Z%	c #BEA851",
"`%	c #A18F35",
" &	c #B2B0AA",
".&	c #E2E1E0",
"+&	c #B3B3B3",
"@&	c #C1C1C1",
"#&	c #E2E2E2",
"$&	c #FFFFFF",
"%&	c #F9F9F9",
"&&	c #DCDBD8",
"*&	c #A0987F",
"=&	c #F2D130",
"-&	c #E1C229",
";&	c #9E8720",
">&	c #251919",
",&	c #2A1C17",
"'&	c #98693D",
")&	c #8E6345",
"!&	c #654946",
"~&	c #573D35",
"{&	c #6F4C31",
"]&	c #A77340",
"^&	c #D1914F",
"/&	c #E19C54",
"(&	c #88683C",
"_&	c #908977",
":&	c #656565",
"<&	c #020202",
"[&	c #989384",
"}&	c #AF9F67",
"|&	c #C8C6C0",
"1&	c #F5F5F5",
"2&	c #FDFDFD",
"3&	c #D8D8D8",
"4&	c #A7A7A7",
"5&	c #FAFAFA",
"6&	c #D0D0D0",
"7&	c #C3B482",
"8&	c #DBBE28",
"9&	c #C2A722",
"0&	c #5A4532",
"a&	c #493333",
"b&	c #3A2828",
"c&	c #422E2E",
"d&	c #150D0D",
"e&	c #342525",
"f&	c #60433C",
"g&	c #734F33",
"h&	c #F5AB5D",
"i&	c #CC8E4B",
"j&	c #AE9225",
"k&	c #9D957B",
"l&	c #535351",
"m&	c #6B6B6B",
"n&	c #A4A3A0",
"o&	c #A49872",
"p&	c #A99E7A",
"q&	c #E3E3E3",
"r&	c #D7D7D7",
"s&	c #F2F2F2",
"t&	c #CAC7BE",
"u&	c #AE971F",
"v&	c #F9D72F",
"w&	c #D9BB27",
"x&	c #91791F",
"y&	c #5A3729",
"z&	c #605C3D",
"A&	c #6D6846",
"B&	c #573C2E",
"C&	c #A87441",
"D&	c #D39350",
"E&	c #B5843E",
"F&	c #AC9321",
"G&	c #A0905B",
"H&	c #8F8F8F",
"I&	c #7F7F7F",
"J&	c #A8A8A8",
"K&	c #AEA99B",
"L&	c #8F7C1C",
"M&	c #B7B5AE",
"N&	c #F6F6F6",
"O&	c #FEFEFE",
"P&	c #C5C5C5",
"Q&	c #DADADA",
"R&	c #ECECEC",
"S&	c #B1A47F",
"T&	c #E1C22B",
"U&	c #EDCC2B",
"V&	c #B99C21",
"W&	c #9A5725",
"X&	c #844A1F",
"Y&	c #533429",
"Z&	c #4D3634",
"`&	c #5D4444",
" *	c #1D1B0F",
".*	c #AAA370",
"+*	c #DED593",
"@*	c #DDD593",
"#*	c #BFB77E",
"$*	c #8A8459",
"%*	c #433D2B",
"&*	c #251818",
"**	c #593D31",
"=*	c #5F4020",
"-*	c #846723",
";*	c #DEC029",
">*	c #AF9822",
",*	c #AFA68C",
"'*	c #AAA79D",
")*	c #C7C0AE",
"!*	c #C8B46A",
"~*	c #B0A276",
"{*	c #E0E0E0",
"]*	c #EAEAEA",
"^*	c #B7B7B7",
"/*	c #F3F3F3",
"(*	c #D4CFC3",
"_*	c #BDA327",
":*	c #B07628",
"<*	c #804822",
"[*	c #40220C",
"}*	c #3B2621",
"|*	c #968F61",
"1*	c #C8C084",
"2*	c #E7DE99",
"3*	c #F7EDA4",
"4*	c #FAF0A6",
"5*	c #F5EBA3",
"6*	c #EDE49D",
"7*	c #B5AE77",
"8*	c #867E59",
"9*	c #5E4B42",
"0*	c #634A48",
"a*	c #593F3F",
"b*	c #523937",
"c*	c #9E6D43",
"d*	c #C7894A",
"e*	c #A3802D",
"f*	c #E1C329",
"g*	c #E3C74F",
"h*	c #F6D62E",
"i*	c #E6C832",
"j*	c #AFA381",
"k*	c #CBCBCB",
"l*	c #CECECE",
"m*	c #EFEFEF",
"n*	c #A3914E",
"o*	c #D7BA26",
"p*	c #99731F",
"q*	c #B7682D",
"r*	c #74411B",
"s*	c #5B3D36",
"t*	c #372626",
"u*	c #110A0A",
"v*	c #292718",
"w*	c #79744F",
"x*	c #CCC487",
"y*	c #F3E9A1",
"z*	c #F9F0A6",
"A*	c #F4EAA2",
"B*	c #DED493",
"C*	c #B4AB77",
"D*	c #6D6448",
"E*	c #43302F",
"F*	c #6A4B42",
"G*	c #92653F",
"H*	c #C88A4B",
"I*	c #E59F56",
"J*	c #E09C54",
"K*	c #C0943B",
"L*	c #E4C52A",
"M*	c #A99E7C",
"N*	c #AFAFAF",
"O*	c #C1B79A",
"P*	c #D7BB27",
"Q*	c #F6D72E",
"R*	c #847114",
"S*	c #B96C2D",
"T*	c #B5682C",
"U*	c #8E5129",
"V*	c #523733",
"W*	c #6B6745",
"X*	c #EAE19C",
"Y*	c #F8EEA5",
"Z*	c #CBC386",
"`*	c #90895E",
" =	c #584C3B",
".=	c #584140",
"+=	c #4F3834",
"@=	c #855B31",
"#=	c #F2A85B",
"$=	c #826423",
"%=	c #ECCC2C",
"&=	c #C6B782",
"*=	c #D6D6D6",
"==	c #E9E9E9",
"-=	c #C7C7C7",
";=	c #C6C3B8",
">=	c #DDC028",
",=	c #F4D22D",
"'=	c #B59720",
")=	c #A56127",
"!=	c #8E5122",
"~=	c #4D3027",
"{=	c #412D2D",
"]=	c #1C1212",
"^=	c #8A845A",
"/=	c #D7CE8E",
"(=	c #F5ECA3",
"_=	c #E2D996",
":=	c #BDB37E",
"<=	c #665945",
"[=	c #6E4C39",
"}=	c #A47140",
"|=	c #C39839",
"1=	c #88792C",
"2=	c #515151",
"3=	c #A2A2A2",
"4=	c #E1E1E1",
"5=	c #B8B7B5",
"6=	c #DBC051",
"7=	c #F3D12D",
"8=	c #C8A825",
"9=	c #AA6229",
"0=	c #925323",
"a=	c #56321F",
"b=	c #513939",
"c=	c #A49E6B",
"d=	c #E9E09A",
"e=	c #F8EEA4",
"f=	c #F2E8A1",
"g=	c #BAB27B",
"h=	c #817656",
"i=	c #5F4645",
"j=	c #392721",
"k=	c #714E30",
"l=	c #BB903B",
"m=	c #DFC029",
"n=	c #7C6A12",
"o=	c #12100D",
"p=	c #696969",
"q=	c #C8C8C8",
"r=	c #F1F1F1",
"s=	c #C3C0B8",
"t=	c #CAAF3B",
"u=	c #A3891E",
"v=	c #9E6127",
"w=	c #BD6C2E",
"x=	c #945323",
"y=	c #190A02",
"z=	c #2C1D1D",
"A=	c #362525",
"B=	c #ACA570",
"C=	c #DCD391",
"D=	c #EFE69F",
"E=	c #CDC488",
"F=	c #766D4F",
"G=	c #6F4C30",
"H=	c #C38849",
"I=	c #B98442",
"J=	c #E3C030",
"K=	c #F6D42D",
"L=	c #948017",
"M=	c #333333",
"N=	c #959595",
"O=	c #EEEEEE",
"P=	c #C9C9C9",
"Q=	c #EBEBEB",
"R=	c #746C53",
"S=	c #E2C32B",
"T=	c #AA8C27",
"U=	c #A9713B",
"V=	c #8C5426",
"W=	c #40261E",
"X=	c #1C1111",
"Y=	c #7D7851",
"Z=	c #EAE19B",
"`=	c #CFC689",
" -	c #847A59",
".-	c #614B45",
"+-	c #463027",
"@-	c #A8733D",
"#-	c #D99851",
"$-	c #C9A337",
"%-	c #AF981E",
"&-	c #453B06",
"*-	c #010100",
"=-	c #868686",
"--	c #AAAAAA",
";-	c #FCFCFC",
">-	c #C9C7C3",
",-	c #C0A848",
"'-	c #EFCF2D",
")-	c #765E1C",
"!-	c #ECA45A",
"~-	c #99602F",
"{-	c #B0662C",
"]-	c #43230A",
"^-	c #B1AA74",
"/-	c #F1E7A0",
"(-	c #CAC186",
"_-	c #837858",
":-	c #6B4A33",
"<-	c #C08549",
"[-	c #F9AD5E",
"}-	c #A97D3E",
"|-	c #ECCB2D",
"1-	c #DABC27",
"2-	c #9D8719",
"3-	c #3F3A26",
"4-	c #ABABAB",
"5-	c #F0EFEF",
"6-	c #BEB496",
"7-	c #E1C22F",
"8-	c #B78D38",
"9-	c #E59F57",
"0-	c #D2914E",
"a-	c #A86F38",
"b-	c #975724",
"c-	c #713E18",
"d-	c #7B754F",
"e-	c #C2B880",
"f-	c #685D45",
"g-	c #483433",
"h-	c #A16F3A",
"i-	c #E8A157",
"j-	c #FAAF5F",
"k-	c #5C4115",
"l-	c #C2A423",
"m-	c #E9C92B",
"n-	c #C2AE27",
"o-	c #C1BFB9",
"p-	c #FBFBFB",
"q-	c #B6B6B6",
"r-	c #BDBCBC",
"s-	c #BEA742",
"t-	c #F2D12E",
"u-	c #D1B228",
"v-	c #AD7D3C",
"w-	c #F3A95D",
"x-	c #B37940",
"y-	c #A1622E",
"z-	c #B5692D",
"A-	c #A15C26",
"B-	c #3F2109",
"C-	c #BAB37B",
"D-	c #E5DC98",
"E-	c #AEA674",
"F-	c #4A3C32",
"G-	c #583C2C",
"H-	c #9C6B39",
"I-	c #F8AD5E",
"J-	c #F9AD5F",
"K-	c #FAAF60",
"L-	c #D4934F",
"M-	c #986735",
"N-	c #5C3312",
"O-	c #915221",
"P-	c #AC6429",
"Q-	c #A27721",
"R-	c #F2D12D",
"S-	c #C7B36F",
"T-	c #CBC8C0",
"U-	c #D3D3D3",
"V-	c #F1F0EF",
"W-	c #D7D3CB",
"X-	c #B3A269",
"Y-	c #F5D32E",
"Z-	c #B59729",
"`-	c #D6954F",
" ;	c #C98A4A",
".;	c #A06531",
"+;	c #522C0F",
"@;	c #BAB27A",
"#;	c #F9EFA5",
"$;	c #514830",
"%;	c #A87440",
"&;	c #F9AE5F",
"*;	c #EEA75B",
"=;	c #BE8346",
"-;	c #744B24",
";;	c #75421A",
">;	c #BF6E2F",
",;	c #9D6124",
"';	c #DAB729",
");	c #F5D42D",
"!;	c #E9C932",
"~;	c #B6A153",
"{;	c #D3D2D1",
"];	c #B9B8B5",
"^;	c #A6A091",
"/;	c #BDB396",
"(;	c #D3BD73",
"_;	c #EBCC3F",
":;	c #F7D62E",
"<;	c #D2B525",
"[;	c #A27B31",
"};	c #F6AA5D",
"|;	c #995F2E",
"1;	c #8E5021",
"2;	c #8A855A",
"3;	c #DDD492",
"4;	c #F6ECA3",
"5;	c #C0B67E",
"6;	c #836139",
"7;	c #DC9953",
"8;	c #A5703B",
"9;	c #4E2B0E",
"0;	c #894E1F",
"a;	c #B0642A",
"b;	c #C06F2F",
"c;	c #C27030",
"d;	c #B2692B",
"e;	c #B58D24",
"f;	c #F1D12C",
"g;	c #E5C749",
"h;	c #B7A356",
"i;	c #938346",
"j;	c #958962",
"k;	c #AEA68B",
"l;	c #BAB9B5",
"m;	c #CFCBC3",
"n;	c #B5B3AF",
"o;	c #A79C79",
"p;	c #D1B53E",
"q;	c #F4D332",
"r;	c #B69D1F",
"s;	c #5C3E20",
"t;	c #A16F3D",
"u;	c #CB8B4B",
"v;	c #A86933",
"w;	c #B0652B",
"x;	c #9F9868",
"y;	c #EAE09B",
"z;	c #BBA069",
"A;	c #C88B4A",
"B;	c #85582C",
"C;	c #6C3C17",
"D;	c #BC6B2E",
"E;	c #975A23",
"F;	c #C1A323",
"G;	c #BFA84F",
"H;	c #98948A",
"I;	c #ABA8A0",
"J;	c #B8B6AE",
"K;	c #ACA590",
"L;	c #A19362",
"M;	c #BBA223",
"N;	c #BEA537",
"O;	c #E1C554",
"P;	c #DFC028",
"Q;	c #7B6812",
"R;	c #33211F",
"S;	c #533B38",
"T;	c #62453D",
"U;	c #5C4033",
"V;	c #845B38",
"W;	c #DB9852",
"X;	c #F0A65B",
"Y;	c #A06D38",
"Z;	c #713F18",
"`;	c #BCB47B",
" >	c #ECE29D",
".>	c #CBC285",
"+>	c #C38F52",
"@>	c #F3AA5D",
"#>	c #E4A057",
"$>	c #553315",
"%>	c #A96129",
"&>	c #B6682D",
"*>	c #A06B23",
"=>	c #AF941E",
"->	c #E9CA2B",
";>	c #DEC037",
">>	c #AAA28C",
",>	c #A4A4A4",
"'>	c #8D8D8D",
")>	c #636363",
"!>	c #909090",
"~>	c #95938F",
"{>	c #A29A82",
"]>	c #D0B963",
"^>	c #E8C92B",
"/>	c #E3C42A",
"(>	c #B08E21",
"_>	c #86561C",
":>	c #5C3A2F",
"<>	c #4A3533",
"[>	c #311F17",
"}>	c #7C5533",
"|>	c #B98046",
"1>	c #E7A057",
"2>	c #C48749",
"3>	c #B46E34",
"4>	c #B3662B",
"5>	c #723F18",
"6>	c #A29C6A",
"7>	c #CEC588",
"8>	c #F9EFA6",
"9>	c #DFD594",
"0>	c #857850",
"a>	c #9D6E3A",
"b>	c #8F6132",
"c>	c #613614",
"d>	c #945422",
"e>	c #8F5320",
"f>	c #B59A20",
"g>	c #C3A825",
"h>	c #9F9883",
"i>	c #5C5C5C",
"j>	c #030202",
"k>	c #030303",
"l>	c #606060",
"m>	c #A09F9E",
"n>	c #C4BFB3",
"o>	c #C4A922",
"p>	c #D7B927",
"q>	c #92771A",
"r>	c #965423",
"s>	c #AE632A",
"t>	c #341D0F",
"u>	c #694A3B",
"v>	c #926539",
"w>	c #E39D55",
"x>	c #A66E38",
"y>	c #301706",
"z>	c #898359",
"A>	c #F2E9A1",
"B>	c #D5CC8E",
"C>	c #3E3A26",
"D>	c #3B1F09",
"E>	c #A45E27",
"F>	c #B9692D",
"G>	c #8D621E",
"H>	c #AA9020",
"I>	c #BCA223",
"J>	c #AD9B55",
"K>	c #797878",
"L>	c #444444",
"M>	c #040404",
"N>	c #8E8E8E",
"O>	c #BEAC74",
"P>	c #E5C62A",
"Q>	c #B08A22",
"R>	c #AB6828",
"S>	c #B86A2D",
"T>	c #734428",
"U>	c #463131",
"V>	c #3A2824",
"W>	c #684623",
"X>	c #B07941",
"Y>	c #B96E32",
"Z>	c #9B5824",
"`>	c #7E7951",
" ,	c #CFC789",
".,	c #F0E6A0",
"+,	c #BEB67D",
"@,	c #867A52",
"#,	c #976639",
"$,	c #A55E28",
"%,	c #AD6932",
"&,	c #C47030",
"*,	c #955425",
"=,	c #814A25",
"-,	c #4F2D1B",
";,	c #53371A",
">,	c #C48A48",
",,	c #6D541B",
"',	c #AE9524",
"),	c #84795A",
"!,	c #918F8A",
"~,	c #868584",
"{,	c #DBDAD7",
"],	c #CBB877",
"^,	c #F1D12D",
"/,	c #916E1B",
"(,	c #A66028",
"_,	c #714227",
":,	c #312017",
"<,	c #A3703B",
"[,	c #BD8346",
"},	c #A66A34",
"|,	c #9D5925",
"1,	c #050100",
"2,	c #54473A",
"3,	c #918B5F",
"4,	c #F3EAA1",
"5,	c #E1D895",
"6,	c #CCC184",
"7,	c #C0B57C",
"8,	c #9A8E60",
"9,	c #694629",
"0,	c #492914",
"a,	c #6C412C",
"b,	c #5E3826",
"c,	c #6B3C1A",
"d,	c #734019",
"e,	c #613513",
"f,	c #7F4823",
"g,	c #723F19",
"h,	c #6D3E1E",
"i,	c #7A482B",
"j,	c #5B3626",
"k,	c #5E3828",
"l,	c #673E2E",
"m,	c #4B3434",
"n,	c #895D35",
"o,	c #C28946",
"p,	c #926939",
"q,	c #80786E",
"r,	c #9F9A8A",
"s,	c #B1AEAA",
"t,	c #D9D6CD",
"u,	c #C8C1AD",
"v,	c #A99964",
"w,	c #DEBF2C",
"x,	c #C0A622",
"y,	c #A98022",
"z,	c #B0692A",
"A,	c #C67232",
"B,	c #593119",
"C,	c #5C3E1E",
"D,	c #B37B41",
"E,	c #946434",
"F,	c #7E481E",
"G,	c #70634C",
"H,	c #DBD191",
"I,	c #E9E09B",
"J,	c #918760",
"K,	c #5E4643",
"L,	c #301F1D",
"M,	c #604444",
"N,	c #5D423C",
"O,	c #AA7540",
"P,	c #E19B55",
"Q,	c #AD7840",
"R,	c #735F1A",
"S,	c #8A7C4A",
"T,	c #A18B31",
"U,	c #B9A245",
"V,	c #EACA33",
"W,	c #DDBF28",
"X,	c #C5AD23",
"Y,	c #B19420",
"Z,	c #AE8224",
"`,	c #9C5B25",
" '	c #AB612A",
".'	c #704024",
"+'	c #744E27",
"@'	c #573416",
"#'	c #735D51",
"$'	c #AEA473",
"%'	c #EEE49E",
"&'	c #B1A875",
"*'	c #1B1210",
"='	c #352424",
"-'	c #593F38",
";'	c #AE7940",
">'	c #EFA65A",
",'	c #A06C37",
"''	c #86541D",
")'	c #915F1F",
"!'	c #A47A21",
"~'	c #967C19",
"{'	c #C1A124",
"]'	c #B59721",
"^'	c #978218",
"/'	c #BE9635",
"('	c #A27A32",
"_'	c #965827",
":'	c #563016",
"<'	c #0C0501",
"['	c #160A02",
"}'	c #71684B",
"|'	c #B5AD78",
"1'	c #605043",
"2'	c #654848",
"3'	c #573C30",
"4'	c #915D2E",
"5'	c #B2652C",
"6'	c #AE652A",
"7'	c #875622",
"8'	c #C38747",
"9'	c #A96A34",
"0'	c #643B27",
"a'	c #180F0F",
"b'	c #696046",
"c'	c #C6BE83",
"d'	c #BDB47D",
"e'	c #665447",
"f'	c #604443",
"g'	c #855B38",
"h'	c #E59E56",
"i'	c #A8723C",
"j'	c #975C2B",
"k'	c #CC8D4C",
"l'	c #734C26",
"m'	c #A96029",
"n'	c #5E3929",
"o'	c #A8A16E",
"p'	c #CBC186",
"q'	c #553F3D",
"r'	c #AA753E",
"s'	c #A0632F",
"t'	c #4E2B17",
"u'	c #F1A85C",
"v'	c #B1743B",
"w'	c #412924",
"x'	c #3D2A2A",
"y'	c #0A0505",
"z'	c #423030",
"A'	c #A9A36F",
"B'	c #E3DA96",
"C'	c #C4BB82",
"D'	c #746150",
"E'	c #62432B",
"F'	c #AE743C",
"G'	c #AB622A",
"H'	c #422921",
"I'	c #A57241",
"J'	c #B87E42",
"K'	c #4F332E",
"L'	c #3A2727",
"M'	c #D2CA8B",
"N'	c #F8EDA5",
"O'	c #C6BC83",
"P'	c #604D43",
"Q'	c #452F25",
"R'	c #996938",
"S'	c #8E5224",
"T'	c #6A3D23",
"U'	c #503938",
"V'	c #704C2D",
"W'	c #AE662E",
"X'	c #7F471C",
"Y'	c #1A1010",
"Z'	c #E3D996",
"`'	c #F6ECA4",
" )	c #604A44",
".)	c #7E562C",
"+)	c #A0622E",
"@)	c #995724",
"#)	c #51342C",
"$)	c #664529",
"%)	c #DA9752",
"&)	c #995A29",
"*)	c #663815",
"=)	c #130701",
"-)	c #C7BF83",
";)	c #B0A874",
">)	c #69544A",
",)	c #3E2B2B",
"')	c #38261E",
"))	c #BD8447",
"!)	c #D1904E",
"~)	c #975E2D",
"{)	c #201311",
"])	c #67462C",
"^)	c #C28648",
"/)	c #DA9651",
"()	c #965624",
"_)	c #A59F6C",
":)	c #EEE59E",
"<)	c #A89F6F",
"[)	c #5F4544",
"})	c #473232",
"|)	c #523A38",
"1)	c #79543A",
"2)	c #C78A4B",
"3)	c #CE8E4C",
"4)	c #9E6330",
"5)	c #A85F28",
"6)	c #D0904F",
"7)	c #B06C33",
"8)	c #C36F31",
"9)	c #A45D27",
"0)	c #3B1E09",
"a)	c #EFE59E",
"b)	c #837B56",
"c)	c #604745",
"d)	c #483434",
"e)	c #3D2B2A",
"f)	c #493118",
"g)	c #DD9953",
"h)	c #A8753E",
"i)	c #9A602E",
"j)	c #B4682D",
"k)	c #B4682C",
"l)	c #764528",
"m)	c #5F413D",
"n)	c #5A413E",
"o)	c #B77F48",
"p)	c #D5934F",
"q)	c #935929",
"r)	c #C67132",
"s)	c #2A1405",
"t)	c #F1E79F",
"u)	c #7F7653",
"v)	c #6B4C41",
"w)	c #9A6B3E",
"x)	c #F4A95D",
"y)	c #DF9A53",
"z)	c #B4763C",
"A)	c #AC652E",
"B)	c #BA6A30",
"C)	c #9C5A2D",
"D)	c #5A3626",
"E)	c #674A46",
"F)	c #8F6236",
"G)	c #F6AA5E",
"H)	c #9F5D2A",
"I)	c #5A3111",
"J)	c #656141",
"K)	c #D2C98B",
"L)	c #5B503D",
"M)	c #6E4D3E",
"N)	c #7E5736",
"O)	c #A1703B",
"P)	c #D89651",
"Q)	c #E69E56",
"R)	c #C18244",
"S)	c #764219",
"T)	c #A55E27",
"U)	c #8E5023",
"V)	c #683D2A",
"W)	c #6A463D",
"X)	c #684A48",
"Y)	c #9C6C3D",
"Z)	c #E8A258",
"`)	c #B97F43",
" !	c #A5602A",
".!	c #975623",
"+!	c #110601",
"@!	c #9A9465",
"#!	c #B3AB76",
"$!	c #675548",
"%!	c #4A321F",
"&!	c #875D31",
"*!	c #DB9651",
"=!	c #BB7D41",
"-!	c #AE6E36",
";!	c #B66D32",
">!	c #83491D",
",!	c #6B3D20",
"'!	c #563426",
")!	c #59403C",
"!!	c #A97540",
"~!	c #B57A40",
"{!	c #7C451B",
"]!	c #978F63",
"^!	c #57403E",
"/!	c #261918",
"(!	c #6A4928",
"_!	c #895C31",
":!	c #794A22",
"<!	c #9B5F2D",
"[!	c #B56B30",
"}!	c #AE642F",
"|!	c #915328",
"1!	c #6E3E1A",
"2!	c #6F4534",
"3!	c #6A4944",
"4!	c #3C281F",
"5!	c #F0A65A",
"6!	c #926131",
"7!	c #B4672D",
"8!	c #847E56",
"9!	c #E6DD98",
"0!	c #D9D190",
"a!	c #3E3B27",
"b!	c #402C29",
"c!	c #754219",
"d!	c #593116",
"e!	c #6A402B",
"f!	c #5F3B2E",
"g!	c #64443F",
"h!	c #684B4A",
"i!	c #463023",
"j!	c #CE8E4D",
"k!	c #A56934",
"l!	c #9A9464",
"m!	c #E5DC97",
"n!	c #BCB47C",
"o!	c #363320",
"p!	c #0D0706",
"q!	c #30201F",
"r!	c #5D4242",
"s!	c #201414",
"t!	c #6F4C29",
"u!	c #D99752",
"v!	c #C38648",
"w!	c #935322",
"x!	c #44240B",
"y!	c #595538",
"z!	c #F1E8A0",
"A!	c #E9DF9A",
"B!	c #A7A06D",
"C!	c #624848",
"D!	c #0C0606",
"E!	c #2D1F1F",
"F!	c #664724",
"G!	c #DD9A53",
"H!	c #B5672D",
"I!	c #A85F29",
"J!	c #A19B69",
"K!	c #E6DC98",
"L!	c #D2C98A",
"M!	c #B8B079",
"N!	c #463333",
"O!	c #120A0A",
"P!	c #1E1107",
"Q!	c #9E6C3A",
"R!	c #C58849",
"S!	c #9F622E",
"T!	c #3D1F08",
"U!	c #D1C88A",
"V!	c #CEC688",
"W!	c #DBD291",
"X!	c #C5BD82",
"Y!	c #9F9867",
"Z!	c #7F7A52",
"`!	c #201616",
" ~	c #482F16",
".~	c #A26F3A",
"+~	c #9C6836",
"@~	c #6F6A47",
"#~	c #221717",
"$~	c #8B5F31",
"%~	c #945828",
"&~	c #8A4E1F",
"*~	c #321905",
"=~	c #6B4F4F",
"-~	c #331F0C",
";~	c #5D3818",
">~	c #864C20",
",~	c #81481D",
"'~	c #5B4343",
")~	c #5C4444",
"!~	c #170802",
"~~	c #512B0E",
"{~	c #170F0F",
"                                                                                                                                                                                    ",
"                                                                                                                                                                                    ",
"                                                                                                                                                                                    ",
"                                                                                                                                                                                    ",
"                                                                                                                                                                                    ",
"                                                                                                                                                                                    ",
"                                                                                                                                                                                    ",
"                                                                                                                                                                                    ",
"                                                                                                                                                                                    ",
"                                                                                                                        .                                                           ",
"                                                                                                                      + @ #                                                         ",
"                                                          $ % & * = - ; > , ' )                                       ! ~ { ] ^                                                     ",
"                                                      / ( _ : < [ } | 1 2 3 4 5 6 )                                     7 8 9 0 a                                                   ",
"                                                      b c d e f g 1 h } } } } 1 i j k l m . . . . . . . . . . . . n   . o p q r s t                                                 ",
"                                                        u v w x y z A B } } } } } } 1 C D E F . . G H . I J K L M N O P Q R S 1 4 T U                                               ",
"                                                          V W X Y Z `  .B 1 } } } } } | ..+.@.#.$.%.&.*.=.-.;.>.,.'.).!.v ~.{.].2 3 >                                               ",
"                                                            O ^./.(._.:.<.[.}.} } } } } } } |.t 1.2.3.4.5.6.%.7.8.9.,.0.a.b.c.d.e.| g f.                                            ",
"                                                        g.h.i.j.k.l.m.n.(.o.p.4 | } } } } } h q.r.s.t.u.;.v.w.x.y.z.A.B.C.D.n.E.F.} } G.H.                                          ",
"                                                  . . I.J.K.-.L.M.N.O O.P.Q.R.S.B } } } } } } } 2 T.U.V.W.z.X.5.Y.Z.`. +.+D.++@+#+} } $+%+.                                         ",
"                                              . &+*+=+-+=+;+*+>+,+'+)+!+~+{+_.]+^+1 } } } } } } } 1 /+(+_+:+5.5.5.;+<+[+_.D.}+|+C } } 1+2+3+8.                                      ",
"                                          . 4+5+6+%.7+8+,+9+*.0+a+a+b+c+d+e+f+g+h+i+j+} } } } } } } } B k+l+m+5.5.n+o+p+q+D.r+s+t+} } } u+v+w+x+y+                                  ",
"                                    . z+A+*+*+B+C+,+7.D+)+E+a+a+a+a+a+a+'.F+G+D.H+I++.} } } 2 } } } } J+K+L+M+5.4.N+O+Z P+Q+R+S+: } } h T+U+x+m+V+W+.                               ",
"                                . O X+m+K.,+A+Y+O _+Y.Z+a+a+a+a+a+a+a+`+;. @.@P+D.+@@@#@$@} } } } } } } } < %@&@K.*@=@r+D.Q+H+-@| } } } ;@>@,@,.,.'@. .                             ",
"                          . . )@B+0+'+'.!@,+~@=+{@_+]@3.a+a+4.'.K.^@*./@`.y.(@_@:@r+<@[@1+2 | }@|@1@C 2@3@+.4@5@6@7@8@D.D.D.9@0@1 } } } a@b@c@0.,@4+d@W.e@                          ",
"                      . f@y.x+-+;.j.B+D+/@K.g@h@E+i@j@5+k@l@m@n@o@p@q@r@s@t@u@v@w@D.f+x@y@[ z@A@B@C@D@E@F@G@H@I@J@K@_.q+D.Q+L@M@} } } | N@O@P@X+O Z.j.X.X+h.                        ",
"                . . Q@R@6+/@S@T@{@{@U@6.Z+Z+Z+`+E+:+V@W@X@Y@Z@i 9 } [ i : `@ #.#x n.f+c.+#@###$#%#&#*#=#-#;#>#,#'#)#!#~#{#r+]#^#} } 2 } /#(#E+_#;+w.j.Z+:#<#W+                      ",
"            . W+[#'.0+;.j.}#V+|#1#:#Z+Z+Z+Z+a+2#3#4#5#g } 1+| } } } } } } ..6#7#8#9#0#a###b#c#d#d#d#d#d#d#d#d#d#-#e#f#g#h#i#j#k#} } } | l#m#b+a+a+n#M._#Z+%.Z.n                     ",
"        . o#Y+0+p#a+-+M.q#Y+7+5+0.i@E+Z+Z+K.r#s#t#[ u#J+} } } } } } } } 2 } } 1+v#w#x#*#d#d#d#d#d#d#d#d#d#d#d#d#d#d#c#y#z#A#B#+.} } } } C#D#E#a+a+7+F#L.5.g@G#H#.                   ",
"        . x.i.Z+=+1#W+F#_#h@Z+3.X+Z.7+a+6+I#J#K#} $@} } } 2 } | } } } } } } } < L#M#N#d#d#d#d#d#d#d#d#d#d#d#d#d#d#d#d#d#O#P#Q#R#}.} } 1 S#T#`+n+U#*.)@V#;+*+q#Z.W#e@                ",
"            '@x.X#{@6+E#a+Z+Z+Z+E#I.{@Y#Z#`#6#2 j+.. $.$^#y@+$@$|.[ 1+| } } 1 #$$$%$&$d#d#d#d#d#d#d#d#d#d#d#d#d#d#d#d#d#d#=#$#*$=$} } -$;$W#>$n#,.W.,$0.'$[#)$-+_#!$.               ",
"            L ~${$:#Z+Z+Z+Z+Z+Z+E#Y+]$^$/$($_$:$<$[$}$|$1$2$3$4$5$6$7$8$+.K#9$0$a$b$c$d$e$d#d#d#d#d#d#d#d#d#d#d#d#d#d#d#d#d#-#f$g$|@| h$i$A.=+j.)+E+-+,+j$i@a+h@h@k$l$              ",
"              m$b+Z+Z+Z+Z+Z+6.=+,+n$o$p$q$r$s$t$u$v$q+Q+b.P+b.w$x$y$z$A$B$C$D$E$F$G$H$I$J$d#d#d#K$L$M$N$O$P$&#d#d#d#d#d#d#d#d#d#Q$R$B S$T$`+`+a+a+a+a+:#U$V$3.0+W$X$Y$              ",
"              I Z$`$Z+`+m+U#{@A+ %.%+%@%<@f+q+q+++#%D.D.D.D.D.D.D.D.++q+$%%%&%*%=%-%;%>%,%'%)%!%~%{%]%^%/%(%_%P$:%=#d#d#d#d#d#d#,#<%[%}%_#a+a+a+a+a+a+`+-.X#Z.c@1#n#|%              ",
"                m$'+'+/@}#1%[#!@2%3%4%{#5%6%7%8%7%m.9%0%a%q+++D.D.D.D.D.++b%c%d%e%f%g%h%i%j%k%l%m%n%o%p%q%r%s%t%u%v%d#d#d#d#d#d#d#w%x%y%z%a+a+a+a+a+a+b+-+A%h.B%;.>..               ",
"                . Z.C%X#9+-+Z+m+D%E%F%7 G%H%I%J%K%L%M%N%O%P%Q%R%D.D.D.D.S%T%U%V%W%. X%Y%Z%`% &.&+&@&#&$&$&$&%&q%&&*&=&=#d#d#d#d#d#-&;&X+:#a+a+a+a+a+`+K.*+>&C%a+:#W$.               ",
"                  L Y+3.Z+Z+Z+*.,&'&)&!&%.)$}#9+5.=+1#X$)@~&{&]&^&x$D.D./&(&_&:&. <&g%[&}&|&1&2&o%3&4&5&$&$&$&$&$&6&7&8&d#K$d#d#d#)%9&0&0+:#b+a+a+`+z%a&b&c&]$Z+Z+[#d&              ",
"                  . U#`+Z+Z+Z+'.T$0+3.`+a+`+X+e&w.X#}#C+m+z%K.f&g&7 h&D.i&j&k&l&. m&n&o&p&q&$&$&$&%&;%r&1&$&$&$&$&s&t&u&v&d#d#d#d#d#w&x&y&t.%.`+{$B+O ,.)+*.~$K.b+~@j$              ",
"            z&A&  . *+3.Z+Z+Z+a+3.Z+a+a+m+;+I x.H ]@:+E#`+`+`+`+Y.B&C&D&E&F&G&H&I&J&K&L&M&N&$&$&$&O&r%P&Q&$&$&$&$&$&R&S&T&d#d#d#d#d#U&V&W&X&Y&Z&`.U$T@'+`+`&c@)+6.*+8.              ",
"         *.*+*@*#*$*%*B+a+Z+Z+Z+Z+Z+U#~$O Y+)$j.&*v.4.`+`+`+`+`+5.;.**=*-*;*>*,*'*)*!*~*{*O&$&$&$&$&2&]*^*/*$&$&$&$&p%(*_*K$d#d#d#d#d#w%:*#@$+<*[*}*Y.a+a+b+H#-.Y+4+                ",
"      |*1*2*3*4*5*6*7*8*9*0*Z+3.~@0.,.{@2#:+5.`+;+Y+;.`+`+`+`+P@a*b*c*d*e*f*%#f#g*h*i*j*N&$&$&$&$&$&$&%&k*l*$&$&$&$&O&m*n*%#d#d#d#d#d#o*p*q.| j+q*r*s*6+b+K.t*x+u*. .               ",
"  v*w*x*y*4*4*4*4*z*A*B*C*D*E*W.Z.!@K.3.a+a+a+a+'+~$~@`+`+`+E+F*G*H*I*J*K*L*d#d#d#d#&$M*R&O&$&$&$&$&$&O&s&N*$&$&$&$&$&R&O*P*d#d#d#d#d#Q*R*S*} } 2 T*U*V*K.0+w.d&_+8.                ",
"W*7*X*Y*4*4*4*4*4*4*4*4*y*Z*`* =.=:#Z+a+a+a+a+a+`+L.C%)+`+K.+=@=R #=D.:@$=%$d#d#d#d#%=&=*===$&$&$&$&$&$&$&-={*$&$&$&$&1&;=>=d#d#d#d#d#,='=)=} } } } j+!=~=C+q#,.{=]=                ",
"^=/=Y*4*4*4*4*4*4*4*4*4*4*(=_=:=<='+Z+a+a+a+a+a+`+2#i.Y+z%[=}=g+Q+D.D.{#|=f$d#d#d#d#*#1=2=3=s&$&$&$&$&$&O&4=+&$&$&$&$&$&5=6=d#d#d#d#d#7=8=9=} } } } } j+0=a=. t*b=.                 ",
"  c=d=e=4*4*4*4*4*4*4*4*4*4*4*f=g=h=i=`+a+a+a+a+`+5.J.j=k=Q v$P+D.D.D.{#l=%#d#d#d#d#m=n=o=p=q=O&$&$&$&$&$&s&^*r=$&$&$&o%s=t=d#d#d#d#d#c#u=v=B 2 } } } } w=x=y=z=A=8.                ",
"    B=C=4*4*4*4*4*4*4*4*4*4*4*4*D=E=F=G#a+a+a+a+`+`+C+G=H=Q+D.D.D.D.D.D.I=J=K=d#d#d#-&L=. M=N=O&$&$&$&$&$&O=P={*$&$&O&Q=R=S=c#d#d#d#d#O$T=U=V=: } } } } } [ > W=X=.                 ",
"      Y=Z=e=4*4*4*4*4*4*4*4*4*4*4*e=`= -.-E+a+a+E+j.+-@-$%D.Q+D.D.D.D.D.#-$-&$d#d#d#d#%-&-*-=-q&$&$&$&$&$&1&--Q=O&$&;->-,-N#d#d#d#d#d#'-)-!-d*~-{-1+} } } } C ]-.                   ",
"        ^-/=4*4*4*4*4*4*4*4*4*4*4*4*/-(-_-m+6+)$>+:-<-:@Q+D.D.D.D.D.D.[-q+}-|-c#d#d#d#1-2-3-4-o%$&$&$&$&$&2&N*H$O&$&5-6-7-d#d#d#d#d#d#b#8-9-{+0-a-b-j+} } } } c-U                   ",
"          d-y*Y*4*4*4*4*4*4*4*4*4*4*4*3*e-f-g-M.'@h-i-D.D.D.Q+D.D.[-j-R+A$k-l-)%d#d#d#-#m-n-o-1&$&$&$&$&$&p-*=q-$&5&r-s-t-d#d#d#d#d#c#u-v-w-D.#%a%x-y-z-| } } A-B-                  ",
"            C-D-4*4*4*4*4*4*4*4*4*4*4*4*2*E-F-G-H-Q%Q+D.D.D.I-J-K-L-M-N-O-P-Q-R-d#d#d#d#d#'%S-T-N&2&$&$&$&$&U-k*V-W-X-,#c#d#d#d#d#d#Y-Z-`-#%D.D.D.8@ ;.;+.} } 1 +;                  ",
"              @;#;4*4*4*4*4*4*4*4*4*4*4*3*@*$;%;$%D.D.D.J-&;*;=;-;;;A->;1+| ,;';);d#d#d#d#c#!;~;4&{;Q=o%;-$&];^;/;(;_;:;d#d#d#d#d#d#<;[;Y #%q+D.D.D.};0-|;t+2 e.1;                  ",
"              2;3;Y*4*4*4*4*4*4*4*4*4*4*4;5;6;7;#%D.&;K-7;8;9;0;a;b;c;} } } d;e;f;d#d#d#d#,=g;h;i;j;k;l;m;n;o;p;q;K=c#d#d#d#d#d#d#N#r;s;t;=;m.I*{+++D.q+u;v;1 h w;                  ",
"                x;y;4*4*4*4*4*4*4*4*4*4*y;z;Y Q+&;++A;B;C;`#D;1+h } } } } } } E;F;*#:;d#P$G;H;I;J;K;L;M;N;O;%#);d#d#d#d#d#d#d#d#d#P;Q;R;S;T;U;V;P%W;};D.X;Y;..} #+Z;                ",
"                  `; >4*4*4*4*4*4*4*4*Y*.>+>@>#>Q $>D %>}.c;2 } } 2 } } } } } &>*>=>->c#;>>>,>'>)>!>~>{>]>^>d#d#d#d#d#d#d#d#d#d#/>(>_>:>P@:#E+<>[>}>|>1>r+2>3>F.4>5>                ",
"                  6>7>8>4*4*4*4*4*4*4*9>0>a>b>c>d>#@1+h } } } } } } } } } } } 2 j+e>f>'%g>h>i>j>g.k>l>m>n>o>d#d#d#d#d#d#d#d#&#p>q>r>s>t>E#a+a+~@Y+~@u>v>o w>x>..q*y>                ",
"                    z>A>4*4*4*4*4*4*Y*B>C>D>E>>;1+| } } } } } } } } } } } } } >;F>q*G>H>I>J>K>L>. . M>N>l*O>P>d#d#d#d#d#d#=#m-Q>R>h S>T>)+a+a+%.U>]@i@V>W>w>X>Y>Z>                  ",
"                    `> ,#;4*4*4*4*4*4*.,+,@,#,$,%,C i s>w=B [ &,9 h < @$3 s>^#*,=,-,;,>,,,',),!,~,m&'>U-{,],^,d#d#d#d#d#^,w%/,(,q.} &>_,'+`+a+E+).V+>.U$:,<,[,},|,1,                ",
"                }#!@2,3,e=4*4*4*4*4*4*4*4,5,6,7,8,9,0,a,b,c,d,e,f,g,h,i,j,k,l,t*v.m,n,R+i-o,p,q,r,s,t,u,v,w,c#d#d#d#->P*x,y,z,A,} } }.B,)+m+;.7.X#H v.y.. C,D,E,F,                  ",
"              -+h@a+:#G,H,#;4*4*4*4*4*4*4*4*4*5*I,J,K,}#]$f@Y+C+}#L,'.j.K.4.M,3.4.N,O,r+Q+{+P,Q,R,S,T,U,V,N#);&$W,X,Y,Z,`, '..} } } @$.'B%i.w.1%D+A%/@]$    +'-;@'                  ",
"            >+E+h@h@h@#'$'e=4*4*4*4*4*4*4*4*4*4*%'&'*'='7.6+E+5.U#C%)$5.5.4.4.4.P@-';'++D.D.D.>',''')'!'~'{']'^'/'('_'C 1+} } } } } &>:'&**+;.b+'+x+. .       <'['                  ",
"            *.Z+h@h@h@Z+}'X*4*4*4*4*4*4*4*4*4*4*#;|'1'6+E#a+a+`+-+*+L.`+5.4.4.4.2'3'm.q+D.D.#%/&4'5'} >;6's 7'8'w> ;9'1+} } } } } } q*0')+`+a+6+Z.a'.                               ",
"            !$b+h@h@h@-+b'c'#;4*4*4*4*4*4*4*4*4*3*d'e'a+a+a+a+`+:#!$[#6+`+5.5.4.f'g'h'D.D.D.>'i'_ j+} } | < j'k'D._.l'F.2 } } } } } m'n':+E#)$e@g..                                 ",
"              8+-+:#%.M.  o'#;4*4*4*4*4*4*4*4*4*5*p'q'Z+a+a+a+`+`+,+>.'.`+`+5.4.u@r'b.D.D.D.u$s'w=} } } 2 9 t'9%b.u'v'|.} } } 2 } | K+w'3.m+x'y'.                                   ",
"                z'1%      A'B'4*4*4*4*4*4*4*4*4*8>C'D'a+a+a+a+a+`+0+)@~@5.`+:+X.E'0-};D.D.!-F'G'} } } } 1 p.H'I'!-x$J'm'} } } } } 1 ] K'5+L''$.                                     ",
"                            M'4*4*4*4*4*4*4*4*4*N'O'P'Z+a+a+a+a+`+`+[#Z.B+7.>.Q'R'b.D.D.8@9#S'[ } } } } @$T'U'V'#%D.X W'1 } } } } < X'Y'x+8..                                       ",
"                            Z'#;4*4*4*4*4*4*4*4*`'d' )a+a+a+a+a+a+3.i.X$C%a&$..)W;Q+D.P+<@+)w=} } } } 2 @)#)i@$)%)D.L@&)h } } } } }.*)=). .                                         ",
"                            -)Y*4*4*4*4*4*4*4*4*3*;)>)Z+Z+a+a+0+i@*+,)O X+}#'))):@D.{+!)~)s>} } } } }  '% {)'$])^)};/)()2 } } } } |.' . .                                           ",
"                            _)#;4*4*4*4*4*4*4*4*:)<)[)Z+a+`&{@})}#B%A.c&|)1)2)r+D.Q+3)4)@$F.} } } h 5)*)q#J.5.2%6)q+R 7)q.} } } 8)9)0). .                                           ",
"                            ^-I,4*4*4*4*4*4*4*4*a)b)c)*.T@d);+5+;.E#-+e)f)7 g+r+g)h)i)j)} } } } | k)l)m)5.`+`+n)o)R%p)q)h } } } r)t s).                                             ",
"                            x;t)4*4*4*4*4*4*4*4*C=u)!$;+9+!@m+a+{$_#v)w)Y x)#%y)z)A)[ } } } } B)C)D)~@z%`+`+a+E)F)G)k'H)1+} } } s>I)                                                ",
"                            J)6*4*4*4*4*4*4*4*Y*K)L)~@)+E+:#6+%.M)N)O)P)f+Q)R)S)T)q.} } } C U)V)W)X)`+`+`+`+a+)+Y)Z)`) !} } } 1+.!+!                                                ",
"                            @!_=4*4*4*4*4*4*4*#;#!$!a+Z+Z+z%Y+%!&!^)};*!=!-!;!1 } } j+9)>!,!'!5.`+`+`+`+a+a+b+)!!!n.~!m'} } } i {!                                                  ",
"                            z>:)4*4*4*4*4*4*4*2*]!^!Z+Z+Z+b+Y+/!(!_!:!<![!3 +./+}!|!1!2!3!X+c@K.`+`+`+a+a+K.B%4!C.5!6!7!} } } 9)l                                                   ",
"                            8!9!4*4*4*4*4*4*Y*0!a!~@b+Z+Z+a+E+;.~@b!0,c!5>d!e!f!a&g!h!`+`+,+t*u.`+a+a+)$M.A=c&i!j!7;k!S>} | &>G.                                                    ",
"                            l!m!4*4*4*4*4*4*3*n!o!Y+E+h@h@Z+`+P@m+U>p!'@q!r!m+:+a+a+a+a+`+7+s!3.z%~@q#U$v.J.~$t!u!v!] 2 } }.w!x!                                                    ",
"                            y!z!4*4*4*4*4*4*A!B!  O C!Z+b+E#n+Z.D!M.)+U#,))$a+a+a+a+a+a+Z+~@E!).W#k$J.v.Q@. d@F!G!a-H!} 1 I!d,                                                      ",
"                            J!K!4*3*5*#;5,L!M!    . N!*.~@W#h.{@E+Z+Z+`+q#{@E#Z+Z+Z+Z+E#i@w+W#>+*.!$x.. O!  P!Q!R!S!|@j+|,T!                                                        ",
"                            3,U!V!W!X!Y!Z!          `!m$)@U@h@h@Z+Z+Z+a+*+Y+E#Z+Z+%.;+N i.]$/@~$u*.          ~.~+~$,|@m't                                                           ",
"                              @~                    . !@g@h@h@h@Z+Z+Z+E+X+A+b+*.1#U$*.`+J.#~. .             u $~%~+$&~*~                                                            ",
"                                                    . N!E#h@h@h@h@=~5.3.*+N x+;+%.{$v.>&.                   -~;~>~,~                                                                ",
"                                                      X#g@h@h@p#'~)~D+q#'@0.'+`&Z.. .                       !~B-~~                                                                  ",
"                                                      4+=+C!8+V$k$a'1%j.E#{~h.. .                                                                                                   ",
"                                                      e@j@V$v.~@=+6+_#Y+L .                                                                                                         ",
"                                                        e@2%-+=~*.n#. .                                                                                                             ",
"                                                        >$U>;+f@.                                                                                                                   ",
"                                                        d@. .                                                                                                                       ",
"                                                                                                                                                                                    ",
"                                                                                                                                                                                    ",
"                                                                                                                                                                                    ",
"                                                                                                                                                                                    ",
"                                                                                                                                                                                    "};
