/* XPM */
static char * sunny_8_xpm[] = {
"90 90 1583 2",
"  	c None",
". 	c #8A845A",
"+ 	c #6B6745",
"@ 	c #A49E6B",
"# 	c #D7CE8E",
"$ 	c #B5AE77",
"% 	c #292718",
"& 	c #ACA570",
"* 	c #E9E09A",
"= 	c #F8EEA5",
"- 	c #EAE19C",
"; 	c #79744F",
"> 	c #7D7851",
", 	c #DCD391",
"' 	c #F8EEA4",
") 	c #FAF0A6",
"! 	c #CCC487",
"~ 	c #968F61",
"{ 	c #B1AA74",
"] 	c #EAE19B",
"^ 	c #F3E9A1",
"/ 	c #C8C084",
"( 	c #1D1B0F",
"_ 	c #000000",
": 	c #7B754F",
"< 	c #E7DE99",
"[ 	c #AAA370",
"} 	c #281B1B",
"| 	c #190F0F",
"1 	c #443131",
"2 	c #573F3F",
"3 	c #493535",
"4 	c #BAB37B",
"5 	c #F7EDA4",
"6 	c #DED593",
"7 	c #605C3D",
"8 	c #0F0808",
"9 	c #1B1111",
"0 	c #483333",
"a 	c #463232",
"b 	c #563F3F",
"c 	c #694D4D",
"d 	c #6B4E4E",
"e 	c #664A4A",
"f 	c #604646",
"g 	c #8A855A",
"h 	c #BAB27A",
"i 	c #E5DC98",
"j 	c #DDD593",
"k 	c #6D6846",
"l 	c #1D1313",
"m 	c #291C1C",
"n 	c #3D2B2B",
"o 	c #624747",
"p 	c #140C0C",
"q 	c #423030",
"r 	c #6C4F4F",
"s 	c #493434",
"t 	c #9F9868",
"u 	c #DDD492",
"v 	c #F9EFA5",
"w 	c #F5EBA3",
"x 	c #BFB77E",
"y 	c #4F3A3A",
"z 	c #654A4A",
"A 	c #2E2020",
"B 	c #5C4343",
"C 	c #664B4B",
"D 	c #422F2F",
"E 	c #3A2929",
"F 	c #684C4C",
"G 	c #6A4D4D",
"H 	c #563E3E",
"I 	c #A29C6A",
"J 	c #BCB47B",
"K 	c #EAE09B",
"L 	c #F9F0A6",
"M 	c #EDE49D",
"N 	c #8A8459",
"O 	c #412E2E",
"P 	c #5E4444",
"Q 	c #674C4C",
"R 	c #4E3838",
"S 	c #3F2D2D",
"T 	c #5A4141",
"U 	c #5F4545",
"V 	c #54473A",
"W 	c #7E7951",
"X 	c #898359",
"Y 	c #CEC588",
"Z 	c #ECE29D",
"` 	c #F4EAA2",
" .	c #433D2B",
"..	c #453131",
"+.	c #584040",
"@.	c #3C2A2A",
"#.	c #634848",
"$.	c #352525",
"%.	c #402D2D",
"&.	c #735D51",
"*.	c #70634C",
"=.	c #918B5F",
"-.	c #CFC789",
";.	c #F2E9A1",
">.	c #F9EFA6",
",.	c #DED493",
"'.	c #867E59",
").	c #553D3D",
"!.	c #654949",
"~.	c #694C4C",
"{.	c #543D3D",
"].	c #674B4B",
"^.	c #433030",
"/.	c #5D4343",
"(.	c #513B3B",
"_.	c #696046",
":.	c #71684B",
"<.	c #AEA473",
"[.	c #DBD191",
"}.	c #B4AB77",
"|.	c #5E4B42",
"1.	c #4C3737",
"2.	c #614646",
"3.	c #614747",
"4.	c #332323",
"5.	c #594040",
"6.	c #201515",
"7.	c #A9A36F",
"8.	c #A8A16E",
"9.	c #C6BE83",
"0.	c #F5ECA3",
"a.	c #CBC386",
"b.	c #6D6448",
"c.	c #634A48",
"d.	c #362626",
"e.	c #A19B69",
"f.	c #595538",
"g.	c #9A9464",
"h.	c #847E56",
"i.	c #9A9465",
"j.	c #656141",
"k.	c #A59F6C",
"l.	c #C7BF83",
"m.	c #E3D996",
"n.	c #D2CA8B",
"o.	c #E3DA96",
"p.	c #E2D996",
"q.	c #90895E",
"r.	c #43302F",
"s.	c #644949",
"t.	c #5B4242",
"u.	c #2F2020",
"v.	c #2A1C1C",
"w.	c #2C1E1E",
"x.	c #6F6A47",
"y.	c #D1C88A",
"z.	c #E6DC98",
"A.	c #F1E8A0",
"B.	c #E5DC97",
"C.	c #E6DD98",
"D.	c #EEE59E",
"E.	c #F1E79F",
"F.	c #E9E09B",
"G.	c #F2E8A1",
"H.	c #BDB37E",
"I.	c #584C3B",
"J.	c #221616",
"K.	c #402E2E",
"L.	c #503939",
"M.	c #2A1D1D",
"N.	c #473333",
"O.	c #3B2929",
"P.	c #CEC688",
"Q.	c #EFE69F",
"R.	c #BAB27B",
"S.	c #665945",
"T.	c #584140",
"U.	c #4F3939",
"V.	c #533C3B",
"W.	c #2A1C17",
"X.	c #3B2823",
"Y.	c #4E3737",
"Z.	c #2B1E1E",
"`.	c #523B3B",
" +	c #4C3636",
".+	c #2E1F1F",
"++	c #DBD291",
"@+	c #CDC488",
"#+	c #817656",
"$+	c #98693D",
"%+	c #875C2F",
"&+	c #6C4727",
"*+	c #381D0D",
"=+	c #422B27",
"-+	c #382828",
";+	c #543C3C",
">+	c #2B1D1D",
",+	c #C5BD82",
"'+	c #F1E7A0",
")+	c #CFC689",
"!+	c #766D4F",
"~+	c #5F4645",
"{+	c #604545",
"]+	c #382727",
"^+	c #8E6345",
"/+	c #BC8245",
"(+	c #BD8145",
"_+	c #643916",
":+	c #6C3C18",
"<+	c #211616",
"[+	c #594141",
"}+	c #9F9867",
"|+	c #F0E6A0",
"1+	c #D5CC8E",
"2+	c #DFD594",
"3+	c #CAC186",
"4+	c #847A59",
"5+	c #5E4545",
"6+	c #654946",
"7+	c #B57D43",
"8+	c #E9A258",
"9+	c #905E2F",
"0+	c #975624",
"a+	c #764320",
"b+	c #5A3F3C",
"c+	c #503A3A",
"d+	c #0C0707",
"e+	c #7F7A52",
"f+	c #E1D895",
"g+	c #F3EAA1",
"h+	c #BEB67D",
"i+	c #3E3A26",
"j+	c #857850",
"k+	c #CBC285",
"l+	c #F6ECA3",
"m+	c #C2B880",
"n+	c #837858",
"o+	c #614B45",
"p+	c #5E4343",
"q+	c #9F6E42",
"r+	c #E29D55",
"s+	c #CA8A4A",
"t+	c #905324",
"u+	c #B2652D",
"v+	c #663D28",
"w+	c #D2C98A",
"x+	c #867A52",
"y+	c #3B1F09",
"z+	c #9D6E3A",
"A+	c #C38F52",
"B+	c #BBA069",
"C+	c #C0B67E",
"D+	c #AEA674",
"E+	c #685D45",
"F+	c #634747",
"G+	c #4A3535",
"H+	c #583F3F",
"I+	c #6D4A2D",
"J+	c #DF9B54",
"K+	c #F4A95C",
"L+	c #6C421E",
"M+	c #BF6D30",
"N+	c #9B5825",
"O+	c #694132",
"P+	c #B8B079",
"Q+	c #E9DF9A",
"R+	c #CCC184",
"S+	c #976639",
"T+	c #A45E27",
"U+	c #8F6132",
"V+	c #F3AA5D",
"W+	c #DE9A54",
"X+	c #836139",
"Y+	c #514830",
"Z+	c #4A3C32",
"`+	c #483433",
" @	c #684B4B",
".@	c #422B1E",
"+@	c #D49350",
"@@	c #F5AA5D",
"#@	c #B27940",
"$@	c #A25D28",
"%@	c #B96A2E",
"&@	c #925429",
"*@	c #493332",
"=@	c #6A4E4E",
"-@	c #241818",
";@	c #A7A06D",
">@	c #BCB47C",
",@	c #D9D190",
"'@	c #C0B57C",
")@	c #A55E28",
"!@	c #BF6E2F",
"~@	c #613614",
"{@	c #E4A057",
"]@	c #F7AC5E",
"^@	c #DC9953",
"/@	c #A87440",
"(@	c #583C2C",
"_@	c #342525",
":@	c #5D4032",
"<@	c #B57C42",
"[@	c #D6924F",
"}@	c #965524",
"|@	c #C47131",
"1@	c #BC6C2F",
"2@	c #4F2D19",
"3@	c #363320",
"4@	c #3E3B27",
"5@	c #978F63",
"6@	c #B3AB76",
"7@	c #D2C98B",
"8@	c #EFE59E",
"9@	c #F6ECA4",
"0@	c #F8EDA5",
"a@	c #EEE49E",
"b@	c #9A8E60",
"c@	c #AD6932",
"d@	c #C16F30",
"e@	c #945422",
"f@	c #B07940",
"g@	c #F9AE5F",
"h@	c #F7AB5E",
"i@	c #E8A158",
"j@	c #9C6B39",
"k@	c #251818",
"l@	c #271A1A",
"m@	c #342424",
"n@	c #5A3F36",
"o@	c #F6AB5D",
"p@	c #D4924F",
"q@	c #AC6932",
"r@	c #BE6D2F",
"s@	c #C57131",
"t@	c #935324",
"u@	c #4B3331",
"v@	c #5A4040",
"w@	c #1D1212",
"x@	c #57403E",
"y@	c #675548",
"z@	c #5B503D",
"A@	c #7F7653",
"B@	c #837B56",
"C@	c #A89F6F",
"D@	c #B0A874",
"E@	c #BDB47D",
"F@	c #C6BC83",
"G@	c #C4BB82",
"H@	c #CBC186",
"I@	c #B5AD78",
"J@	c #B1A875",
"K@	c #918760",
"L@	c #694629",
"M@	c #B0642B",
"N@	c #C47031",
"O@	c #B7692D",
"P@	c #553315",
"Q@	c #F8AC5E",
"R@	c #DB9752",
"S@	c #A16F3A",
"T@	c #6B4A33",
"U@	c #443030",
"V@	c #4D3737",
"W@	c #4F3838",
"X@	c #624437",
"Y@	c #C98B4B",
"Z@	c #DF9A54",
"`@	c #B6763B",
" #	c #C06E30",
".#	c #C67131",
"+#	c #BD6C2F",
"@#	c #331E16",
"##	c #322222",
"$#	c #201616",
"%#	c #463333",
"&#	c #624848",
"*#	c #604745",
"=#	c #5F4544",
"-#	c #69544A",
";#	c #604A44",
">#	c #604D43",
",#	c #746150",
"'#	c #553F3D",
")#	c #665447",
"!#	c #605043",
"~#	c #1B1210",
"{#	c #5E4643",
"]#	c #492914",
"^#	c #B96A2D",
"/#	c #82491D",
"(#	c #C88B4A",
"_#	c #E8A157",
":#	c #C08549",
"<#	c #463027",
"[#	c #533C3C",
"}#	c #674A4A",
"|#	c #6A4938",
"1#	c #C18548",
"2#	c #A7713B",
"3#	c #BF6F31",
"4#	c #C77232",
"5#	c #7E471E",
"6#	c #342220",
"7#	c #322323",
"8#	c #5F4444",
"9#	c #513A3A",
"0#	c #191010",
"a#	c #5C4242",
"b#	c #352424",
"c#	c #6C412C",
"d#	c #AE632A",
"e#	c #C37030",
"f#	c #A96129",
"g#	c #85582C",
"h#	c #FAAF60",
"i#	c #F0A75B",
"j#	c #A8733D",
"k#	c #6F4C30",
"l#	c #392721",
"m#	c #1A1111",
"n#	c #604127",
"o#	c #DC9853",
"p#	c #C08144",
"q#	c #AB632B",
"r#	c #C67231",
"s#	c #AD632A",
"t#	c #311D17",
"u#	c #2A1606",
"v#	c #44230A",
"w#	c #020101",
"x#	c #180E0E",
"y#	c #5E3826",
"z#	c #BD6C2E",
"A#	c #C06E2F",
"B#	c #6C3C17",
"C#	c #F9AD5F",
"D#	c #C38849",
"E#	c #714E30",
"F#	c #644848",
"G#	c #8E6133",
"H#	c #E6A057",
"I#	c #F1A75B",
"J#	c #BB7F43",
"K#	c #A05B26",
"L#	c #5E3419",
"M#	c #5D4342",
"N#	c #010000",
"O#	c #150B03",
"P#	c #4D3015",
"Q#	c #76431B",
"R#	c #463131",
"S#	c #4D3838",
"T#	c #332424",
"U#	c #483434",
"V#	c #5D4444",
"W#	c #6B3C1A",
"X#	c #B8692D",
"Y#	c #C27030",
"Z#	c #A5703B",
"`#	c #6E4C39",
" $	c #573D35",
".$	c #AA743E",
"+$	c #F7AB5D",
"@$	c #A4703B",
"#$	c #B2682E",
"$$	c #945426",
"%$	c #4C3534",
"&$	c #261A1A",
"*$	c #432D1D",
"=$	c #976836",
"-$	c #986533",
";$	c #8D5122",
">$	c #7E451C",
",$	c #5B4141",
"'$	c #734019",
")$	c #BC6B2E",
"!$	c #4E2B0E",
"~$	c #EEA75B",
"{$	c #F8AD5E",
"]$	c #A47140",
"^$	c #4F3834",
"/$	c #6F4C31",
"($	c #BE8043",
"_$	c #A75F28",
":$	c #B7692E",
"<$	c #36211B",
"[$	c #533B3B",
"}$	c #825A36",
"|$	c #C68949",
"1$	c #8B582A",
"2$	c #B5672C",
"3$	c #5A3011",
"4$	c #6B4F4F",
"5$	c #664949",
"6$	c #261918",
"7$	c #4A321F",
"8$	c #473232",
"9$	c #613513",
"0$	c #C47030",
"a$	c #894E1F",
"b$	c #BE8346",
"c$	c #EEA55A",
"d$	c #855B31",
"e$	c #6A4B42",
"f$	c #60433C",
"g$	c #A77340",
"h$	c #F3A85C",
"i$	c #EFA65B",
"j$	c #9E6A37",
"k$	c #B4672C",
"l$	c #764426",
"m$	c #030201",
"n$	c #B07A41",
"o$	c #B87F44",
"p$	c #9F5E2A",
"q$	c #BB6B2E",
"r$	c #864B1E",
"s$	c #453232",
"t$	c #5B4343",
"u$	c #0C0606",
"v$	c #6A4928",
"w$	c #875D31",
"x$	c #6E4D3E",
"y$	c #7F4823",
"z$	c #BA6A2E",
"A$	c #B0642A",
"B$	c #744B24",
"C$	c #D3924F",
"D$	c #92653F",
"E$	c #593F3F",
"F$	c #734F33",
"G$	c #D1914F",
"H$	c #EDA55A",
"I$	c #A06835",
"J$	c #B1652B",
"K$	c #834C29",
"L$	c #52392E",
"M$	c #A8733F",
"N$	c #AD733B",
"O$	c #945322",
"P$	c #372727",
"Q$	c #180F0F",
"R$	c #5C4444",
"S$	c #402C29",
"T$	c #895C31",
"U$	c #C28648",
"V$	c #7E5736",
"W$	c #4B3535",
"X$	c #301F1D",
"Y$	c #723F19",
"Z$	c #C06F2F",
"`$	c #75421A",
" %	c #D4934F",
".%	c #F9AD5E",
"+%	c #F2A85B",
"@%	c #C88A4B",
"#%	c #523937",
"$%	c #573C2E",
"%%	c #E09B55",
"&%	c #A06532",
"*%	c #74411C",
"=%	c #614544",
"-%	c #3E2C2B",
";%	c #8B5F32",
">%	c #E19C55",
",%	c #E09B54",
"'%	c #995E2C",
")%	c #C26F30",
"!%	c #8A4D1F",
"~%	c #0D0706",
"{%	c #794A22",
"]%	c #F6AA5D",
"^%	c #A1703B",
"/%	c #6B4C41",
"(%	c #4A3434",
"_%	c #3E2B2B",
":%	c #432F2F",
"<%	c #6D3E1E",
"[%	c #A15C26",
"}%	c #986735",
"|%	c #FAAF5F",
"1%	c #E59F56",
"2%	c #9E6D43",
"3%	c #593D31",
"4%	c #A87441",
"5%	c #F5AB5D",
"6%	c #CD8F4D",
"7%	c #965726",
"8%	c #7D4827",
"9%	c #ECA459",
"0%	c #A5713C",
"a%	c #A9632C",
"b%	c #9E5925",
"c%	c #754219",
"d%	c #9B5F2D",
"e%	c #DB9651",
"f%	c #D89651",
"g%	c #9A6B3E",
"h%	c #3D2B2A",
"i%	c #422E2E",
"j%	c #7A482B",
"k%	c #5C3312",
"l%	c #E7A158",
"m%	c #E09C54",
"n%	c #C7894A",
"o%	c #5F4020",
"p%	c #D39350",
"q%	c #B47B41",
"r%	c #A45F2A",
"s%	c #5B3217",
"t%	c #684C4A",
"u%	c #6D4B39",
"v%	c #B87F45",
"w%	c #EAA258",
"x%	c #C78949",
"y%	c #7D481E",
"z%	c #945423",
"A%	c #30201F",
"B%	c #723F18",
"C%	c #B56B30",
"D%	c #BB7D41",
"E%	c #493118",
"F%	c #523A38",
"G%	c #5B3626",
"H%	c #BC6C2E",
"I%	c #915221",
"J%	c #D99851",
"K%	c #B98442",
"L%	c #BB903B",
"M%	c #C39839",
"N%	c #826423",
"O%	c #C0943B",
"P%	c #A3802D",
"Q%	c #846723",
"R%	c #B5843E",
"S%	c #CC8E4B",
"T%	c #E19C54",
"U%	c #EDA45A",
"V%	c #A26C38",
"W%	c #AA6129",
"X%	c #5B3216",
"Y%	c #473231",
"Z%	c #583D31",
"`%	c #B37B44",
" &	c #E9A158",
".&	c #AC6F38",
"+&	c #844A1E",
"@&	c #170F0F",
"#&	c #302121",
"$&	c #5D4242",
"%&	c #593116",
"&&	c #AE6E36",
"*&	c #E69E56",
"=&	c #F4A95D",
"-&	c #79543A",
";&	c #493333",
">&	c #5E3828",
",&	c #AC6429",
"'&	c #5C4115",
")&	c #A97D3E",
"!&	c #C9A337",
"~&	c #E3C030",
"{&	c #EECE2C",
"]&	c #E4C42A",
"^&	c #EFCE2C",
"/&	c #E4C52A",
"(&	c #E1C329",
"_&	c #DEC029",
":&	c #AC9321",
"<&	c #AE9225",
"[&	c #88683C",
"}&	c #9E6D39",
"|&	c #B97F44",
"1&	c #C08547",
"2&	c #975B2A",
"3&	c #955525",
"4&	c #482F29",
"5&	c #5D4136",
"6&	c #9C6C42",
"7&	c #DF9B55",
"8&	c #F2A85C",
"9&	c #EAA259",
"0&	c #986635",
"a&	c #A55F29",
"b&	c #874C1E",
"c&	c #6A402B",
"d&	c #B66D32",
"e&	c #C18244",
"f&	c #C78A4B",
"g&	c #38261E",
"h&	c #453030",
"i&	c #604444",
"j&	c #673E2E",
"k&	c #B2692B",
"l&	c #9D6124",
"m&	c #A27721",
"n&	c #C2A423",
"o&	c #ECCB2D",
"p&	c #F3D22D",
"q&	c #F6D42D",
"r&	c #F8D62E",
"s&	c #AF9822",
"t&	c #A0905B",
"u&	c #9D957B",
"v&	c #908977",
"w&	c #8D867B",
"x&	c #938462",
"y&	c #726334",
"z&	c #90641E",
"A&	c #B1662B",
"B&	c #5D341A",
"C&	c #553C3A",
"D&	c #472F20",
"E&	c #916334",
"F&	c #D69450",
"G&	c #B97E43",
"H&	c #8A4E20",
"I&	c #BF6E30",
"J&	c #623513",
"K&	c #5F3B2E",
"L&	c #AF642B",
"M&	c #764219",
"N&	c #DF9A53",
"O&	c #F3A95C",
"P&	c #BD8447",
"Q&	c #7E562C",
"R&	c #452F25",
"S&	c #563D3D",
"T&	c #372626",
"U&	c #955425",
"V&	c #B6682D",
"W&	c #975A23",
"X&	c #B58D24",
"Y&	c #DAB729",
"Z&	c #F2D12D",
"`&	c #F4D32D",
" *	c #F7D52E",
".*	c #D7BA27",
"+*	c #AFA68C",
"@*	c #8F8F8F",
"#*	c #535351",
"$*	c #656565",
"%*	c #8F8E8C",
"&*	c #B0AEA9",
"**	c #A29B88",
"=*	c #9D861A",
"-*	c #735713",
";*	c #A16125",
">*	c #9C5825",
",*	c #4C2D20",
"'*	c #835A37",
")*	c #C6894B",
"!*	c #C58647",
"~*	c #B16D34",
"{*	c #9B5725",
"]*	c #562E10",
"^*	c #AE642F",
"/*	c #A55E27",
"(*	c #B4763C",
"_*	c #DD9953",
":*	c #DB9852",
"<*	c #996938",
"[*	c #62432B",
"}*	c #604443",
"|*	c #654848",
"1*	c #814A25",
"2*	c #B9692D",
"3*	c #A06B23",
"4*	c #C1A323",
"5*	c #F1D12C",
"6*	c #F5D42D",
"7*	c #E3C74F",
"8*	c #AAA79D",
"9*	c #7F7F7F",
"0*	c #070707",
"a*	c #6C6C6C",
"b*	c #B1B1B1",
"c*	c #B3A67F",
"d*	c #B9A020",
"e*	c #B0941F",
"f*	c #9F6F21",
"g*	c #9F5B26",
"h*	c #955C2C",
"i*	c #DC9852",
"j*	c #DE9A53",
"k*	c #A6703B",
"l*	c #915424",
"m*	c #733F19",
"n*	c #3E2C2C",
"o*	c #64443F",
"p*	c #915328",
"q*	c #BF6D2F",
"r*	c #AC652E",
"s*	c #A8753E",
"t*	c #D2914E",
"u*	c #AA753E",
"v*	c #855B38",
"w*	c #573C30",
"x*	c #593F38",
"y*	c #5D423C",
"z*	c #4B3434",
"A*	c #4F2D1B",
"B*	c #B7682D",
"C*	c #8F5320",
"D*	c #AF941E",
"E*	c #EACA2B",
"F*	c #F6D62E",
"G*	c #C7C0AE",
"H*	c #A8A8A8",
"I*	c #6B6B6B",
"J*	c #020202",
"K*	c #242424",
"L*	c #9D9D9D",
"M*	c #D8D4C9",
"N*	c #B59C1F",
"O*	c #C6AA23",
"P*	c #4A270C",
"Q*	c #AE773F",
"R*	c #D39450",
"S*	c #A76F38",
"T*	c #A8642D",
"U*	c #AE642A",
"V*	c #684B4A",
"W*	c #6E3E1A",
"X*	c #9A602E",
"Y*	c #CE8E4C",
"Z*	c #E59E56",
"`*	c #AE7940",
" =	c #AA7540",
".=	c #895D35",
"+=	c #53371A",
"@=	c #8D621E",
"#=	c #B59A20",
"$=	c #E9CA2B",
"%=	c #F7D62E",
"&=	c #E1C229",
"*=	c #DFC029",
"==	c #ECCC2C",
"-=	c #E6C832",
";=	c #C8B46A",
">=	c #AEA99B",
",=	c #A4A3A0",
"'=	c #747474",
")=	c #4C4C4C",
"!=	c #999999",
"~=	c #D5D5D5",
"{=	c #CBB352",
"]=	c #F1D02C",
"^=	c #C7A829",
"/=	c #D69D49",
"(=	c #A46631",
"_=	c #8F5121",
":=	c #251919",
"<=	c #6F4534",
"[=	c #A45D27",
"}=	c #B4682D",
"|=	c #9E6330",
"1=	c #D1904E",
"2=	c #C48A48",
"3=	c #AA9020",
"4=	c #EECD2C",
"5=	c #F5D32D",
"6=	c #DABC27",
"7=	c #AF981E",
"8=	c #948017",
"9=	c #7C6A12",
"0=	c #88792C",
"a=	c #C6B782",
"b=	c #A99E7C",
"c=	c #AFA381",
"d=	c #B0A276",
"e=	c #8F7C1C",
"f=	c #A49872",
"g=	c #989384",
"h=	c #A09D97",
"i=	c #A9A8A5",
"j=	c #CCCCCC",
"k=	c #BEB6A2",
"l=	c #D9BE4E",
"m=	c #C09E2E",
"n=	c #CA8C4B",
"o=	c #9E6C39",
"p=	c #955A29",
"q=	c #5B3111",
"r=	c #6A4944",
"s=	c #83491D",
"t=	c #975E2D",
"u=	c #EBA359",
"v=	c #6D541B",
"w=	c #BCA223",
"x=	c #C3A825",
"y=	c #DEC037",
"z=	c #EDCD2C",
"A=	c #E9C92B",
"B=	c #9D8719",
"C=	c #453B06",
"D=	c #12100D",
"E=	c #515151",
"F=	c #D6D6D6",
"G=	c #ECECEC",
"H=	c #F6F6F6",
"I=	c #E0E0E0",
"J=	c #B7B5AE",
"K=	c #A99E7A",
"L=	c #AF9F67",
"M=	c #BEA851",
"N=	c #C7B475",
"O=	c #C3AE60",
"P=	c #C8AD23",
"Q=	c #EBCA2B",
"R=	c #CBAF24",
"S=	c #B27F30",
"T=	c #1C0B02",
"U=	c #221717",
"V=	c #312222",
"W=	c #6B3D20",
"X=	c #C37031",
"Y=	c #A0622E",
"Z=	c #ECA45A",
"`=	c #C28946",
" -	c #AE9524",
".-	c #AD9B55",
"+-	c #9F9883",
"@-	c #AAA28C",
"#-	c #BFA84F",
"$-	c #F4D22D",
"%-	c #C2AE27",
"&-	c #3F3A26",
"*-	c #010100",
"=-	c #333333",
"--	c #696969",
";-	c #A2A2A2",
">-	c #E9E9E9",
",-	c #FEFEFE",
"'-	c #FFFFFF",
")-	c #E3E3E3",
"!-	c #C8C6C0",
"~-	c #A18F35",
"{-	c #EECE2F",
"]-	c #E2C329",
"^-	c #BD9525",
"/-	c #5E3312",
"(-	c #2D1F1F",
"_-	c #201414",
":-	c #3F2C2C",
"<-	c #563426",
"[-	c #8E5023",
"}-	c #8E5224",
"|-	c #AE743C",
"1-	c #EFA65A",
"2-	c #E19B55",
"3-	c #926939",
"4-	c #84795A",
"5-	c #797878",
"6-	c #5C5C5C",
"7-	c #A4A4A4",
"8-	c #98948A",
"9-	c #E5C749",
"0-	c #E9C932",
"a-	c #C7B36F",
"b-	c #C1BFB9",
"c-	c #ABABAB",
"d-	c #868686",
"e-	c #959595",
"f-	c #C8C8C8",
"g-	c #F2F2F2",
"h-	c #F5F5F5",
"i-	c #B2B0AA",
"j-	c #C5AC47",
"k-	c #BF782E",
"l-	c #6B3B16",
"m-	c #261103",
"n-	c #392828",
"o-	c #624646",
"p-	c #683D2A",
"q-	c #BA6A30",
"r-	c #AB622A",
"s-	c #A0632F",
"t-	c #A8723C",
"u-	c #AD7840",
"v-	c #80786E",
"w-	c #918F8A",
"x-	c #444444",
"y-	c #030202",
"z-	c #8D8D8D",
"A-	c #ABA8A0",
"B-	c #B7A356",
"C-	c #B6A153",
"D-	c #CBC8C0",
"E-	c #F7F7F7",
"F-	c #FDFDFD",
"G-	c #E2E1E0",
"H-	c #918459",
"I-	c #F5D42E",
"J-	c #DEBF28",
"K-	c #C08F29",
"L-	c #C06F30",
"M-	c #7E461C",
"N-	c #1B0C05",
"O-	c #110A0A",
"P-	c #6A463D",
"Q-	c #9C5A2D",
"R-	c #915D2E",
"S-	c #A06C37",
"T-	c #735F1A",
"U-	c #9F9A8A",
"V-	c #868584",
"W-	c #636363",
"X-	c #B8B6AE",
"Y-	c #938346",
"Z-	c #A7A7A7",
"`-	c #B3B3B3",
" ;	c #6E674E",
".;	c #DDC035",
"+;	c #F9D72E",
"@;	c #A6851E",
"#;	c #C16E30",
"$;	c #A65F29",
"%;	c #643C2A",
"&;	c #684A48",
"*;	c #5A3626",
"=;	c #B4682C",
"-;	c #B2652C",
";;	c #86541D",
">;	c #8A7C4A",
",;	c #B1AEAA",
"';	c #030303",
");	c #909090",
"!;	c #ACA590",
"~;	c #958962",
"{;	c #D3D2D1",
"];	c #F9F9F9",
"^;	c #D8D8D8",
"/;	c #C1C1C1",
"(;	c #C1BEB8",
"_;	c #B49F4B",
":;	c #FAD82F",
"<;	c #F6D52E",
"[;	c #A98720",
"};	c #B0662B",
"|;	c #AB6129",
"1;	c #673B21",
"2;	c #563D3C",
"3;	c #0E0707",
"4;	c #764528",
"5;	c #A85F28",
"6;	c #915F1F",
"7;	c #A18B31",
"8;	c #D9D6CD",
"9;	c #040404",
"0;	c #606060",
"a;	c #95938F",
"b;	c #A19362",
"c;	c #AEA68B",
"d;	c #EBEBEB",
"e;	c #DEDEDE",
"f;	c #E2E2E2",
"g;	c #888065",
"h;	c #EDCE34",
"i;	c #B29022",
"j;	c #703F1C",
"k;	c #4D3635",
"l;	c #573E3E",
"m;	c #5F413D",
"n;	c #663815",
"o;	c #AB612A",
"p;	c #A47A21",
"q;	c #B9A245",
"r;	c #C8C1AD",
"s;	c #D3D3D3",
"t;	c #8E8E8E",
"u;	c #A09F9E",
"v;	c #A29A82",
"w;	c #BBA223",
"x;	c #BAB9B5",
"y;	c #EAEAEA",
"z;	c #C5C5C5",
"A;	c #D7D7D7",
"B;	c #FAFAFA",
"C;	c #F8F8F8",
"D;	c #BCB5A2",
"E;	c #D9BC32",
"F;	c #F6D42E",
"G;	c #937C18",
"H;	c #BA6D2D",
"I;	c #7D461D",
"J;	c #4C3027",
"K;	c #120A0A",
"L;	c #995724",
"M;	c #AE652A",
"N;	c #967C19",
"O;	c #EACA33",
"P;	c #A99964",
"Q;	c #DBDAD7",
"R;	c #CECECE",
"S;	c #C4BFB3",
"T;	c #D0B963",
"U;	c #BEA537",
"V;	c #CFCBC3",
"W;	c #FCFCFC",
"X;	c #CBCBCB",
"Y;	c #B7B7B7",
"Z;	c #DADADA",
"`;	c #F0F0F0",
" >	c #B5AB8E",
".>	c #E8C82B",
"+>	c #B69621",
"@>	c #AB6429",
"#>	c #B3662C",
"$>	c #703F1B",
"%>	c #553E3E",
"&>	c #362525",
"*>	c #201311",
"=>	c #51342C",
"->	c #6A3D23",
";>	c #A35D27",
">>	c #C1A124",
",>	c #DEBF2C",
"'>	c #CBB877",
")>	c #BEAC74",
"!>	c #C4A922",
"~>	c #E8C92B",
"{>	c #E1C554",
"]>	c #B5B3AF",
"^>	c #FBFBFB",
"/>	c #EEEEEE",
"(>	c #E1E1E1",
"_>	c #C7C7C7",
":>	c #AFAFAF",
"<>	c #F3F3F3",
"[>	c #B8A460",
"}>	c #F0CF2C",
"|>	c #BB9C22",
"1>	c #92542C",
"2>	c #5D3E38",
"3>	c #392727",
"4>	c #0D0707",
"5>	c #170802",
"6>	c #331F0C",
"7>	c #482F16",
"8>	c #1E1107",
"9>	c #170E0E",
"0>	c #503938",
"a>	c #422921",
"b>	c #4E2B17",
"c>	c #975C2B",
"d>	c #875622",
"e>	c #B59721",
"f>	c #F1D12D",
"g>	c #E5C62A",
"h>	c #A79C79",
"i>	c #B9B8B5",
"j>	c #AAAAAA",
"k>	c #C9C9C9",
"l>	c #C9C6BF",
"m>	c #C1A839",
"n>	c #F6D52D",
"o>	c #907A16",
"p>	c #814C1C",
"q>	c #593011",
"r>	c #4D3533",
"s>	c #040202",
"t>	c #3F2109",
"u>	c #5D3818",
"v>	c #8B5F31",
"w>	c #A26F3A",
"x>	c #9E6C3A",
"y>	c #664724",
"z>	c #6F4C29",
"A>	c #463023",
"B>	c #3C281F",
"C>	c #59403C",
"D>	c #674A46",
"E>	c #5A413E",
"F>	c #67462C",
"G>	c #664529",
"H>	c #704C2D",
"I>	c #A57241",
"J>	c #CC8D4C",
"K>	c #C38747",
"L>	c #978218",
"M>	c #D1B53E",
"N>	c #A6A091",
"O>	c #B6B6B6",
"P>	c #F1F1F1",
"Q>	c #A29E92",
"R>	c #E3C429",
"S>	c #887516",
"T>	c #462E27",
"U>	c #614442",
"V>	c #512B0E",
"W>	c #864C20",
"X>	c #945828",
"Y>	c #9C6836",
"Z>	c #C58849",
"`>	c #DD9A53",
" ,	c #D99752",
".,	c #CE8E4D",
"+,	c #C48849",
"@,	c #A97540",
"#,	c #9C6C3D",
"$,	c #8F6236",
"%,	c #B77F48",
"&,	c #D0904F",
"*,	c #DA9752",
"=,	c #E39D55",
"-,	c #BE9635",
";,	c #DDBF28",
">,	c #F4D332",
",,	c #BDB396",
"',	c #F1F0EF",
"),	c #DCDBD8",
"!,	c #B5A466",
"~,	c #EECE2E",
"{,	c #BFA421",
"],	c #211A05",
"^,	c #47322F",
"/,	c #060303",
"(,	c #312121",
"_,	c #81481D",
":,	c #9F622E",
"<,	c #A86F38",
"[,	c #C38648",
"},	c #F0A65A",
"|,	c #E8A258",
"1,	c #F6AA5E",
"2,	c #F1A85C",
"3,	c #C98A4A",
"4,	c #A27A32",
"5,	c #C5AD23",
"6,	c #D3BD73",
"7,	c #D7D3CB",
"8,	c #D0D0D0",
"9,	c #A0987F",
"0,	c #D5B935",
"a,	c #F0CF2D",
"b,	c #B69130",
"c,	c #BE8446",
"d,	c #A2703F",
"e,	c #6F4E39",
"f,	c #5C4141",
"g,	c #1E1414",
"h,	c #0B0606",
"i,	c #8A4E1F",
"j,	c #B5672D",
"k,	c #8C4F20",
"l,	c #A56934",
"m,	c #926131",
"n,	c #B57A40",
"o,	c #B97F43",
"p,	c #D5934F",
"q,	c #DA9651",
"r,	c #C48748",
"s,	c #B87E42",
"t,	c #B1743B",
"u,	c #734C26",
"v,	c #A96A34",
"w,	c #965827",
"x,	c #B19420",
"y,	c #EBCC3F",
"z,	c #B3A269",
"A,	c #BDBCBC",
"B,	c #F0EFEF",
"C,	c #CAC7BE",
"D,	c #C3B482",
"E,	c #F2D130",
"F,	c #B88B3B",
"G,	c #C3884A",
"H,	c #51361F",
"I,	c #48322A",
"J,	c #362524",
"K,	c #321905",
"L,	c #A96029",
"M,	c #B86A2D",
"N,	c #B4672D",
"O,	c #A5602A",
"P,	c #9F5D2A",
"Q,	c #935929",
"R,	c #B06C33",
"S,	c #965624",
"T,	c #995A29",
"U,	c #AE662E",
"V,	c #AE8224",
"W,	c #D7BB27",
"X,	c #BEA742",
"Y,	c #BEB496",
"Z,	c #C9C7C3",
"`,	c #EFEFEF",
" '	c #D4CFC3",
".'	c #B1A47F",
"+'	c #AE971F",
"@'	c #DBBE28",
"#'	c #F2D22D",
"$'	c #9F891C",
"%'	c #C28748",
"&'	c #B77E43",
"*'	c #9A6A39",
"='	c #68472D",
"-'	c #664632",
";'	c #362318",
">'	c #271912",
",'	c #634221",
"''	c #2A1909",
")'	c #9D5925",
"!'	c #9C5B25",
"~'	c #C0A622",
"{'	c #F2D12E",
"]'	c #E1C22F",
"^'	c #C0A848",
"/'	c #746C53",
"('	c #C3C0B8",
"_'	c #B8B7B5",
":'	c #C6C3B8",
"<'	c #C1B79A",
"['	c #A3914E",
"}'	c #BDA327",
"|'	c #E1C22B",
"1'	c #F9D72F",
"2'	c #F1D02D",
"3'	c #C9AB28",
"4'	c #B0803C",
"5'	c #EDA459",
"6'	c #B67E44",
"7'	c #CE8F4D",
"8'	c #8E6031",
"9'	c #66411E",
"0'	c #3D1F08",
"a'	c #A85F29",
"b'	c #A98022",
"c'	c #CCB024",
"d'	c #E2C32B",
"e'	c #CAAF3B",
"f'	c #DBC051",
"g'	c #DDC028",
"h'	c #D5B827",
"i'	c #AD8434",
"j'	c #E5A056",
"k'	c #F5A95D",
"l'	c #AD773F",
"m'	c #A26A37",
"n'	c #9C602D",
"o'	c #502B0F",
"p'	c #935322",
"q'	c #B0692A",
"r'	c #916E1B",
"s'	c #7C6516",
"t'	c #8F5D2E",
"u'	c #A56F3A",
"v'	c #C78849",
"w'	c #D0904E",
"x'	c #EBA258",
"y'	c #A2703B",
"z'	c #AA6D36",
"A'	c #B86D33",
"B'	c #44240B",
"C'	c #703E18",
"D'	c #C67232",
"E'	c #A66028",
"F'	c #B08A22",
"G'	c #D7B927",
"H'	c #B69223",
"I'	c #AD6729",
"J'	c #AD642C",
"K'	c #A05E2A",
"L'	c #A6632D",
"M'	c #905829",
"N'	c #AD7038",
"O'	c #86592C",
"P'	c #B4773E",
"Q'	c #A36B37",
"R'	c #9B6634",
"S'	c #B06D35",
"T'	c #BD6F31",
"U'	c #BE6C2F",
"V'	c #985624",
"W'	c #583011",
"X'	c #7C451B",
"Y'	c #975623",
"Z'	c #C67132",
"`'	c #C36F31",
" )	c #AB6828",
".)	c #92771A",
"+)	c #E3C42A",
"@)	c #B39B1F",
"#)	c #7A6115",
"$)	c #A15F25",
"%)	c #BB6C2F",
"&)	c #B2662C",
"*)	c #C36F30",
"=)	c #391D07",
"-)	c #110601",
";)	c #5A3111",
">)	c #965423",
",)	c #B08E21",
"')	c #DFC028",
"))	c #B79523",
"!)	c #A66E26",
"~)	c #AC622A",
"{)	c #2A1405",
"])	c #3B1E09",
"^)	c #7F471C",
"/)	c #86561C",
"()	c #7B6812",
"_)	c #B69D1F",
":)	c #D2B525",
"<)	c #F5D32E",
"[)	c #EDCC2B",
"})	c #D9BB27",
"|)	c #C2A722",
"1)	c #9E8720",
"2)	c #946920",
"3)	c #A75F29",
"4)	c #251104",
"5)	c #130701",
"6)	c #1A1010",
"7)	c #4F332E",
"8)	c #412924",
"9)	c #5E3929",
"0)	c #643B27",
"a)	c #563016",
"b)	c #704024",
"c)	c #593119",
"d)	c #714227",
"e)	c #734428",
"f)	c #341D0F",
"g)	c #5C3A2F",
"h)	c #33211F",
"i)	c #5C3E20",
"j)	c #A27B31",
"k)	c #B59729",
"l)	c #D1B228",
"m)	c #EFCF2D",
"n)	c #F3D12D",
"o)	c #F6D72E",
"p)	c #D7BA26",
"q)	c #B99C21",
"r)	c #91791F",
"s)	c #5A4532",
"t)	c #54352C",
"u)	c #673A1D",
"v)	c #894E27",
"w)	c #965523",
"x)	c #B7692C",
"y)	c #9F5A26",
"z)	c #49270C",
"A)	c #533B38",
"B)	c #A16F3D",
"C)	c #D6954F",
"D)	c #AD7D3C",
"E)	c #B78D38",
"F)	c #765E1C",
"G)	c #AA8C27",
"H)	c #A3891E",
"I)	c #C8A825",
"J)	c #B59720",
"K)	c #847114",
"L)	c #99731F",
"M)	c #B07628",
"N)	c #9A5725",
"O)	c #5A3729",
"P)	c #3A2015",
"Q)	c #542E17",
"R)	c #874D24",
"S)	c #985724",
"T)	c #A15C29",
"U)	c #975524",
"V)	c #AA612A",
"W)	c #A35C27",
"X)	c #9C5925",
"Y)	c #A65E27",
"Z)	c #8F5021",
"`)	c #512C0E",
" !	c #3B1E08",
".!	c #2C1404",
"+!	c #3A2727",
"@!	c #62453D",
"#!	c #F3A95D",
"$!	c #E59F57",
"%!	c #A9713B",
"&!	c #9E6127",
"*!	c #AA6229",
"=!	c #A56127",
"-!	c #B96C2D",
";!	c #844A1F",
">!	c #593E3B",
",!	c #5B3D38",
"'!	c #4C3533",
")!	c #583A34",
"!!	c #402A28",
"~!	c #3E2112",
"{!	c #41220B",
"]!	c #1F100A",
"^!	c #371F15",
"/!	c #1B0D08",
"(!	c #3D2A2A",
"_!	c #5C4033",
":!	c #8C5426",
"<!	c #533429",
"[!	c #080404",
"}!	c #0A0505",
"|!	c #4A3533",
"1!	c #845B38",
"2!	c #99602F",
"3!	c #804822",
"4!	c #4D3634",
"5!	c #311F17",
"6!	c #B0662C",
"7!	c #40220C",
"8!	c #0B0505",
"9!	c #130B0B",
"0!	c #7C5533",
"a!	c #B37940",
"b!	c #975724",
"c!	c #B5682C",
"d!	c #74411B",
"e!	c #3B2621",
"f!	c #694A3B",
"g!	c #B98046",
"h!	c #A1622E",
"i!	c #8E5129",
"j!	c #5B3D36",
"k!	c #3B2A2A",
"l!	c #3A2824",
"m!	c #926539",
"n!	c #E7A057",
"o!	c #A06531",
"p!	c #B5692D",
"q!	c #8E5122",
"r!	c #523733",
"s!	c #070303",
"t!	c #312017",
"u!	c #684623",
"v!	c #F0A65B",
"w!	c #CB8B4B",
"x!	c #995F2E",
"y!	c #925323",
"z!	c #4D3027",
"A!	c #3A2828",
"B!	c #1F1414",
"C!	c #5C3E1E",
"D!	c #A3703B",
"E!	c #C48749",
"F!	c #A06D38",
"G!	c #A86933",
"H!	c #945323",
"I!	c #56321F",
"J!	c #3D2C2C",
"K!	c #744E27",
"L!	c #B37B41",
"M!	c #BD8346",
"N!	c #B07941",
"O!	c #A66E38",
"P!	c #B46E34",
"Q!	c #190A02",
"R!	c #160D0D",
"S!	c #0C0501",
"T!	c #946434",
"U!	c #A66A34",
"V!	c #B96E32",
"W!	c #713E18",
"X!	c #43230A",
"Y!	c #40261E",
"Z!	c #2C1D1D",
"`!	c #150D0D",
" ~	c #160A02",
".~	c #573416",
"+~	c #7E481E",
"@~	c #9B5824",
"#~	c #B3662B",
"$~	c #B0652B",
"%~	c #8E5021",
"&~	c #522C0F",
"*~	c #1C1111",
"=~	c #513939",
"-~	c #412D2D",
";~	c #4B3636",
">~	c #050100",
",~	c #301706",
"'~	c #713F18",
")~	c #1C1212",
"!~	c #090505",
"~~	c #010101",
"{~	c #181010",
"                                                                                              . +                                                                                   ",
"                                                                                            @ # $ %                                                                                 ",
"                                                                                          & * = - ;                                                                                 ",
"                                                                                        > , ' ) = ! ~                                                                               ",
"                                                                                      { ] ) ) ) ) ^ / (                   _ _                                                       ",
"                                                                                    : # ' ) ) ) ) ) < [                   } |                                                       ",
"                                                          1 2 3                   4 ^ ) ) ) ) ) ) ) 5 6 7             8 9 0 a _                                                     ",
"                                                        b c d e f             g h i = ) ) ) ) ) ) ) ) j k         l m n } d o p                                                     ",
"                                                      q f r r r r s         t u v ) ) ) ) ) ) ) ) ) w x       _ m y c z A B C D _                                                   ",
"                                                      E F r r r G H     I J K = ) ) ) ) ) ) ) ) ) L M N _ _ 8 O P Q d F R S G T _                                                   ",
"                                                        U r r r F V W X Y Z ) ) ) ) ) ) ) ) ) ) ) ` $  ...+.a @.P d d d #.p f o $.                                                  ",
"                                                        %.f d &.*.=.-.;.>.) ) ) ) ) ) ) ) ) ) ) ) ,.'.).!.~.!.A {.~.d d ].^.%./.(._                                                 ",
"                                                          _.:.<.[.' v ) ) ) ) ) ) ) ) ) ) ) ) ) ^ }.|.G d d d 1.s 2.d d G 3.4.5.#.6.                                                ",
"                                                      7.8.9.- ' v ) ) ) ) ) ) ) ) ) ) ) ) ) ) 0.a.b.c.d d d d f E +.d d d r a s {.d._                                               ",
"                          =.e.f.g.h.X i.j.t { k.l.m.n.o.v v ) ) ) ) ) ) ) ) ) ) ) ) ) ) ) ) ) p.q.r.d d d d d d D R s.d d d t.u.v.w._                                               ",
"                        x.y.z.A.B.C.D.p.M E.F.v = v ) ) ) ) ) ) ) ) ) ) ) ) ) ) ) ) ) ) ) ) G.H.I.J.!.d G T 2 2.H K.B d d !.L.M.N.f O.                                              ",
"                          P.) ) ) ) ) ) ) ) ) ) ) ) ) ) ) ) ) ) ) ) ) ) ) ) ) ) ) ) ) ) ) Q.R.S.T.O U.d !.V.W.X.Y.Z.`.].]. +.+S R /.)._                                             ",
"                          ++5 ) ) ) ) ) ) ) ) ) ) ) ) ) ) ) ) ) ) ) ) ) ) ) ) ) ) ) ) ) ' @+#+P F H .+d d o $+%+&+*+=+a -+O ;+F R 5.o >+                                            ",
"                          ,+w ) ) ) ) ) ) ) ) ) ) ) ) ) ) ) ) ) ) ) ) = ) ) ) ) ) ) ) '+)+!+~+d d {+]++.G !.^+/+(+_+:+<+R t.e d [+).P  +_                                           ",
"                          }+v ) ) ) ) ) ) ) ) ) ) ) ) ) ) ) ) ) ) ) |+1+2+= ) ) ) ) 5 3+4+5+~.G G !.R n G ~.6+7+8+9+0+a+b+G d d s.c+T 2.d+                                          ",
"                          e+f+) ) ) ) ) ) ) ) ) ) ) ) ) ) ) ) ) ) g+h+i+j+k+K l+5 < m+n+o+G G G G G p+>+2.G U q+r+s+t+u+v+#.d d d {.H {+K.                                          ",
"                            w+) ) ) ) ) ) ) ) ) ) ) ) ) ) ) ) ) ) f+x+y+z+A+B+C+j D+E+2.e G G G G G F+a G+~.H+I+J+K+L+M+N+O+{+d d {+`.`..._                                         ",
"                            P+Q+5 = ) ) ) ) ) ) ) ) ) ) ) ) ) ) ) R+S+T+U+V+W+X+Y+Z+`+#.G G G G G G  @H+l  +s .@+@@@#@$@%@&@*@G d =@U.K...-@                                        ",
"                              ;@>@,@< v = ) ) ) ) ) ) ) ) ) ) ) w '@)@!@~@{@]@^@/@(@%.H+G G G G G G ~.5.} _@1.:@<@@@[@}@|@1@2@p+~.r B a ).L._                                       ",
"                                3@4@5@6@7@, 8@D.5 9@0@>.w 5 v a@F.b@c@d@e@f@g@h@i@j@9 3 e ~.~.~.~.P G+k@l@m@ @n@+@o@p@q@r@s@t@u@e e R >+v@#.w@                                      ",
"                            _ >+a U.x@y@z@A@B@C@D@E@F@G@H@E@I@J@K@L@M@N@O@P@o@Q@Q@R@S@T@5.~. @p+U@n a V@W@A B X@Y@h@Z@`@ #.#+#@#F+;+####`.U .._                                     ",
"                      _ _ $#%#&#e c d G U.1 *#=#-#;#>#,#'#)#!#~#{#]#^#s@d@/#(#g@Q@]@_#:#<#v@[#0 @.U./.}#F+s S |#1#Q@@@2#3#s@4#5#6#7#W@8#9#t.B _                                     ",
"                0#-@A %#H m 2 d r d d d a#G+2 d d G d G d G #.b#s c#d#s@e#f#g#h#Q@Q@Q@i#j#k#l#a a#~.~.~.].v@m#n#o#Q@]@p#q#s@r#s#t#L.!.d c+b f -+        u#v#                        ",
"          w#x#0#7#B =@].=@O.U.c r d d d e 1.N.G d G G G G G ].9#<+y#z#s@s@A#B#^@C#Q@Q@]@i@D#E#F#~.~.~.~.~.2.O.G#H#Q@I#J#K#s@s@s@L#M#G G a#`.B [#N#    O#P#Q#                        ",
"          _ R#Y.S#&#r r r [+T#].d G c F#F H U#V#G G G G G G G #.6.W#X#s@s@Y#N+Z#g@Q@Q@Q@Q@]@f@`#{+~.~.~.~.F# $.$@@Q@+$@$#$|@s@d@$$%$G G e 1.G+{+&$  *$=$-$;$>$                      ",
"          _ G+f V@b r r r r &$,$~.e a a #.2.G+R G G G G G G G e a '$+#s@s@|@)$!$~${$]@Q@]@Q@Z@]$^$e ~.~.~.{+/$R@o@Q@I#($_$s@s@N@:$<$}#G G 2 ..[$0 >+}$|$1$2$3$                      ",
"            6.4$U.S#C r r r R O 5$/.6$7$U G L.8$o G G G ~.~.~. @v@9$0$s@s@s@d@a$b$C#Q@Q@Q@Q@+$c$d$e$5$~.~.f$g$h$Q@Q@i$j$k$N@s@s@^#l$T G G o 3 U@5.m$n$o$p$q$r$                      ",
"            _ 2 B s$t$r d d e u$2.U.v$w$x$z /.s ;+G ~.~.~.F f +.s y$z$s@s@s@e#A$B$h#Q@Q@Q@Q@Q@]@C$D$E$ @8#F$G$Q@Q@Q@H$I$J$s@s@s@z$K${+G G G `.%.L$M$W+N$s#+#O$                      ",
"              P$#.Q$R$4$d d d %.R#S$T$U$V$3.].W$..!.~.o `.1 ..@.X$Y$e#s@s@|@s@Z$`$ %.%Q@Q@Q@Q@Q@+%@%#%/.$%7+H$Q@Q@Q@%%&%+#s@s@s@s@*%=%G G G P -%;%>%,%'%)%s@!%                      ",
"              _ 3.E c+ @d d d a#~%]#{%]%^%/%f (%_%0 D O.:%D U@H+T <%q$s@s@s@s@Y#[%}%|%Q@Q@Q@Q@Q@Q@1%2%3%4%5%Q@Q@Q@o@6%7%d@s@s@s@+#8%2 G G c a#>+Y@9%0%a%e#N@b%                      ",
"              _ a 5.4.!.e G ~.+.9 c%d%e%f%g%h%i%>+m#O U.T #.~. @5.j%k$s@s@s@s@s@!@k%l%.%Q@Q@8+8+i#m%n%o%p%Q@Q@Q@Q@@@q%r%N@s@s@s@^#s%{.~.G t%u%v%w%x%y%X#s@)%z%                      ",
"                8 ].9 .. +..4._%A%B%C%D%K+W+E%F% +@.). @~.~. @ @{+G%H%s@s@s@s@s@d@I%q%@@J%K%L%M%N%O%P%Q%R%S%T%U%o@i@V%W%s@s@|@s@2$X%Y%/.T Z%`% &>%.&X#s@s@|@+&                      ",
"                _ @&.+#&K.a R H+$&%&H%&&*&=&7+-&s ;&9#~.~. @}#}#}#>&d#s@s@s@s@s@N@,&'&)&!&~&{&]&^&/&(&_&:&<&[&}&|&1&2&1@s@s@s@ #3&4&d.5&6&7&8&9&0&a&)%s@s@H%b&                      ",
"                  &$P w.c ].].G 2.c&W%d&e&h@c$f&g&h&:%F+ @ @}#}#i&j&K#s@s@s@s@k&l&m&n&o&p&q&r&r&r&r&{&s&t&u&v&w&x&y&z&A&)%s@s@%@B&C&D&E&F&K+9%G&H&A#s@s@s@I&J&                      ",
"                  _ V#G+2 d d G F+K&L&)%M&N&O&O&P&Q&R&S&}#}#}#}#!.T&U&!@|@V&W&X&Y&Z&`& *r&r&r&r&r&r&.*+*@*#*$*%*&***=*-*;*q$d@>*,*'*)*+$Q@c$!*~*I&s@s@s@)%{*]*                      ",
"                  _ O U S d d G G ;&^*s@/*(*_*Q@i#:*<*[*C&}*|*5$}#V@1*2*r@3*4*5*6*r&r&r&r&r&r&r&r&r&7*8*9*_ _ 0*a*b*c*d*e*f*g*h*o$i*i#Q@j*k*l*X#N@s@s@s@^#m*                        ",
"                    _ z n*U d G G o*p*s@q*r*s*]@Q@]@I#t*u*v*w*x*y*z*A*B*C*D*E*r&r&r&r&r&r&r&r&r&r&r&F*G*H*I*J*_ K*L*M*N*^&O*P*Q*w%Q@O&R*S*T*)%s@s@s@s@s@U*]*                        ",
"                    _ V@2 G+d G G V*W*r@s@+#X*Y*8&Q@Q@]%I#Z*Y@`* =.=+=@=#=$=%=r&r&r&r&r&r&&=*=E*==p&-=;=>=,='=)='=!=~={=p&]=^=/=K+K+s+(=W%r@s@s@s@s@s@)%_=                          ",
"                      :=~.#&].G G ~.<=[=s@s@}=|=1=+$Q@Q@Q@Q@@@o@O&l%2=3=4= *r&r&r&r&5=6=7=8=9=0=a=b=c=d=e=f=g=h=i=j=k=l=r&r&E*m=n=o=p=O@s@s@s@s@s@s@N@M@q=                          ",
"                      _ [#0 ;+d ~.~.r=s=s@s@s@k$t=s+u=Q@Q@Q@Q@Q@]@_#v=w=x=y=z=r&r&r&A=B=C=_ D=E=F=G=H=I=J=K=L=M=N=O=P=Q=r&r&r&R=S=#$d@.#s@s@s@s@s@s@ #/#T=                          ",
"                        U=<+V=U.t.`. +W=M@s@s@X=d#Y=Q*Z=Q@Q@Q@Q@8&`= -.-+-@-#-$- *4=%-&-*-=---;->-,-'-,-H=)-!-~-{-4=r&r&r&r&r&]-^-+#|@s@s@s@s@s@s@s@W%/-_                           ",
"                        _ {.T#(-_-T&:-<-[-s@s@s@s@z#}-|-p@1-h@Q@2-3-4-5-6-7-8-9-0-a-b-c-d-e-f-g-'-'-'-'-'-'-h-i-j-`&r&r&r&r&r& *R=k-N@s@|@s@s@s@e#J$l-m-_                           ",
"                        _ n 3 n-!.o-{+ @p-q-s@s@s@s@+#r-s-t-T%1-u-v-w-x-y-z-A-B-C-D-h-E-)-,-,-'-'-'-'-'-'-'-F-G-H-I-r&r&r&r&r&r&J-K-L-s@s@s@s@s@q*M-N-_ _                           ",
"                          O-2 T#F#~.~.~.P-Q-N@s@s@s@s@s@z#;$R-S-T-U-V-_ N#W-X-Y-Z-H='-'-'-'-'-'-'-'-'-'-'-'-E-`- ;.;+;r&r&r&r&r&{&@;#;s@s@s@s@|@$;%;h&_ _                           ",
"                          _ 1 s$U.G ~.~.&;*;=;e#s@s@s@s@s@r@-;;;>;,;I*_ ';);!;~;{;F-'-'-'-'-'-'-'-'-'-'-,-];^;/;(;_;:;r&r&r&r&r&<;[;};s@s@s@)%|;1;2;U 3;_                           ",
"                            } [#4.G ~.~.~.U.4;5;s@s@s@s@s@s@s@6;7;8;z-9;0;a;b;c;d;'-'-'-'-'-'-'-'-'-'-F-e;!=Z-f;E-g;h;r&r&r&r&r&E*i;M@s@s@s@L&j;k;!.l;l@_                           ",
"                            _ V@n*H+G ~.~.F#m;n;o;|@s@s@s@s@!@p;q;r;s;t;u;v;w;x;E-'-'-'-'-'-'-'-'-,-];y;z;A;B;'-C;D;E;r&r&r&r&r&F;G;H;s@r#X#I;J;o-}#2 _ _                           ",
"                            K;$.V@%.G G ~.~. @4.3$L;k$)%|@N@M;N;O;P;Q;R;S;T;U;V;W;'-'-'-'-'-'-,-'-g-X;Y;Z;h-'-'-`; >.>r&r&r&r&r&5=+>@>s@#>$>##J./. @%>l _                           ",
"                              _ [#&>{+G ~.~.~.[#*>=>->H&z$q$;>>>]=,>'>)>!>~>{>]>'-'-^>F-h-/>g-(>_>:>R;<>'-'-'-'-e;[>z=r&r&r&r&r&}>|>W%q$1>2>F+3>V@s.[$4>_                           ",
"                    5>6>O#7>8>w#n i%W$c G G ~. @9>;+0>a>b>c>d>e>6* *f>g>r&r&{&h>i>s;F=:>j>k>Y;`-I='-'-'-'-'-'-];l>m><;r&r&r&r&r&n>o>p>q>r>2. @S&m@U /.s>_                           ",
"                    t>u>v>w>x>y>z>A>B>C>a#D>E>Y.F>G>H>I>1#J>K>L>p&r&r&r&r&r&6*M>N>X;O>~=d;I=P>'-'-'-'-'-'-'-'-`;Q>z=r&r&r&r&r&r&R>S>T>U> @ @ @ @} 9#:%8 _                           ",
"                    V>W>X>Y>Z>`> ,.,+,@,#,$,%,&,U$*,h@Z=I#Q@=,-,;,r&r&r&r&r&r&>,,,','-,-,-'-'-'-'-'-'-'-'-'-'-),!,~,r&r&r&r&r&5={,],^,{+}# @ @8#d./,]+(,_                           ",
"                      _,_$)@:,<,[,^@},w%|,1,h$@@]%Q@Q@H$2,9%3,4,5,r&r&r&r&r&r&q&6,7,B;'-'-'-'-'-'-'-'-'-'-g-8,9,0,F;r&r&r&r&r&a,b,c,d,e,f,,$G+O 3>g,T #&h,                          ",
"                        i,#;#;j,k,l,m,n,o,J>p,C$q,r,n$s,t,u,v,w,x,$=r&r&r&r&r& *y,z,A,B,W;,-'-'-'-'-,-C;G=C,D,E,r&r&r&r&r&r& *.*F,9%u=G,H,I,J,Y%(%]+n->+                            ",
"                        K,L,r@s@|@M,N,L,O,P,Q,R,S,T,U,L,J$X=d@M@V,W,r&r&r&r&r&r&%=R>X,Y,Z,d;E-'-h-G=`, '.'+'@'F;r&r&r&r&r&r&#'$'%'@@Q@O&,%&'*'='-'.+;'>'_   ,'''                    ",
"                          M-)')%s@s@s@s@s@d@e#q*|@e#)%s@s@|@s@d@!'~'f>r&r&r&r&r&r& *{']'^'/'('_':'<'['}'|'1'r&r&r&r&r&r&r&2'3'4'8+Q@Q@Q@+$@@9%5'+,6'=$f@7'7+8'9'_                   ",
"                            0'a'A#N@s@s@s@s@s@s@s@s@s@s@s@s@s@s@o;b'c'F;r&r&r&r&r&r&r&r&]=d'e'f'g'W,{&+;r&r&+;r&r&r&r&r&F;h'i'j'O&]@Q@]@]@Q@Q@Q@Q@I#k'C$l'm'n'o'                    ",
"                              '$p'V&s@s@s@s@s@s@s@s@s@s@s@s@s@s@ #q'r'A=<;r&r&r&r&r&r&r&r& *r&r&r&r&r&r&r&r&r&r&r&r&r&5=J-s't'u'v'r,w'j*l%O&x'o@w%n=y'z'A'z$k,                      ",
"                                B'C'[=^#d@s@s@s@s@s@s@s@|@s@s@s@s@D'E'F'G'r&r&r&r&r&r&r&r&r&r&r&r&r&r&r&r&r&r&r&r&r&r&]&H'I'W%J'K#K'L'M'N'O'P'Q'R'S'T')%U'V'W'                      ",
"                                    q=X'Y'd#Z'`'s@s@s@s@s@s@s@s@s@s@q* ).)+)r&r&r&r&r&r&r&r&r&r&r&r&r&r&r&r&r&r&r&R>@)#)$)A#s@s@s@s@)%N@2$%)M@&)X=*)|@I&;>=)                        ",
"                                        -);)M-[=J$A#q$)%N@s@s@s@s@s@s@e#>),)')]=r&r&r&r&r&r&r&r&r&r&r&r&r&r&`&&=c'))!)#;s@s@s@s@s@s@s@s@s@s@s@s@s@N@H%~)M-                          ",
"                                            {)])J&n;^)k,#>L,B*V&k$A#V&M,d#/)()_):)<) *r&r&r&r&r&r&r&r&r&[)})|)1)2)3)X#N@s@s@s@s@|@s@s@s@s@s@s@s@s@s#+&4)                            ",
"                                            _ _ _ 5)6)7)8)9)0)a)b)c)d)e)f)g)h)i)j)k)l)]-m).> *n)$-o)p)c'q)r)s) +t)u)v)w)x))%s@N@s@N@s@s@e#s@d@y)C'z)                                ",
"                                              _ _ _ w.L.!.F+a#k@W$a#P a#].5$A)B)W+C)D)E)F)G)H)I)J)K)L)M)N)O)o F F#3.V.P)Q)R)S)T)U)V)W)X)Y)Z)`) !.!                                  ",
"                                                  _ /,+!2.].~...0 2.~.G G F @!b$h@h@#!$!Z=%!&!*!=!-!q*O@;!k;F G G G ~.(%T#>!,!'!)!!!~!{!]!^!/!_                                     ",
"                                                    _ 9>(!H+G /.m@/.G G G e _!Y@@@Q@Q@8&n%:!X#s@s@s@N@y)<!U c G G G ~.B x#~.].c e 5$:-[!w.V=/,                                      ",
"                                                      _ }!0##.c E 9#e U U.|!1!1%Q@Q@h@t*2!2$|@s@s@s@r@3!4!~.G G G G G 5.P$,$G G 3. +.+]+2.w.                                        ",
"                                                        _ N#O P c+A n-R#a 5!.$8&Q@Q@H#<,6!s@s@s@s@|@B*7!Y%z G G G G G a#]++.G G G+>+[!]+u.8!                                        ",
"                                                          _ Q$w.9!l@u.W@U.0!:*o@Q@u=a!b!d@s@s@s@s@c!d!e!n*).~.G G G G e J.2 t.P$m@O -@9 p                                           ",
"                                                            _ _ {.V@:%;+f!g!]%Q@]%3,h!r@s@s@s@s@r@i!j!8#N.>+F#~.G G G f k!O.^.%.5.5.w#_ _                                           ",
"                                                              _ <+d.n*l!m!n!Q@@@t*o!p!s@s@s@s@r@q!r!#.G P ]+;&{+c ~.F `..+s!U@3.d S&J._                                             ",
"                                                                  _ t!u!7'O&v!w!x!W%N@s@s@s@z#y!z!{+c G ~.a#A!..f [$n*B!9>G+ @d F  +0#                                              ",
"                                                                  C!D!=,=,E!F!G!%)s@s@s@s@+#H!I!v@o {+c V#2 i%:=9!A S#;+D ..=@U J!&$                                                ",
"                                                                K!L!M!N!O!P! #)%|@s@s@s@M@+&Q!_ 4.m@T&R!:-n <+@.&$O !.G H+4.5+O p                                                   ",
"                                                              S!B$T!U!V! #X=s@e#*))%[%W!X!Y!Z!T&]+`!w.[$a#{+d G W$:-o r f O R!h,                                                    ",
"                                                               ~.~+~)'@~B*#~&)$~%~&~t>4)_ *~&>=~-~##O-a s.c d F /.S ;~r 3.T#_                                                       ",
"                                                                    >~  ,~B%'~            _ /,_ )~/,_ -@..U.D ;~:%P$m#s$..0#                                                        ",
"                                                                                                    _   /,B!`!_ _ !~~~{~_                                                           ",
"                                                                                                                                                                                    ",
"                                                                                                                                                                                    ",
"                                                                                                                                                                                    ",
"                                                                                                                                                                                    ",
"                                                                                                                                                                                    ",
"                                                                                                                                                                                    ",
"                                                                                                                                                                                    "};
