/* XPM */
static char * turbilhao_5_xpm[] = {
"170 170 760 2",
"  	c None",
". 	c #0073FB",
"+ 	c #0074FD",
"@ 	c #0073F9",
"# 	c #0072F8",
"$ 	c #0072F9",
"% 	c #0074FC",
"& 	c #0074FB",
"* 	c #0071F5",
"= 	c #0073FC",
"- 	c #0071F6",
"; 	c #009BF8",
"> 	c #009AF9",
", 	c #009CF8",
"' 	c #009CF9",
") 	c #009CFA",
"! 	c #00A5FB",
"~ 	c #00A7FD",
"{ 	c #00AAFF",
"] 	c #00A9FF",
"^ 	c #00A3FD",
"/ 	c #05B3FF",
"( 	c #07B4FE",
"_ 	c #0BB5FB",
": 	c #00ABFB",
"< 	c #00ACFC",
"[ 	c #00B1FF",
"} 	c #00A5F9",
"| 	c #06B3FE",
"1 	c #00A6FB",
"2 	c #00ACFB",
"3 	c #00ADFB",
"4 	c #04B2FD",
"5 	c #05B3FE",
"6 	c #0AB5FD",
"7 	c #0EB7FD",
"8 	c #10BBFE",
"9 	c #12BFFF",
"0 	c #14C0FF",
"a 	c #19C3FF",
"b 	c #1AC4FF",
"c 	c #1FC5FF",
"d 	c #1EC5FF",
"e 	c #22C2FA",
"f 	c #05B2FC",
"g 	c #03B1FD",
"h 	c #0BB6FD",
"i 	c #0EB8FD",
"j 	c #11BCFE",
"k 	c #14C1FF",
"l 	c #16C2FF",
"m 	c #1AC5FF",
"n 	c #1BC5FF",
"o 	c #1FC6FF",
"p 	c #06B2FB",
"q 	c #03B2FD",
"r 	c #0088FC",
"s 	c #008BFE",
"t 	c #00A5FC",
"u 	c #01B0FE",
"v 	c #06B7FE",
"w 	c #07B7FE",
"x 	c #0EBCFF",
"y 	c #11BDFF",
"z 	c #17C1FF",
"A 	c #1AC3FE",
"B 	c #21C8FF",
"C 	c #23C9FF",
"D 	c #28CCFF",
"E 	c #29CCFF",
"F 	c #2DCEFF",
"G 	c #30CFFE",
"H 	c #32D0FD",
"I 	c #33D0FD",
"J 	c #0DB9FE",
"K 	c #0CB9FE",
"L 	c #0089FD",
"M 	c #008CFF",
"N 	c #008DFE",
"O 	c #01B3FF",
"P 	c #08BAFF",
"Q 	c #09BBFF",
"R 	c #1EC7FF",
"S 	c #22C9FF",
"T 	c #26CBFF",
"U 	c #2DCFFF",
"V 	c #2ECFFF",
"W 	c #32D2FF",
"X 	c #34D3FF",
"Y 	c #34D2FE",
"Z 	c #33CDFC",
"` 	c #33C9FA",
" .	c #10BCFE",
"..	c #0085FB",
"+.	c #0086FC",
"@.	c #008CFE",
"#.	c #008FFE",
"$.	c #05B4FD",
"%.	c #05B3FD",
"&.	c #11BEFF",
"*.	c #1BC4FF",
"=.	c #1EC6FF",
"-.	c #24C9FF",
";.	c #2CCEFF",
">.	c #31D0FF",
",.	c #33D2FF",
"'.	c #37D5FF",
").	c #38D5FF",
"!.	c #3DD8FF",
"~.	c #3FD9FF",
"{.	c #40D9FF",
"].	c #41D8FE",
"^.	c #41D8FD",
"/.	c #15BCFD",
"(.	c #007CF6",
"_.	c #0087FD",
":.	c #0089FF",
"<.	c #008EFE",
"[.	c #0092FE",
"}.	c #0091FD",
"|.	c #0AB4FA",
"1.	c #17C2FF",
"2.	c #18C3FF",
"3.	c #24CAFF",
"4.	c #2BCEFF",
"5.	c #2FD0FF",
"6.	c #3AD7FF",
"7.	c #3FDAFF",
"8.	c #40DAFF",
"9.	c #45DDFF",
"0.	c #47DEFF",
"a.	c #48DFFF",
"b.	c #45D9FE",
"c.	c #1ABDFB",
"d.	c #0081FB",
"e.	c #008AFE",
"f.	c #12B9FB",
"g.	c #11B8FB",
"h.	c #1FC7FF",
"i.	c #31D1FF",
"j.	c #36D4FF",
"k.	c #39D5FF",
"l.	c #3DD6FE",
"m.	c #3FD8FE",
"n.	c #44DBFF",
"o.	c #45DBFF",
"p.	c #4BDFFF",
"q.	c #50E3FF",
"r.	c #51E4FF",
"s.	c #4FE2FF",
"t.	c #4EDFFD",
"u.	c #4DDAFC",
"v.	c #0084FE",
"w.	c #0085FF",
"x.	c #008DFF",
"y.	c #0090FF",
"z.	c #008FFD",
"A.	c #19BFFD",
"B.	c #27CCFF",
"C.	c #30D1FF",
"D.	c #33D3FF",
"E.	c #3ED9FF",
"F.	c #41D9FE",
"G.	c #45D8FD",
"H.	c #47D9FE",
"I.	c #4CDCFF",
"J.	c #4DDDFF",
"K.	c #54E3FE",
"L.	c #5BEAFF",
"M.	c #5CEBFF",
"N.	c #5AE9FF",
"O.	c #57E5FD",
"P.	c #54E1FC",
"Q.	c #007CF9",
"R.	c #007CF8",
"S.	c #0086FF",
"T.	c #0090FE",
"U.	c #008FFC",
"V.	c #1DC3FE",
"W.	c #2ACEFF",
"X.	c #3AD5FE",
"Y.	c #3ED8FE",
"Z.	c #5BE9FE",
"`.	c #5BE8FE",
" +	c #5AE8FE",
".+	c #5EEAFE",
"++	c #5EEBFE",
"@+	c #5FECFF",
"#+	c #5CE8FE",
"$+	c #5AE6FD",
"%+	c #5AE4FC",
"&+	c #0080FD",
"*+	c #008AFF",
"=+	c #008DFC",
"-+	c #008EFA",
";+	c #16C0FE",
">+	c #25CBFF",
",+	c #32D1FF",
"'+	c #37D0FD",
")+	c #39CEFB",
"!+	c #65E8FA",
"~+	c #66E9FA",
"{+	c #6CF2FE",
"]+	c #6DF4FF",
"^+	c #6AF2FF",
"/+	c #68F1FF",
"(+	c #64EBFD",
"_+	c #5CE1FA",
":+	c #5AE1FB",
"<+	c #55E1FD",
"[+	c #54E0FD",
"}+	c #008CFC",
"|+	c #17C1FE",
"1+	c #37CFFC",
"2+	c #6EF4FF",
"3+	c #6CF3FF",
"4+	c #66EDFD",
"5+	c #5FE4FB",
"6+	c #5DE4FC",
"7+	c #57E3FD",
"8+	c #56E2FD",
"9+	c #007AF9",
"0+	c #0084FF",
"a+	c #008BFD",
"b+	c #008CFD",
"c+	c #16BDFC",
"d+	c #20C8FF",
"e+	c #2DCCFD",
"f+	c #69EEFE",
"g+	c #77EFFB",
"h+	c #79F6FE",
"i+	c #7AF9FF",
"j+	c #77F8FF",
"k+	c #72F6FF",
"l+	c #6FF4FF",
"m+	c #66F0FF",
"n+	c #64EEFF",
"o+	c #58E4FD",
"p+	c #76F8FF",
"q+	c #007EFD",
"r+	c #0087FF",
"s+	c #24C2FB",
"t+	c #58E2FB",
"u+	c #59E4FC",
"v+	c #64EEFE",
"w+	c #6AF3FF",
"x+	c #71F6FF",
"y+	c #78F9FF",
"z+	c #7CFAFF",
"A+	c #84FCFF",
"B+	c #86FCFF",
"C+	c #8EFEFF",
"D+	c #8FF8FD",
"E+	c #89F9FE",
"F+	c #8CFDFF",
"G+	c #87FCFF",
"H+	c #81FBFF",
"I+	c #7DFAFF",
"J+	c #75F8FF",
"K+	c #73F7FF",
"L+	c #7EFAFF",
"M+	c #57E2FB",
"N+	c #0081FF",
"O+	c #0085FD",
"P+	c #53E2FE",
"Q+	c #53E3FF",
"R+	c #60ECFF",
"S+	c #63EEFF",
"T+	c #74F7FF",
"U+	c #7BF9FF",
"V+	c #83FCFF",
"W+	c #91FEFF",
"X+	c #92FEFF",
"Y+	c #98FFFF",
"Z+	c #9CFEFF",
"`+	c #9AF9FD",
" @	c #99F8FD",
".@	c #92FAFE",
"+@	c #93FBFE",
"@@	c #90FCFF",
"#@	c #89FDFF",
"$@	c #7FFBFF",
"%@	c #70F5FF",
"&@	c #007BF7",
"*@	c #0085FC",
"=@	c #54E4FF",
"-@	c #61EDFF",
";@	c #65F0FF",
">@	c #6FF5FF",
",@	c #85FCFF",
"'@	c #93FEFF",
")@	c #94FEFF",
"!@	c #9AFFFF",
"~@	c #9EFFFF",
"{@	c #9BFAFD",
"]@	c #94FAFE",
"^@	c #92FCFE",
"/@	c #90FEFF",
"(@	c #7FFAFF",
"_@	c #0082FF",
":@	c #0083F9",
"<@	c #0082F9",
"[@	c #47DCFD",
"}@	c #47DBFD",
"|@	c #57E7FF",
"1@	c #59E8FF",
"2@	c #6BF3FF",
"3@	c #75F7FF",
"4@	c #7CF9FF",
"5@	c #84FBFF",
"6@	c #8DFDFF",
"7@	c #99FFFF",
"8@	c #A0FFFF",
"9@	c #A4FFFF",
"0@	c #A3FCFD",
"a@	c #A3FBFD",
"b@	c #99FAFE",
"c@	c #98FCFE",
"d@	c #96FFFF",
"e@	c #89FCFF",
"f@	c #78F8FF",
"g@	c #007FFD",
"h@	c #007EFC",
"i@	c #007CFC",
"j@	c #00A1F9",
"k@	c #00A7FB",
"l@	c #00AAFC",
"m@	c #48DEFE",
"n@	c #59E9FF",
"o@	c #69F1FF",
"p@	c #9BFFFF",
"q@	c #9CFFFF",
"r@	c #A2FFFF",
"s@	c #A7FFFF",
"t@	c #A6FCFD",
"u@	c #9BFAFE",
"v@	c #9AFCFE",
"w@	c #95FEFF",
"x@	c #007FFF",
"y@	c #0080FF",
"z@	c #0081FE",
"A@	c #00A4FB",
"B@	c #00A9FC",
"C@	c #00ADFD",
"D@	c #38D0FC",
"E@	c #4AE0FF",
"F@	c #5CEAFF",
"G@	c #5EECFF",
"H@	c #70F6FF",
"I@	c #82FBFF",
"J@	c #8AFDFF",
"K@	c #93FFFF",
"L@	c #97FFFF",
"M@	c #9FFFFF",
"N@	c #A5FFFF",
"O@	c #ACFFFF",
"P@	c #ABFFFF",
"Q@	c #A9FBFD",
"R@	c #A9FAFD",
"S@	c #A0FBFE",
"T@	c #A1FCFF",
"U@	c #9EFEFF",
"V@	c #8FFEFF",
"W@	c #7DF7FE",
"X@	c #007FFE",
"Y@	c #007AFC",
"Z@	c #007CFD",
"`@	c #00A6FC",
" #	c #00ABFD",
".#	c #00AEFE",
"+#	c #39D3FD",
"@#	c #4CE1FF",
"##	c #60EDFF",
"$#	c #72F7FF",
"%#	c #A1FFFF",
"&#	c #A8FFFF",
"*#	c #AFFFFF",
"=#	c #ACF9FD",
"-#	c #ABF8FD",
";#	c #A3FCFE",
">#	c #A5FEFF",
",#	c #A1FEFF",
"'#	c #9DFFFF",
")#	c #8FFDFF",
"!#	c #7EF6FE",
"~#	c #0080FE",
"{#	c #00ABFE",
"]#	c #39D5FE",
"^#	c #4DE2FF",
"/#	c #4DE1FF",
"(#	c #8EFDFF",
"_#	c #A0FEFF",
":#	c #A9FEFF",
"<#	c #AFFCFE",
"[#	c #AFFDFE",
"}#	c #AAF6FB",
"|#	c #A9F5FB",
"1#	c #A6FCFE",
"2#	c #A7FEFF",
"3#	c #A3FFFF",
"4#	c #90FDFF",
"5#	c #7EF4FD",
"6#	c #00A8FE",
"7#	c #01ACFF",
"8#	c #01AFFF",
"9#	c #2EC9FC",
"0#	c #4EE2FF",
"a#	c #62EEFF",
"b#	c #81FAFF",
"c#	c #88FCFF",
"d#	c #9AFEFF",
"e#	c #9FFDFE",
"f#	c #A1FDFE",
"g#	c #AAFDFE",
"h#	c #AEF8FD",
"i#	c #A6F2FA",
"j#	c #A7F4FB",
"k#	c #A8FCFE",
"l#	c #A9FFFF",
"m#	c #94FFFF",
"n#	c #7EF0FB",
"o#	c #00A8FF",
"p#	c #28C5FB",
"q#	c #2ECAFC",
"r#	c #61EEFF",
"s#	c #74F8FF",
"t#	c #80FAFF",
"u#	c #A8FBFE",
"v#	c #A7FBFE",
"w#	c #ADF8FD",
"x#	c #AAF7FC",
"y#	c #AAF8FC",
"z#	c #A9FDFE",
"A#	c #92FDFE",
"B#	c #01AEFF",
"C#	c #28C7FD",
"D#	c #2CCAFD",
"E#	c #A0FDFF",
"F#	c #9DF3FC",
"G#	c #ADF8FC",
"H#	c #B0FFFF",
"I#	c #9BFEFF",
"J#	c #91FBFE",
"K#	c #69EDFE",
"L#	c #00ACFF",
"M#	c #27C7FD",
"N#	c #4CE2FF",
"O#	c #5DEBFF",
"P#	c #9FFDFF",
"Q#	c #9EF5FC",
"R#	c #A7F8FD",
"S#	c #ACF9FC",
"T#	c #ADF9FC",
"U#	c #AFFEFE",
"V#	c #AAFFFF",
"W#	c #A6FFFF",
"X#	c #90FAFE",
"Y#	c #00ADFC",
"Z#	c #0080FC",
"`#	c #00A6FF",
" $	c #00AAFE",
".$	c #00ACFD",
"+$	c #24C6FD",
"@$	c #28C9FD",
"#$	c #58E6FE",
"$$	c #5AE7FE",
"%$	c #6AF1FF",
"&$	c #79F7FE",
"*$	c #80F9FE",
"=$	c #88FBFE",
"-$	c #99FDFF",
";$	c #96FBFE",
">$	c #70EDFB",
",$	c #68EEFE",
"'$	c #00B0FE",
")$	c #007EFA",
"!$	c #007DF9",
"~$	c #97FBFE",
"{$	c #007FFA",
"]$	c #89FBFE",
"^$	c #00A4FF",
"/$	c #00A7FE",
"($	c #1FC3FE",
"_$	c #23C5FE",
":$	c #44DDFF",
"<$	c #4EDAFC",
"[$	c #4FDAFB",
"}$	c #63ECFE",
"|$	c #71F5FE",
"1$	c #77F7FE",
"2$	c #7AF2FD",
"3$	c #7EEAFA",
"4$	c #87F2FC",
"5$	c #96FEFF",
"6$	c #9BFBFE",
"7$	c #96F7FD",
"8$	c #93F4FC",
"9$	c #73ECFB",
"0$	c #73F6FF",
"a$	c #60E5FB",
"b$	c #06B5FC",
"c$	c #05B4FC",
"d$	c #0081FA",
"e$	c #00A1FE",
"f$	c #00A3FF",
"g$	c #00A4FD",
"h$	c #1BC0FE",
"i$	c #1EC3FE",
"j$	c #2CCFFF",
"k$	c #46D7FC",
"l$	c #47D7FC",
"m$	c #5AE6FE",
"n$	c #5FE9FE",
"o$	c #73F4FE",
"p$	c #78F3FD",
"q$	c #7AF1FD",
"r$	c #92F8FE",
"s$	c #96F9FF",
"t$	c #95F5FD",
"u$	c #95F4FC",
"v$	c #7CF0FB",
"w$	c #7BF3FC",
"x$	c #79F8FF",
"y$	c #76F7FF",
"z$	c #6BF1FE",
"A$	c #52DAFB",
"B$	c #53DBFB",
"C$	c #11BAFB",
"D$	c #0DB9FC",
"E$	c #04B7FF",
"F$	c #04B5FE",
"G$	c #00A2FF",
"H$	c #1AC0FE",
"I$	c #1EC2FE",
"J$	c #44D6FC",
"K$	c #45D6FC",
"L$	c #59E4FE",
"M$	c #5DE8FE",
"N$	c #68F0FF",
"O$	c #6EF5FF",
"P$	c #72F5FF",
"Q$	c #77F4FE",
"R$	c #77F1FD",
"S$	c #92F7FF",
"T$	c #7BF1FB",
"U$	c #7AF4FD",
"V$	c #79F9FF",
"W$	c #69F0FE",
"X$	c #4FD8FB",
"Y$	c #50D9FB",
"Z$	c #04B6FF",
"`$	c #009DFE",
" %	c #009EFF",
".%	c #00A0FD",
"+%	c #00A2FB",
"@%	c #16BDFD",
"#%	c #19C0FE",
"$%	c #26CAFF",
"%%	c #36D5FF",
"&%	c #41D7FE",
"*%	c #42D8FE",
"=%	c #4FDBFB",
"-%	c #55DDFA",
";%	c #61EAFE",
">%	c #65EFFF",
",%	c #72F4FE",
"'%	c #75F2FD",
")%	c #76F2FD",
"!%	c #7DF2FC",
"~%	c #84F6FE",
"{%	c #82F5FE",
"]%	c #7EF2FD",
"^%	c #7CF1FC",
"/%	c #7CF4FD",
"(%	c #7CF6FD",
"_%	c #7AF6FE",
":%	c #78F6FE",
"<%	c #75F6FE",
"[%	c #6DF3FF",
"}%	c #61ECFF",
"|%	c #4FE0FD",
"1%	c #12BCFC",
"2%	c #0EBCFE",
"3%	c #0BB9FE",
"4%	c #02B1FD",
"5%	c #009CFE",
"6%	c #009DFF",
"7%	c #009FFD",
"8%	c #00A1FB",
"9%	c #13BCFD",
"0%	c #17BFFD",
"a%	c #40D7FE",
"b%	c #47D5FA",
"c%	c #5DE7FD",
"d%	c #67F1FF",
"e%	c #75F5FE",
"f%	c #78F1FC",
"g%	c #7EF6FF",
"h%	c #7CF3FD",
"i%	c #7DF6FE",
"j%	c #7DF8FE",
"k%	c #7AF8FE",
"l%	c #74F6FF",
"m%	c #69F2FF",
"n%	c #5EEBFF",
"o%	c #4FE2FE",
"p%	c #17BCFB",
"q%	c #12BDFD",
"r%	c #0DBDFF",
"s%	c #0AB9FE",
"t%	c #01AEFC",
"u%	c #0099FE",
"v%	c #009CFC",
"w%	c #009EFA",
"x%	c #10B8FC",
"y%	c #14BCFD",
"z%	c #2ED0FF",
"A%	c #2DD0FF",
"B%	c #3BD6FF",
"C%	c #3CD6FF",
"D%	c #41D4FC",
"E%	c #43D3FA",
"F%	c #53DFFC",
"G%	c #5CE6FD",
"H%	c #61EBFD",
"I%	c #65EEFE",
"J%	c #68F0FE",
"K%	c #6EF3FF",
"L%	c #6EF3FE",
"M%	c #77F7FF",
"N%	c #78F7FF",
"O%	c #77F6FE",
"P%	c #76F6FE",
"Q%	c #75F6FF",
"R%	c #6BF2FF",
"S%	c #57E5FE",
"T%	c #4BDCFC",
"U%	c #09B7FD",
"V%	c #0096FD",
"W%	c #0099FB",
"X%	c #0CB4FB",
"Y%	c #19C4FF",
"Z%	c #29CDFF",
"`%	c #37D4FF",
" &	c #3DD4FD",
".&	c #3FD3FC",
"+&	c #59E2FB",
"@&	c #5DE8FD",
"#&	c #61EBFE",
"$&	c #4FDFFE",
"%&	c #0094FC",
"&&	c #0098FB",
"*&	c #009AFB",
"=&	c #15C1FF",
"-&	c #25CAFF",
";&	c #39D3FE",
">&	c #3CD4FE",
",&	c #50DCFB",
"'&	c #5BE5FC",
")&	c #5EE7FD",
"!&	c #65EDFE",
"~&	c #6DF2FF",
"{&	c #6CF2FF",
"]&	c #67EFFE",
"^&	c #5FEAFE",
"/&	c #59E6FE",
"(&	c #58E5FE",
"_&	c #0095FC",
":&	c #0098FD",
"<&	c #0EBDFF",
"[&	c #1DC6FF",
"}&	c #2ACDFF",
"|&	c #35D3FF",
"1&	c #3BD0FC",
"2&	c #5CE5FD",
"3&	c #5FE8FE",
"4&	c #5FEAFF",
"5&	c #5EE9FF",
"6&	c #58E2FC",
"7&	c #54DEFC",
"8&	c #0CBAFF",
"9&	c #36D2FE",
"0&	c #38D1FD",
"a&	c #0092FB",
"b&	c #0093FC",
"c&	c #10BEFF",
"d&	c #1CC5FF",
"e&	c #2FD1FF",
"f&	c #36D3FF",
"g&	c #0091FB",
"h&	c #0FBDFF",
"i&	c #31D2FF",
"j&	c #34D2FF",
"k&	c #37D2FE",
"l&	c #37D1FD",
"m&	c #03B6FF",
"n&	c #0DBCFF",
"o&	c #27CBFF",
"p&	c #32CDFD",
"q&	c #31CBFC",
"r&	c #00A8FB",
"s&	c #01B4FF",
"t&	c #07B8FF",
"u&	c #09BAFF",
"v&	c #0FBEFF",
"w&	c #12C0FF",
"x&	c #23CAFF",
"y&	c #1DC4FE",
"z&	c #07B9FF",
"A&	c #01B1FF",
"B&	c #03B4FF",
"C&	c #08B9FF",
"D&	c #0BBBFF",
"E&	c #11BFFF",
"F&	c #17C3FF",
"G&	c #15C0FE",
"H&	c #13BFFE",
"I&	c #13BBFC",
"J&	c #00B0FF",
"K&	c #02B5FF",
"L&	c #05B7FF",
"M&	c #0ABBFF",
"N&	c #12BEFE",
"O&	c #10BDFE",
"P&	c #0FB8FC",
"Q&	c #00A7FC",
"R&	c #01ADFF",
"S&	c #02B2FF",
"T&	c #03B3FF",
"U&	c #04B5FF",
"V&	c #05B5FF",
"W&	c #07B7FF",
"X&	c #09B9FF",
"Y&	c #08B8FF",
"Z&	c #07B6FE",
"`&	c #07B4FD",
" *	c #06B1FB",
".*	c #00A0FA",
"+*	c #00AFFF",
"@*	c #00B2FF",
"#*	c #02B4FF",
"$*	c #02B2FE",
"%*	c #02B0FD",
"&*	c #02AEFB",
"**	c #00A6FD",
"=*	c #00A8FD",
"-*	c #00AAFD",
";*	c #01ACFE",
">*	c #01ABFE",
",*	c #01A8FD",
"'*	c #01A5FC",
")*	c #009FFC",
"!*	c #00A0FC",
"~*	c #00A3FC",
"{*	c #00A4FC",
"]*	c #00A6FE",
"^*	c #00A2FD",
"/*	c #0098FC",
"(*	c #00A5FD",
"_*	c #00A3FE",
"                                                                                                                                                                                                                                                                                                                                                    ",
"                                                                                                                                                                                                                                                                                                                                                    ",
"                                                                                                                                                                                                                                                                                                                                                    ",
"                                                                                                                                                                                                                                                                                                                                                    ",
"                                                                                                                                                                                                                                                                                                                                                    ",
"                                                                                                                                                                                                                                                                                                                                                    ",
"                                                                                                                                                                                                                                                                                                                                                    ",
"                                                                                                                                                                                                                                                                                                                                                    ",
"                                                                                                                                                                                                                                                                                                                                                    ",
"                                                                                                                                                                                                                                                                                                                                                    ",
"                                                                                                                                                                                                                                                                                                                                                    ",
"                                                                                                                                                                                                                                                                                                                                                    ",
"                                                                                                                                                                                                                                                                                                                                                    ",
"                                                                                                                                                                                                                                                                                                                                                    ",
"                                                                                                                                                                                                                                                                                                                                                    ",
"                                                                                                                                                                                                                                                                                                                                                    ",
"                                                                                                                                                                                                                                                                                                                                                    ",
"                                                                                                                                                                                                                                                                                                                                                    ",
"                                                                                                                                                                                                                                                                                                                                                    ",
"                                                                                                                                                                                  . + + . @ @ #                                                                                                                                                     ",
"                                                                                                                                                                                  . + + . @ @ #                                                                                                                                                     ",
"                                                                                                                                                                                  . + + . @ @ #                                                                                                                                                     ",
"                                                                                                                                                                                        # $ $ . + + + % % %                                                                                                                                         ",
"                                                                                                                                                                                        # $ $ . + + + % % %                                                                                                                                         ",
"                                                                                                                                                                                        # $ $ . + + + % % %                                                                                                                                         ",
"                                                                                                                                                                                                                                                                                                                                                    ",
"                                                                                                                                                                                                                                                                                                                                                    ",
"                                                                                                                                                                                                                                                                                                                                                    ",
"                                                                                                                                                                                                                                                                                                                                                    ",
"                                                                                                                                                                                                                                                                                                                                                    ",
"                                                                                                                                                                                                                                                                                                                                                    ",
"                                                                              & & &                                                                                                                                                                                                                                                                 ",
"                                                                              % % %                                                                                                                                                                                                                                                                 ",
"                                                                              % % %                                                                                                                                                                                                                                                                 ",
"                                                                        . . . @ @ @                                                                                                                                                                                                                                                                 ",
"                                                                        + + + * * *                                                                                                                                                                                                                                                                 ",
"                                                                        + + + * * *                                                                                                                                                                                                                                                                 ",
"                                                                        = = =                                                                                                                                                                                                                                                                       ",
"                                                                  - - - # # #                                                                                                                                                                                                                                                                       ",
"                                                                  - - - # # #                                                                                                                                                                                                                                                                       ",
"                                                                                                                                                                                                                                                                                                                                                    ",
"                                                                                                                                                                                                ; ; ; > > >                                                                                                                                         ",
"                                                                                                                                                                                                ; ; ; > > >                                                                                                                                         ",
"                                                                                                                                                                                                , , ' ) ) )                                                                                                                                         ",
"                                                                                                                                                                                                ! ! ~ { { ] ^ ^ ^                                                                                                                                   ",
"                                                                                                                                                                                                ! ! ~ { { ] ^ ^ ^                                                                                                                                   ",
"                                                                                                                                                                                                ! ! ~ { { ] ^ ^ ^                                                                                                                                   ",
"                                                                                                                                                    / / ( _ _                                         : : < [ [ [                                                                                                                                   ",
"                                                                                                                                                    / / ( _ _                                         : : < [ [ [     }                                                                                                                             ",
"                                                                                                                                                    / / | _ _                                         : : < [ [ [     }                                                                                                                             ",
"                                                                                                                          1 1 1 2 3 3 4 5 5 6 7 7 8 9 9 0 a a b c d c e e e                                 f f f g g g                                                                                                                             ",
"                                                                                                                          1 1 1 2 3 3 4 5 5 h i i j k k l m m n o o o e e e                                 p p p q q q                                                                                                                             ",
"                                                                                                                          1 1 1 2 3 3 4 5 5 h i i j k k l m m n o o o e e e                                 p p p q q q                                                                                                                             ",
"                                                                                                r s s s             t t t u u u v w w x y y z A A d B B C D D E F F F G G G H I I                                 J K J                                                                                                                             ",
"                                                                                                L M M N             ~ ~ ~ O O O P Q Q 9 k k m R R S T T D U U V W W W X X X Y Y Y Z ` `                            . . .                                                                                                                            ",
"                                                                                                L M M N             ~ ~ ~ O O O P Q Q 9 k k m R R S T T D U U V W W W X X X Y Y Y Z ` `                            . . .                                                                                                                            ",
"                                                                                          ..+.+.@.#.#.#.                  $.%.%.&.9 9 *.=.=.-.D D ;.>.>.,.'.'.).!.!.!.~.~.~.{.{.{.].^.^.                          /././.                                                                                                                            ",
"                                                                                    (.(.(._.:.:.<.[.[.}.                  |.|.|.1.2.2.B 3.3.4.5.5.,.).).6.7.7.8.9.9.9.0.0.0.a.a.a.0.0.0.b.                        c.c.c.                                                                                                                            ",
"                                                                                    (.(.(._.:.:.<.[.[.}.                  |.|.|.1.2.2.B 3.3.4.5.5.,.).).6.7.7.8.9.9.9.0.0.0.a.a.a.0.0.0.b.                        c.c.c.                                                                                                                            ",
"                                                                                    d.d.d.e.M M <.}.}.                    f.f.g.d h.h.D 4.4.i.j.j.k.l.l.m.n.n.o.p.p.p.q.q.q.r.r.r.q.s.s.t.u.u.                                                                                                                                                      ",
"                                                                                    v.w.w.x.y.y.z.                        A.A.A.T B.B.C.D.D.6.E.E.F.G.G.H.I.I.J.K.K.K.L.L.L.M.M.M.L.N.N.O.P.P.                                                                                                                                                      ",
"                                                                                    v.w.w.x.y.y.z.                        A.A.A.T B.B.C.D.D.6.E.E.F.G.G.H.I.I.J.K.K.K.L.L.L.M.M.M.L.N.N.O.P.P.                                                                                                                                                      ",
"                                                                              Q.Q.R.S.S.S.N T.T.U.                        V.V.V.E W.W.i.Y Y X.Y.Y.].G.G.H.I.I.J.K.K.K.Z.`. +.+++++@+@+@+#+$+$+%+                                                                                                                                                    ",
"                                                                              &+&+&+:.*+*+=+-+-+                    ;+;+;+>+>+>+,+,.,.'+)+)+                                !+~+~+{+]+]+^+/+/+(+_+_+:+<+<+[+                                                                                                                                        ",
"                                                                              &+&+&+:.*+*+=+-+-+                    ;+;+;+>+>+>+,+,.,.'+)+)+                                !+~+~+{+]+]+^+/+/+(+_+_+:+<+<+[+                                                                                                                                        ",
"                                                                              &+&+&+:.*+*+}+-+-+                    |+|+|+T T T i.,.,.1+)+)+                                !+~+~+{+2+2+3+^+^+4+5+5+6+7+7+8+                                                                                                                                        ",
"                                                                        9+9+9+0+0+0+a+b+b+                    f.f.c+d+d+d+e+e+e+                    f+f+                          g+g+g+h+i+i+j+k+k+l+m+m+n+o+o+o+                                                                                                                                  ",
"                                                                        9+9+9+0+0+0+a+b+b+                    f.f.c+d+d+d+e+e+e+                                                  g+g+g+h+i+i+p+k+k+l+m+m+n+o+o+o+                                                                                                                                  ",
"                                                                        9+9+9+0+0+0+a+b+b+                    f.f.c+d+d+d+e+e+e+                                                  g+g+g+h+i+i+p+k+k+2+m+m+n+o+o+o+                                                                                                                                  ",
"                                                                        q+q+q+r+r+r+                                s+s+s+            t+u+u+v+w+w+x+y+y+z+A+A+B+C+C+C+D+D+D+            E+F+F+G+H+H+I+J+J+K+m+m+m+                                                                                                                                  ",
"                                                                        q+q+q+r+r+r+                                s+s+s+            t+u+u+v+w+w+x+y+y+z+A+A+B+C+C+C+D+D+D+            E+F+F+G+H+H+L+J+J+K+m+m+m+                                                                                                                                  ",
"                                                                        q+q+q+r+r+r+                                s+s+s+            M+u+u+v+w+w+x+y+y+z+A+A+B+C+C+C+D+D+D+            E+F+F+G+H+H+I+J+J+K+m+m+m+                                                                                                                                  ",
"                                                                        N+N+N+O+O+O+                                            P+Q+Q+R+S+S+2+T+T+U+V+V+G+W+W+X+Y+Y+Y+Z+Z+Z+`+ @ @      .@+@+@@@C+C+#@$@$@I+%@%@%@                                                                &@&@                                                              ",
"                                                                        N+N+N+*@*@*@                                            Q+=@=@-@;@;@>@p+p+I+,@,@#@'@'@)@!@!@!@~@~@~@{@`+`+      ]@]@]@^@/@/@F+H+H+(@k+k+k+                                                                &@&@                                                              ",
"                                                                        N+N+N+*@*@*@                                            Q+=@=@-@;@;@>@p+p+I+,@,@#@'@'@)@!@!@!@~@~@~@{@`+`+      ]@]@]@^@/@/@F+H+H+(@k+k+k+                                                                &@&@                                                              ",
"                                                                        _@_@_@:@<@<@                                      [@[@}@|@1@1@m+2@2@3@4@4@5@6@6@/@7@7@!@8@8@8@9@9@9@0@a@a@      b@b@b@c@d@d@X+e@e@B+f@f@f@                                                              q+g@g@h@                                                            ",
"                                                                      i@_@_@_@              j@j@k@l@l@                    m@m@m@n@L.L.o@]+]+f@(@(@G+/@/@'@p@p@q@r@r@r@s@s@s@t@t@t@      u@u@u@v@7@7@w@F+F+e@U+U+U+                                                              x@y@y@q+                                                            ",
"                                                                      i@_@_@_@              j@j@k@l@l@                    m@m@m@n@L.L.o@]+]+f@(@(@G+/@/@'@p@p@q@r@r@r@s@s@s@t@t@t@      u@u@u@v@7@7@w@F+F+e@U+U+U+                                                              x@y@y@q+                                                            ",
"                                                                      i@z@z@z@            A@A@A@B@C@C@              D@D@D@E@E@E@F@G@G@2@H@H@U+I@I@J@K@K@L@~@~@M@N@N@N@O@P@P@Q@R@R@      S@T@T@U@p@p@Y+V@V@6@W@W@W@                                                              X@N+N+g@                                                            ",
"                                                                  Y@Y@Z@z@z@z@            `@`@`@ #.#.#              +#+#+#@#@#@#G@####2+$#$#L+,@,@6@d@d@7@8@8@%#&#&#&#*#*#*#=#-#-#      ;#>#>#,#'#'#!@X+X+)#!#!#!#                                                              ~#N+N+X@                                                            ",
"                                                                  Y@Y@Z@z@z@z@            `@`@`@ #.#.#              +#+#+#@#@#@#G@####2+$#$#L+,@,@6@d@d@7@8@8@%#&#&#&#*#*#*#=#-#-#      ;#>#>#,#'#'#!@X+X+)#!#!#!#                                                              ~#N+N+X@                                                            ",
"                                                                      Z@&+&+&+            ~ ~ ~ {#.#.#              ]#]#]#^#/#/#@+-@-@>@K+K+(@B+B+(#L@L@!@_#_#,#:#:#:#<#<#[#}#|#|#      1#2#2#3#~@~@p@'@'@4#5#5#5#                                                              ~#N+N+X@                                                            ",
"                                                                        h@h@h@            6#] ] 7#8#8#            9#6.6.6.0#0#0###a#a#%@J+J+b#c#c#)#Y+Y+d#e#e#f#g#g#g#h#h#h#      i#j#j#k#l#l#N@M@M@q@m#m#X+n#n#n#                                      B@B@B@                  ~#N+N+x@                                                            ",
"                                                                        h@h@h@            6#] ] 7#8#8#            9#6.6.6.0#0#0###a#a#%@J+J+b#c#c#)#Y+Y+d#e#e#f#g#g#g#h#h#h#      i#j#j#k#l#l#N@M@M@q@m#m#X+n#n#n#                                      B@B@B@                  ~#N+N+x@                                                            ",
"                                                                        h@h@h@            o#] ] 7#8#8#        p#p#q#6.6.6.0#0#^#@+r#r#%@s#s#t#G+G+)#Y+Y+d#e#e#f#u#v#v#w#w#w#      x#y#y#z#&#&#9@M@M@p@'@'@A#                                            l@l@l@                  ~#N+N+X@                                                            ",
"                                                                                          o#{ { 7#B#B#        C#C#D#6.6.6.^#^#^#G@####2+K+K+(@B+B+(#L@L@!@_#_#E#F#F#F#      G#G#G#[#H#H#P@s@s@3#~@~@I#^@^@J#      K#K#K#                                < < <                   &+~#~#h@                                                            ",
"                                                                                          o#{ { 7#B#B#        C#C#D#6.6.6.^#^#^#G@####2+K+K+(@B+B+(#L@L@!@_#_#E#F#F#F#      G#G#G#[#H#H#P@s@s@3#~@~@I#^@^@J#      K#K#K#                                < < <                   &+~#~#h@                                                            ",
"                                                                                          o#{ { L#B#B#        M#M#D#6.6.6.^#^#N#O#@+@+2+K+K+L+,@,@6@d@d@7@_#_#P#Q#Q#Q#R#R#R#S#T#T#U#*#*#V#W#W#r@'#'#d#J#J#X#      K#K#K#                                Y#Y#Y#                  Z#~#~#h@                                                            ",
"                                                                                          `#o#o# $.$.$        +$+$@$'.'.'.E@E@E@#$$$$$%$>@>@&$*$*$=$X+X+w@q@q@'#9@9@9@V#V#V#O@O@O@l#&#&#9@r@r@U@-$-$;$      >$>$>$,$,$,$                                '$'$'$              d.d.)$!$!$                                                              ",
"                                                                                          `#o#o# $.$.$        +$+$@$'.'.'.E@E@E@#$$$$$%$>@>@&$*$*$=$X+X+w@q@q@'#9@9@9@V#V#V#O@O@O@l#&#&#9@r@r@U@-$-$~$      >$>$>$,$,$,$                                '$'$'$              d.d.{$!$!$                                                              ",
"                                                                                          `#o#o# $.$.$        +$+$@$'.'.'.E@E@E@#$$$$$%$>@>@&$*$*$]$X+X+w@q@q@'#9@9@9@V#V#V#O@O@O@l#&#&#N@r@r@U@-$-$~$      >$>$>$,$,$,$                                '$'$'$              d.d.{$!$!$                                                              ",
"                                                                                          ^$`#`#/$B@B@        ($($_$W W W :$:$:$<$[$[$}$/+/+|$1$1$2$3$3$4$w@w@5$q@q@q@%#%#%#r@r@r@%#8@8@6$7$7$8$          9$0$0$0$a$a$a$                          b$b$c$ # # #            d$d$d$                                                                    ",
"                                                                                          ^$`#`#/$B@B@        ($($_$W W W :$:$:$<$[$[$}$/+/+|$1$1$2$3$3$4$w@w@5$q@q@q@%#%#%#r@r@r@%#8@8@6$7$7$8$          9$0$0$0$a$a$a$                          b$b$c$ # # #            d$d$d$                                                                    ",
"                                                                                          ^$`#`#/$B@B@        ($($_$W W W :$:$:$<$[$[$}$/+/+|$1$1$2$3$3$4$w@w@5$q@q@q@%#%#%#r@r@r@%#8@8@6$7$7$8$          9$0$0$0$a$a$a$                          b$b$c$ # # #            d$d$d$                                                                    ",
"                                                                                          e$f$f$g$1 1         h$h$i$j$j$j$E.E.E.k$l$l$m$n$n$o@>@>@o$p$p$q$      r$r$r$s$s$s$t$u$u$              v$v$w$x$x$y$z$z$z$A$B$B$                    C$C$D$E$E$F$                                                                                            ",
"                                                                                          e$G$G$^ ! !         H$H$I$4.4.4.!.!.!.J$K$K$L$M$M$N$O$O$P$Q$Q$R$            S$S$S$                    T$T$U$V$V$j+W$W$W$X$Y$Y$                    C$C$D$E$E$Z$                                                                                            ",
"                                                                                          e$G$G$^ ! !         H$H$I$4.4.4.!.!.!.J$K$K$L$M$M$N$O$O$P$Q$Q$R$            S$S$S$                    T$T$U$V$V$j+W$W$W$X$Y$Y$                    C$C$D$E$E$Z$                                                                                            ",
"                                                                                          `$ % %.%+%+%        @%@%#%T $%T %%j.j.&%*%*%=%-%-%;%>%>%^+%@%@,%'%'%)%!%!%!%~%~%~%{%{%{%]%^%^%/%(%(%_%:%:%<%>@>@[%}%}%}%|%|%|%                  1%2%2%3%4%4%4%                                                                                            ",
"                                                                                          5%6%6%7%8%8%        9%9%0%C C C D.D.D.a%].].b%    c%-@-@d%O$O$%@e%e%e%f%f%f%!#!#!#g%g%g%/%h%h%i%j%j%k%j+j+l%2@2@m%n%n%n%o%o%o%              p%p%q%r%r%s%t%t%t%                                                                                            ",
"                                                                                          5%6%6%7%8%8%        9%9%0%C C C D.D.D.a%].].b%    c%-@-@d%O$O$%@e%e%e%f%f%f%!#!#!#g%g%g%/%h%h%i%j%j%k%j+j+l%2@2@m%n%n%n%o%o%o%              p%p%q%r%r%s%t%t%t%                                                                                            ",
"                                                                                          u%u%u%v%w%w%        x%x%y%=.=.=.z%z%A%B%C%C%D%E%E%F%G%G%H%I%I%J%K%K%L%,%,%,%M%M%M%N%N%N%O%P%P%<%Q%Q%P$2+2+R%S+S+-@S%S%S%T%T%T%                  x%3%3%U%                                                                                                  ",
"                                                                                          V%V%V%W%' '         X%X%x%Y%Y%Y%Z%Z%Z%`%).). &.&.&      +&@&@&#&/+/+m%>@>@>@T+T+T+J+J+J+T+K+K+H@O$O$w+m+m+S+F@F@N.$&$&$&                                                                                                                                  ",
"                                                                                          V%V%V%W%' '         X%X%x%Y%Y%Y%Z%Z%Z%`%).). &.&.&      +&@&@&#&/+/+m%>@>@>@T+T+T+J+J+J+T+K+K+H@O$O$w+m+m+S+F@F@N.$&$&$&                                                                                                                                  ",
"                                                                                          %&%&%&&&*&*&              =&=&=&-&3.3.,+,.,.;&>&>&.&    ,&'&'&)&!&!&!&W$W$W$~&~&~&K%2+2+~&{&{&W$]&]&!&#&#&^&/&/&(&                                                                                                                                        ",
"                                                                                                _&:&:&              <&<&<&[&[&[&}&4.4.|&).).;&1&1&              2&2&2&3&3&3&}%}%}%4&5&5&G%%+%+6&7&7&                                                                                                                                                ",
"                                                                                                _&:&:&              <&<&<&[&[&[&}&4.4.|&).).;&1&1&              2&2&2&3&3&3&}%}%}%4&5&5&G%%+%+6&7&7&                                                                                                                                                ",
"                                                                                                %&V%V%              8&8&8&b b b T D D i.X X 9&0&0&D@                  3&3&3&}%}%}%4&5&5&G%%+%+                                                                                                                                                      ",
"                                                                                                a&b&b&b&            q q q c&c&c&d&[&[&T Z%Z%e&D.D.f&;&;&0&                                                                                                                                                                                          ",
"                                                                                                a&b&b&b&            q q q c&c&c&d&[&[&T Z%Z%e&D.D.f&;&;&0&                                                                                                                                                                                          ",
"                                                                                                g&b&b&              g g g h&h&<&b n n 3.B.B.U i&i&j&k&k&l&                                                                                                                                                                                          ",
"                                                                                                                          m&m&m&n&<&<&l Y%Y%h.C C o&;.;.V W W ,+p&p&p&q&q&q&                                                                                                                                                                        ",
"                                                                                                                          m&m&m&n&<&<&1.Y%Y%h.C C o&;.;.V W W ,+p&p&p&q&q&q&                                                                                                                                                                        ",
"                                                                                                                          m&m&m&n&<&<&1.Y%Y%h.C C o&;.;.V W W ,+p&p&p&q&q&q&                                                                                                                                                                        ",
"                                                                                                                          r&r&r&O s&s&t&u&u&v&w&w&l b b d&d+d+B -&-&-&B.B.B.D D D B.B.B.>+x&x&B =.=.y&                                                                                                                                              ",
"                                                                                                                          r&r&r&O s&s&t&u&u&v&w&w&l b b d&d+d+B -&-&-&B.B.B.D D D B.B.B.>+x&x&B =.=.y&                                                                                                                                              ",
"                                                                                                                          r&r&r&O s&s&z&u&u&v&w&w&l b b d&d+d+B -&-&-&B.B.B.D D D B.B.B.>+x&x&B =.=.y&                                                                                                                                              ",
"                                                                                                                                r&B@B@u A&A&B&E$E$C&D&D&n&E&E&9 =&=&=&F&F&F&2.2.2.1.1.1.G&H&H&I&                                                                                                                                                    ",
"                                                                                                                                1 1 1 .#J&J&O K&K&L&P P M&<&<&h&9 9 9 k k k k k k 0 0 0 N&O&O&P&                                                                                                                                                    ",
"                                                                                                                                1 1 1 .#J&J&O K&K&L&P P M&<&<&h&9 9 9 k k k k k k 0 0 0 N&O&O&P&                                                                                                                                                    ",
"                                                                                                                                      `@Q&Q&{#R&R&8#S&S&T&U&U&V&W&W&W&X&X&X&X&X&X&Y&Y&Y&Z&`&`& *                                                                                                                                                    ",
"                                                                                                                                        .*.*/${ { L#+*+*J&@*@*@*#*#*#*m&m&m&m&m&m&K&K&K&$*%*%*&*                                                                                                                                                    ",
"                                                                                                                                        .*.*/${ { L#+*+*J&@*@*@*#*#*#*m&m&m&m&m&m&K&K&K&$*%*%*&*                                                                                                                                                    ",
"                                                                                                                                              t t **/$/$=*-*-*{#;*;*;*8#8#8#8#8#8#8#8#8#>*,*,*'*                                                                                                                                                    ",
"                                                                                                                                                    )*)*!*~*~*{*]*]*]*{ { { { { { { { { ]*^*^*7%/*/*                                                                                                                                                ",
"                                                                                                                                                    )*)*!*~*~*{*]*]*]*{ { { { { { { { { ]*^*^*7%/*/*                                                                                                                                                ",
"                                                                                                                                                                (*(*(*o#o#o#o#o#o#o#o#o#_*                                                                                                                                                          ",
"                                                                                                                                                                                                                                                                                                                                                    ",
"                                                                                                                                                                                                                                                                                                                                                    ",
"                                                                                                                                                                                                                                                                                                                                                    ",
"                                                                                                                                                                                                                                                                                                                                                    ",
"                                                                                                                                                                                                                                                                                                                                                    ",
"                                                                                                                                                                                                                                                                                                                                                    ",
"                                                                                                                                                                                                                                                                                                                                                    ",
"                                                                                                                                                                                                                                                                                                                                                    ",
"                                                                                                                                                                                                                                                                                                                                                    ",
"                                                                                                                                                                                                                                                                                                                                                    ",
"                                                                                                                                                                                                                                                                                                                                                    ",
"                                                                                                                                                                                                                                                                                                                                                    ",
"                                                                                                                                                                                                                                                                                                                                                    ",
"                                                                                                                                                                                                                                                                                                                                                    ",
"                                                                                                                                                                                                                                                                                                                                                    ",
"                                                                                                                                                                                                                                                                                                                                                    ",
"                                                                                                                                                                                                                                                                                                                                                    ",
"                                                                                                                                                                                                                                                                                                                                                    ",
"                                                                                                                                                                                                                                                                                                                                                    ",
"                                                                                                                                                                                                                                                                                                                                                    ",
"                                                                                                                                                                                                                                                                                                                                                    ",
"                                                                                                                                                                                                                                                                                                                                                    ",
"                                                                                                                                                                                                                                                                                                                                                    ",
"                                                                                                                                                                                                                                                                                                                                                    ",
"                                                                                                                                                                                                                                                                                                                                                    ",
"                                                                                                                                                                                                                                                                                                                                                    ",
"                                                                                                                                                                                                                                                                                                                                                    ",
"                                                                                                                                                                                                                                                                                                                                                    ",
"                                                                                                                                                                                                                                                                                                                                                    ",
"                                                                                                                                                                                                                                                                                                                                                    ",
"                                                                                                                                                                                                                                                                                                                                                    ",
"                                                                                                                                                                                                                                                                                                                                                    ",
"                                                                                                                                                                                                                                                                                                                                                    ",
"                                                                                                                                                                                                                                                                                                                                                    ",
"                                                                                                                                                                                                                                                                                                                                                    ",
"                                                                                                                                                                                                                                                                                                                                                    ",
"                                                                                                                                                                                                                                                                                                                                                    ",
"                                                                                                                                                                                                                                                                                                                                                    ",
"                                                                                                                                                                                                                                                                                                                                                    ",
"                                                                                                                                                                                                                                                                                                                                                    ",
"                                                                                                                                                                                                                                                                                                                                                    ",
"                                                                                                                                                                                                                                                                                                                                                    ",
"                                                                                                                                                                                                                                                                                                                                                    ",
"                                                                                                                                                                                                                                                                                                                                                    "};
