/* XPM */
static char * vidas3_xpm[] = {
"75 25 134 2",
"  	c None",
". 	c #BC2A2E",
"+ 	c #B01D21",
"@ 	c #B72326",
"# 	c #C62C2F",
"$ 	c #E53639",
"% 	c #B63939",
"& 	c #B32A2D",
"* 	c #B8191E",
"= 	c #D13337",
"- 	c #F34649",
"; 	c #E06565",
"> 	c #8F191A",
", 	c #860C0F",
"' 	c #7A0D0E",
") 	c #5D0907",
"! 	c #710B0C",
"~ 	c #8E0F12",
"{ 	c #C42428",
"] 	c #983032",
"^ 	c #812221",
"/ 	c #6B0909",
"( 	c #5E0907",
"_ 	c #600909",
": 	c #760A0B",
"< 	c #AB181C",
"[ 	c #E72D32",
"} 	c #7C0F11",
"| 	c #A20E14",
"1 	c #EA1A23",
"2 	c #F01A24",
"3 	c #9A1014",
"4 	c #5F0908",
"5 	c #5D0908",
"6 	c #6B0606",
"7 	c #B12B2D",
"8 	c #9D3C3E",
"9 	c #5F0C0C",
"0 	c #5D0605",
"a 	c #5E0908",
"b 	c #590706",
"c 	c #A01318",
"d 	c #E74042",
"e 	c #8A0D13",
"f 	c #740B0B",
"g 	c #E01921",
"h 	c #F11A24",
"i 	c #EE1B24",
"j 	c #9B1014",
"k 	c #600908",
"l 	c #600A09",
"m 	c #540301",
"n 	c #580000",
"o 	c #5F0907",
"p 	c #5B0000",
"q 	c #BE2B2E",
"r 	c #A44142",
"s 	c #5C100E",
"t 	c #860E0F",
"u 	c #F41C25",
"v 	c #E21922",
"w 	c #AC1217",
"x 	c #660A0A",
"y 	c #510A07",
"z 	c #880000",
"A 	c #DC373B",
"B 	c #70201E",
"C 	c #610A09",
"D 	c #7A0D0D",
"E 	c #C7161C",
"F 	c #951014",
"G 	c #5D0A08",
"H 	c #5C0908",
"I 	c #5E0A08",
"J 	c #590000",
"K 	c #CE3639",
"L 	c #611716",
"M 	c #5F0706",
"N 	c #610909",
"O 	c #680A0A",
"P 	c #5A0908",
"Q 	c #3F0000",
"R 	c #CA3032",
"S 	c #692B2B",
"T 	c #610D0C",
"U 	c #5F0A09",
"V 	c #5E0B09",
"W 	c #5F0000",
"X 	c #CF393B",
"Y 	c #5F0D0C",
"Z 	c #510705",
"` 	c #960C0F",
" .	c #DD4347",
"..	c #764241",
"+.	c #5F0303",
"@.	c #5F0807",
"#.	c #5B0807",
"$.	c #7A0608",
"%.	c #C93B3E",
"&.	c #682222",
"*.	c #662222",
"=.	c #5E0402",
"-.	c #5F0707",
";.	c #5B0806",
">.	c #7D0F10",
",.	c #C03738",
"'.	c #600E0D",
").	c #5B0908",
"!.	c #5C0201",
"~.	c #8F1B1C",
"{.	c #C73E3E",
"].	c #6E3937",
"^.	c #611412",
"/.	c #5E0201",
"(.	c #540604",
"_.	c #690000",
":.	c #A82326",
"<.	c #D33F41",
"[.	c #754241",
"}.	c #662424",
"|.	c #5E0000",
"1.	c #5E0807",
"2.	c #520302",
"3.	c #831012",
"4.	c #C53839",
"5.	c #703B3A",
"6.	c #5F0202",
"7.	c #5B0503",
"8.	c #620908",
"9.	c #A81C1F",
"0.	c #E05A5C",
"a.	c #6A2021",
"b.	c #8D1D20",
"c.	c #CB3A3B",
"                                                                                                                                                      ",
"                                                                                                                                                      ",
"                                                                                                                                                      ",
"                                                                                                                                                      ",
"                                                                                                                                                      ",
"          . + @ # $           % & * = -                                                                                                               ",
"      ; > , ' ) ! ~ {     ] ^ / ( _ : < [                                                                                                             ",
"      } | 1 2 3 4 5 6 7 8 9 0 4 4 4 a b c d                                                                                                           ",
"    e f g h i j k l a m n o 4 4 4 4 4 5 p q                                                                                                           ",
"  r s t u v w x 4 4 4 4 4 4 4 4 l 4 4 k y z A                                                                                                         ",
"  B C D E F G H l l l l l 4 4 l 4 l l l I J K                                                                                                         ",
"  L M N O P H l 4 4 4 4 4 4 4 4 4 4 4 4 l Q R                                                                                                         ",
"  S T U I l 4 l l l l l l l 4 l l l l 4 V W X                                                                                                         ",
"    Y 4 4 4 4 4 4 4 4 4 4 4 4 4 4 4 4 k Z `  .                                                                                                        ",
"    ..+.@.4 4 4 4 4 4 4 4 4 4 4 4 4 4 #.$.%.                                                                                                          ",
"      &.*.=.-.4 4 4 4 4 4 4 4 4 4 a ;.>.,.                                                                                                            ",
"          *.'.M 4 4 4 4 4 4 4 l ).!.~.{.                                                                                                              ",
"            ].^./.4 4 4 4 4 l (._.:.<.                                                                                                                ",
"              [.}.|.4 4 4 1.2.3.4.                                                                                                                    ",
"                  5.6.@.7.8.9.0.                                                                                                                      ",
"                      a.b.c.                                                                                                                          ",
"                                                                                                                                                      ",
"                                                                                                                                                      ",
"                                                                                                                                                      ",
"                                                                                                                                                      "};
